Division,WeightClassKg,Place,Name,Team,BodyweightKg,Best3SquatKg,Best3BenchKg,Best3DeadliftKg,TotalKg,Equipment,Event,Sex,BirthDate
Boys,51.71,1,Eli Saunders,Burton,49.44,108.86,61.23,124.74,294.84,Single-ply,SBD,M,
Boys,51.71,2,Matthew Garza,La Grange,50.8,102.06,52.16,117.93,272.16,Single-ply,SBD,M,
Boys,55.79,1,Dalton Oppermann,Columbus,54.75,133.81,90.72,140.61,365.14,Single-ply,SBD,M,
Boys,55.79,2,Waylon Schimcek,Weimar,54.25,113.4,58.97,133.81,306.17,Single-ply,SBD,M,
Boys,55.79,3,Dakota Ford,Weimar,55.61,95.25,58.97,122.47,276.69,Single-ply,SBD,M,
Boys,55.79,4,Michael Konecny,Hallettsville,54.57,111.13,52.16,97.52,260.82,Single-ply,SBD,M,
Boys,59.87,1,Dylan Crye,Hallettsville,58.92,147.42,83.91,154.22,385.55,Single-ply,SBD,M,
Boys,59.87,2,Drey Rosas,Weimar,58.88,131.54,70.31,158.76,360.61,Single-ply,SBD,M,
Boys,59.87,3,Sam Peacock,Altair Rice,59.78,115.67,70.31,133.81,319.78,Single-ply,SBD,M,
Boys,67.13,1,Brandon Maldonado,Wallis Brazos,67.13,129.27,102.06,172.37,403.7,Single-ply,SBD,M,
Boys,67.13,2,Rider Reid,La Grange,63.96,142.88,90.72,165.56,399.16,Single-ply,SBD,M,
Boys,67.13,3,Gene Montgomery,Altair Rice,64.41,142.88,70.31,136.08,349.27,Single-ply,SBD,M,
Boys,67.13,4,Austin Stech,Weimar,66.59,113.4,68.04,136.08,317.51,Single-ply,SBD,M,
Boys,67.13,5,Jackson Owens,La Grange,63.5,111.13,65.77,127.01,303.91,Single-ply,SBD,M,
Boys,67.13,6,Hugo Rodriguez,Wallis Brazos,65.32,104.33,65.77,117.93,288.03,Single-ply,SBD,M,
Boys,67.13,7,Angel Garcia #4,Wallis Brazos,61.69,99.79,56.7,115.67,272.16,Single-ply,SBD,M,
Boys,74.84,1,Joey Townsend,Wallis Brazos,72.12,190.51,106.59,192.78,489.88,Single-ply,SBD,M,
Boys,74.84,2,Eric Gutierrez,Altair Rice,70.99,192.78,102.06,188.24,483.08,Single-ply,SBD,M,
Boys,74.84,3,Kody Ressler,Wallis Brazos,73.03,158.76,97.52,190.51,446.79,Single-ply,SBD,M,
Boys,74.84,4,Hunter Kohleffel,Columbus,74.84,183.7,92.99,167.83,444.52,Single-ply,SBD,M,
Boys,74.84,5,Ryder Imhoff,La Grange,74.84,158.76,92.99,142.88,394.63,Single-ply,SBD,M,
Boys,74.84,6,Camron Alamilla,Hallettsville,74.84,156.49,88.45,136.08,381.02,Single-ply,SBD,M,
Boys,74.84,7,Dylan Dennis,Weimar,72.48,124.74,77.11,174.63,376.48,Single-ply,SBD,M,
Boys,74.84,8,Corey Lewis,Columbus,68.99,145.15,79.38,145.15,369.68,Single-ply,SBD,M,
Boys,74.84,9,Tre Stovall,Altair Rice,71.21,145.15,74.84,145.15,365.14,Single-ply,SBD,M,
Boys,74.84,10,Johnangelo Harvey,Wallis Brazos,73.66,113.4,70.31,151.95,335.66,Single-ply,SBD,M,
Boys,74.84,11,Dayne Macha,Wallis Brazos,71.21,99.79,70.31,124.74,294.84,Single-ply,SBD,M,
Boys,74.84,12,Jimmy Spencer,Wallis Brazos,74.39,88.45,52.16,111.13,251.74,Single-ply,SBD,M,
Boys,74.84,DQ,Michael Flores,Altair Rice,70.76,,,,,Single-ply,SBD,M,
Boys,82.1,1,Weston Warschak,Columbus,82.1,208.65,120.2,201.85,530.7,Single-ply,SBD,M,
Boys,82.1,2,DJ Taylor,La Grange,79.38,199.58,102.06,190.51,492.15,Single-ply,SBD,M,
Boys,82.1,3,Luis Reyes,Altair Rice,78.93,158.76,92.99,151.95,403.7,Single-ply,SBD,M,
Boys,82.1,4,Clayton Macha,Wallis Brazos,80.74,142.88,83.91,151.95,378.75,Single-ply,SBD,M,
Boys,82.1,5,Landon Little,La Grange,82.1,131.54,79.38,140.61,351.53,Single-ply,SBD,M,
Boys,82.1,6,Garrett Harris,La Grange,77.11,120.2,63.5,136.08,319.78,Single-ply,SBD,M,
Boys,82.1,7,Damontae Levi,Altair Rice,77.11,104.33,70.31,138.35,312.98,Single-ply,SBD,M,
Boys,82.1,8,Jonoah Fonseca,Wallis Brazos,79.83,106.59,63.5,136.08,306.17,Single-ply,SBD,M,
Boys,82.1,9,Cooper Brown,Columbus,78.61,111.13,70.31,102.06,283.5,Single-ply,SBD,M,
Boys,82.1,DQ,Jj Hurd,Altair Rice,79.47,,,,,Single-ply,SBD,M,
Boys,89.81,1,Landon Rodriguez,Altair Rice,83.91,206.38,108.86,181.44,496.68,Single-ply,SBD,M,
Boys,89.81,2,Luis Ceballos,Altair Rice,86.55,192.78,92.99,167.83,453.59,Single-ply,SBD,M,
Boys,89.81,DQ,Reese Neisner,Columbus,89.36,163.29,,,,Single-ply,SBD,M,
Boys,99.79,1,Jackson Roensch,Columbus,96.89,238.14,185.97,226.8,650.91,Single-ply,SBD,M,
Boys,99.79,2,Vincente Cabrera,Weimar,95.48,217.72,142.88,204.12,564.72,Single-ply,SBD,M,
Boys,99.79,3,Everado Esquivel,Altair Rice,98.2,183.7,136.08,197.31,517.1,Single-ply,SBD,M,
Boys,99.79,4,Landon Sluka,Hallettsville,99.7,190.51,113.4,199.58,503.49,Single-ply,SBD,M,
Boys,99.79,5,Hayden Pearson,Wallis Brazos,99.79,183.7,111.13,181.44,476.27,Single-ply,SBD,M,
Boys,99.79,6,Aziel Gonzales,Altair Rice,96.75,183.7,104.33,158.76,446.79,Single-ply,SBD,M,
Boys,99.79,7,Juan Ferretiz,Weimar,90.95,142.88,77.11,181.44,401.43,Single-ply,SBD,M,
Boys,99.79,8,Jordan Garcia #1,Columbus,96.84,158.76,90.72,142.88,392.36,Single-ply,SBD,M,
Boys,99.79,9,Favian Gutierrez,La Grange,99.79,124.74,65.77,117.93,308.44,Single-ply,SBD,M,
Boys,99.79,10,Sean Sims,Altair Rice,93.03,117.93,79.38,102.06,299.37,Single-ply,SBD,M,
Boys,99.79,DQ,Oscar Ramirez,Columbus,93.08,,,,,Single-ply,SBD,M,
Boys,109.77,1,Hunter Mangum,Weimar,102.97,165.56,102.06,185.97,453.59,Single-ply,SBD,M,
Boys,109.77,2,Kion Hurd,Columbus,102.42,195.04,95.25,151.95,442.25,Single-ply,SBD,M,
Boys,124.74,1,Tay'Shaun Toliver,Columbus,118.52,181.44,86.18,124.74,392.36,Single-ply,SBD,M,
Boys,124.74+,1,Cody Robert,Hallettsville,141.97,210.92,136.08,195.04,542.04,Single-ply,SBD,M,
Boys,124.74+,2,Chase Parr,Wallis Brazos,131.09,199.58,117.93,174.63,492.15,Single-ply,SBD,M,
Boys,124.74+,DQ,Dylan Ramirez,Altair Rice,136.53,240.4,,199.58,,Single-ply,SBD,M,
Boys,,NS,Kaldon Roensch,Columbus,,,,,,Single-ply,SBD,M,
Boys,,NS,Javier Lopez,La Grange,,,,,,Single-ply,SBD,M,
Boys,,NS,Vincent Aguilar,Wallis Brazos,,,,,,Single-ply,SBD,M,
Boys,,NS,Hayden Splawn,La Grange,,,,,,Single-ply,SBD,M,
Boys,,NS,Tre Scott,La Grange,,,,,,Single-ply,SBD,M,
Boys,,NS,Carlos Anaya,La Grange,,,,,,Single-ply,SBD,M,
Boys,,NS,Nathan Frazer,Hallettsville,,,,,,Single-ply,SBD,M,
Boys,,NS,Noah Gregory,Wallis Brazos,,,,,,Single-ply,SBD,M,
Boys,,NS,Morgan Meador,Wallis Brazos,,,,,,Single-ply,SBD,M,
Boys,,NS,Emmanual Mendoza,Wallis Brazos,,,,,,Single-ply,SBD,M,
Boys,,NS,Esai Rodriguez,Wallis Brazos,,,,,,Single-ply,SBD,M,
