Division,WeightClassKg,Place,Name,Team,BodyweightKg,Best3SquatKg,Best3BenchKg,Best3DeadliftKg,TotalKg,Equipment,Event,Sex,BirthDate
Girls,44.23,1,Annabel Rosas,Seagraves,43.82,99.79,43.09,106.59,249.48,Single-ply,SBD,F,
Girls,44.23,2,Miranda Fleming,Seagraves,44,92.99,47.63,97.52,238.14,Single-ply,SBD,F,
Girls,44.23,3,Claudia Ramirez,Plainview,40.46,97.52,34.02,99.79,231.33,Single-ply,SBD,F,
Girls,44.23,4,Valeria Parra,Plains,42.64,61.23,22.68,74.84,158.76,Single-ply,SBD,F,
Girls,44.23,DQ,Elora Thorn,Sudan,44,58.97,,,,Single-ply,SBD,F,
Girls,47.85,1,Grecia Almanza,Dimmitt,47.45,97.52,52.16,99.79,249.48,Single-ply,SBD,F,
Girls,47.85,2,Hannah Reyes,Lockney,46.45,90.72,52.16,88.45,231.33,Single-ply,SBD,F,
Girls,47.85,3,Jasmine Rodriguez,Dimmitt,47.72,83.91,31.75,92.99,208.65,Single-ply,SBD,F,
Girls,47.85,4,Macee Rathbun,Post,46.9,77.11,31.75,92.99,201.85,Single-ply,SBD,F,
Girls,47.85,5,Christy Garcia,Ralls,47.45,83.91,27.22,90.72,201.85,Single-ply,SBD,F,
Girls,47.85,6,Ailina Tienda,Levelland,45.81,77.11,31.75,88.45,197.31,Single-ply,SBD,F,
Girls,47.85,7,Hailey Castellano,Levelland,47.81,72.57,34.02,77.11,183.7,Single-ply,SBD,F,
Girls,47.85,8,Natalia Olivares,Plains,46.27,70.31,27.22,70.31,167.83,Single-ply,SBD,F,
Girls,47.85,9,Madison Alvarado,Plains,46.27,65.77,27.22,70.31,163.29,Single-ply,SBD,F,
Girls,47.85,10,Alexa Rodriguez,Plains,47.36,61.23,24.95,70.31,156.49,Single-ply,SBD,F,
Girls,47.85,11,Kaziah Morin,Meadow,45.9,52.16,20.41,56.7,129.27,Single-ply,SBD,F,
Girls,51.94,1,Kalissa Branch,Seagraves,51.03,138.35,52.16,142.88,333.39,Single-ply,SBD,F,
Girls,51.94,2,Yudith Aranda,Seagraves,51.8,117.93,72.57,115.67,306.17,Single-ply,SBD,F,
Girls,51.94,3,Alejandra Fierro,Plainview,51.8,106.59,43.09,111.13,260.82,Single-ply,SBD,F,
Girls,51.94,4,Danny Espinoza,Dimmitt,49.8,95.25,45.36,99.79,240.4,Single-ply,SBD,F,
Girls,51.94,5,Ariel Loftin,Levelland,51.71,92.99,52.16,90.72,235.87,Single-ply,SBD,F,
Girls,51.94,6,Sofie Doolittle,Ralls,49.71,90.72,38.56,90.72,219.99,Single-ply,SBD,F,
Girls,51.94,7,Aleni Lopez,Levelland,51.62,77.11,43.09,97.52,217.72,Single-ply,SBD,F,
Girls,51.94,8,Laiken Turner,Wolfforth Frenship,48.53,74.84,43.09,79.38,197.31,Single-ply,SBD,F,
Girls,51.94,9,Octavia Silva,Post,51.89,83.91,38.56,74.84,197.31,Single-ply,SBD,F,
Girls,51.94,10,Mercades Trevino,Sudan,50.71,65.77,38.56,81.65,185.97,Single-ply,SBD,F,
Girls,51.94,11,Reyna Bermea,Lamesa,48.63,68.04,27.22,77.11,172.37,Single-ply,SBD,F,
Girls,51.94,DQ,Kk Minjarez,Seagraves,51.17,108.86,56.7,,,Single-ply,SBD,F,
Girls,56.02,1,Karisa Minjarez,Seagraves,55.97,129.27,63.5,131.54,324.32,Single-ply,SBD,F,
Girls,56.02,2,Micaela Hernandez,Sundown,55.25,117.93,49.9,124.74,292.57,Single-ply,SBD,F,
Girls,56.02,3,Sckylar Alvarez,Levelland,53.98,97.52,65.77,102.06,265.35,Single-ply,SBD,F,
Girls,56.02,4,Kristin Tidwell,Post,55.34,106.59,45.36,104.33,256.28,Single-ply,SBD,F,
Girls,56.02,5,Idaly Maldonado,Sundown,53.25,79.38,52.16,104.33,235.87,Single-ply,SBD,F,
Girls,56.02,6,Amber Valderas,Levelland,55.43,72.57,36.29,86.18,195.04,Single-ply,SBD,F,
Girls,56.02,7,Zenaida Villalba,Dimmitt,52.25,72.57,36.29,83.91,192.78,Single-ply,SBD,F,
Girls,56.02,8,Ryann Quintanilla,Sundown,55.34,63.5,29.48,77.11,170.1,Single-ply,SBD,F,
Girls,56.02,DQ,Mariah Loera,Lamesa,53.71,,,,,Single-ply,SBD,F,
Girls,56.02,DQ,Samantha Lara,Ralls,55.43,,,,,Single-ply,SBD,F,
Girls,60.1,1,Kadence Esparza,Seagraves,59.69,129.27,74.84,133.81,337.93,Single-ply,SBD,F,
Girls,60.1,2,Minnel Leal,Dimmitt,59.51,117.93,63.5,142.88,324.32,Single-ply,SBD,F,
Girls,60.1,3,Arianna Garcia,Plainview,58.24,113.4,54.43,120.2,288.03,Single-ply,SBD,F,
Girls,60.1,4,Paulina Porras,Seagraves,56.43,102.06,45.36,115.67,263.08,Single-ply,SBD,F,
Girls,60.1,5,Tatum Ovalle,Ralls,59.78,97.52,45.36,102.06,244.94,Single-ply,SBD,F,
Girls,60.1,6,Mia DeLaRosa,Plainview,56.7,102.06,40.82,95.25,238.14,Single-ply,SBD,F,
Girls,60.1,7,Zoe Bearden,Plains,58.24,95.25,27.22,102.06,224.53,Single-ply,SBD,F,
Girls,60.1,8,Brinlie Webb,Sundown,57.79,83.91,47.63,86.18,217.72,Single-ply,SBD,F,
Girls,60.1,9,Claire Castillo,Ralls,59.42,77.11,38.56,92.99,208.65,Single-ply,SBD,F,
Girls,60.1,10,Jimena Fuentes,Dimmitt,60.06,90.72,31.75,86.18,208.65,Single-ply,SBD,F,
Girls,60.1,11,Kassandra Ramirez,Lockney,59.06,74.84,52.16,72.57,199.58,Single-ply,SBD,F,
Girls,60.1,12,Eileen Martinez,Lamesa,56.61,77.11,34.02,86.18,197.31,Single-ply,SBD,F,
Girls,67.36,1,Raquel Mariscal,Plainview,66.41,145.15,70.31,140.61,356.07,Single-ply,SBD,F,
Girls,67.36,2,Cj Lopez,Sundown,67.31,133.81,68.04,140.61,342.46,Single-ply,SBD,F,
Girls,67.36,3,Andrea Arredondo,Plainview,64.77,133.81,63.5,124.74,322.05,Single-ply,SBD,F,
Girls,67.36,4,Mayra Lozano,Seagraves,64.86,131.54,54.43,120.2,306.17,Single-ply,SBD,F,
Girls,67.36,5,Britton Davis,Levelland,66.32,117.93,68.04,120.2,306.17,Single-ply,SBD,F,
Girls,67.36,6,Ashleigh Broom,Dimmitt,66.68,122.47,65.77,111.13,299.37,Single-ply,SBD,F,
Girls,67.36,7,Madison Olmos,Wolfforth Frenship,66.04,106.59,47.63,138.35,292.57,Single-ply,SBD,F,
Girls,67.36,8,Jo Vasquez,Dimmitt,66.86,117.93,58.97,115.67,292.57,Single-ply,SBD,F,
Girls,67.36,9,Emily Silva,Levelland,63.68,111.13,58.97,115.67,285.76,Single-ply,SBD,F,
Girls,67.36,10,Alexia Salas,Ralls,64.05,102.06,49.9,117.93,269.89,Single-ply,SBD,F,
Girls,67.36,11,Samantha Valdez,Levelland,64.95,102.06,49.9,113.4,265.35,Single-ply,SBD,F,
Girls,67.36,12,Julissa Porras,Seagraves,65.14,104.33,47.63,113.4,265.35,Single-ply,SBD,F,
Girls,67.36,13,Kaitlyn Aguero,Dimmitt,65.05,102.06,47.63,102.06,251.74,Single-ply,SBD,F,
Girls,67.36,14,Arriana Caballero,Dimmitt,66.13,83.91,56.7,111.13,251.74,Single-ply,SBD,F,
Girls,67.36,15,Nina Vasquez,Dimmitt,60.6,99.79,54.43,92.99,247.21,Single-ply,SBD,F,
Girls,67.36,16,Alexandria Escobar,Ralls,64.5,106.59,38.56,102.06,247.21,Single-ply,SBD,F,
Girls,67.36,17,Jolie Bell,Dimmitt,64.59,108.86,45.36,86.18,240.4,Single-ply,SBD,F,
Girls,67.36,18,Kayleigh Castillo,Lamesa,65.14,99.79,38.56,102.06,240.4,Single-ply,SBD,F,
Girls,67.36,19,Javyn Castillo,Hale Center,65.32,90.72,43.09,90.72,224.53,Single-ply,SBD,F,
Girls,67.36,20,Victoria Esquivel,Floydada,63.59,81.65,40.82,90.72,213.19,Single-ply,SBD,F,
Girls,67.36,21,Elyanna Medellin,Floydada,62.41,74.84,36.29,90.72,201.85,Single-ply,SBD,F,
Girls,67.36,22,Kaylee Morin,Meadow,64.86,56.7,29.48,65.77,151.95,Single-ply,SBD,F,
Girls,67.36,23,Madison Smith #4,Ropesville Ropes,67.31,52.16,31.75,65.77,149.69,Single-ply,SBD,F,
Girls,67.36,DQ,Yessica Martinez,Olton,66.13,,,,,Single-ply,SBD,F,
Girls,75.07,1,Jadyn Halencak,Plainview,73.39,158.76,77.11,140.61,376.48,Single-ply,SBD,F,
Girls,75.07,2,Mikaella Loredo,Plainview,71.94,149.69,70.31,131.54,351.53,Single-ply,SBD,F,
Girls,75.07,3,Ariana Perez,Dimmitt,70.85,136.08,54.43,124.74,315.25,Single-ply,SBD,F,
Girls,75.07,4,Makayla Ramirez,Plainview,69.04,127.01,45.36,117.93,290.3,Single-ply,SBD,F,
Girls,75.07,5,Bergundi Hoover,Sundown,74.57,97.52,70.31,108.86,276.69,Single-ply,SBD,F,
Girls,75.07,6,Erika Ontivero,Dimmitt,69.76,102.06,45.36,106.59,254.01,Single-ply,SBD,F,
Girls,75.07,7,Madison Gonzales,Hale Center,73.03,104.33,40.82,104.33,249.48,Single-ply,SBD,F,
Girls,75.07,8,Sahaira Reyes,Sundown,70.58,97.52,45.36,102.06,244.94,Single-ply,SBD,F,
Girls,75.07,9,Denis Delgado,Plains,68.76,102.06,43.09,97.52,242.67,Single-ply,SBD,F,
Girls,75.07,10,Danielle Davila,Sudan,72.57,113.4,40.82,79.38,233.6,Single-ply,SBD,F,
Girls,75.07,11,Ava Ybarra,Lamesa,71.03,90.72,31.75,97.52,219.99,Single-ply,SBD,F,
Girls,75.07,12,Bridget Reyes,Sundown,69.4,68.04,40.82,108.86,217.72,Single-ply,SBD,F,
Girls,75.07,13,Annabell Rivera,Wolfforth Frenship,69.67,81.65,43.09,92.99,217.72,Single-ply,SBD,F,
Girls,75.07,14,Rachel Starr,Wolfforth Frenship,69.85,79.38,40.82,92.99,213.19,Single-ply,SBD,F,
Girls,75.07,15,Noemy Olmos,Dimmitt,73.21,95.25,36.29,81.65,213.19,Single-ply,SBD,F,
Girls,75.07,16,JoRania Hernandez,Sudan,68.67,79.38,45.36,86.18,210.92,Single-ply,SBD,F,
Girls,75.07,17,Kate Franklin,Plains,68.31,79.38,29.48,79.38,188.24,Single-ply,SBD,F,
Girls,82.33,1,Yamilette Martinez,Lockney,82.28,154.22,72.57,149.69,376.48,Single-ply,SBD,F,
Girls,82.33,2,Marium Monreal,Dimmitt,82.1,147.42,63.5,117.93,328.85,Single-ply,SBD,F,
Girls,82.33,3,Rosalina Gomez,Wolfforth Frenship,82.1,120.2,45.36,122.47,288.03,Single-ply,SBD,F,
Girls,82.33,4,Gaby Silva,Dimmitt,82.19,113.4,49.9,108.86,272.16,Single-ply,SBD,F,
Girls,82.33,5,Makenzie Swift,Ropesville Ropes,77.75,111.13,45.36,113.4,269.89,Single-ply,SBD,F,
Girls,82.33,6,Autum Olivas,Sundown,75.21,92.99,47.63,102.06,242.67,Single-ply,SBD,F,
Girls,82.33,7,Emma Roque,Olton,76.66,72.57,40.82,104.33,217.72,Single-ply,SBD,F,
Girls,82.33,8,Victorya Baldwin,Sundown,78.93,61.23,38.56,111.13,210.92,Single-ply,SBD,F,
Girls,82.33,9,Macy Olmos,Wolfforth Frenship,82.1,74.84,38.56,88.45,201.85,Single-ply,SBD,F,
Girls,82.33,10,Jazmyn Alvarado,Wolfforth Frenship,75.11,68.04,34.02,79.38,181.44,Single-ply,SBD,F,
Girls,82.33,11,Virginia Del Casto,Olton,76.93,58.97,27.22,83.91,170.1,Single-ply,SBD,F,
Girls,82.33,DQ,Alexis Jackson,Wolfforth Frenship,82.28,,,,,Single-ply,SBD,F,
Girls,90.04,1,Cyra Mireles,Ropesville Ropes,83.28,163.29,99.79,161.03,424.11,Single-ply,SBD,F,
Girls,90.04,2,Revee Carranza,Sundown,83.55,154.22,65.77,154.22,374.21,Single-ply,SBD,F,
Girls,90.04,3,Yazmin Barron,Dimmitt,88.72,158.76,74.84,131.54,365.14,Single-ply,SBD,F,
Girls,90.04,4,Megan Vera,Plainview,87.45,142.88,65.77,142.88,351.53,Single-ply,SBD,F,
Girls,90.04,5,Savannah Castillo,Sudan,89.45,142.88,63.5,124.74,331.12,Single-ply,SBD,F,
Girls,90.04,6,Kaylea Britt,Floydada,87.18,108.86,43.09,104.33,256.28,Single-ply,SBD,F,
Girls,90.04,7,Giselle Gomez,Olton,88.63,45.36,31.75,56.7,133.81,Single-ply,SBD,F,
Girls,100.02,1,Marilyn Martinez,Dimmitt,96.8,140.61,58.97,131.54,331.12,Single-ply,SBD,F,
Girls,100.02,2,Clarissa Rivera,Dimmitt,95.25,111.13,61.23,129.27,301.64,Single-ply,SBD,F,
Girls,100.02,3,Arianna Salas,Lubbock Cooper,91.72,115.67,68.04,108.86,292.57,Single-ply,SBD,F,
Girls,100.02,4,Samantha Epke,Levelland,92.08,113.4,63.5,115.67,292.57,Single-ply,SBD,F,
Girls,100.02,5,Tamber Duran,Levelland,90.72,104.33,65.77,115.67,285.76,Single-ply,SBD,F,
Girls,100.02,6,Jacquelyn Marchan,Ropesville Ropes,96.98,113.4,43.09,124.74,281.23,Single-ply,SBD,F,
Girls,100.02,7,Lizbet Orozco,Ropesville Ropes,92.17,61.23,29.48,74.84,165.56,Single-ply,SBD,F,
Girls,100.02,DQ,Macie Dickson,Lubbock Cooper,92.17,115.67,,,,Single-ply,SBD,F,
Girls,117.71,1,T'Kia Russell,Plainview,101.79,199.58,106.59,142.88,449.06,Single-ply,SBD,F,
Girls,117.71,2,Maraya Corrales,Dimmitt,105.78,149.69,79.38,124.74,353.8,Single-ply,SBD,F,
Girls,117.71,3,Katie Sehon,Sundown,112.13,133.81,43.09,138.35,315.25,Single-ply,SBD,F,
Girls,117.71,4,Adriana Rodriguez,Hart,102.6,79.38,38.56,120.2,238.14,Single-ply,SBD,F,
Girls,117.71,DQ,Abigail Garcia,Olton,101.88,,,,,Single-ply,SBD,F,
Girls,117.71+,1,Arlene Solis,Dimmitt,119.39,136.08,79.38,124.74,340.19,Single-ply,SBD,F,
Girls,117.71+,2,Phenixx Vera,Plainview,117.75,136.08,61.23,133.81,331.12,Single-ply,SBD,F,
Girls,117.71+,3,Alyssia Castillo,Sudan,123.47,58.97,43.09,92.99,195.04,Single-ply,SBD,F,
