Division,WeightClassKg,Place,Name,Team,BodyweightKg,Best3SquatKg,Best3BenchKg,Best3DeadliftKg,TotalKg,Equipment,Event,Sex
Boys,51.71,1,Brian Villarreal,Geronimo Navarro,49.53,127.01,81.65,145.15,353.8,Single-ply,SBD,M
Boys,51.71,2,Michael Sanchez,Hutto,51.53,111.13,68.04,136.08,315.25,Single-ply,SBD,M
Boys,55.79,3,Christian Thompson,Bloomington,51.89,117.93,68.04,122.47,308.44,Single-ply,SBD,M
Boys,51.71,4,Adrian Flores,San Antonio Holy Cross,48.35,83.91,43.09,102.06,229.06,Single-ply,SBD,M
Boys,55.79,1,Jorge Saldana,Natalia,55.43,195.04,102.06,185.97,483.08,Single-ply,SBD,M
Boys,55.79,2,Jermaine Mendiola,Somerset,55.34,190.51,113.4,172.37,476.27,Single-ply,SBD,M
Boys,55.79,3,Davion Aldridge,Hutto,55.7,174.63,95.25,192.78,462.66,Single-ply,SBD,M
Boys,55.79,4,Tyrese Martinez,Stockdale,54.34,136.08,88.45,172.37,396.89,Single-ply,SBD,M
Boys,55.79,5,Hunter Long,San Antonio Brooks Academy,54.61,120.2,74.84,147.42,342.46,Single-ply,SBD,M
Boys,55.79,6,Maverick Graham,Lytle,54.07,120.2,68.04,145.15,333.39,Single-ply,SBD,M
Boys,55.79,7,Dominic Mercado,San Antonio Cole,54.52,124.74,65.77,138.35,328.85,Single-ply,SBD,M
Boys,55.79,8,Samuel Moczygemba,Poth,54.34,120.2,61.23,129.27,310.71,Single-ply,SBD,M
Boys,55.79,9,Justin Jones,Universal City Randolph,55.43,111.13,74.84,122.47,308.44,Single-ply,SBD,M
Boys,55.79,10,Seth Aguinaga,Lytle,55.79,106.59,61.23,136.08,303.91,Single-ply,SBD,M
Boys,55.79,11,Martain Rocha,Bloomington,55.79,122.47,61.23,117.93,301.64,Single-ply,SBD,M
Boys,55.79,12,Brandon Mercado,San Antonio Cole,54.79,104.33,56.7,131.54,292.57,Single-ply,SBD,M
Boys,55.79,13,Jose Ramirez,Kyle Lehman,54.07,102.06,52.16,136.08,290.3,Single-ply,SBD,M
Boys,55.79,14,Nathan Martinez,San Antonio Holy Cross,54.61,106.59,56.7,111.13,274.42,Single-ply,SBD,M
Boys,59.87,1,Manual Saldana,Natalia,59.87,145.15,68.04,183.7,396.89,Single-ply,SBD,M
Boys,59.87,2,Domingo Zapata,Somerset,57.7,127.01,99.79,158.76,385.55,Single-ply,SBD,M
Boys,59.87,3,Jesse Gonzales,San Antonio Holy Cross,57.88,115.67,61.23,151.95,328.85,Single-ply,SBD,M
Boys,59.87,4,Kade Fly,Hutto,58.51,124.74,58.97,127.01,310.71,Single-ply,SBD,M
Boys,67.13,DQ,Anthony Perez,San Antonio Cole,59.96,,,,,Single-ply,SBD,M
Boys,67.13,1,Kristopher Imhof,San Antonio Cole,65.23,179.17,104.33,192.78,476.27,Single-ply,SBD,M
Boys,67.13,2,Steven Nicholson,Natalia,66.77,181.44,97.52,188.24,467.2,Single-ply,SBD,M
Boys,67.13,3,Jaxsel Cabrera-Torres,San Antonio Cole,66.41,163.29,104.33,188.24,455.86,Single-ply,SBD,M
Boys,67.13,4,Caden Forisha,Hutto,66.77,145.15,99.79,190.51,435.45,Single-ply,SBD,M
Boys,67.13,5,Julian Mata,Kyle Lehman,65.95,129.27,90.72,151.95,371.95,Single-ply,SBD,M
Boys,67.13,6,Jacob Gonzales,Lockhart,66.32,131.54,77.11,158.76,367.41,Single-ply,SBD,M
Boys,67.13,7,Alberto Salazar,Somerset,61.87,97.52,63.5,133.81,294.84,Single-ply,SBD,M
Boys,67.13,DQ,Drake Reyes,Lytle,64.14,,,,,Single-ply,SBD,M
Boys,67.13,DQ,Garrett Darr,Poth,62.32,,,,,Single-ply,SBD,M
Boys,74.84,1,Justis Owens,Hutto,72.3,213.19,122.47,197.31,532.97,Single-ply,SBD,M
Boys,82.1,2,Cole Ballard,Hutto,75.02,188.24,120.2,190.51,498.95,Single-ply,SBD,M
Boys,74.84,3,Robert Adame,San Antonio Holy Cross,70.85,183.7,99.79,192.78,476.27,Single-ply,SBD,M
Boys,74.84,4,Alex Pena,Somerset,74.12,190.51,129.27,147.42,467.2,Single-ply,SBD,M
Boys,74.84,5,Tony Renfro,Stockdale,74.21,181.44,102.06,183.7,467.2,Single-ply,SBD,M
Boys,74.84,6,Jeremy Herrera,San Antonio Holy Cross,74.3,172.37,106.59,188.24,467.2,Single-ply,SBD,M
Boys,74.84,7,Justin Alexander,Universal City Randolph,70.22,172.37,113.4,176.9,462.66,Single-ply,SBD,M
Boys,74.84,8,Larry Falcon,Poth,74.39,181.44,106.59,170.1,458.13,Single-ply,SBD,M
Boys,74.84,9,Miguel Rivera,Universal City Randolph,71.12,163.29,102.06,188.24,453.59,Single-ply,SBD,M
Boys,74.84,10,Cedrick Lewis,Geronimo Navarro,73.03,161.03,90.72,156.49,408.23,Single-ply,SBD,M
Boys,74.84,11,Matthew Garcia,San Antonio Holy Cross,69.94,147.42,79.38,174.63,401.43,Single-ply,SBD,M
Boys,74.84,12,Eddie Lopez,Universal City Randolph,71.85,147.42,83.91,163.29,394.63,Single-ply,SBD,M
Boys,82.1,13,Nick Cruz,Lockhart,75.02,140.61,86.18,161.03,387.82,Single-ply,SBD,M
Boys,74.84,14,Alex Gill,Universal City Randolph,70.31,147.42,81.65,136.08,365.14,Single-ply,SBD,M
Boys,74.84,15,Caden Fregia,Natalia,71.12,147.42,77.11,136.08,360.61,Single-ply,SBD,M
Boys,74.84,16,Isaiah Gomez,Natalia,72.48,142.88,70.31,147.42,360.61,Single-ply,SBD,M
Boys,74.84,17,Gilibaldo Garcia,San Antonio Brooks Academy,70.49,115.67,61.23,145.15,322.05,Single-ply,SBD,M
Boys,74.84,18,Joshua Tinajero,Somerset,74.75,65.77,74.84,161.03,301.64,Single-ply,SBD,M
Boys,74.84,19,Isaai Ortega,San Antonio Brooks Academy,73.39,102.06,52.16,120.2,274.42,Single-ply,SBD,M
Boys,82.1,DQ,Brock Gonzales,Universal City Randolph,75.02,,,,,Single-ply,SBD,M
Boys,82.1,1,Christian Hosley,Universal City Randolph,78.11,233.6,163.29,229.06,625.96,Single-ply,SBD,M
Boys,82.1,2,Jared Leal,Geronimo Navarro,81.56,204.12,122.47,226.8,553.38,Single-ply,SBD,M
Boys,82.1,3,Tiki Mondragon,Kyle Lehman,79.65,192.78,142.88,197.31,532.97,Single-ply,SBD,M
Boys,82.1,4,Joel Juarez,Lockhart,79.83,195.04,124.74,208.65,528.44,Single-ply,SBD,M
Boys,82.1,5,Grant Schlaht,Lockhart,80.65,199.58,127.01,195.04,521.63,Single-ply,SBD,M
Boys,82.1,6,Connor McLaughlin,Stockdale,81.92,176.9,129.27,215.46,521.63,Single-ply,SBD,M
Boys,82.1,7,Devin Norman,Lockhart,80.01,190.51,122.47,195.04,508.02,Single-ply,SBD,M
Boys,82.1,8,Alexander Paredes,Natalia,79.47,204.12,90.72,190.51,485.34,Single-ply,SBD,M
Boys,82.1,9,Austin Olson,Hutto,75.3,161.03,99.79,192.78,453.59,Single-ply,SBD,M
Boys,82.1,10,Kyler McBlane,Stockdale,81.37,172.37,99.79,181.44,453.59,Single-ply,SBD,M
Boys,82.1,11,Nathan Salazar,Somerset,79.38,149.69,95.25,185.97,430.91,Single-ply,SBD,M
Boys,82.1,12,Brian Martinez,Kyle Lehman,78.11,136.08,86.18,151.95,374.21,Single-ply,SBD,M
Boys,82.1,13,Elijah Rollins,Somerset,76.57,124.74,79.38,165.56,369.68,Single-ply,SBD,M
Boys,82.1,14,Pedro Hidalgo,Somerset,76.2,83.91,92.99,133.81,310.71,Single-ply,SBD,M
Boys,82.1,DQ,Drake Hall,Burnet,78.47,,,,,Single-ply,SBD,M
Boys,89.81,1,Jonathan Darby,Lytle,86.73,254.01,124.74,256.28,635.03,Single-ply,SBD,M
Boys,89.81,2,Paul Castro,Lytle,86,204.12,124.74,201.85,530.7,Single-ply,SBD,M
Boys,89.81,3,Emanual Moreno,Somerset,88.27,204.12,124.74,183.7,512.56,Single-ply,SBD,M
Boys,89.81,4,Julian Martinez,Natalia,88.99,179.17,95.25,190.51,464.93,Single-ply,SBD,M
Boys,89.81,5,Rafael Salinas,Somerset,85.28,151.95,86.18,165.56,403.7,Single-ply,SBD,M
Boys,89.81,6,Zackary Zaleski,Geronimo Navarro,86.64,129.27,90.72,165.56,385.55,Single-ply,SBD,M
Boys,89.81,DQ,Frankie Aranda,Bloomington,85.37,,,,,Single-ply,SBD,M
Boys,89.81,DQ,Cameron Alderete,Hutto,88.72,,,,,Single-ply,SBD,M
Boys,99.79,1,Curtis Hawkins,Lockhart,97.98,258.55,154.22,233.6,646.37,Single-ply,SBD,M
Boys,99.79,2,Dustin De La Vega,Somerset,99.25,249.48,124.74,206.38,580.6,Single-ply,SBD,M
Boys,99.79,3,Shawn Schmidt,Geronimo Navarro,95.71,204.12,142.88,208.65,555.65,Single-ply,SBD,M
Boys,99.79,4,Eddie Moreno,Somerset,98.79,190.51,145.15,190.51,526.17,Single-ply,SBD,M
Boys,99.79,5,Raymond Casarez,San Antonio Holy Cross,97.07,201.85,102.06,219.99,523.9,Single-ply,SBD,M
Boys,99.79,6,David Muñoz,Geronimo Navarro,91.08,165.56,102.06,176.9,444.52,Single-ply,SBD,M
Boys,99.79,7,Phillip Aguero,Somerset,91.72,142.88,79.38,158.76,381.02,Single-ply,SBD,M
Boys,99.79,8,George Perez,Somerset,92.62,138.35,79.38,154.22,371.95,Single-ply,SBD,M
Boys,99.79,9,Carl Furgeson,Kyle Lehman,98.61,111.13,115.67,142.88,369.68,Single-ply,SBD,M
Boys,99.79,DQ,Bo Perez,San Antonio Holy Cross,90.81,,,,,Single-ply,SBD,M
Boys,99.79,DQ,Manuel Garcia,Somerset,91.17,,,,,Single-ply,SBD,M
Boys,124.74,1,Jeremy Rodriguez #2,Geronimo Navarro,109.95,272.16,179.17,226.8,678.12,Single-ply,SBD,M
Boys,109.77,2,Lane Springs,Geronimo Navarro,105.05,260.82,151.95,222.26,635.03,Single-ply,SBD,M
Boys,109.77,3,Andre Hernandez,Natalia,103.51,249.48,133.81,244.94,628.23,Single-ply,SBD,M
Boys,109.77,4,Jacob Caldera,San Antonio Cole,105.96,244.94,145.15,213.19,603.28,Single-ply,SBD,M
Boys,109.77,5,Paul Esparza,San Antonio Brooks Academy,106.5,226.8,129.27,235.87,591.94,Single-ply,SBD,M
Boys,109.77,6,Cody Kuhl,Universal City Randolph,104.24,217.72,113.4,242.67,573.79,Single-ply,SBD,M
Boys,109.77,7,Justin Paul,Hutto,108.59,217.72,129.27,226.8,573.79,Single-ply,SBD,M
Boys,109.77,8,Santiago Leija,Natalia,108.59,215.46,127.01,226.8,569.26,Single-ply,SBD,M
Boys,109.77,9,Josh Sanchez,Geronimo Navarro,108.05,219.99,104.33,190.51,514.83,Single-ply,SBD,M
Boys,109.77,10,Oscar Ramirez,Natalia,109.41,188.24,102.06,147.42,437.72,Single-ply,SBD,M
Boys,124.74,1,Jonathan Ricks,Pleasanton,118.39,272.16,170.1,222.26,664.51,Single-ply,SBD,M
Boys,124.74,2,Josh Carroll,Stockdale,121.11,229.06,161.03,256.28,646.37,Single-ply,SBD,M
Boys,124.74,3,Sisto Pacheco,Pleasanton,114.49,238.14,154.22,204.12,596.47,Single-ply,SBD,M
Boys,124.74,4,O'neal Patterson,Hutto,123.74,219.99,165.56,188.24,573.79,Single-ply,SBD,M
Boys,124.74,5,Austen Flores,San Antonio Holy Cross,110.04,197.31,97.52,242.67,537.51,Single-ply,SBD,M
Boys,124.74,6,Marshall Crabb,Geronimo Navarro,113.22,197.31,124.74,204.12,526.17,Single-ply,SBD,M
Boys,124.74,7,Caleb Bishop,Lockhart,116.94,201.85,122.47,190.51,514.83,Single-ply,SBD,M
Boys,124.74,8,Isaiah Atseriak,San Antonio Cole,122.74,174.63,79.38,172.37,426.38,Single-ply,SBD,M
Boys,124.74,DQ,James Woods,Somerset,113.85,,,,,Single-ply,SBD,M
Boys,124.74+,1,Ray Navarro,Natalia,130.63,272.16,131.54,244.94,648.64,Single-ply,SBD,M
Boys,124.74+,2,Martin Hidrogo,Stockdale,131,222.26,142.88,226.8,591.94,Single-ply,SBD,M
Boys,124.74+,3,Jonah Masters,San Antonio Cole,128.19,213.19,115.67,210.92,539.77,Single-ply,SBD,M
Boys,124.74+,4,Edward Comacho,Lockhart,132.81,219.99,120.2,192.78,532.97,Single-ply,SBD,M
Boys,124.74+,5,Chris Cobb,Somerset,148.32,204.12,131.54,192.78,528.44,Single-ply,SBD,M
Boys,124.74+,6,Jon Lara,Natalia,131.72,215.46,120.2,188.24,523.9,Single-ply,SBD,M
Boys,124.74+,7,Javier De Leon,Somerset,135.71,238.14,124.74,136.08,498.95,Single-ply,SBD,M
Boys,124.74+,8,Caleb Hargraves,Geronimo Navarro,135.99,136.08,92.99,142.88,371.95,Single-ply,SBD,M
Boys,124.74+,9,Isaiah Reyna,Somerset,138.71,131.54,63.5,142.88,337.93,Single-ply,SBD,M
Boys,124.74+,DQ,Jared Kingsriter,Hutto,141.61,,,,,Single-ply,SBD,M
Boys,124.74+,DQ,Roland Barcena,San Antonio Holy Cross,143.24,,,,,Single-ply,SBD,M
