Name,WeightClassKg,Division,AgeRange,Country,Sex,Age,BodyweightKg,Bench1Kg,Bench2Kg,Bench3Kg,Best3BenchKg,Bench4Kg,Deadlift2Kg,Deadlift3Kg,Best3DeadliftKg,Deadlift4Kg,TotalKg,Event,Equipment,Place
Jordan Fernandez #2,56,Class 1,,,M,,,,,,,,,,102.5,,102.5,D,Multi-ply,1
Alexander Kang,60,Class 1,,,M,,,,,,,,,,170,,170,D,Multi-ply,1
Tony Pina,75,Class 1,,,M,,,,,,,,,,230,,230,D,Multi-ply,1
Tony Munoz,75,Class 1,,,M,,,,,,,,,,205,,205,D,Multi-ply,2
Kyle Herzik,75,Class 1,,,M,,,,,,,,,,187.5,,187.5,D,Multi-ply,3
Jessie Mayes,75,Class 1,,,M,,,,,,,,,,175,,175,D,Multi-ply,4
Vince Anderson-Lujan,82.5,Class 1,,,M,,,,,,,,,,245,,245,D,Multi-ply,1
Gregory Watson,82.5,Class 1,,,M,,,,,,,,,,232.5,,232.5,D,Multi-ply,2
Andrew Kim,82.5,Class 1,,,M,,,,,,,,,,230,,230,D,Multi-ply,3
Rolando Espinoza,82.5,Class 1,,,M,,,,,,,,,,220,,220,D,Multi-ply,4
Daniel Fisher,82.5,Class 1,,,M,,,,,,,,,,210,,210,D,Multi-ply,5
Blake Bossert,82.5,Class 1,,,M,,,,,,,,,,205,,205,D,Multi-ply,6
Joe Amoureux-Hawk,82.5,Class 1,,,M,,,,,,,,,,175,,175,D,Multi-ply,7
Robert Staley,82.5,Class 1,,,M,,,,,,,,,,172.5,,172.5,D,Multi-ply,8
Luke Richesson,90,Class 1,,,M,,,,,,,,,,280,,280,D,Raw,1
Larry Russell,90,Class 1,,,M,58,,,,,,,,,275,,275,D,Multi-ply,2
Al Tortorelli,90,Class 1,,,M,,,,,,,,,,265,,265,D,Multi-ply,3
Mark Pearce,90,Class 1,,,M,,,,,,,,,,262.5,,262.5,D,Multi-ply,4
Matthew Christie,90,Class 1,,,M,,,,,,,,,,255,,255,D,Multi-ply,5
Floyd Jackson Jr,90,Class 1,,,M,,,,,,,,,,122.5,,122.5,D,Multi-ply,6
Doug Tracy,100,Class 1,,,M,,,,,,,,,,272.5,,272.5,D,Multi-ply,1
John Boettger,100,Class 1,,,M,,,,,,,,,,272.5,,272.5,D,Multi-ply,2
Dennis Schmidt Jr,100,Class 1,,,M,,,,,,,,,,267.5,,267.5,D,Multi-ply,3
Lorenzo Nino,100,Class 1,,,M,,,,,,,,,,265,,265,D,Multi-ply,4
Ed Barnes,100,Class 1,,,M,,,,,,,,,,260,,260,D,Multi-ply,5
Thomas Reiher,100,Class 1,,,M,,,,,,,,,,242.5,,242.5,D,Multi-ply,6
Richard Joachim,100,Class 1,,,M,,,,,,,,,,227.5,,227.5,D,Multi-ply,7
John MacGregor,100,Class 1,,,M,,,,,,,,,,205,,205,D,Multi-ply,8
Jamie Bennett,100,Class 1,,,M,,,,,,,,,,197.5,,197.5,D,Multi-ply,9
Dan Finkenstadt,100,Class 1,,,M,,,,,,,,,,192.5,,192.5,D,Multi-ply,10
Carl Erhardt,110,Class 1,,,M,,,,,,,,,,282.5,,282.5,D,Multi-ply,1
William Hamilton,110,Class 1,,,M,,,,,,,,,,272.5,,272.5,D,Multi-ply,2
Henry Higgins,110,Class 1,,,M,,,,,,,,,,272.5,,272.5,D,Multi-ply,3
Derek Arredondo,110,Class 1,,,M,,,,,,,,,,265,,265,D,Multi-ply,4
Tim Prince,110,Class 1,,,M,,,,,,,,,,265,,265,D,Multi-ply,5
Harland Barrett,110,Class 1,,,M,,,,,,,,,,257.5,,257.5,D,Multi-ply,6
Nathan Williams,110,Class 1,,,M,,,,,,,,,,170,,170,D,Multi-ply,7
Eric Krych,117.5,Class 1,,,M,,,,,,,,,,307.5,,307.5,D,Multi-ply,1
Brandon Runnestrand,117.5,Class 1,,,M,,,,,,,,,,305,,305,D,Multi-ply,2
Vashon Brumfield,117.5,Class 1,,,M,,,,,,,,,,302.5,,302.5,D,Multi-ply,3
Terry Putman,117.5,Class 1,,,M,,,,,,,,,,300,,300,D,Multi-ply,4
Michael Smyser,117.5,Class 1,,,M,,,,,,,,,,240,,240,D,Multi-ply,5
Gregg Ramsdell,117.5,Class 1,,,M,,,,,,,,,,230,,230,D,Multi-ply,6
Tilden Watson,125,Class 1,,,M,,,,,,,,,,277.5,,277.5,D,Multi-ply,1
David Martinez #7,125,Class 1,,,M,,,,,,,,,,272.5,,272.5,D,Multi-ply,2
Carl Wimmer,125,Class 1,,,M,,,,,,,,,,262.5,,262.5,D,Multi-ply,3
Ken Overbey,125,Class 1,,,M,,,,,,,,,,247.5,,247.5,D,Multi-ply,4
Dustin Freelund,125,Class 1,,,M,,,,,,,,,,220,,220,D,Multi-ply,5
Chris Kribs,140,Class 1,,,M,,,,,,,,,,245,,245,D,Multi-ply,1
David Edgell,140+,Class 1,,,M,,,,,,,,,,312.5,,312.5,D,Multi-ply,1
Leo Contreras,140+,Class 1,,,M,,,,,,,,,,210,,210,D,Multi-ply,2
Matthew Taylor,82.5,Disabled,,,M,,,,,,,,,,230,,230,D,Multi-ply,1
Bryan Huffer,82.5,Disabled,,,M,,,,,,,,,,127.5,,127.5,D,Multi-ply,2
Alex Zorbas,82.5,Disabled,,,M,,,,,,,,,,65,,65,D,Multi-ply,3
Steve Peña #1,100,Disabled,,,M,,,,,,,,,,230,,230,D,Multi-ply,1
Cody Colchado,110,Disabled,,,M,,,,,,,,,,267.5,,267.5,D,Multi-ply,1
Charles Siddle,110,Disabled,,,M,,,,,,,,,,172.5,,172.5,D,Multi-ply,2
James Longwell,110,Disabled,,,M,,,,,,,,,,75,,75,D,Multi-ply,3
Omar Sanchez,140,Disabled,,,M,,,,,,,,,,260,272.5,260,D,Multi-ply,1
Stefen Hudson,48,Juniors 20-25,20-25,,M,,,,,,,,,,92.5,97.5,92.5,D,Multi-ply,1
Quoe Le,60,Juniors 20-25,20-25,South Korea,M,,,,,,,,,,152.5,,152.5,D,Multi-ply,1
Josh Reyes,67.5,Juniors 20-25,20-25,,M,,,,,,,,,,215,,215,D,Multi-ply,1
Anthony Benezra,67.5,Juniors 20-25,20-25,,M,,,,,,,,,,190,,190,D,Multi-ply,2
Floyd Jackson III,67.5,Juniors 20-25,20-25,,M,,,,,,,,,,125,,125,D,Multi-ply,3
Andres Valleza,67.5,Juniors 20-25,20-25,,M,,,,,,,,,,,,,D,Multi-ply,DQ
Ryan Snelling,75,Juniors 20-25,20-25,,M,,72.12,,,,,,,,275,,275,D,Multi-ply,1
Jeremy Benezra,75,Juniors 20-25,20-25,,M,,,,,,,,,,262.5,,262.5,D,Multi-ply,2
Blake Richards #2,75,Juniors 20-25,20-25,,M,,,,,,,,,,220,,220,D,Multi-ply,3
Jason McWalter,75,Juniors 20-25,20-25,,M,,,,,,,,,,197.5,,197.5,D,Multi-ply,4
John Alves,75,Juniors 20-25,20-25,,M,,,,,,,,,,187.5,,187.5,D,Multi-ply,5
Sochun Kyong,75,Juniors 20-25,20-25,South Korea,M,,,,,,,,,,185,,185,D,Multi-ply,6
Andrew Kim,82.5,Juniors 20-25,20-25,,M,,,,,,,,,,230,,230,D,Multi-ply,1
Blake Bossert,82.5,Juniors 20-25,20-25,,M,,,,,,,,,,205,,205,D,Multi-ply,2
Matthew Christie,90,Juniors 20-25,20-25,,M,,,,,,,,,,255,,255,D,Multi-ply,1
Leonard Harison,90,Juniors 20-25,20-25,,M,,,,,,,,,,250,,250,D,Multi-ply,2
Matt Bell,90,Juniors 20-25,20-25,,M,,,,,,,,,,242.5,,242.5,D,Multi-ply,3
Jon Leftwich,90,Juniors 20-25,20-25,,M,,,,,,,,,,200,,200,D,Multi-ply,4
Eric Gunn,100,Juniors 20-25,20-25,,M,,,,,,,,,,320,,320,D,Multi-ply,1
Jim Behan,100,Juniors 20-25,20-25,,M,,,,,,,,,,307.5,,307.5,D,Multi-ply,2
Steven McShane,100,Juniors 20-25,20-25,,M,,,,,,,,,,277.5,,277.5,D,Multi-ply,3
Jerame Linnell,100,Juniors 20-25,20-25,,M,,,,,,,,,,272.5,,272.5,D,Multi-ply,4
Dennis Schmidt Jr,100,Juniors 20-25,20-25,,M,,,,,,,,,,267.5,,267.5,D,Multi-ply,5
Davey Silva,100,Juniors 20-25,20-25,,M,,,,,,,,,,255,,255,D,Multi-ply,6
Gary Parquette,100,Juniors 20-25,20-25,,M,,,,,,,,,,207.5,,207.5,D,Multi-ply,7
Lance Moore,100,Juniors 20-25,20-25,,M,,,,,,,,,,195,,195,D,Multi-ply,8
Nicolas Lepine,110,Juniors 20-25,20-25,,M,,,,,,,,,,277.5,,277.5,D,Multi-ply,1
Josh Nelson,110,Juniors 20-25,20-25,,M,,,,,,,,,,250,,250,D,Multi-ply,2
Ryan Harth,117.5,Juniors 20-25,20-25,,M,,,,,,,,,,310,,310,D,Multi-ply,1
Ryan Klein,117.5,Juniors 20-25,20-25,,M,,,,,,,,,,287.5,,287.5,D,Multi-ply,2
Jose Ortega,117.5,Juniors 20-25,20-25,,M,,,,,,,,,,260,,260,D,Multi-ply,3
Ramon Soto,117.5,Juniors 20-25,20-25,,M,,,,,,,,,,220,,220,D,Multi-ply,4
Jerry Pritchett,125,Juniors 20-25,20-25,,M,,,,,,,,,,295,,295,D,Multi-ply,1
David Lewis,140+,Juniors 20-25,20-25,,M,,,,,,,,,,205,,205,D,Multi-ply,1
Dave Edmondson,67.5,Law/Fire Masters 40-47,40-47,,M,47,66.59,,,,,,,,235,240,235,D,Multi-ply,1
Zach Clark,100,Law/Fire Masters 40-47,40-47,,M,,,,,,,,,,292.5,,292.5,D,Multi-ply,1
Ismyanto Soekardi,110,Law/Fire Masters 40-47,40-47,,M,,,,,,,,,,297.5,,297.5,D,Multi-ply,1
Ken Eyre,125,Law/Fire Masters 40-47,40-47,,M,,,,,,,,,,227.5,,227.5,D,Multi-ply,1
Charles McFarland,90,Law/Fire Masters 48+,48-999,,M,,,,,,,,,,265,,265,D,Multi-ply,1
Manny Burruel,117.5,Law/Fire Masters 48+,48-999,,M,,,,,,,,,,282.5,,282.5,D,Multi-ply,1
Eldon Olson,117.5,Law/Fire Masters 48+,48-999,,M,,,,,,,,,,182.5,,182.5,D,Multi-ply,2
Dave Edmondson,67.5,Law/Fire Open,,,M,47,66.59,,,,,,,,235,240,235,D,Multi-ply,1
David Renn,67.5,Law/Fire Open,,,M,,,,,,,,,,200,,200,D,Multi-ply,2
Charles Walker,82.5,Law/Fire Open,,,M,,,,,,,,,,255,272.5,255,D,Multi-ply,1
David Bickerstaff,82.5,Law/Fire Open,,,M,,,,,,,,,,242.5,,242.5,D,Multi-ply,2
Matt LaMarque,100,Law/Fire Open,,,M,,,,,,,,,,300,,300,D,Multi-ply,1
Richard Niemritz,100,Law/Fire Open,,,M,,,,,,,,,,235,,235,D,Multi-ply,2
Greg Babst,110,Law/Fire Open,,,M,,,,,,,,,,295,,295,D,Multi-ply,1
William Hamilton,110,Law/Fire Open,,,M,,,,,,,,,,272.5,,272.5,D,Multi-ply,2
Derek Arredondo,110,Law/Fire Open,,,M,,,,,,,,,,265,,265,D,Multi-ply,3
Tim Prince,110,Law/Fire Open,,,M,,,,,,,,,,265,,265,D,Multi-ply,4
Dan Blankenship,110,Law/Fire Open,,,M,,,,,,,,,,260,,260,D,Multi-ply,5
David Martinez #7,125,Law/Fire Open,,,M,,,,,,,,,,272.5,,272.5,D,Multi-ply,1
Carl Wimmer,125,Law/Fire Open,,,M,,,,,,,,,,262.5,,262.5,D,Multi-ply,2
David Renn,67.5,Law/Fire Submasters 34-39,34-39,,M,,,,,,,,,,200,,200,D,Multi-ply,1
Richard Anderson,75,Law/Fire Submasters 34-39,34-39,,M,,,,,,,,,,185,,185,D,Multi-ply,1
Steven Pearson,90,Law/Fire Submasters 34-39,34-39,,M,,,,,,,,,,265,272.5,265,D,Multi-ply,1
Barran Stone,90,Law/Fire Submasters 34-39,34-39,,M,,,,,,,,,,227.5,,227.5,D,Multi-ply,2
Lorenzo Nino,100,Law/Fire Submasters 34-39,34-39,,M,,,,,,,,,,265,,265,D,Multi-ply,1
Dalen Randa,100,Law/Fire Submasters 34-39,34-39,,M,,,,,,,,,,260,,260,D,Multi-ply,2
Richard Niemritz,100,Law/Fire Submasters 34-39,34-39,,M,,,,,,,,,,235,,235,D,Multi-ply,3
Lance Davis,117.5,Law/Fire Submasters 34-39,34-39,,M,,,,,,,,,,280,,280,D,Multi-ply,1
Rick Russell,125,Law/Fire Submasters 34-39,34-39,,M,,,,,,,,,,250,,250,D,Multi-ply,1
Vaughn Fernandez,67.5,Masters 40-46,40-46,,M,,,,,,,,,,142.5,,142.5,D,Multi-ply,1
Keith Cunningham,75,Masters 40-46,40-46,,M,,,,,,,,,,212.5,,212.5,D,Multi-ply,1
Tom Eiseman,82.5,Masters 40-46,40-46,,M,,,,,,,,,,342.5,,342.5,D,Multi-ply,1
Rolando Espinoza,82.5,Masters 40-46,40-46,,M,,,,,,,,,,220,,220,D,Multi-ply,2
David Brekke,82.5,Masters 40-46,40-46,,M,,,,,,,,,,205,,205,D,Multi-ply,3
Raymond Clift,90,Masters 40-46,40-46,,M,,,,,,,,,,250,,250,D,Multi-ply,1
Don Moser,90,Masters 40-46,40-46,,M,,,,,,,,,,245,,245,D,Multi-ply,2
George Herring #1,100,Masters 40-46,40-46,,M,,,,,,,,355,-362.5,355,,355,D,Multi-ply,1
Rich Garcia,100,Masters 40-46,40-46,,M,,,,,,,,,,292.5,,292.5,D,Multi-ply,2
Zach Clark,100,Masters 40-46,40-46,,M,,,,,,,,,,292.5,,292.5,D,Multi-ply,3
Darryl Silver,100,Masters 40-46,40-46,,M,,,,,,,,,,245,,245,D,Multi-ply,4
Mark Straley,100,Masters 40-46,40-46,,M,,,,,,,,,,237.5,,237.5,D,Multi-ply,5
Robert Harris,100,Masters 40-46,40-46,,M,,,,,,,,,,237.5,,237.5,D,Multi-ply,6
William Koval,100,Masters 40-46,40-46,,M,,,,,,,,,,217.5,,217.5,D,Multi-ply,7
Al Dawson,110,Masters 40-46,40-46,,M,,,,,,,,,,295,,295,D,Multi-ply,1
Darwin English,110,Masters 40-46,40-46,,M,,,,,,,,,,275,,275,D,Multi-ply,2
Cody Colchado,110,Masters 40-46,40-46,,M,,,,,,,,,,267.5,,267.5,D,Multi-ply,3
Mike Bennett,110,Masters 40-46,40-46,,M,,,,,,,,,,252.5,,252.5,D,Multi-ply,4
Gary Lands,110,Masters 40-46,40-46,,M,,,,,,,,,,250,,250,D,Multi-ply,5
George Phipps,110,Masters 40-46,40-46,,M,,,,,,,,,,247.5,,247.5,D,Multi-ply,6
Bobby Driskill,117.5,Masters 40-46,40-46,,M,,,,,,,,,,315,,315,D,Multi-ply,1
Todd Christensen,117.5,Masters 40-46,40-46,,M,,,,,,,,,,287.5,,287.5,D,Multi-ply,2
Greg Ramsdell,117.5,Masters 40-46,40-46,,M,,,,,,,,,,230,,230,D,Multi-ply,3
Andy Medak,140,Masters 40-46,40-46,,M,,,,,,,,,,327.5,,327.5,D,Multi-ply,1
Ray Gandeza Jr,140,Masters 40-46,40-46,,M,,,,,,,,,,272.5,,272.5,D,Multi-ply,2
Paul Ratsch,140+,Masters 40-46,40-46,,M,,,,,,,,,,300,,300,D,Multi-ply,1
Gary Bobrovitz,60,Masters 47-53,47-53,Canada,M,,,,,,,,,,147.5,,147.5,D,Multi-ply,1
Dean Kaneshiro,67.5,Masters 47-53,47-53,,M,,,,,,,,,,230,,230,D,Multi-ply,1
Alfredo Evangelista,67.5,Masters 47-53,47-53,,M,,,,,,,,,,205,,205,D,Multi-ply,2
David Higgins,67.5,Masters 47-53,47-53,,M,,,,,,,,,,182.5,,182.5,D,Multi-ply,3
Chuck Wong,67.5,Masters 47-53,47-53,,M,,,,,,,,,,,,,D,Multi-ply,DQ
Richard Cirigliano,75,Masters 47-53,47-53,,M,,,,,,,,,,262.5,,262.5,D,Multi-ply,1
John Tyree,75,Masters 47-53,47-53,,M,,,,,,,,,,252.5,,252.5,D,Multi-ply,2
Tom Corey,75,Masters 47-53,47-53,,M,,,,,,,,,,175,,175,D,Multi-ply,3
Leamon Woodley,82.5,Masters 47-53,47-53,,M,,,,,,,,,,320,,320,D,Multi-ply,1
Perry Plush,82.5,Masters 47-53,47-53,,M,,,,,,,,,,252.5,,252.5,D,Multi-ply,2
Anders Wahlund,90,Masters 47-53,47-53,Sweden,M,,,,,,,,,,250,,250,D,Multi-ply,1
Mike McCormack,90,Masters 47-53,47-53,,M,,,,,,,,,,247.5,,247.5,D,Multi-ply,2
David Bertier,90,Masters 47-53,47-53,,M,,,,,,,,,,247.5,,247.5,D,Multi-ply,3
Bob Collins,90,Masters 47-53,47-53,,M,,,,,,,,,,237.5,,237.5,D,Multi-ply,4
Jamey Mauldin,90,Masters 47-53,47-53,,M,,,,,,,,,,222.5,,222.5,D,Multi-ply,5
Fred Martichuski,90,Masters 47-53,47-53,,M,,,,,,,,,,185,,185,D,Multi-ply,6
Kevin Fisher,100,Masters 47-53,47-53,,M,,,,,,,,,,297.5,,297.5,D,Multi-ply,1
David Stratton,100,Masters 47-53,47-53,,M,,,,,,,,,,295,,295,D,Multi-ply,2
Duane Burlingame,100,Masters 47-53,47-53,,M,,,,,,,,,,292.5,,292.5,D,Multi-ply,3
Ronald Proctor,100,Masters 47-53,47-53,,M,,,,,,,,,,240,,240,D,Multi-ply,4
Jerry Capello,110,Masters 47-53,47-53,,M,,,,,,,,,,330,,330,D,Multi-ply,1
Greg Prothman,110,Masters 47-53,47-53,,M,,,,,,,,,,272.5,,272.5,D,Multi-ply,2
Dan Davidson,117.5,Masters 47-53,47-53,,M,,,,,,,,,,317.5,,317.5,D,Multi-ply,1
Manny Burruel,117.5,Masters 47-53,47-53,,M,,,,,,,,,,282.5,,282.5,D,Multi-ply,2
Gary Stevens,117.5,Masters 47-53,47-53,,M,,,,,,,,,,252.5,,252.5,D,Multi-ply,3
Kevin Smith #11,117.5,Masters 47-53,47-53,,M,,,,,,,,,,217.5,,217.5,D,Multi-ply,4
Gary Rapp,117.5,Masters 47-53,47-53,,M,,,,,,,,,,185,,185,D,Multi-ply,5
Ted Stewart,125,Masters 47-53,47-53,,M,,,,,,,,,,272.5,,272.5,D,Multi-ply,1
Buddy McKee,125,Masters 47-53,47-53,,M,,,,,,,,,,260,,260,D,Multi-ply,2
Joe Mickelson,140,Masters 47-53,47-53,,M,,,,,,,,,,255,,255,D,Multi-ply,1
Leo Contreras,140+,Masters 47-53,47-53,,M,,,,,,,,,,210,,210,D,Multi-ply,1
Ted Feight,67.5,Masters 54-60,54-60,,M,,,,,,,,,,167.5,,167.5,D,Multi-ply,1
James Christian #1,75,Masters 54-60,54-60,,M,,,,,,,,,,215,,215,D,Multi-ply,1
Alan Sheen,75,Masters 54-60,54-60,,M,,,,,,,,,,172.5,,172.5,D,Multi-ply,2
Robert Krowech,82.5,Masters 54-60,54-60,,M,,,,,,,,,,257.5,,257.5,D,Multi-ply,1
Roberto Contreras,82.5,Masters 54-60,54-60,,M,,,,,,,,,,245,,245,D,Multi-ply,2
Moses Timbal,82.5,Masters 54-60,54-60,,M,,,,,,,,,,210,,210,D,Multi-ply,3
Daniel Hawkinson,82.5,Masters 54-60,54-60,,M,,,,,,,,,,205,,205,D,Multi-ply,4
Jack Rankin,82.5,Masters 54-60,54-60,,M,,,,,,,,,,200,,200,D,Multi-ply,5
Eric Ansberry,82.5,Masters 54-60,54-60,,M,,,,,,,,,,200,,200,D,Multi-ply,6
Christian Brenol,82.5,Masters 54-60,54-60,France,M,,,,,,,,,,180,,180,D,Multi-ply,7
Larry Russell,90,Masters 54-60,54-60,,M,,,,,,,,,,275,,275,D,Multi-ply,1
Bob Hochstein,90,Masters 54-60,54-60,,M,,,,,,,,,,252.5,,252.5,D,Multi-ply,2
Mick Stevens,90,Masters 54-60,54-60,,M,,,,,,,,,,232.5,,232.5,D,Multi-ply,3
Godfrey Holzinger,90,Masters 54-60,54-60,,M,,,,,,,,,,220,,220,D,Multi-ply,4
Jim Snodgrass,90,Masters 54-60,54-60,,M,,,,,,,,,,215,,215,D,Multi-ply,5
Kenneth Kirk,90,Masters 54-60,54-60,,M,,,,,,,,,,147.5,,147.5,D,Multi-ply,6
Jarnail Singh Birring,100,Masters 54-60,54-60,India,M,,,,,,,,,,237.5,,237.5,D,Multi-ply,1
Tom Haggenmiller,100,Masters 54-60,54-60,,M,,,,,,,,,,222.5,,222.5,D,Multi-ply,2
Jim Franklin,100,Masters 54-60,54-60,,M,,,,,,,,,,160,,160,D,Multi-ply,3
Cliff Sandberg,110,Masters 54-60,54-60,,M,,,,,,,,,,282.5,,282.5,D,Multi-ply,1
Thomas Wright,110,Masters 54-60,54-60,,M,,,,,,,,,,182.5,,182.5,D,Multi-ply,2
Mike Fryar,117.5,Masters 54-60,54-60,,M,60,,,,,,,,,282.5,,282.5,D,Multi-ply,1
Ron Spikes,117.5,Masters 54-60,54-60,,M,,,,,,,,,,267.5,,267.5,D,Multi-ply,2
Eldon Olson,117.5,Masters 54-60,54-60,,M,,,,,,,,,,182.5,,182.5,D,Multi-ply,3
Richard Hamilton,140,Masters 54-60,54-60,,M,,,,,,,,,,205,,205,D,Multi-ply,1
Randy Patterson,140+,Masters 54-60,54-60,,M,,,,,,,,,,287.5,,287.5,D,Multi-ply,1
Martin Montgomery,75,Masters 61-67,61-67,,M,,,,,,,,,,210,,210,D,Single-ply,1
Arlindo da Silva,75,Masters 61-67,61-67,Brazil,M,,,,,,,,,,177.5,,177.5,D,Multi-ply,2
John Michael Scott,82.5,Masters 61-67,61-67,,M,,,,,,,,,,197.5,,197.5,D,Multi-ply,1
Dave Holmes,90,Masters 61-67,61-67,,M,,,,,,,,,,222.5,,222.5,D,Multi-ply,1
Roy Eriksen,90,Masters 61-67,61-67,,M,,,,,,,,,,217.5,,217.5,D,Multi-ply,2
Jim Day,90,Masters 61-67,61-67,,M,,,,,,,,,,165,,165,D,Multi-ply,3
Bob Bassman,100,Masters 61-67,61-67,,M,,,,,,,,,,205,,205,D,Multi-ply,1
Bud Davis,110,Masters 61-67,61-67,,M,62,,,,,,,,,292.5,,292.5,D,Multi-ply,1
Tom Overholtzer,110,Masters 61-67,61-67,,M,,,,,,,,,,240,,240,D,Single-ply,2
Manuel Herrera,140,Masters 61-67,61-67,,M,,,,,,,,,,235,,235,D,Multi-ply,1
Donald James,140+,Masters 61-67,61-67,,M,,,,,,,,,,195,210,195,D,Multi-ply,1
Precious McKenzie,60,Masters 68-74,68-74,New Zealand,M,,59.69,,,,,,,,197.5,,197.5,D,Raw,1
Robert Cortes,67.5,Masters 68-74,68-74,,M,,,,,,,,,,195,,195,D,Multi-ply,1
Walter Stewart,75,Masters 68-74,68-74,,M,,,,,,,,,,105,,105,D,Multi-ply,1
Lou Corulli,110,Masters 68-74,68-74,,M,,,,,,,,,,175,,175,D,Multi-ply,1
Gary Johnson,140,Masters 68-74,68-74,,M,,,,,,,,,,147.5,,147.5,D,Multi-ply,1
Arthur Whinston,67.5,Masters 75-79,75-79,,M,,,,,,,,,,62.5,,62.5,D,Multi-ply,1
Jim Schall,75,Masters 75-79,75-79,,M,,,,,,,,,,147.5,,147.5,D,Multi-ply,1
George Blue,100,Masters 75-79,75-79,,M,76,,,,,,,,,217.5,,217.5,D,Multi-ply,1
Robert Stephan,75,Masters 80-84,80-84,,M,,,,,,,,,,140,,140,D,Multi-ply,1
Donald Dreyer,82.5,Masters 80-84,80-84,,M,83,75.75,,,,,,,,115,,115,D,Multi-ply,1
Edwin Free Jr,90,Masters 80-84,80-84,,M,,,,,,,,,,117.5,,117.5,D,Multi-ply,1
Cal Davis,117.5,Masters 80-84,80-84,,M,81,,,,,,,,,152.5,,152.5,D,Multi-ply,1
Tommy Potter,44,Teen 13-15,13-15,,M,,,,,,,,,,87.5,,87.5,D,Multi-ply,1
Gurnaik Birring,52,Teen 13-15,13-15,UK,M,,,,,,,,,,72.5,,72.5,D,Multi-ply,1
Jordan Fernandez #2,56,Teen 13-15,13-15,,M,,,,,,,,,,102.5,,102.5,D,Multi-ply,1
Trent Corey,67.5,Teen 13-15,13-15,,M,,,,,,,,,,177.5,,177.5,D,Multi-ply,1
Cesar Luna,75,Teen 13-15,13-15,,M,,,,,,,,,,200,,200,D,Multi-ply,1
Kenny Borninkhof,90,Teen 13-15,13-15,,M,,,,,,,,,,182.5,,182.5,D,Multi-ply,1
Trent Silver,110,Teen 13-15,13-15,,M,,,,,,,,,,195,,195,D,Multi-ply,1
Amrit Chandarban Lakhiani,52,Teen 16-19,16-19,Indonesia,M,,,,,,,,,,100,,100,D,Multi-ply,1
Alexander Kang,60,Teen 16-19,16-19,,M,,,,,,,,,,170,,170,D,Multi-ply,1
Kyle Chiodo,67.5,Teen 16-19,16-19,,M,,65.68,,,,,,,,240,245,240,D,Multi-ply,1
Brett Faught,67.5,Teen 16-19,16-19,,M,,,,,,,,,,170,,170,D,Multi-ply,2
Derek Chiodo,75,Teen 16-19,16-19,,M,,,,,,,,,,260,,260,D,Multi-ply,1
Coty Hargett,75,Teen 16-19,16-19,,M,,,,,,,,,,192.5,,192.5,D,Multi-ply,3
Evan Flay,75,Teen 16-19,16-19,,M,,,,,,,,,,162.5,,162.5,D,Multi-ply,4
Ben Cantrell,75,Teen 16-19,16-19,,M,,,,,,,,,,212.5,,212.5,D,Multi-ply,2
Chris Lee,82.5,Teen 16-19,16-19,,M,,,,,,,,,,162.5,,162.5,D,Multi-ply,1
Bryan Huffer,82.5,Teen 16-19,16-19,,M,,,,,,,,,,125,,125,D,Multi-ply,2
Sean Mahoney,90,Teen 16-19,16-19,,M,,,,,,,,,,227.5,,227.5,D,Multi-ply,1
Michael Minahan,90,Teen 16-19,16-19,,M,,,,,,,,,,195,,195,D,Multi-ply,2
Bryan Williams,90,Teen 16-19,16-19,,M,,,,,,,,,,182.5,,182.5,D,Multi-ply,3
Du Juan Calvo,100,Teen 16-19,16-19,,M,,,,,,,,,,242.5,,242.5,D,Multi-ply,1
Andy Munsey,100,Teen 16-19,16-19,,M,,,,,,,,,,230,,230,D,Multi-ply,2
Mike Prothman,100,Teen 16-19,16-19,,M,,,,,,,,,,212.5,,212.5,D,Multi-ply,3
Adam Contreras #1,100,Teen 16-19,16-19,,M,,,,,,,,,,170,,170,D,Multi-ply,4
Connor Clark,110,Teen 16-19,16-19,,M,,,,,,,,,,222.5,,222.5,D,Multi-ply,1
Jacob Miskimens,117.5,Teen 16-19,16-19,,M,,,,,,,,,,265,,265,D,Multi-ply,1
Barry Driskell,117.5,Teen 16-19,16-19,,M,,,,,,,,,,262.5,,262.5,D,Multi-ply,2
Rabun Proctor,117.5,Teen 16-19,16-19,,M,,,,,,,,,,205,,205,D,Multi-ply,3
Nick Heppner,140,Teen 16-19,16-19,,M,,,,,,,,,,317.5,,317.5,D,Multi-ply,1
Kip Hauser,56,Open,,,M,,,,,,,,,,165,,165,D,Multi-ply,1
Vin Voeun,56,Open,,,M,,,,,,,,,,157.5,,157.5,D,Multi-ply,2
Precious McKenzie,60,Open,,New Zealand,M,,59.69,,,,,,,,197.5,,197.5,D,Raw,1
Dean Kaneshiro,67.5,Open,,,M,,,,,,,,,,230,,230,D,Multi-ply,1
Alfredo Evangelista,67.5,Open,,,M,,,,,,,,,,205,,205,D,Multi-ply,2
Andres Valleza,67.5,Open,,,M,,,,,,,,,,,,,D,Multi-ply,DQ
Tobias Adams,75,Open,,,M,,,,,,,,,,282.5,,282.5,D,Multi-ply,1
Allan Franks,75,Open,,,M,,,,,,,,,,277.5,,277.5,D,Multi-ply,2
Ryan Snelling,75,Open,,,M,,72.12,,,,,,,,275,,275,D,Multi-ply,3
Richard Cirigliano,75,Open,,,M,,,,,,,,,,262.5,,262.5,D,Multi-ply,4
Marchand Fleming,75,Open,,,M,,,,,,,,,,260,,260,D,Multi-ply,5
Robert Godard,75,Open,,,M,,,,,,,,,,240,,240,D,Multi-ply,6
Arlindo da Silva,75,Open,,Brazil,M,,,,,,,,,,177.5,,177.5,D,Multi-ply,7
Tom Eiseman,82.5,Open,,,M,,,,,,,,,,342.5,,342.5,D,Multi-ply,1
Leamon Woodley,82.5,Open,,,M,,,,,,,,,,320,,320,D,Multi-ply,2
Chad Bell,82.5,Open,,,M,,,,,,,,,,257.5,,257.5,D,Multi-ply,3
Flávio Danna,82.5,Open,,Brazil,M,,,,,,,,,,232.5,,232.5,D,Multi-ply,4
Ryan Lewis,90,Open,,,M,,,,,,,,,,320,,320,D,Multi-ply,1
Jeff Ray,90,Open,,,M,,,,,,,,,,312.5,,312.5,D,Multi-ply,2
Matt Bischoff,90,Open,,,M,,,,,,,,,,295,,295,D,Multi-ply,3
Ernie Mil-Homens,90,Open,,Canada,M,,,,,,,,,,295,,295,D,Multi-ply,4
Anders Wahlund,90,Open,,Sweden,M,,,,,,,,,,250,,250,D,Multi-ply,5
George Herring #1,100,Open,,,M,,,,,,,,355,-362.5,355,,355,D,Multi-ply,1
Evandro Casagrande,100,Open,,Brazil,M,,,,,,,,,,330,,330,D,Multi-ply,2
Chad Matthews,100,Open,,,M,,,,,,,,,,307.5,,307.5,D,Multi-ply,3
Matt LaMarque,100,Open,,,M,,,,,,,,,,300,,300,D,Multi-ply,4
Chad Herrick,100,Open,,,M,,,,,,,,,,290,,290,D,Multi-ply,5
Steve Peña #1,100,Open,,,M,,,,,,,,,,230,,230,D,Multi-ply,6
Brent Howard,110,Open,,,M,,,,,,,,,,332.5,,332.5,D,Multi-ply,1
Jerry Capello,110,Open,,,M,,,,,,,,,,330,,330,D,Multi-ply,2
Greg Babst,110,Open,,,M,,,,,,,,,,295,,295,D,Multi-ply,3
John Anthony,110,Open,,,M,,,,,,,,,,275,,275,D,Multi-ply,4
Henry Higgins,110,Open,,,M,,,,,,,,,,272.5,,272.5,D,Multi-ply,5
Harland Barrett,110,Open,,,M,,,,,,,,,,252.5,,252.5,D,Multi-ply,6
Nathan Williams,110,Open,,,M,,,,,,,,,,170,,170,D,Multi-ply,7
Jani Toivo Kristian Ihalainen,117.5,Open,,Finland,M,,,,,,,,,,320,,320,D,Multi-ply,1
Bobby Driskill,117.5,Open,,,M,,,,,,,,,,315,,315,D,Multi-ply,2
Ryan Harth,117.5,Open,,,M,,,,,,,,,,310,,310,D,Multi-ply,3
Eric Krych,117.5,Open,,,M,,,,,,,,,,305,,305,D,Multi-ply,4
Patrick Holloway,125,Open,,,M,,,,,,,,,,347.5,,347.5,D,Multi-ply,1
John Hudson,125,Open,,,M,,,,,,,,,,330,,330,D,Multi-ply,2
Joe Fernandez,125,Open,,,M,,,,,,,,,,317.5,,317.5,D,Multi-ply,3
Ricardo Nort,125,Open,,Brazil,M,,,,,,,,,,310,,310,D,Multi-ply,4
Jerry Pritchett,125,Open,,,M,,,,,,,,,,295,,295,D,Multi-ply,5
Buddy McKee,125,Open,,,M,,,,,,,,,,260,,260,D,Multi-ply,6
William Mott,140,Open,,,M,,,,,,,,,,350,,350,D,Multi-ply,1
Andy Medak,140,Open,,,M,,,,,,,,,,327.5,,327.5,D,Multi-ply,2
Norman Rial,140,Open,,,M,,,,,,,,,,317.5,,317.5,D,Multi-ply,3
Mark Phillips,140,Open,,,M,,,,,,,,,,295,,295,D,Multi-ply,4
Brian Oldham,140+,Open,,,M,,181.44,,,,,,,,337.5,,337.5,D,Multi-ply,1
Dean Munsey,140+,Open,,,M,,,,,,,,,,320,,320,D,Multi-ply,2
David Edgell,140+,Open,,,M,,,,,,,,,,312.5,,312.5,D,Multi-ply,3
Paul Ratsch,140+,Open,,,M,,,,,,,,,,300,,300,D,Multi-ply,4
Pao Thao,56,Special Olympics,,,M,,,,,,,,,,165,,165,D,Multi-ply,1
Curtis Kitaji,56,Special Olympics,,,M,,,,,,,,,,105,,105,D,Multi-ply,2
Christopher Blackstone,60,Special Olympics,,,M,,,,,,,,,,115,,115,D,Multi-ply,1
Tyler Truscelli,60,Special Olympics,,,M,,,,,,,,,,77.5,,77.5,D,Multi-ply,2
Jon Shapiro,67.5,Special Olympics,,,M,,,,,,,,,,152.5,,152.5,D,Multi-ply,1
Mike Sirard,67.5,Special Olympics,,,M,,,,,,,,,,102.5,,102.5,D,Multi-ply,2
Douglass Hodges,75,Special Olympics,,,M,,,,,,,,,,140,,140,D,Multi-ply,1
Cori Van Eck,75,Special Olympics,,,M,,,,,,,,,,97.5,,97.5,D,Multi-ply,2
Graeme Gibson,82.5,Special Olympics,,,M,,,,,,,,,,130,,130,D,Multi-ply,1
Aaron Szoke,82.5,Special Olympics,,,M,,,,,,,,,,110,,110,D,Multi-ply,2
Jeffrey Peterman,82.5,Special Olympics,,,M,,,,,,,,,,100,,100,D,Multi-ply,3
David Williams #11,82.5,Special Olympics,,,M,,,,,,,,,,97.5,,97.5,D,Multi-ply,4
Adam Markham,90,Special Olympics,,,M,,,,,,,,,,147.5,,147.5,D,Multi-ply,2
Richard Cha,90,Special Olympics,,,M,,,,,,,,,,142.5,,142.5,D,Multi-ply,3
Toby Hauptman,90,Special Olympics,,,M,,,,,,,,,,165,,165,D,Multi-ply,1
Lapalapa Togotogo,90,Special Olympics,,,M,,,,,,,,,,110,,110,D,Multi-ply,4
Bob Brewer,90,Special Olympics,,,M,,,,,,,,,,110,,110,D,Multi-ply,5
Anthon Johnson,100,Special Olympics,,,M,,,,,,,,,,222.5,,222.5,D,Multi-ply,1
Chris Dalton,100,Special Olympics,,,M,,,,,,,,,,142.5,,142.5,D,Multi-ply,2
Zach Tichava,100,Special Olympics,,,M,,,,,,,,,,117.5,,117.5,D,Multi-ply,3
Jeff Hybl,100,Special Olympics,,,M,,,,,,,,,,102.5,,102.5,D,Multi-ply,4
Brady Tanner,110,Special Olympics,,,M,,,,,,,,,,205,,205,D,Multi-ply,1
Trevor Irwin,110,Special Olympics,,,M,,,,,,,,,,140,,140,D,Multi-ply,2
Jason Souza,110,Special Olympics,,,M,,,,,,,,,,112.5,,112.5,D,Multi-ply,3
Jock Mayes,140+,Special Olympics,,,M,,,,,,,,,,167.5,,167.5,D,Multi-ply,1
Filemon Ramirez,67.5,Submasters 34-39,34-39,,M,,,,,,,,,,185,,185,D,Multi-ply,1
Monte Hokoana,75,Submasters 34-39,34-39,,M,,,,,,,,,,272.5,,272.5,D,Multi-ply,1
Marchand Fleming,75,Submasters 34-39,34-39,,M,,,,,,,,,,260,,260,D,Multi-ply,2
Richard Anderson,75,Submasters 34-39,34-39,,M,,,,,,,,,,185,,185,D,Multi-ply,3
Flávio Danna,82.5,Submasters 34-39,34-39,Brazil,M,,,,,,,,,,232.5,,232.5,D,Multi-ply,1
Matthew Taylor,82.5,Submasters 34-39,34-39,,M,,,,,,,,,,230,,230,D,Multi-ply,2
Jeff Ray,90,Submasters 34-39,34-39,,M,,,,,,,,,,312.5,,312.5,D,Multi-ply,1
Matt Bischoff,90,Submasters 34-39,34-39,,M,,,,,,,,,,295,,295,D,Multi-ply,2
Jeff Douglas #1,90,Masters 40-46,40-46,,M,,,,,,,,,,282.5,,282.5,D,Multi-ply,3
Todd Smith,90,Submasters 34-39,34-39,,M,,,,,,,,,,210,,210,D,Multi-ply,4
Evandro Casagrande,100,Submasters 34-39,34-39,Brazil,M,,,,,,,,,,330,,330,D,Multi-ply,1
Philip Anderson,100,Submasters 34-39,34-39,,M,,,,,,,,,,247.5,,247.5,D,Multi-ply,2
John Mendoza,100,Submasters 34-39,34-39,,M,,,,,,,,,,240,,240,D,Multi-ply,3
Victor Shaw,110,Submasters 34-39,34-39,,M,,,,,,,,,,220,,220,D,Multi-ply,1
Terry Putman,117.5,Submasters 34-39,34-39,,M,,,,,,,,,,300,,300,D,Multi-ply,1
Lance Davis,117.5,Submasters 34-39,34-39,,M,,,,,,,,,,280,,280,D,Multi-ply,2
Patrick Holloway,125,Submasters 34-39,34-39,,M,,,,,,,,,,347.5,,347.5,D,Multi-ply,1
John Hudson,125,Submasters 34-39,34-39,,M,,,,,,,,,,330,,330,D,Multi-ply,2
Joe Fernandez,125,Submasters 34-39,34-39,,M,,,,,,,,,,317.5,,317.5,D,Multi-ply,3
Ken Overbey,125,Submasters 34-39,34-39,,M,,,,,,,,,,247.5,,247.5,D,Multi-ply,4
Mark Phillips,140,Submasters 34-39,34-39,,M,,,,,,,,,,295,,295,D,Multi-ply,1
Dean Munsey,140+,Submasters 34-39,34-39,,M,,,,,,,,,,320,,320,D,Multi-ply,1
Bridgett Brown,90,Disabled,,,F,,,,,,,,,,102.5,,102.5,D,Multi-ply,1
Leslie Guzman,56,Juniors 20-25,20-25,,F,,48.99,,,,,,,,120,,120,D,Multi-ply,3
Stacie Sakai,56,Juniors 20-25,20-25,,F,,,,,,,,,,155,,155,D,Multi-ply,1
Erica Haislar,56,Juniors 20-25,20-25,,F,,,,,,,,,,132.5,,132.5,D,Multi-ply,2
Kristy Scott,82.5,Juniors 20-25,20-25,,F,,,,,,,,,,180,187.5,180,D,Multi-ply,1
Lisa Elliott,82.5,Juniors 20-25,20-25,,F,,,,,,,,,,152.5,,152.5,D,Multi-ply,2
Francesca Mangaoang-Brodine,90,Juniors 20-25,20-25,,F,,,,,,,,,,160,165,160,D,Multi-ply,1
Jana Prothman,90+,Juniors 20-25,20-25,,F,,,,,,,,,,165,182.5,165,D,Multi-ply,1
Camellia Luprete,82.5,Law/Fire Masters 48+,48-999,,F,,,,,,,,,,107.5,,107.5,D,Multi-ply,1
Sandra Stowers,44,Masters 40-46,40-46,,F,,,,,,,,,,120,,120,D,Multi-ply,1
Claudia Salo,52,Masters 40-46,40-46,,F,,,,,,,,,,112.5,,112.5,D,Multi-ply,1
Shauna Ferguson,52,Masters 40-46,40-46,,F,,,,,,,,,,97.5,,97.5,D,Multi-ply,2
Alison Barnhill,56,Masters 40-46,40-46,,F,,,,,,,,,,127.5,,127.5,D,Multi-ply,1
Kelly Kennedy #2,60,Masters 40-46,40-46,,F,,,,,,,,,,165,,165,D,Multi-ply,1
Suzanne Hedman,67.5,Masters 40-46,40-46,,F,,,,,,,,,,157.5,,157.5,D,Multi-ply,1
Silvia Maher,67.5,Masters 40-46,40-46,,F,,,,,,,,,,157.5,,157.5,D,Multi-ply,2
Latasia Anzai,67.5,Masters 40-46,40-46,,F,,,,,,,,,,140,,140,D,Multi-ply,3
Barbara McGowan,67.5,Masters 40-46,40-46,,F,,,,,,,,,,127.5,,127.5,D,Multi-ply,4
Bonita Betz,67.5,Masters 40-46,40-46,,F,,,,,,,,,,117.5,,117.5,D,Multi-ply,5
Jamie Rayburn,75,Masters 40-46,40-46,,F,,,,,,,,,,147.5,,147.5,D,Multi-ply,1
Shelley Moore,75,Masters 40-46,40-46,,F,,,,,,,,,,85,,85,D,Multi-ply,2
Cindy Weber,82.5,Masters 40-46,40-46,,F,,,,,,,,,,172.5,,172.5,D,Multi-ply,1
Annette Sozzi-Dangel,82.5,Masters 40-46,40-46,,F,,,,,,,,,,165,,165,D,Multi-ply,2
Pamela Michaels-Olson,82.5,Masters 40-46,40-46,,F,,,,,,,,,,125,,125,D,Multi-ply,3
Jane Morales-Costa,90+,Masters 40-46,40-46,Brazil,F,,,,,,,,,,160,,160,D,Multi-ply,1
Jeanne Morris,48,Masters 47-53,47-53,,F,,47.63,,,,,,,,97.5,102.5,97.5,D,Multi-ply,1
Sophia Zadubera,52,Masters 47-53,47-53,,F,,,,,,,,,,127.5,132.5,127.5,D,Multi-ply,1
Anita Hooson,52,Masters 47-53,47-53,,F,,,,,,,,,,115,,115,D,Multi-ply,2
Carol Ann Myers,56,Masters 47-53,47-53,,F,,,,,,,,,,187.5,,187.5,D,Multi-ply,1
Denise Ruff,56,Masters 47-53,47-53,,F,,,,,,,,,,165,,165,D,Multi-ply,2
Paula Stone,67.5,Masters 47-53,47-53,,F,,,,,,,,,,165,,165,D,Multi-ply,1
Lori Lastufka,67.5,Masters 47-53,47-53,,F,,,,,,,,,,120,,120,D,Multi-ply,2
Marilyn Lewis,82.5,Masters 47-53,47-53,,F,,,,,,,,,,145,,145,D,Multi-ply,1
Margie Huston,90,Masters 47-53,47-53,,F,,,,,,,,,,127.5,,127.5,D,Multi-ply,1
Juana Maria Mangaoang,90+,Masters 47-53,47-53,,F,,,,,,,,,,137.5,,137.5,D,Multi-ply,1
Sue Vaterlaus,90+,Masters 47-53,47-53,,F,,,,,,,,,,120,,120,D,Multi-ply,2
Mary Pederson,48,Masters 54-60,54-60,,F,,,,,,,,,,85,,85,D,Multi-ply,1
Judith Petray,75,Masters 54-60,54-60,,F,,,,,,,,,,117.5,,117.5,D,Multi-ply,1
Mary Coffey,75,Masters 54-60,54-60,,F,,,,,,,,,,92.5,,92.5,D,Multi-ply,2
Karen Polansky,90,Masters 54-60,54-60,,F,,,,,,,,,,170,,170,D,Multi-ply,1
Pat Robey,90,Masters 54-60,54-60,,F,,,,,,,,,,117.5,,117.5,D,Multi-ply,2
Sue Clark,67.5,Masters 61-67,61-67,,F,,,,,,,,,,112.5,,112.5,D,Multi-ply,1
Melicent Whinston,60,Masters 75-79,75-79,,F,78,,,,,,,,,70,72.5,70,D,Multi-ply,1
Melicent Prothman,75,Masters 75-79,75-79,,F,,,,,,,,,,57.5,60,57.5,D,Multi-ply,1
Cheryl Anderson,44,Open,,,F,,,,,,,,,165,165,,165,D,Multi-ply,1
Alexandra Vallejo,48,Open,,,F,,,,,,,,,,132.5,,132.5,D,Multi-ply,1
Carol Ann Myers,56,Open,,,F,,,,,,,,,,187.5,,187.5,D,Multi-ply,1
Jill Yamashita,56,Open,,,F,,,,,,,,,,160,,160,D,Multi-ply,2
Stacie Sakai,56,Open,,,F,,,,,,,,,,155,,155,D,Multi-ply,3
Vicki Johnson,56,Open,,,F,,,,,,,,,,115,,115,D,Multi-ply,4
Rachel Churchward,60,Open,,,F,,,,,,,,,,160,,160,D,Multi-ply,1
Jeanne Watts,67.5,Open,,,F,,,,,,,,,,175,,175,D,Multi-ply,1
Mary Ann Hobbs,67.5,Open,,,F,,,,,,,,,,140,,140,D,Multi-ply,2
Rosemary Panza,67.5,Open,,,F,,,,,,,,,,140,,140,D,Multi-ply,3
Latasia Anzai,67.5,Open,,,F,,,,,,,,,,140,,140,D,Multi-ply,4
Kristin Ohlson,67.5,Open,,,F,,,,,,,,,,127.5,,127.5,D,Multi-ply,5
Jonika Blanke,67.5,Open,,,F,,,,,,,,,,120,,120,D,Multi-ply,6
Leonetta Richardson,75,Open,,,F,,,,,,,,,,190,,190,D,Multi-ply,1
CJ McEwen,75,Open,,,F,,,,,,,,,,167.5,,167.5,D,Multi-ply,2
Sabrina Armstrong,75,Open,,,F,,,,,,,,,,162.5,,162.5,D,Multi-ply,3
Cindy Weber,82.5,Open,,,F,,,,,,,,,,172.5,,172.5,D,Multi-ply,1
Randalyn Nohara,90,Open,,,F,14,,,,,,,,,185,,185,D,Multi-ply,1
Dawn Richards,90+,Open,,,F,,,,,,,,,,192.5,,192.5,D,Multi-ply,1
Brooke Bourg,90+,Open,,,F,,,,,,,,,,175,,175,D,Multi-ply,2
Cherrie Six,90+,Open,,,F,,,,,,,,,,170,,170,D,Multi-ply,3
Rosario Mangaoang-Brodine,90+,Open,,,F,,,,,,,,,,160,165,160,D,Multi-ply,4
Jane Morales-Costa,90+,Open,,Brazil,F,,,,,,,,,,160,,160,D,Multi-ply,5
Soledad Rosas,48,Special Olympics,,,F,,,,,,,,,,62.5,,62.5,D,Multi-ply,1
Minh LeVuong,52,Special Olympics,,,F,,,,,,,,,,62.5,,62.5,D,Multi-ply,1
Lisa Wilson #4,52,Special Olympics,,,F,,,,,,,,,,55,,55,D,Multi-ply,2
Manya Wadera,67.5,Special Olympics,,,F,,,,,,,,,,55,,55,D,Multi-ply,1
Emily Matlack,90,Special Olympics,,,F,,,,,,,,,,95,,95,D,Multi-ply,1
Holly Matlack,90+,Special Olympics,,,F,,,,,,,,,,92.5,,92.5,D,Multi-ply,1
Elizabeth Díaz,90+,Special Olympics,,,F,,,,,,,,,,67.5,,67.5,D,Multi-ply,2
Carmela Baqui,44,Submasters 34-39,34-39,,F,,,,,,,,,,95,,95,D,Multi-ply,1
Alexandra Vallejo,48,Submasters 34-39,34-39,,F,,,,,,,,,,132.5,,132.5,D,Multi-ply,1
Tami McGonagle,52,Submasters 34-39,34-39,,F,,,,,,,,,,125,,125,D,Multi-ply,1
Jeanne Braguine,56,Submasters 34-39,34-39,,F,,,,,,,,,,140,,140,D,Multi-ply,1
Lucia Feraud Montenegro,60,Submasters 34-39,34-39,Ecuador,F,,,,,,,,,,130,,130,D,Multi-ply,1
Jeanne Watts,67.5,Submasters 34-39,34-39,,F,,,,,,,,,,175,,175,D,Multi-ply,1
Robin Jones,67.5,Submasters 34-39,34-39,,F,,,,,,,,,,142.5,,142.5,D,Multi-ply,2
Rosemary Panza,67.5,Submasters 34-39,34-39,,F,,,,,,,,,,140,,140,D,Multi-ply,3
Teresa Jacobs,75,Submasters 34-39,34-39,,F,,,,,,,,,,175,,175,D,Multi-ply,1
Jodi Steele,82.5,Submasters 34-39,34-39,,F,,,,,,,,,,170,,170,D,Multi-ply,1
Susan Jackson,90,Submasters 34-39,34-39,,F,,,,,,,,,,175,,175,D,Multi-ply,1
Brittany Braguine,67.5,Teen 13-15,13-15,,F,,,,,,,,,,155,,155,D,Multi-ply,1
Tabatha Colchado,75,Teen 13-15,13-15,,F,,,,,,,,,,57.5,,57.5,D,Multi-ply,1
Randalyn Nohara,90,Teen 13-15,13-15,,F,14,,,,,,,,,185,,185,D,Multi-ply,1
Kayla Taueli,90+,Teen 13-15,13-15,,F,15,,,,,,,,,210,,210,D,Multi-ply,1
Kaila Fairchild,56,Teen 16-19,16-19,,F,,,,,,,,,,115,,115,D,Multi-ply,1
Karina Phipps,56,Teen 16-19,16-19,,F,,,,,,,,,,112.5,,112.5,D,Multi-ply,2
Marie Rochat,67.5,Teen 16-19,16-19,,F,,,,,,,,,,152.5,160,152.5,D,Multi-ply,1
Amanda Proctor,67.5,Teen 16-19,16-19,,F,,,,,,,,,,135,,135,D,Multi-ply,2
Nikki Williams,75,Teen 16-19,16-19,,F,,,,,,,,,,135,,135,D,Multi-ply,1
Alexandria Calvo,90,Teen 16-19,16-19,,F,,,,,,,,,,160,,160,D,Multi-ply,1
Bridgett Brown,90,Teen 16-19,16-19,,F,,,,,,,,,,102.5,,102.5,D,Multi-ply,2
Lauren Vaterlaus,90+,Teen 16-19,16-19,,F,,,,,,,,,,117.5,,117.5,D,Multi-ply,1
Van Williams,56,Class 1,,,M,,,,,,85,,,,,,85,B,Multi-ply,1
Alexander Kang,60,Class 1,,,M,,,,,,90,,,,,,90,B,Multi-ply,1
Mark Feldman,75,Class 1,,,M,,,,,,195,,,,,,195,B,Multi-ply,1
Kenny Bateman,75,Class 1,,,M,,,,,,185,,,,,,185,B,Multi-ply,2
Randy Coffey,75,Class 1,,,M,,,,,,170,,,,,,170,B,Multi-ply,3
Kyle Herzik,75,Class 1,,,M,,,,,,125,,,,,,125,B,Multi-ply,4
Jessie Mayes,75,Class 1,,,M,,,,,,115,,,,,,115,B,Multi-ply,5
Andrew Kim,82.5,Class 1,,,M,,,,,,192.5,,,,,,192.5,B,Multi-ply,1
Clifton Bonds,82.5,Class 1,,,M,,,,,,182.5,,,,,,182.5,B,Multi-ply,2
Anthony Zaffino,82.5,Class 1,,,M,,,,,,180,,,,,,180,B,Multi-ply,3
Rolando Espinoza,82.5,Class 1,,,M,,,,,,172.5,,,,,,172.5,B,Multi-ply,4
Brandon Alvarez,82.5,Class 1,,,M,,,,,,165,,,,,,165,B,Multi-ply,5
Daniel Fisher,82.5,Class 1,,,M,,,,,,160,,,,,,160,B,Multi-ply,6
Bill Cox,90,Class 1,,,M,,,,,,202.5,,,,,,202.5,B,Multi-ply,1
David Bradshaw,90,Class 1,,,M,,,,,,192.5,,,,,,192.5,B,Multi-ply,2
Ken Dinolfo,90,Class 1,,,M,,,,,,187.5,,,,,,187.5,B,Multi-ply,3
Joe Amoureux-Hawk,90,Class 1,,,M,,,,,,167.5,,,,,,167.5,B,Multi-ply,4
Jim Stinson,90,Class 1,,,M,,,,,,142.5,,,,,,142.5,B,Multi-ply,5
Floyd Jackson Jr,90,Class 1,,,M,,,,,,97.5,,,,,,97.5,B,Multi-ply,6
Tony Leach,100,Class 1,,,M,,,,,,222.5,,,,,,222.5,B,Multi-ply,1
Ed Barnes,100,Class 1,,,M,,,,,,215,,,,,,215,B,Multi-ply,2
Doug Tracy,100,Class 1,,,M,,,,,,212.5,,,,,,212.5,B,Multi-ply,3
Mark Hatfield,100,Class 1,,,M,,,,,,210,,,,,,210,B,Multi-ply,4
Bruce Nichols,100,Class 1,,,M,,,,,,202.5,,,,,,202.5,B,Multi-ply,5
Thomas Reiher,100,Class 1,,,M,,,,,,202.5,,,,,,202.5,B,Multi-ply,6
Rich Yost,100,Class 1,,,M,,,,,,192.5,,,,,,192.5,B,Multi-ply,7
Jamie Bennett,100,Class 1,,,M,,,,,,190,,,,,,190,B,Multi-ply,8
Joshua Schrag,100,Class 1,,,M,,,,,,182.5,,,,,,182.5,B,Multi-ply,9
Dave Marba,100,Class 1,,,M,,,,,,182.5,,,,,,182.5,B,Multi-ply,10
Matt O'Malley,100,Class 1,,,M,,,,,,180,,,,,,180,B,Multi-ply,11
Gabe Richesson,100,Class 1,,,M,,,,,,170,,,,,,170,B,Multi-ply,12
Richard Joachim,100,Class 1,,,M,,,,,,160,,,,,,160,B,Multi-ply,13
Dan Finkenstadt,100,Class 1,,,M,,,,,,160,,,,,,160,B,Multi-ply,14
Janne Heittokangas,110,Class 1,,Finland,M,,,,,,230,,,,,,230,B,Multi-ply,1
Douglas Pelott,110,Class 1,,,M,,,,,,207.5,,,,,,207.5,B,Multi-ply,2
Juan Laija #1,110,Class 1,,,M,,,,,,192.5,,,,,,192.5,B,Multi-ply,3
Tim Prince,110,Class 1,,,M,,,,,,192.5,,,,,,192.5,B,Multi-ply,4
Harland Barrett,110,Class 1,,,M,,,,,,182.5,,,,,,182.5,B,Multi-ply,5
Andy Herrera,110,Class 1,,,M,,,,,,182.5,,,,,,182.5,B,Multi-ply,6
Jeff Gaudern,110,Class 1,,,M,,,,,,175,,,,,,175,B,Multi-ply,7
Michael Smyser,117.5,Class 1,,,M,,,,,,210,,,,,,210,B,Multi-ply,1
Terry Putman,117.5,Class 1,,,M,,,,,,205,,,,,,205,B,Multi-ply,2
Frank Gonzales,117.5,Class 1,,,M,,,,,,200,,,,,,200,B,Multi-ply,3
Eric Krych,117.5,Class 1,,,M,,,,,,200,,,,,,200,B,Multi-ply,4
Brandon Runnestrand,117.5,Class 1,,,M,,,,,,200,,,,,,200,B,Multi-ply,5
Joseph McMurray,117.5,Class 1,,,M,,,,,,197.5,,,,,,197.5,B,Multi-ply,6
Greg Ramsdell,117.5,Class 1,,,M,,,,,,185,,,,,,185,B,Multi-ply,7
Robert Budd,117.5,Class 1,,,M,,,,,,180,,,,,,180,B,Multi-ply,8
Ricardo Nort,125,Class 1,,Brazil,M,,,,,,260,,,,,,260,B,Multi-ply,1
Jim Presley,125,Class 1,,,M,,,,,,245,,,,,,245,B,Multi-ply,2
Carl Wimmer,125,Class 1,,,M,,,,,,227.5,,,,,,227.5,B,Multi-ply,3
Dustin Freelund,125,Class 1,,,M,,,,,,220,,,,,,220,B,Multi-ply,4
Bruce Sabin,125,Class 1,,,M,,,,,,210,,,,,,210,B,Multi-ply,5
Ken Overbey,125,Class 1,,,M,,,,,,205,,,,,,205,B,Multi-ply,6
Tilden Watson,125,Class 1,,,M,,,,,,205,,,,,,205,B,Multi-ply,7
Mario Ceccarelli,140,Class 1,,,M,,,,,,237.5,,,,,,237.5,B,Multi-ply,1
Bill Alex,140,Class 1,,,M,,,,,,212.5,,,,,,212.5,B,Multi-ply,2
Chris Kribs,140,Class 1,,,M,,,,,,202.5,,,,,,202.5,B,Multi-ply,3
Bradley Butler,140,Class 1,,,M,,,,,,190,,,,,,190,B,Multi-ply,4
Leo Contreras,140+,Class 1,,,M,,,,,,200,,,,,,200,B,Multi-ply,1
Bryan Huffer,82.5,Disabled,,,M,,,,,,60,,,,,,60,B,Multi-ply,2
Matthew Taylor,82.5,Disabled,,,M,,,,,,115,,,,,,115,B,Multi-ply,1
Steve Peña #1,100,Disabled,,,M,,,,,,190,,,,,,190,B,Multi-ply,1
Cody Colchado,110,Disabled,,,M,,,,,,205,,,,,,205,B,Multi-ply,1
Charles Siddle,110,Disabled,,,M,,,,,,142.5,,,,,,142.5,B,Multi-ply,2
James Longwell,110,Disabled,,,M,,,,,,77.5,,,,,,77.5,B,Multi-ply,3
Omar Sanchez,140,Disabled,,,M,,,,,,212.5,,,,,,212.5,B,Multi-ply,1
Ryan Kennelly,140+,Open,,,M,,145.15,-372.5,-397.5,-410,,,,,,,,B,Multi-ply,DQ
Stefen Hudson,48,Juniors 20-25,20-25,,M,,,,,,40,,,,,,40,B,Multi-ply,1
Andres Valleza,67.5,Juniors 20-25,20-25,,M,,,,,,172.5,,,,,,172.5,B,Multi-ply,1
Ziemowit Mazur,67.5,Juniors 20-25,20-25,Poland,M,,,,,,112.5,,,,,,112.5,B,Multi-ply,2
Anthony Benezra,67.5,Juniors 20-25,20-25,,M,,,,,,95,,,,,,95,B,Multi-ply,3
Floyd Jackson III,67.5,Juniors 20-25,20-25,,M,,,,,,65,,,,,,65,B,Multi-ply,4
John Alves,75,Juniors 20-25,20-25,,M,,,,,,192.5,,,,,,192.5,B,Multi-ply,1
Jeremy Benezra,75,Juniors 20-25,20-25,,M,,,,,,152.5,,,,,,152.5,B,Multi-ply,2
Blake Richards #2,75,Juniors 20-25,20-25,,M,,,,,,135,,,,,,135,B,Multi-ply,3
Taurean McKenzie,75,Juniors 20-25,20-25,New Zealand,M,,,,,,120,,,,,,120,B,Multi-ply,4
Stephen Judah,82.5,Juniors 20-25,20-25,,M,,,,,,220,,,,,,220,B,Multi-ply,1
Andrew Kim,82.5,Juniors 20-25,20-25,,M,,,,,,192.5,,,,,,192.5,B,Multi-ply,2
Clifton Bonds,82.5,Juniors 20-25,20-25,,M,,,,,,182.5,,,,,,182.5,B,Multi-ply,3
Anthony Zaffino,82.5,Juniors 20-25,20-25,,M,,,,,,180,,,,,,180,B,Multi-ply,4
Ken Dinolfo,90,Juniors 20-25,20-25,,M,,,,,,187.5,,,,,,187.5,B,Multi-ply,1
Matt Bell,90,Juniors 20-25,20-25,,M,,,,,,170,,,,,,170,B,Multi-ply,2
Joe Amoureux-Hawk,90,Juniors 20-25,20-25,,M,,,,,,167.5,,,,,,167.5,B,Multi-ply,3
Jon Leftwich,90,Juniors 20-25,20-25,,M,,,,,,167.5,,,,,,167.5,B,Multi-ply,4
Jared Bachmeier,90,Juniors 20-25,20-25,,M,,,,,,,,,,,,,B,Multi-ply,DQ
Jerame Linnell,100,Juniors 20-25,20-25,,M,,,,,,222.5,,,,,,222.5,B,Multi-ply,1
Jason Hoyt,100,Juniors 20-25,20-25,,M,,,,,,215,,,,,,215,B,Multi-ply,2
Eric Gunn,100,Juniors 20-25,20-25,,M,,,,,,205,,,,,,205,B,Multi-ply,3
Jason Smith,100,Juniors 20-25,20-25,,M,,,,,,200,,,,,,200,B,Multi-ply,4
Dennis Schmidt Jr,100,Juniors 20-25,20-25,,M,,,,,,167.5,,,,,,167.5,B,Multi-ply,5
Gary Parquette,100,Juniors 20-25,20-25,,M,,,,,,145,,,,,,145,B,Multi-ply,6
Dusty Burns,100,Juniors 20-25,20-25,,M,,,,,,,,,,,,,B,Multi-ply,DQ
Richard McKeefer,110,Juniors 20-25,20-25,,M,,,,262.5,-272.5,262.5,,,,,,262.5,B,Multi-ply,1
Josh Nelson,110,Juniors 20-25,20-25,,M,,,,,,190,,,,,,190,B,Multi-ply,2
Mike Womack #1,117.5,Juniors 20-25,20-25,,M,21,,,,,257.5,272.5,,,,,257.5,B,Multi-ply,1
Jerry Pritchett,125,Juniors 20-25,20-25,,M,,,,,,197.5,,,,,,197.5,B,Multi-ply,1
Joseph Cisneros,140,Juniors 20-25,20-25,,M,,,,,,260,,,,,,260,B,Multi-ply,1
David Lewis,140+,Juniors 20-25,20-25,,M,,,,,,172.5,,,,,,172.5,B,Multi-ply,1
Bradford Campbell,140+,Juniors 20-25,20-25,,M,,,,,,157.5,,,,,,157.5,B,Multi-ply,2
Dave Edmondson,67.5,Law/Fire Masters 40-47,40-47,,M,47,66.59,,,,140,145,,,,,140,B,Multi-ply,1
Kenneth Cook #2,75,Law/Fire Masters 40-47,40-47,,M,,,,,,202.5,,,,,,202.5,B,Multi-ply,1
LeeRoy Banks,90,Law/Fire Masters 40-47,40-47,,M,,,,,,217.5,,,,,,217.5,B,Multi-ply,1
Rudy Lopez,90,Law/Fire Masters 40-47,40-47,,M,,,,,,210,,,,,,210,B,Multi-ply,2
Carl Nishida,90,Law/Fire Masters 40-47,40-47,,M,,,,,,187.5,,,,,,187.5,B,Multi-ply,3
Zach Clark,100,Law/Fire Masters 40-47,40-47,,M,,,,,,187.5,,,,,,187.5,B,Multi-ply,1
Mike McKenzie,110,Law/Fire Masters 40-47,40-47,,M,,,,,,240,,,,,,240,B,Multi-ply,1
Reed Bueche,117.5,Law/Fire Masters 40-47,40-47,,M,,,,,,232.5,,,,,,232.5,B,Multi-ply,1
Walt Faulkner,125,Law/Fire Masters 40-47,40-47,,M,,,,,,215,,,,,,215,B,Multi-ply,1
Ken Eyre,125,Law/Fire Masters 40-47,40-47,,M,,,,,,212.5,,,,,,212.5,B,Multi-ply,2
Wayne Watts,140,Law/Fire Masters 40-47,40-47,,M,,132,,,,272.5,,,,,,272.5,B,Multi-ply,1
Jaime Tovar,140,Law/Fire Masters 40-47,40-47,,M,,,,,,255,,,,,,255,B,Multi-ply,2
Dave Marchant,140+,Law/Fire Masters 40-47,40-47,,M,,,,,,287.5,295,,,,,287.5,B,Multi-ply,1
John Minahan,140+,Law/Fire Masters 40-47,40-47,,M,,,,,,260,,,,,,260,B,Multi-ply,2
David Martinez #7,100,Law/Fire Masters 48+,48-999,,M,,,,,,193,195,,,,,193,B,Multi-ply,1
Kevin Heller,100,Law/Fire Masters 48+,48-999,,M,,,,,,180,,,,,,180,B,Multi-ply,2
Roger Ryan,117.5,Law/Fire Masters 48+,48-999,,M,,,,,,240,,,,,,240,B,Multi-ply,1
Ed Acey,117.5,Law/Fire Masters 48+,48-999,,M,,,,,,195,,,,,,195,B,Multi-ply,2
Bruce Sabin,125,Law/Fire Masters 48+,48-999,,M,,,,,,217.5,,,,,,217.5,B,Multi-ply,1
John Beggs,125,Law/Fire Masters 48+,48-999,,M,,,,,,192.5,,,,,,192.5,B,Multi-ply,2
John von Rohr,140,Law/Fire Masters 48+,48-999,,M,,,,,,185,,,,,,185,B,Multi-ply,1
Dave Edmondson,67.5,Law/Fire Open,,,M,47,66.59,,,,140,145,,,,,140,B,Multi-ply,1
David Renn,67.5,Law/Fire Open,,,M,,,,,,132.5,,,,,,132.5,B,Multi-ply,2
Mark Feldman,75,Law/Fire Open,,,M,,,,,,195,,,,,,195,B,Multi-ply,1
Charles Walker,82.5,Law/Fire Open,,,M,,,,,,235,240,,,,,235,B,Multi-ply,1
Darren Carr,82.5,Law/Fire Open,,,M,,,,,,182.5,,,,,,182.5,B,Multi-ply,2
David Bickerstaff,82.5,Law/Fire Open,,,M,,,,,,160,,,,,,160,B,Multi-ply,3
James Whitney,90,Law/Fire Open,,,M,,,,,,242.5,,,,,,242.5,B,Multi-ply,1
Sean Boyle,90,Law/Fire Open,,,M,,,,,,222.5,,,,,,222.5,B,Multi-ply,2
Rudy Lopez,90,Law/Fire Open,,,M,,,,,,210,,,,,,210,B,Multi-ply,3
Pablo Arriaga,90,Law/Fire Open,,,M,,,,,,200,,,,,,200,B,Multi-ply,4
Matt LaMarque,100,Law/Fire Open,,,M,,,,,,337.5,350,,,,,337.5,B,Multi-ply,1
Wayne Prose,100,Law/Fire Open,,,M,,,,,,232.5,,,,,,232.5,B,Multi-ply,2
Richard Niemritz,100,Law/Fire Open,,,M,,,,,,220,,,,,,220,B,Multi-ply,3
Jason Jackson #7,110,Law/Fire Open,,,M,,,,,,337.5,350,,,,,337.5,B,Single-ply,1
Richard McKeefer,110,Law/Fire Open,,,M,,,,,,262.5,,,,,,262.5,B,Multi-ply,2
Derek Arredondo,110,Law/Fire Open,,,M,,,,,,237.5,,,,,,237.5,B,Multi-ply,3
Tim Prince,110,Law/Fire Open,,,M,,,,,,192.5,,,,,,192.5,B,Multi-ply,4
Dan Blankenship,110,Law/Fire Open,,,M,,,,,,160,,,,,,160,B,Multi-ply,5
Dusty Burns,110,Law/Fire Open,,,M,,,,,,,,,,,,,B,Multi-ply,DQ
Andrew Porter,117.5,Law/Fire Open,,,M,,,,,,235,,,,,,235,B,Multi-ply,1
Cale Sherwood,117.5,Law/Fire Open,,,M,,,,,,215,,,,,,215,B,Multi-ply,2
Carl Wimmer,125,Law/Fire Open,,,M,,,,,,227.5,,,,,,227.5,B,Multi-ply,1
Wayne Watts,140,Law/Fire Open,,,M,,132,,,,272.5,,,,,,272.5,B,Multi-ply,1
Joseph Cisneros,140,Law/Fire Open,,,M,,,,,,260,,,,,,260,B,Multi-ply,2
Frank Delatorre,140+,Law/Fire Open,,,M,,,,,,262.5,,,,,,262.5,B,Multi-ply,1
Dennis Schultz,140+,Law/Fire Open,,,M,,,,,,240,,,,,,240,B,Multi-ply,2
David Renn,67.5,Law/Fire Submasters 34-39,34-39,,M,,,,,,132.5,,,,,,132.5,B,Multi-ply,1
Richard Anderson,75,Law/Fire Submasters 34-39,34-39,,M,,,,,,125,,,,,,125,B,Multi-ply,1
AJ Agamao,82.5,Law/Fire Submasters 34-39,34-39,,M,,,,,,237.5,,,,,,237.5,B,Multi-ply,1
Pablo Arriaga,90,Law/Fire Submasters 34-39,34-39,,M,,,,,,200,,,,,,200,B,Multi-ply,1
Steven Pearson,90,Law/Fire Submasters 34-39,34-39,,M,,,,,,187.5,,,,,,187.5,B,Multi-ply,2
Barran Stone,90,Law/Fire Submasters 34-39,34-39,,M,,,,,,157.5,,,,,,157.5,B,Multi-ply,3
Richard Niemritz,100,Law/Fire Submasters 34-39,34-39,,M,,,,,,220,,,,,,220,B,Multi-ply,1
Dalen Randa,100,Law/Fire Submasters 34-39,34-39,,M,,,,,,207.5,,,,,,207.5,B,Multi-ply,2
John DeLuca,100,Law/Fire Submasters 34-39,34-39,,M,,,,,,152.5,,,,,,152.5,B,Multi-ply,3
Frank Wakakuwa,110,Law/Fire Submasters 34-39,34-39,,M,,,,,,287.5,,,,,,287.5,B,Multi-ply,1
Lance Davis,117.5,Law/Fire Submasters 34-39,34-39,,M,,,,,,182.5,,,,,,182.5,B,Multi-ply,1
Kenneth Cook #2,75,Masters 40-46,40-46,,M,,,,,,202.5,,,,,,202.5,B,Multi-ply,1
Bob Levering,82.5,Masters 40-46,40-46,,M,,,,,,215,,,,,,215,B,Multi-ply,1
Jeff Woods,82.5,Masters 40-46,40-46,,M,,,,,,177.5,,,,,,177.5,B,Multi-ply,2
Greg Brink,82.5,Masters 40-46,40-46,,M,,,,,,177.5,,,,,,177.5,B,Multi-ply,3
Rolando Espinoza,82.5,Masters 40-46,40-46,,M,,,,,,172.5,,,,,,172.5,B,Multi-ply,4
Fred Stokes,82.5,Masters 40-46,40-46,,M,,,,,,155,,,,,,155,B,Multi-ply,5
David Brekke,82.5,Masters 40-46,40-46,,M,,,,,,125,,,,,,125,B,Multi-ply,6
Ed Morishima,90,Masters 40-46,40-46,,M,,,,,,245,,,,,,245,B,Multi-ply,1
LeeRoy Banks,90,Masters 40-46,40-46,,M,,,,,,185,,,,,,185,B,Multi-ply,5
Fil Dena III,90,Masters 40-46,40-46,,M,,,,,,182.5,,,,,,182.5,B,Multi-ply,6
Bill Cox,90,Masters 40-46,40-46,,M,,,,,,200,,,,,,200,B,Multi-ply,2
Joe Castorina,90,Masters 40-46,40-46,,M,,,,,,200,,,,,,200,B,Multi-ply,3
Leslie Phillips #2,90,Masters 40-46,40-46,,M,,,,,,195,,,,,,195,B,Multi-ply,4
Raymond Clift,90,Masters 40-46,40-46,,M,,,,,,172.5,,,,,,172.5,B,Multi-ply,7
James Cavanaugh,90,Masters 40-46,40-46,,M,,,,,,172.5,,,,,,172.5,B,Multi-ply,8
Darrell Horn,90,Masters 40-46,40-46,,M,,,,,,162.5,,,,,,162.5,B,Multi-ply,9
Paul Radmilovich,90,Masters 40-46,40-46,,M,,,,,,152.5,,,,,,152.5,B,Multi-ply,10
Don Moser,90,Masters 40-46,40-46,,M,,,,,,,,,,,,,B,Multi-ply,DQ
Kenneth Millrany,100,Masters 40-46,40-46,,M,,,,,,260,,,,,,260,B,Multi-ply,1
Johnny Campbell,100,Masters 40-46,40-46,,M,,,,,,217.5,,,,,,217.5,B,Multi-ply,2
Juha Pukkila,100,Masters 40-46,40-46,Finland,M,,,,,,200,,,,,,200,B,Multi-ply,3
Mark Straley,100,Masters 40-46,40-46,,M,,,,,,170,,,,,,170,B,Multi-ply,4
Mike DeGennaro,100,Masters 40-46,40-46,,M,,,,,,,,,,,,,B,Multi-ply,DQ
Robert Harris,100,Masters 40-46,40-46,,M,,,,,,,,,,,,,B,Multi-ply,DQ
Russ Kitani,110,Masters 40-46,40-46,,M,,,,,,275,,,,,,275,B,Multi-ply,1
Ed Wilkinson,110,Masters 40-46,40-46,,M,,,,,,272.5,,,,,,272.5,B,Multi-ply,2
Doug Haycraft,110,Masters 40-46,40-46,,M,,,,,,227.5,,,,,,227.5,B,Multi-ply,4
Darwin English,110,Masters 40-46,40-46,,M,,,,,,235,,,,,,235,B,Multi-ply,3
Thomas Luce,110,Masters 40-46,40-46,,M,,,,,,217.5,,,,,,217.5,B,Multi-ply,5
Mike Bennett,110,Masters 40-46,40-46,,M,,,,,,200,,,,,,200,B,Multi-ply,6
George Phipps,110,Masters 40-46,40-46,,M,,,,,,177.5,,,,,,177.5,B,Multi-ply,7
Bill Webb,110,Masters 40-46,40-46,,M,,,,,,165,,,,,,165,B,Multi-ply,8
Cody Colchedo,110,Masters 40-46,40-46,,M,,,,,,,,,,,,,B,Multi-ply,DQ
Rich Ludlam,117.5,Masters 40-46,40-46,,M,,,,,,267.5,,,,,,267.5,B,Multi-ply,1
Todd Christensen,117.5,Masters 40-46,40-46,,M,,,,,,237.5,,,,,,237.5,B,Multi-ply,2
Reed Bueche,117.5,Masters 40-46,40-46,,M,,,,,,232.5,,,,,,232.5,B,Multi-ply,3
Mark Stanford,117.5,Masters 40-46,40-46,,M,,,,,,227.5,,,,,,227.5,B,Multi-ply,4
Tom Starkweather,117.5,Masters 40-46,40-46,,M,,,,,,220,,,,,,220,B,Multi-ply,5
Frank Gonzales,117.5,Masters 40-46,40-46,,M,,,,,,200,,,,,,200,B,Multi-ply,6
Joseph McMurray,117.5,Masters 40-46,40-46,,M,,,,,,197.5,,,,,,197.5,B,Multi-ply,7
Greg Ramsdell,117.5,Masters 40-46,40-46,,M,,,,,,185,,,,,,185,B,Multi-ply,8
Jeff Peshek,125,Masters 40-46,40-46,,M,,,,,,317.5,,,,,,317.5,B,Multi-ply,1
Jim Presley,125,Masters 40-46,40-46,,M,,,,,,245,,,,,,245,B,Multi-ply,2
Tom Manno,140,Masters 40-46,40-46,,M,,,,,,295,,,,,,295,B,Multi-ply,1
Bradley Butler,140,Masters 40-46,40-46,,M,,,,,,190,,,,,,190,B,Multi-ply,2
Ray Gandeza Jr,140,Masters 40-46,40-46,,M,,,,,,172.5,,,,,,172.5,B,Multi-ply,3
Bill Gillespie,140+,Masters 40-46,40-46,,M,,,,332.5,-355,332.5,,,,,,332.5,B,Multi-ply,1
Mike Hamby,140+,Masters 40-46,40-46,,M,,,,,,297.5,,,,,,297.5,B,Multi-ply,2
Dave Marchant,140+,Masters 40-46,40-46,,M,,,,,,287.5,295,,,,,287.5,B,Multi-ply,3
Thomas McKinney #1,140+,Masters 40-46,40-46,,M,,,,,,250,,,,,,250,B,Multi-ply,4
David Chase,140+,Masters 40-46,40-46,,M,,,,,,235,,,,,,235,B,Multi-ply,5
Jim Sheffield,140+,Masters 40-46,40-46,,M,,,,,,,,,,,,,B,Multi-ply,DQ
Gary Bobrovitz,60,Masters 47-53,47-53,Canada,M,,,,,,127.5,,,,,,127.5,B,Multi-ply,1
Steve Gee,60,Masters 47-53,47-53,,M,,,,,,122.5,,,,,,122.5,B,Multi-ply,2
Alfredo Evangelista,67.5,Masters 47-53,47-53,,M,,,,,,185,,,,,,185,B,Multi-ply,1
David Higgins,67.5,Masters 47-53,47-53,,M,,,,,,85,,,,,,85,B,Multi-ply,2
Sheldon Weingust,75,Masters 47-53,47-53,,M,,,,,,200,,,,,,200,B,Multi-ply,1
John Tyree,75,Masters 47-53,47-53,,M,,,,,,157.5,,,,,,157.5,B,Multi-ply,2
Tom Corey,75,Masters 47-53,47-53,,M,,,,,,110,,,,,,110,B,Multi-ply,3
Nick Santarone,82.5,Masters 47-53,47-53,,M,,,,,,210,215,,,,,210,B,Multi-ply,1
Perry Plush,82.5,Masters 47-53,47-53,,M,,,,,,162.5,,,,,,162.5,B,Multi-ply,2
Brian Welker,90,Masters 47-53,47-53,,M,,,,,,195,,,,,,195,B,Multi-ply,1
Steve Swingle,90,Masters 47-53,47-53,,M,,,,,,187.5,,,,,,187.5,B,Multi-ply,2
Ernest Reyes,90,Masters 47-53,47-53,,M,,,,,,182.5,,,,,,182.5,B,Multi-ply,3
Mike McCormack,90,Masters 47-53,47-53,,M,,,,,,165,,,,,,165,B,Multi-ply,4
Mark Mauldin,90,Masters 47-53,47-53,,M,,,,,,165,,,,,,165,B,Multi-ply,5
Todd Robinson,90,Masters 47-53,47-53,,M,,,,,,152.5,,,,,,152.5,B,Multi-ply,6
David Bertier,90,Masters 47-53,47-53,,M,,,,,,142.5,,,,,,142.5,B,Multi-ply,7
Tony Leach,100,Masters 47-53,47-53,,M,,,,,,222.5,,,,,,222.5,B,Multi-ply,1
Nick Dwinell,100,Masters 47-53,47-53,,M,,,,,,222.5,,,,,,222.5,B,Multi-ply,2
Mike Berteaux,100,Masters 47-53,47-53,,M,,,,,,202.5,,,,,,202.5,B,Multi-ply,3
David Martinez #7,100,Masters 47-53,47-53,,M,,,,,,192.5,,,,,,192.5,B,Multi-ply,4
Randy Marchant,100,Masters 47-53,47-53,,M,,,,,,185,,,,,,185,B,Multi-ply,5
Mike Sinner,100,Masters 47-53,47-53,,M,,,,,,185,,,,,,185,B,Multi-ply,6
Ronald Proctor,100,Masters 47-53,47-53,,M,,,,,,177.5,,,,,,177.5,B,Multi-ply,7
Kenneth Grizzle,110,Masters 47-53,47-53,,M,,,,,,157.5,,,,,,157.5,B,Multi-ply,4
Bennie Dooley,110,Masters 47-53,47-53,,M,,,,,,230,,,,,,230,B,Multi-ply,1
Rob Carbo,110,Masters 47-53,47-53,,M,,,,,,185,,,,,,185,B,Multi-ply,2
Kevin Smith #11,110,Masters 47-53,47-53,,M,,,,,,182.5,,,,,,182.5,B,Multi-ply,3
Buddy McKee,125,Masters 47-53,47-53,,M,,,,,,227.5,,,,,,227.5,B,Multi-ply,2
Joe Harms,125,Masters 47-53,47-53,,M,,,,,,250,,,,,,250,B,Multi-ply,1
Ken Eyre,125,Masters 47-53,47-53,,M,,,,,,185,,,,,,185,B,Multi-ply,4
Austin Webb,125,Masters 47-53,47-53,,M,,,,,,195,,,,,,195,B,Multi-ply,3
Michal Johnson,125,Masters 47-53,47-53,,M,,,,,,,,,,,,,B,Multi-ply,DQ
Joe Mickelson,140,Masters 47-53,47-53,,M,,,,,,207.5,,,,,,207.5,B,Multi-ply,1
John Minahan,140+,Masters 47-53,47-53,,M,,,,,,272.5,,,,,,272.5,B,Multi-ply,1
Leo Contreras,140+,Masters 47-53,47-53,,M,,,,,,200,,,,,,200,B,Multi-ply,2
Ted Feight,67.5,Masters 54-60,54-60,,M,,,,,,97.5,,,,,,97.5,B,Multi-ply,1
Alan Sheen,75,Masters 54-60,54-60,,M,,,,,,100,,,,,,100,B,Multi-ply,1
Jerry McCamman,82.5,Masters 54-60,54-60,,M,,,,,,155,,,,,,155,B,Multi-ply,1
Rich Tsutsui,82.5,Masters 54-60,54-60,,M,,,,,,155,,,,,,155,B,Multi-ply,2
Daniel Hawkinson,82.5,Masters 54-60,54-60,,M,,,,,,155,,,,,,155,B,Multi-ply,3
Roberto Contreras,82.5,Masters 54-60,54-60,,M,,,,,,152.5,,,,,,152.5,B,Multi-ply,4
Jaime Alvarez,82.5,Masters 54-60,54-60,,M,,,,,,142.5,,,,,,142.5,B,Multi-ply,5
Eric Ansberry,82.5,Masters 54-60,54-60,,M,,,,,,132.5,,,,,,132.5,B,Multi-ply,6
Dan Swift,90,Masters 54-60,54-60,,M,,,,,,195,,,,,,195,B,Multi-ply,1
Steve Ramey,90,Masters 54-60,54-60,,M,,,,,,190,,,,,,190,B,Multi-ply,2
Godfrey Holzinger,90,Masters 54-60,54-60,,M,,,,,,160,,,,,,160,B,Multi-ply,3
Jim Snodgrass,90,Masters 54-60,54-60,,M,,,,,,155,,,,,,155,B,Multi-ply,4
Bob Hochstein,90,Masters 54-60,54-60,,M,,,,,,152.5,,,,,,152.5,B,Multi-ply,5
Ronal Edwards,100,Masters 54-60,54-60,,M,,,,,,185,,,,,,185,B,Multi-ply,3
Jarnail Singh Birring,100,Masters 54-60,54-60,India,M,,,,,,192.5,,,,,,192.5,B,Multi-ply,1
Dave Marba,100,Masters 54-60,54-60,,M,,,,,,192.5,,,,,,192.5,B,Multi-ply,2
Tom Haggenmiller,100,Masters 54-60,54-60,,M,,,,,,142.5,,,,,,142.5,B,Multi-ply,4
Mickey Glasco,100,Masters 54-60,54-60,,M,,,,,,127.5,,,,,,127.5,B,Multi-ply,5
Greg Fay,100,Masters 54-60,54-60,,M,,,,,,127.5,,,,,,127.5,B,Multi-ply,6
Doug Ward,110,Masters 54-60,54-60,,M,,,,,,175,,,,,,175,B,Multi-ply,1
Thomas Wright,110,Masters 54-60,54-60,,M,,,,,,142.5,,,,,,142.5,B,Multi-ply,2
Sean Finegan,117.5,Masters 54-60,54-60,,M,,,,,,280,,,,,,280,B,Multi-ply,1
Doug Knapp,125,Masters 54-60,54-60,,M,,,,,,165,,,,,,165,B,Multi-ply,1
John von Rohr,140,Masters 54-60,54-60,,M,,,,,,185,,,,,,185,B,Multi-ply,1
Richard Hamilton,140,Masters 54-60,54-60,,M,,,,,,140,,,,,,140,B,Multi-ply,2
Randy Patterson,140+,Masters 54-60,54-60,,M,,,,,,305,,,,,,305,B,Multi-ply,1
Peter Herdt,140+,Masters 54-60,54-60,,M,,,,,,182.5,,,,,,182.5,B,Multi-ply,2
Larry Cardon,75,Masters 61-67,61-67,,M,,,,,,152.5,157.5,,,,,152.5,B,Multi-ply,1
Donald Barden,75,Masters 61-67,61-67,,M,,,,,,145,,,,,,145,B,Multi-ply,2
Arlindo da Silva,75,Masters 61-67,61-67,Brazil,M,,,,,,100,,,,,,100,B,Multi-ply,3
Rudy Lozano,82.5,Masters 61-67,61-67,,M,,,,,,167.5,172.5,,,,,167.5,B,Multi-ply,1
George Hawkins,82.5,Masters 61-67,61-67,,M,,,,,,122.5,,,,,,122.5,B,Multi-ply,2
Dave Holmes,90,Masters 61-67,61-67,,M,,,,,,150,,,,,,150,B,Multi-ply,1
Ritchie Creevy,90,Masters 61-67,61-67,,M,,,,,,145,,,,,,145,B,Multi-ply,2
Roy Eriksen,90,Masters 61-67,61-67,,M,,,,,,132.5,,,,,,132.5,B,Multi-ply,3
John Herbein,90,Masters 61-67,61-67,,M,,,,,,122.5,,,,,,122.5,B,Multi-ply,4
Jim Day,90,Masters 61-67,61-67,,M,,,,,,70,,,,,,70,B,Multi-ply,5
Bob Bassman,100,Masters 61-67,61-67,,M,,,,,,177.5,,,,,,177.5,B,Multi-ply,1
Mac Urrutia,110,Masters 61-67,61-67,,M,,,,,,180,,,,,,180,B,Multi-ply,1
Bill Bidinotto,110,Masters 61-67,61-67,,M,,,,,,180,,,,,,180,B,Multi-ply,2
Richard Zareck,110,Masters 61-67,61-67,,M,,,,,,172.5,,,,,,172.5,B,Multi-ply,3
Mike Bonifield,110,Masters 61-67,61-67,,M,,,,,,142.5,,,,,,142.5,B,Multi-ply,4
Ed Acey,117.5,Masters 61-67,61-67,,M,,,,,,195,,,,,,195,B,Multi-ply,1
Robert O. Smith,140,Masters 61-67,61-67,Canada,M,,,,,,230,,,,,,230,B,Multi-ply,1
Manuel Herrera,140,Masters 61-67,61-67,,M,,,,,,177.5,,,,,,177.5,B,Multi-ply,2
Donald James,140+,Masters 61-67,61-67,,M,,,,,,185,,,,,,185,B,Multi-ply,1
Precious McKenzie,60,Masters 68-74,68-74,New Zealand,M,,59.69,,,,115,120,,,,,115,B,Raw,1
Robert Cortes,67.5,Masters 68-74,68-74,,M,,,,,,110,,,,,,110,B,Multi-ply,1
Ed Morishima Sr,75,Masters 68-74,68-74,,M,,,,,,102.5,,,,,,102.5,B,Multi-ply,1
John McEwen,82.5,Masters 68-74,68-74,,M,,,,,,90,,,,,,90,B,Multi-ply,1
Bob Stephens,90,Masters 68-74,68-74,,M,72,,,,,165,175,,,,,165,B,Multi-ply,1
Jack Peters,110,Masters 68-74,68-74,,M,,,,,,95,,,,,,95,B,Multi-ply,1
Gary Johnson,140,Masters 68-74,68-74,,M,,,,,,147.5,,,,,,147.5,B,Multi-ply,1
Arthur Whinston,67.5,Masters 75-79,75-79,,M,,,,,,50,,,,,,50,B,Multi-ply,1
Robert Fornachon,75,Masters 75-79,75-79,,M,,,,,,95,,,,,,95,B,Multi-ply,1
Dick Gibson,75,Masters 75-79,75-79,,M,,,,,,87.5,,,,,,87.5,B,Multi-ply,2
Jim Schall,75,Masters 75-79,75-79,,M,,,,,,82.5,,,,,,82.5,B,Multi-ply,3
Chuck Ferrando,82.5,Masters 75-79,75-79,,M,,,,,,115,,,,,,115,B,Multi-ply,1
Eugene L Miranda,100,Masters 75-79,75-79,,M,,,,,,112.5,,,,,,112.5,B,Multi-ply,1
Sonny Ronolo,75,Masters 80-84,80-84,,M,81,72.57,,,,122.5,,,,,,122.5,B,Multi-ply,1
Donald Dreyer,82.5,Masters 80-84,80-84,,M,83,75.75,,,,67.5,,,,,,67.5,B,Multi-ply,1
Edwin Free Jr,90,Masters 80-84,80-84,,M,,,,,,65,,,,,,65,B,Multi-ply,1
Cal Davis,117.5,Masters 80-84,80-84,,M,81,,,,,105,,,,,,105,B,Multi-ply,1
Vin Voeun,56,Open,,,M,,,,,,102.5,,,,,,102.5,B,Multi-ply,1
Precious McKenzie,60,Open,,New Zealand,M,,59.69,,,,115,,,,,,115,B,Raw,1
Darren Matsumoto,67.5,Open,,,M,,,,,,205,210,,,,,205,B,Multi-ply,1
Alfredo Evangelista,67.5,Open,,,M,,,,,,185,,,,,,185,B,Multi-ply,2
Andres Valleza,67.5,Open,,,M,,,,,,172.5,,,,,,172.5,B,Multi-ply,3
Cory Crawford,67.5,Open,,,M,,,,,,157.5,,,,,,157.5,B,Multi-ply,4
Ray Hickman,75,Open,,,M,,,,,,217.5,,,,,,217.5,B,Multi-ply,1
Sheldon Weingust,75,Open,,,M,,,,,,202.5,,,,,,202.5,B,Multi-ply,2
Brandon Leming,75,Open,,,M,18,,,,,187.5,192.5,,,,,187.5,B,Multi-ply,3
Keith Daniels,75,Open,,,M,,,,,,185,,,,,,185,B,Multi-ply,4
Monte Hokoana,75,Open,,,M,,,,,,157.5,,,,,,157.5,B,Multi-ply,5
Arlindo da Silva,75,Open,,Brazil,M,,,,,,100,,,,,,100,B,Multi-ply,6
Charles Walker,82.5,Open,,,M,,,,,,235,240,,,,,235,B,Multi-ply,1
Kourtney Sanks,82.5,Open,,,M,,,,,,227.5,,,,,,227.5,B,Multi-ply,2
Tolan Furusho,82.5,Open,,,M,,,,,,227.5,,,,,,227.5,B,Multi-ply,3
Don Linerud,82.5,Open,,,M,,,,,,217.5,,,,,,217.5,B,Multi-ply,4
Chad Bell,82.5,Open,,,M,,,,,,187.5,,,,,,187.5,B,Multi-ply,5
Darren Carr,82.5,Open,,,M,,,,,,182.5,,,,,,182.5,B,Multi-ply,6
Flávio Danna,82.5,Open,,Brazil,M,,,,,,177.5,,,,,,177.5,B,Multi-ply,7
Ryan Harris,82.5,Open,,,M,,,,,,,,,,,,,B,Multi-ply,DQ
Gustavo Warrington,90,Open,,,M,,,,,,250,,,,,,250,B,Multi-ply,1
Ed Morishima,90,Open,,,M,,,,,,245,,,,,,245,B,Multi-ply,2
Andre Planchon,90,Open,,,M,,,,,,237.5,,,,,,237.5,B,Multi-ply,3
Justin Gardner,90,Open,,,M,,,,,,227.5,,,,,,227.5,B,Multi-ply,4
Trey Jewett,90,Open,,,M,,,,,,217.5,220,,,,,217.5,B,Multi-ply,5
Ernie Mil-Homens,90,Open,,Canada,M,,,,,,215,,,,,,215,B,Multi-ply,6
Fil Dena III,90,Open,,,M,,,,,,210,,,,,,210,B,Multi-ply,7
Coby Washburn,90,Open,,,M,,,,,,207.5,,,,,,207.5,B,Multi-ply,8
Delwin Chinn,90,Open,,,M,,,,,,182.5,,,,,,182.5,B,Multi-ply,9
Robert Gloria,90,Open,,,M,,,,,,125,,,,,,125,B,Multi-ply,10
Matt LaMarque,100,Open,,,M,,,,,,337.5,350,,,,,337.5,B,Multi-ply,1
Hoss Rhoton,100,Open,,,M,,,,,,240,,,,,,240,B,Multi-ply,2
John Mendoza,100,Open,,,M,,,,,,237.5,,,,,,237.5,B,Multi-ply,3
John Boettger,100,Open,,,M,,,,,,212.5,,,,,,212.5,B,Multi-ply,4
Joshua Schrag,100,Open,,,M,,,,,,175,,,,,,175,B,Multi-ply,5
Evandro Casagrande,100,Open,,Brazil,M,,,,,,170,,,,,,170,B,Multi-ply,6
Chad Matthews,100,Open,,,M,,,,,,,,,,,,,B,Multi-ply,DQ
Steve Peña #1,100,Open,,,M,,,,,,,,,,,,,B,Multi-ply,DQ
Jason Jackson #7,110,Open,,,M,,,,,,337.5,350,,,,,337.5,B,Single-ply,1
James Hunter,110,Open,,,M,,,,,,275,,,,,,275,B,Multi-ply,2
Greg Stephens,110,Open,,,M,,,,,,267.5,,,,,,267.5,B,Multi-ply,3
Doug Haycraft,110,Open,,,M,,,,,,227.5,,,,,,227.5,B,Multi-ply,5
Janne Heittokangas,110,Open,,Finland,M,,,,,,230,,,,,,230,B,Multi-ply,4
John Anthony,110,Open,,,M,,,,,,197.5,,,,,,197.5,B,Multi-ply,5
Dan Tubridy,110,Open,,,M,,,,,,190,,,,,,190,B,Multi-ply,6
Harland Barrett,110,Open,,,M,,,,,,182.5,,,,,,182.5,B,Multi-ply,7
Nathan Lane,117.5,Open,,,M,,,,,,282.5,,,,,,282.5,B,Multi-ply,1
Scott Hoekstra,117.5,Open,,,M,,,,,,275,,,,,,275,B,Multi-ply,2
Thomas Kesling,117.5,Open,,,M,,,,,,265,,,,,,265,B,Multi-ply,3
Jani Toivo Kristian Ihalainen,117.5,Open,,Finland,M,,,,,,245,,,,,,245,B,Multi-ply,4
Brian Scot Bell,117.5,Open,,,M,,,,,,240,,,,,,240,B,Multi-ply,5
Cale Sherwood,117.5,Open,,,M,,,,,,227.5,,,,,,227.5,B,Multi-ply,6
Ethan McLaughlin,117.5,Open,,,M,,,,,,227.5,,,,,,227.5,B,Multi-ply,7
Eric Krych,117.5,Open,,,M,,,,,,200,,,,,,200,B,Multi-ply,8
Jeff Peshek,125,Open,,,M,,,,,,317.5,,,,,,317.5,B,Multi-ply,1
Patrick Holloway,125,Open,,,M,,,,,,272.5,,,,,,272.5,B,Multi-ply,2
Buddy McKee,125,Open,,,M,,,,,,227.5,,,,,,227.5,B,Multi-ply,4
Darren Thompson,125,Open,,,M,,,,,,252.5,,,,,,252.5,B,Multi-ply,3
Jerry Pritchett,125,Open,,,M,,,,,,197.5,,,,,,197.5,B,Multi-ply,5
Tom Manno,140,Open,,,M,,,,,,295,,,,,,295,B,Multi-ply,2
Jari Mantula,140,Open,,Finland,M,,,,,,280,,,,,,280,B,Multi-ply,3
Bobby Leitz,140,Open,,,M,,,,,,345,,,,,,345,B,Multi-ply,1
Tiny Meeker,140,Open,,,M,,,-360,-365,-370,,-410,,,,,,B,Multi-ply,DQ
Bill Gillespie,140+,Open,,,M,,,,332.5,-355,332.5,,,,,,332.5,B,Multi-ply,1
James Crawford III,140+,Open,,,M,,,,,,282.5,,,,,,282.5,B,Multi-ply,2
Frank Delatorre,140+,Open,,,M,,,,,,262.5,,,,,,262.5,B,Multi-ply,3
David Chase,140+,Open,,,M,,,,,,235,,,,,,235,B,Multi-ply,4
Jim Sheffield,140+,Open,,,M,,,,,,,,,,,,,B,Multi-ply,DQ
Pao Thao,56,Special Olympics,,,M,,,,,,52.5,,,,,,52.5,B,Multi-ply,1
Curtis Kitaji,56,Special Olympics,,,M,,,,,,37.5,,,,,,37.5,B,Multi-ply,2
Tyler Truscelli,60,Special Olympics,,,M,,,,,,62.5,,,,,,62.5,B,Multi-ply,1
Christopher Blackstone,60,Special Olympics,,,M,,,,,,55,,,,,,55,B,Multi-ply,2
Jon Shapiro,67.5,Special Olympics,,,M,,,,,,125,,,,,,125,B,Multi-ply,1
Mike Sirard,67.5,Special Olympics,,,M,,,,,,52.5,,,,,,52.5,B,Multi-ply,2
Cori Van Eck,75,Special Olympics,,,M,,,,,,72.5,,,,,,72.5,B,Multi-ply,1
Douglass Hodges,75,Special Olympics,,,M,,,,,,70,,,,,,70,B,Multi-ply,2
Graeme Gibson,82.5,Special Olympics,,,M,,,,,,72.5,,,,,,72.5,B,Multi-ply,1
David Williams #11,82.5,Special Olympics,,,M,,,,,,52.5,,,,,,52.5,B,Multi-ply,2
Aaron Szoke,82.5,Special Olympics,,,M,,,,,,52.5,,,,,,52.5,B,Multi-ply,3
Jeffrey Peterman,82.5,Special Olympics,,,M,,,,,,52.5,,,,,,52.5,B,Multi-ply,4
Adam Markham,90,Special Olympics,,,M,,,,,,82.5,,,,,,82.5,B,Multi-ply,1
Richard Cha,90,Special Olympics,,,M,,,,,,75,,,,,,75,B,Multi-ply,2
Lapalapa Togotogo,90,Special Olympics,,,M,,,,,,60,,,,,,60,B,Multi-ply,3
Bob Brewer,90,Special Olympics,,,M,,,,,,57.5,,,,,,57.5,B,Multi-ply,4
Toby Hauptman,90,Special Olympics,,,M,,,,,,52.5,,,,,,52.5,B,Multi-ply,5
Anthony Johnson,100,Special Olympics,,,M,,,,,,125,,,,,,125,B,Multi-ply,1
Jeff Hybl,100,Special Olympics,,,M,,,,,,95,,,,,,95,B,Multi-ply,2
Chris Dalton,100,Special Olympics,,,M,,,,,,92.5,,,,,,92.5,B,Multi-ply,3
Zach Tichava,100,Special Olympics,,,M,,,,,,75,,,,,,75,B,Multi-ply,4
Andres Foster,100,Special Olympics,,,M,,,,,,67.5,,,,,,67.5,B,Multi-ply,5
Brady Tanner,110,Special Olympics,,,M,,,,,,165,,,,,,165,B,Multi-ply,1
Trevor Irwin,110,Special Olympics,,,M,,,,,,80,,,,,,80,B,Multi-ply,2
Jason Souza,110,Special Olympics,,,M,,,,,,57.5,,,,,,57.5,B,Multi-ply,3
Jock Mayes,140+,Special Olympics,,,M,,,,,,112.5,,,,,,112.5,B,Multi-ply,1
Van Williams,56,Submasters 34-39,34-39,,M,,,,,,85,,,,,,85,B,Multi-ply,1
Filemon Ramirez,67.5,Submasters 34-39,34-39,,M,,,,,,127.5,,,,,,127.5,B,Multi-ply,1
Darren Matsumoto,67.5,Submasters 34-39,34-39,,M,,,,,,,,,,,,,B,Multi-ply,DQ
Adolfo Davila,75,Submasters 34-39,34-39,,M,,,,,,185,,,,,,185,B,Multi-ply,1
Keith Daniels,75,Submasters 34-39,34-39,,M,,,,,,180,,,,,,180,B,Multi-ply,2
Andrew Somera,75,Submasters 34-39,34-39,,M,,,,,,165,,,,,,165,B,Multi-ply,3
Richard Anderson,75,Submasters 34-39,34-39,,M,,,,,,125,,,,,,125,B,Multi-ply,4
AJ Agamao,82.5,Submasters 34-39,34-39,,M,,,,,,237.5,,,,,,237.5,B,Multi-ply,1
Tolan Furusho,82.5,Submasters 34-39,34-39,,M,,,,,,227.5,,,,,,227.5,B,Multi-ply,2
Flávio Danna,82.5,Submasters 34-39,34-39,Brazil,M,,,,,,180,,,,,,180,B,Multi-ply,3
James Whitney,90,Submasters 34-39,34-39,,M,,,,,,242.5,,,,,,242.5,B,Multi-ply,1
Andre Planchon,90,Submasters 34-39,34-39,,M,,,,,,222.5,,,,,,222.5,B,Multi-ply,2
Dennis Sugimoto,90,Submasters 34-39,34-39,,M,,,,,,187.5,,,,,,187.5,B,Multi-ply,3
Todd Smith,90,Submasters 34-39,34-39,,M,,,,,,182.5,,,,,,182.5,B,Multi-ply,4
Michael Happach,90,Submasters 34-39,34-39,,M,,,,,,152.5,,,,,,152.5,B,Multi-ply,5
Mike Ludovico,100,Submasters 34-39,34-39,,M,,,,,,245,,,,,,245,B,Multi-ply,1
John Mendoza,100,Submasters 34-39,34-39,,M,,,,,,227.5,,,,,,227.5,B,Multi-ply,2
Mark Hatfield,100,Submasters 34-39,34-39,,M,,,,,,210,,,,,,210,B,Multi-ply,3
Bruce Nichols,100,Submasters 34-39,34-39,,M,,,,,,202.5,,,,,,202.5,B,Multi-ply,4
Philip Anderson,100,Submasters 34-39,34-39,,M,,,,,,185,,,,,,185,B,Multi-ply,5
Evandro Casagrande,100,Submasters 34-39,34-39,Brazil,M,,,,,,170,,,,,,170,B,Multi-ply,6
Frank Wakakuwa,110,Submasters 34-39,34-39,,M,,,,,,287.5,,,,,,287.5,B,Multi-ply,1
Joe Villegas,110,Submasters 34-39,34-39,,M,,,,,,177.5,,,,,,177.5,B,Multi-ply,2
Scott Hoekstra,117.5,Submasters 34-39,34-39,,M,,,,,,275,,,,,,275,B,Multi-ply,1
Jason Laskowski,117.5,Submasters 34-39,34-39,,M,,,,,,262.5,,,,,,262.5,B,Multi-ply,2
Ethan McLaughlin,117.5,Submasters 34-39,34-39,,M,,,,,,227.5,,,,,,227.5,B,Multi-ply,3
Terry Putman,117.5,Submasters 34-39,34-39,,M,,,,,,205,,,,,,205,B,Multi-ply,4
Lance Davis,117.5,Submasters 34-39,34-39,,M,,,,,,182.5,,,,,,182.5,B,Multi-ply,5
Patrick Holloway,125,Submasters 34-39,34-39,,M,,,,,,272.5,,,,,,272.5,B,Multi-ply,1
Darren Thompson,125,Submasters 34-39,34-39,,M,,,,,,252.5,,,,,,252.5,B,Multi-ply,2
Robert Lincoln,125,Submasters 34-39,34-39,,M,,,,,,247.5,,,,,,247.5,B,Multi-ply,3
Ken Overbey,125,Submasters 34-39,34-39,,M,,,,,,205,,,,,,205,B,Multi-ply,4
Steve Wong,140,Submasters 34-39,34-39,,M,,,,,,365,,,,,,365,B,Single-ply,1
Bobby Leitz,140,Submasters 34-39,34-39,,M,,,,,,345,,,,,,345,B,Multi-ply,2
Vic Aleaga,140,Submasters 34-39,34-39,,M,,,,,,250,,,,,,250,B,Multi-ply,3
Scott Wesley Jordan,140+,Submasters 34-39,34-39,,M,,,,,,295,,,,,,295,B,Multi-ply,1
Vincent Eldridge,140+,Submasters 34-39,34-39,,M,,,,,,227.5,,,,,,227.5,B,Multi-ply,2
Tommy Potter,44,Teen 13-15,13-15,,M,,,,,,42.5,,,,,,42.5,B,Multi-ply,1
Gurnaik Birring,52,Teen 13-15,13-15,UK,M,,,,,,47.5,,,,,,47.5,B,Multi-ply,1
John Minahan III,56,Teen 13-15,13-15,,M,,,,,,72.5,,,,,,72.5,B,Multi-ply,1
Andrew Stewart II,60,Teen 13-15,13-15,,M,,,,,,70,,,,,,70,B,Multi-ply,1
Tom Corey,67.5,Teen 13-15,13-15,,M,,,,,,112.5,,,,,,112.5,B,Multi-ply,1
Cesar Luna,75,Teen 13-15,13-15,,M,,,,,,120,,,,,,120,B,Multi-ply,1
Camrin Braun,75,Teen 13-15,13-15,,M,,,,,,110,,,,,,110,B,Multi-ply,2
Eli Howard,90,Teen 13-15,13-15,,M,,,,,,147.5,,,,,,147.5,B,Multi-ply,1
Jesse Fain,90,Teen 13-15,13-15,,M,,,,,,127.5,,,,,,127.5,B,Multi-ply,2
Kelson Silva,52,Teen 16-19,16-19,,M,,,,,,107.5,,,,,,107.5,B,Multi-ply,1
Amrit Chandarban Lakhiani,52,Teen 16-19,16-19,Indonesia,M,,,,,,57.5,,,,,,57.5,B,Multi-ply,2
Mark Lauricella,60,Teen 16-19,16-19,,M,,,,,,110,,,,,,110,B,Multi-ply,1
Alexander Kang,60,Teen 16-19,16-19,,M,,,,,,90,,,,,,90,B,Multi-ply,2
Cory Crawford,67.5,Teen 16-19,16-19,,M,,,,,,177.5,,,,,,177.5,B,Multi-ply,1
Kyle Chiodo,67.5,Teen 16-19,16-19,,M,,65.68,,,,157.5,,,,,,157.5,B,Multi-ply,2
Dan Santarone,67.5,Teen 16-19,16-19,,M,,65.68,,,,157.5,,,,,,157.5,B,Multi-ply,3
Mat Arthur,67.5,Teen 16-19,16-19,,M,,,,,,152.5,,,,,,152.5,B,Multi-ply,4
Richard Chavez,67.5,Teen 16-19,16-19,,M,,,,,,132.5,,,,,,132.5,B,Multi-ply,5
Brett Faught,67.5,Teen 16-19,16-19,,M,,,,,,110,,,,,,110,B,Multi-ply,6
Brandon Leming,75,Teen 16-19,16-19,,M,18,,,,,187.5,192.5,,,,,187.5,B,Multi-ply,1
Derek Chiodo,75,Teen 16-19,16-19,,M,,,,,,165,,,,,,165,B,Multi-ply,2
Coty Hargett,75,Teen 16-19,16-19,,M,,,,,,165,,,,,,165,B,Multi-ply,3
Jordan Gallup,82.5,Teen 16-19,16-19,,M,,,,,,157.5,,,,,,157.5,B,Multi-ply,1
Ben Cantrell,82.5,Teen 16-19,16-19,,M,,,,,,152.5,,,,,,152.5,B,Multi-ply,2
Scott Grizzle,82.5,Teen 16-19,16-19,,M,,,,,,127.5,,,,,,127.5,B,Multi-ply,3
Eddie Bledsoe,82.5,Teen 16-19,16-19,,M,,,,,,127.5,,,,,,127.5,B,Multi-ply,4
Chris Lee,82.5,Teen 16-19,16-19,,M,,,,,,95,,,,,,95,B,Multi-ply,5
Bryan Huffer,82.5,Teen 16-19,16-19,,M,,,,,,60,,,,,,60,B,Multi-ply,6
Trey Jewett,90,Teen 16-19,16-19,,M,,,,,,217.5,220,,,,,217.5,B,Multi-ply,1
Dalton Wilson,90,Teen 16-19,16-19,,M,,,,,,170,,,,,,170,B,Multi-ply,2
Bryan Williams,90,Teen 16-19,16-19,,M,,,,,,152.5,,,,,,152.5,B,Multi-ply,3
Michael Minahan,90,Teen 16-19,16-19,,M,,,,,,142.5,,,,,,142.5,B,Multi-ply,4
Sean Mahoney,90,Teen 16-19,16-19,,M,,,,,,125,,,,,,125,B,Multi-ply,5
Du Juan Calvo,100,Teen 16-19,16-19,,M,,,,,,157.5,,,,,,157.5,B,Multi-ply,1
Adam Contreras #1,100,Teen 16-19,16-19,,M,,,,,,125,,,,,,125,B,Multi-ply,2
Joseph Trunzo,110,Teen 16-19,16-19,,M,,,,,,232.5,237.5,,,,,232.5,B,Multi-ply,1
Barry Driskell,117.5,Teen 16-19,16-19,,M,,,,,,210,,,,,,210,B,Multi-ply,1
Rabun Proctor,117.5,Teen 16-19,16-19,,M,,,,,,165,,,,,,165,B,Multi-ply,2
Jacob Miskimens,117.5,Teen 16-19,16-19,,M,,,,,,142.5,,,,,,142.5,B,Multi-ply,3
Josh Stevens,125,Teen 16-19,16-19,,M,,,,,,170,,,,,,170,B,Multi-ply,1
Josh Quickle,140,Teen 16-19,16-19,,M,,,,,,250,,,,,,250,B,Multi-ply,1
Bridgett Brown,90,Disabled,,,F,,,,,,60,,,,,,60,B,Multi-ply,1
Erica Haislar,56,Juniors 20-25,20-25,,F,,,,,,80,,,,,,80,B,Multi-ply,1
Christie Hansen,67.5,Juniors 20-25,20-25,,F,,,,,,92.5,,,,,,92.5,B,Multi-ply,1
Kelly Womack,82.5,Juniors 20-25,20-25,,F,,,,,,110,,,,,,110,B,Multi-ply,1
Francesca Mangaoang-Brodine,90,Juniors 20-25,20-25,,F,,,,,,67.5,,,,,,67.5,B,Multi-ply,1
Jana Prothman,90+,Juniors 20-25,20-25,,F,,,,,,86,,,,,,86,B,Multi-ply,1
Donna Arndt,56,Law/Fire Masters 40-47,40-47,,F,,,,,,85,90,,,,,85,B,Multi-ply,1
Leticia Rosales-Buie,60,Law/Fire Masters 40-47,40-47,,F,,,,,,85,,,,,,85,B,Multi-ply,1
Renee Wilson,75,Law/Fire Masters 40-47,40-47,,F,,,,,,92.5,,,,,,92.5,B,Multi-ply,1
Camellia Luprete,82.5,Law/Fire Masters 48+,48-999,,F,,,,,,72.5,,,,,,72.5,B,Multi-ply,1
Leslie Levine,52,Law/Fire Open,,,F,,,,,,57.5,,,,,,57.5,B,Multi-ply,1
Sandra Stowers,44,Masters 40-46,40-46,,F,,,,,,57.5,,,,,,57.5,B,Multi-ply,1
Christine Moorman,48,Masters 40-46,40-46,,F,,,,,,78,,,,,,78,B,Multi-ply,1
Carin Fujisaki,48,Masters 40-46,40-46,,F,,,,,,77.5,,,,,,77.5,B,Multi-ply,2
Claudia Salo,52,Masters 40-46,40-46,,F,,,,,,62.5,,,,,,62.5,B,Multi-ply,1
Shauna Ferguson,52,Masters 40-46,40-46,,F,,,,,,47.5,,,,,,47.5,B,Multi-ply,2
Donna Arndt,56,Masters 40-46,40-46,,F,,,,,,85,90,,,,,85,B,Multi-ply,1
Alison Barnhill,56,Masters 40-46,40-46,,F,,,,,,70,,,,,,70,B,Multi-ply,2
Sandy Gomez-Leon,60,Masters 40-46,40-46,,F,,,,,,107.5,110,,,,,107.5,B,Multi-ply,1
Suzanne Hedman,67.5,Masters 40-46,40-46,,F,,,,,,95,,,,,,95,B,Multi-ply,2
Latasia Anzai,67.5,Masters 40-46,40-46,,F,,,,,,100,,,,,,100,B,Multi-ply,1
Rhonda Dunn,67.5,Masters 40-46,40-46,,F,,,,,,90,,,,,,90,B,Multi-ply,3
Barbara McGowan,67.5,Masters 40-46,40-46,,F,,,,,,80,,,,,,80,B,Multi-ply,4
Silvia Maher,67.5,Masters 40-46,40-46,,F,,,,,,77.5,,,,,,77.5,B,Multi-ply,5
Bonita Betz,67.5,Masters 40-46,40-46,,F,,,,,,65,,,,,,65,B,Multi-ply,6
Nadine Huxley,75,Masters 40-46,40-46,,F,,,,,,87.5,,,,,,87.5,B,Multi-ply,1
Shelley Moore,75,Masters 40-46,40-46,,F,,,,,,,,,,,,,B,Multi-ply,DQ
Annette Sozzi-Dangel,82.5,Masters 40-46,40-46,,F,,,,,,100,,,,,,100,B,Multi-ply,1
Janet Hase,82.5,Masters 40-46,40-46,,F,,,,,,95,,,,,,95,B,Multi-ply,2
Cindy Weber,82.5,Masters 40-46,40-46,,F,,,,,,87.5,,,,,,87.5,B,Multi-ply,3
Pamela Michaels-Olson,82.5,Masters 40-46,40-46,,F,,,,,,75,,,,,,75,B,Multi-ply,4
Jane Morales-Costa,90+,Masters 40-46,40-46,Brazil,F,,,,,,115,120,,,,,115,B,Multi-ply,1
Vivian Kosak,48,Masters 47-53,47-53,,F,,,,,,52.5,,,,,,52.5,B,Multi-ply,1
Jeanne Morris,48,Masters 47-53,47-53,,F,,47.63,,,,35,,,,,,35,B,Multi-ply,2
Hedy Miller,52,Masters 47-53,47-53,,F,,,,,,75,,,,,,75,B,Multi-ply,1
Anita Hooson,52,Masters 47-53,47-53,,F,,,,,,50,,,,,,50,B,Multi-ply,2
Carol Ann Myers,56,Masters 47-53,47-53,,F,,,,,,100,,,,,,100,B,Multi-ply,1
Denise Ruff,56,Masters 47-53,47-53,,F,,,,,,70,,,,,,70,B,Multi-ply,2
Karen Olson,56,Masters 47-53,47-53,,F,,,,,,50,,,,,,50,B,Multi-ply,3
Paula Stone,67.5,Masters 47-53,47-53,,F,,,,,,57.5,,,,,,57.5,B,Multi-ply,1
Lori Lastufka,67.5,Masters 47-53,47-53,,F,,,,,,55,,,,,,55,B,Multi-ply,2
MaryAnn VanDam,82.5,Masters 47-53,47-53,,F,,,,,,95,,,,,,95,B,Multi-ply,1
Margie Huston,90,Masters 47-53,47-53,,F,,,,,,72.5,,,,,,72.5,B,Multi-ply,2
Teena Kilo,90,Masters 47-53,47-53,,F,,,,,,85,,,,,,85,B,Multi-ply,1
Sue Vaterlaus,90+,Masters 47-53,47-53,,F,,,,,,105,,,,,,105,B,Multi-ply,1
Juana Maria Mangaoang,90+,Masters 47-53,47-53,,F,,,,,,65,,,,,,65,B,Multi-ply,2
Mary Pederson,48,Masters 54-60,54-60,,F,,,,,,40,,,,,,40,B,Multi-ply,1
Barbara Anderson,67.5,Masters 54-60,54-60,,F,,,,,,77.5,,,,,,77.5,B,Multi-ply,1
Mary Coffey,75,Masters 54-60,54-60,,F,,,,,,40,,,,,,40,B,Multi-ply,1
Linda Glasco,75,Masters 54-60,54-60,,F,,,,,,40,,,,,,40,B,Multi-ply,2
Karen Polansky,90,Masters 54-60,54-60,,F,,,,,,82.5,,,,,,82.5,B,Multi-ply,1
Pat Robey,90,Masters 54-60,54-60,,F,,,,,,77.5,,,,,,77.5,B,Multi-ply,2
Sue Clark,67.5,Masters 61-67,61-67,,F,,,,,,50,,,,,,50,B,Multi-ply,1
Marcia Turner,67.5,Masters 68-74,68-74,,F,,,,,,65,,,,,,65,B,Multi-ply,1
Grace Cloninger,82.5,Masters 68-74,68-74,,F,,,,,,52.5,55,,,,,52.5,B,Multi-ply,1
Melicent Whinston,60,Masters 75-79,75-79,,F,78,,,,,35,,,,,,35,B,Multi-ply,1
Cheryl Anderson,44,Open,,,F,,,,,,72.5,,,,,,72.5,B,Multi-ply,1
Cosette Neely,44,Open,,,F,,,,,,,,,,,,,B,Multi-ply,DQ
Hedy Miller,52,Open,,,F,,,,,,75,,,,,,75,B,Multi-ply,1
Leslie Levine,52,Open,,,F,,,,,,57.5,,,,,,57.5,B,Multi-ply,2
Carol Ann Myers,56,Open,,,F,,,,,,100,,,,,,100,B,Multi-ply,1
Jill Yamashita,56,Open,,,F,,,,,,92.5,,,,,,92.5,B,Multi-ply,2
Rachel Churchward,60,Open,,,F,,,,,,77.5,,,,,,77.5,B,Multi-ply,1
Virpi Pukkila,67.5,Open,,Finland,F,,,,,,115,,,,,,115,B,Multi-ply,1
Latasia Anzai,67.5,Open,,,F,,,,,,100,,,,,,100,B,Multi-ply,2
Jeanne Watts,67.5,Open,,,F,,,,,,92.5,,,,,,92.5,B,Multi-ply,3
Christie Hansen,67.5,Open,,,F,,,,,,92.5,,,,,,92.5,B,Multi-ply,4
Jonika Blanke,67.5,Open,,,F,,,,,,55,,,,,,55,B,Multi-ply,5
Leonetta Richardson,75,Open,,,F,,,,,,150,,,,,,150,B,Multi-ply,1
Sabrina Armstrong,75,Open,,,F,,,,,,107.5,,,,,,107.5,B,Multi-ply,2
Kelley Mahoney,82.5,Open,,,F,,,,,,97.5,,,,,,97.5,B,Multi-ply,1
Cindy Weber,82.5,Open,,,F,,,,,,87.5,,,,,,87.5,B,Multi-ply,2
Susan Jackson,90,Open,,,F,,,,,,,,,,,,,B,Multi-ply,DQ
Randalyn Nohara,90,Open,,,F,14,,,,,127.5,132.5,,,,,127.5,B,Multi-ply,1
Michelle Ichiyama,90,Open,,,F,,,,,,125,,,,,,125,B,Multi-ply,2
Kelly Franklin,90+,Open,,,F,,,,,,170,,,,,,170,B,Multi-ply,1
Brooke Bourg,90+,Open,,,F,,,,,,125,,,,,,125,B,Multi-ply,2
Jane Morales-Costa,90+,Open,,Brazil,F,,,,,,115,,,,,,115,B,Multi-ply,3
Dawn Richards,90+,Open,,,F,,,,,,105,,,,,,105,B,Multi-ply,4
Cherrie Six,90+,Open,,,F,,,,,,90,,,,,,90,B,Multi-ply,5
Rosario Mangaoang-Brodine,90+,Open,,,F,,,,,,72.5,,,,,,72.5,B,Multi-ply,6
Soledad Rosas,48,Special Olympics,,,F,,,,,,57.5,,,,,,57.5,B,Multi-ply,1
Minh LeVuong,52,Special Olympics,,,F,,,,,,32.5,,,,,,32.5,B,Multi-ply,1
Lisa Wilson #4,52,Special Olympics,,,F,,,,,,32.5,,,,,,32.5,B,Multi-ply,2
Manya Wadera,67.5,Special Olympics,,,F,,,,,,22.5,,,,,,22.5,B,Multi-ply,1
Emily Matlack,90,Special Olympics,,,F,,,,,,42.5,,,,,,42.5,B,Multi-ply,1
Elizabeth Díaz,90+,Special Olympics,,,F,,,,,,42.5,,,,,,42.5,B,Multi-ply,1
Holly Matlack,90+,Special Olympics,,,F,,,,,,42.5,,,,,,42.5,B,Multi-ply,2
Carmela Baqui,44,Submasters 34-39,34-39,,F,,,,,,60,,,,,,60,B,Multi-ply,1
Alexandra Vallejo,48,Submasters 34-39,34-39,,F,,,,,,75,,,,,,75,B,Multi-ply,1
Jeanne Braguine,56,Submasters 34-39,34-39,,F,,,,,,75.5,,,,,,75.5,B,Multi-ply,1
Lucia Feraud Montenegro,60,Submasters 34-39,34-39,Ecuador,F,,,,,,92.5,,,,,,92.5,B,Multi-ply,1
Jeanne Watts,67.5,Submasters 34-39,34-39,,F,,,,,,92.5,,,,,,92.5,B,Multi-ply,1
Teresa Jacobs,75,Submasters 34-39,34-39,,F,,,,,,82.5,,,,,,82.5,B,Multi-ply,1
Kelley Mahoney,82.5,Submasters 34-39,34-39,,F,,,,,,97.5,,,,,,97.5,B,Multi-ply,1
Jodi Steele,82.5,Submasters 34-39,34-39,,F,,,,,,80,,,,,,80,B,Multi-ply,2
Susan Jackson,90,Submasters 34-39,34-39,,F,,,,,,120,,,,,,120,B,Multi-ply,1
Kelly Franklin,90+,Submasters 34-39,34-39,,F,,,,,,170,,,,,,170,B,Multi-ply,1
Sarah Moorman,48,Teen 13-15,13-15,,F,,,,,,50,,,,,,50,B,Multi-ply,1
Alexis McEwen,60,Teen 13-15,13-15,,F,,,,,,40,,,,,,40,B,Multi-ply,1
Brittany Braguine,67.5,Teen 13-15,13-15,,F,,,,,,92.5,,,,,,92.5,B,Multi-ply,1
Alison Van Zandt,75,Teen 13-15,13-15,,F,,,,,,70,,,,,,70,B,Multi-ply,1
Margot O'Halloran,75,Teen 13-15,13-15,,F,,,,,,70,,,,,,70,B,Multi-ply,2
Randalyn Nohara,90,Teen 13-15,13-15,,F,14,,,,,127.5,,,,,,127.5,B,Multi-ply,1
Kayla Taueli,90+,Teen 13-15,13-15,,F,15,,,,,115,,,,,,115,B,Multi-ply,1
Kaila Fairchild,56,Teen 16-19,16-19,,F,,,,,,67.5,,,,,,67.5,B,Multi-ply,1
Erica Ansberry,56,Teen 16-19,16-19,,F,,,,,,60,,,,,,60,B,Multi-ply,2
Karina Phipps,56,Teen 16-19,16-19,,F,,,,,,60,,,,,,60,B,Multi-ply,3
Amanda Proctor,67.5,Teen 16-19,16-19,,F,,,,,,62.5,,,,,,62.5,B,Multi-ply,1
Nikki Williams,75,Teen 16-19,16-19,,F,,,,,,105,,,,,,105,B,Multi-ply,1
Alexandria Calvo,90,Teen 16-19,16-19,,F,,,,,,75,,,,,,75,B,Multi-ply,1
Bridgett Brown,90,Teen 16-19,16-19,,F,,,,,,60,,,,,,60,B,Multi-ply,2
Lauren Vaterlaus,90+,Teen 16-19,16-19,,F,,,,,,87.5,,,,,,87.5,B,Multi-ply,1
