Division,WeightClassKg,Place,Name,Team,BodyweightKg,Best3SquatKg,Best3BenchKg,Best3DeadliftKg,TotalKg,Equipment,Event,Sex
Boys,51.71,1,Isaac Moreno,Castroville Medina Valley,51.48,151.95,74.84,161.03,387.82,Single-ply,SBD,M
Boys,51.71,2,Brandon Fernandez,Poteet,50.39,149.69,77.11,156.49,383.29,Single-ply,SBD,M
Boys,51.71,3,Eric Lopez,Castroville Medina Valley,51.71,127.01,70.31,133.81,331.12,Single-ply,SBD,M
Boys,51.71,4,Adrian Churchill,Floresville,51.71,102.06,70.31,120.2,292.57,Single-ply,SBD,M
Boys,51.71,5,Javier Aleman,Karnes City,51.62,104.33,65.77,120.2,290.3,Single-ply,SBD,M
Boys,55.79,1,Hutch Rabenaldt,Marion,52.62,122.47,88.45,136.08,347,Single-ply,SBD,M
Boys,55.79,2,Carlos Garcia Alanis,San Antonio Southwest Legacy,54.7,104.33,68.04,129.27,301.64,Single-ply,SBD,M
Boys,55.79,3,Tommy Bannon,San Antonio Cole,55.79,102.06,47.63,113.4,263.08,Single-ply,SBD,M
Boys,55.79,4,Yahil Sostre,San Antonio Cole,55.79,102.06,47.63,113.4,263.08,Single-ply,SBD,M
Boys,55.79,5,Ashton Gomez,Stockdale,55.79,90.72,54.43,104.33,249.48,Single-ply,SBD,M
Boys,59.87,1,Diego Morales,Castroville Medina Valley,59.47,167.83,95.25,183.7,446.79,Single-ply,SBD,M
Boys,59.87,2,Josh Bazan,Castroville Medina Valley,59.87,165.56,95.25,176.9,437.72,Single-ply,SBD,M
Boys,59.87,3,David Salinas,San Antonio Southwest Legacy,58.42,122.47,63.5,142.88,328.85,Single-ply,SBD,M
Boys,59.87,DQ,Reece Feagin,Karnes City,56.97,,,,,Single-ply,SBD,M
Boys,67.13,1,Josh Valenzuela,Castroville Medina Valley,67.13,210.92,120.2,197.31,528.44,Single-ply,SBD,M
Boys,67.13,2,Justin Cardenas,Pettus,66.77,170.1,106.59,210.92,487.61,Single-ply,SBD,M
Boys,67.13,3,Jose Valdez,Castroville Medina Valley,67.13,174.63,102.06,195.04,471.74,Single-ply,SBD,M
Boys,67.13,4,Vincent Villanueva,Floresville,66.27,174.63,92.99,185.97,453.59,Single-ply,SBD,M
Boys,67.13,5,Dawson J McCulley,Castroville Medina Valley,65.05,149.69,95.25,170.1,415.04,Single-ply,SBD,M
Boys,67.13,6,Hunter Young,Marion,61.96,142.88,77.11,167.83,387.82,Single-ply,SBD,M
Boys,67.13,7,Cameron Kistner,Marion,64.77,156.49,81.65,149.69,387.82,Single-ply,SBD,M
Boys,67.13,8,Tyler Bouquet,Geronimo Navarro,66.59,145.15,92.99,136.08,374.21,Single-ply,SBD,M
Boys,67.13,9,Diego Flores,Marion,66.41,127.01,63.5,172.37,362.87,Single-ply,SBD,M
Boys,67.13,10,Chase Hafere,San Antonio Cole,60.51,111.13,83.91,161.03,356.07,Single-ply,SBD,M
Boys,67.13,11,Richard Ruiz #2,San Antonio Southside,64.05,117.93,83.91,113.4,315.25,Single-ply,SBD,M
Boys,67.13,12,Joshua Legasbe,San Antonio Cole,62.78,111.13,61.23,129.27,301.64,Single-ply,SBD,M
Boys,67.13,13,Izacc Zamora,Geronimo Navarro,66.59,99.79,52.16,129.27,281.23,Single-ply,SBD,M
Boys,67.13,DQ,Lorenzo Barfield,San Antonio Southwest Legacy,62.51,147.42,111.13,,,Single-ply,SBD,M
Boys,74.84,1,Ray Reyos,Marion,74.75,183.7,113.4,215.46,512.56,Single-ply,SBD,M
Boys,74.84,2,Marco Burkman-Flaig,San Antonio Cole,70.22,192.78,111.13,179.17,483.08,Single-ply,SBD,M
Boys,74.84,3,Neal Vallejo,San Antonio Southside,73.75,176.9,102.06,204.12,483.08,Single-ply,SBD,M
Boys,74.84,4,Trevon Moore,Universal City Randolph,67.68,181.44,115.67,145.15,442.25,Single-ply,SBD,M
Boys,74.84,5,Waylon Ramzinski,Stockdale,73.12,170.1,92.99,154.22,417.3,Single-ply,SBD,M
Boys,74.84,6,Tristan Trevino,Poth,71.85,147.42,86.18,158.76,392.36,Single-ply,SBD,M
Boys,74.84,7,Robert Mendez,Poth,68.99,142.88,92.99,147.42,383.29,Single-ply,SBD,M
Boys,74.84,8,Micheal Kroll,Karnes City,69.04,124.74,97.52,151.95,374.21,Single-ply,SBD,M
Boys,74.84,9,Ayden Walpole,Poth,70.58,142.88,83.91,142.88,369.68,Single-ply,SBD,M
Boys,74.84,10,Gene Ratliff,Floresville,68.13,138.35,77.11,127.01,342.46,Single-ply,SBD,M
Boys,74.84,11,Joey Medina,San Antonio Cole,72.62,111.13,83.91,133.81,328.85,Single-ply,SBD,M
Boys,74.84,12,Chris Reed,San Antonio Cole,67.86,102.06,74.84,145.15,322.05,Single-ply,SBD,M
Boys,74.84,DQ,Justin Guerrero,San Antonio Southside,71.58,142.88,,,,Single-ply,SBD,M
Boys,74.84,DQ,Dakota McDonald,Floresville,71.67,158.76,,,,Single-ply,SBD,M
Boys,74.84,DQ,Cole Mouser,Geronimo Navarro,74.57,129.27,,,,Single-ply,SBD,M
Boys,74.84,DQ,Devon Garrett,Pettus,71.26,133.81,97.52,,,Single-ply,SBD,M
Boys,82.1,1,Kyle Jones,Poth,81.56,238.14,106.59,226.8,571.53,Single-ply,SBD,M
Boys,82.1,2,Mathew Gilliam,Geronimo Navarro,80.29,197.31,117.93,183.7,498.95,Single-ply,SBD,M
Boys,82.1,3,Jeremy Voelkel,Stockdale,81.01,176.9,115.67,192.78,485.34,Single-ply,SBD,M
Boys,82.1,4,Kane Numera,Floresville,81.92,170.1,113.4,192.78,476.27,Single-ply,SBD,M
Boys,82.1,5,Andrew Quinjano,San Antonio Southside,79.92,183.7,90.72,183.7,458.13,Single-ply,SBD,M
Boys,82.1,6,Isaiah Alvarado,San Antonio Southwest Legacy,79.92,156.49,106.59,192.78,455.86,Single-ply,SBD,M
Boys,82.1,7,Tristan Breitenkamp,Geronimo Navarro,78.74,161.03,95.25,176.9,433.18,Single-ply,SBD,M
Boys,82.1,8,Seth Bullard,Castroville Medina Valley,75.57,151.95,111.13,161.03,424.11,Single-ply,SBD,M
Boys,82.1,9,Nemencio Tijerina,Poteet,77.02,167.83,83.91,161.03,412.77,Single-ply,SBD,M
Boys,82.1,10,Roman Mendoza,San Antonio Southside,80.56,170.1,79.38,147.42,396.89,Single-ply,SBD,M
Boys,82.1,11,Ethan Acevedo,Poteet,80.74,127.01,77.11,154.22,358.34,Single-ply,SBD,M
Boys,82.1,12,Ammon Jones,San Antonio Cole,79.65,127.01,74.84,147.42,349.27,Single-ply,SBD,M
Boys,82.1,DQ,Jonathon Mabs,Marion,80.56,,,,,Single-ply,SBD,M
Boys,89.81,1,Tucker Walters,Marion,87.27,199.58,124.74,265.35,589.67,Single-ply,SBD,M
Boys,89.81,2,Jacob Trujillo,Universal City Randolph,87.14,217.72,136.08,222.26,576.06,Single-ply,SBD,M
Boys,89.81,3,Michael Gomez #1,Poteet,89.18,229.06,129.27,188.24,546.58,Single-ply,SBD,M
Boys,89.81,4,Ethan Thomas,Geronimo Navarro,82.83,192.78,124.74,197.31,514.83,Single-ply,SBD,M
Boys,89.81,5,Isaiah Foreman,San Antonio Southside,89.81,183.7,124.74,199.58,508.02,Single-ply,SBD,M
Boys,89.81,6,Diego Rubio,Stockdale,85.73,154.22,104.33,183.7,442.25,Single-ply,SBD,M
Boys,89.81,DQ,Ruben Perales,San Antonio Southside,87,151.95,83.91,,,Single-ply,SBD,M
Boys,99.79,1,Patrick Rhodes,San Antonio Cole,99.79,233.6,154.22,235.87,623.69,Single-ply,SBD,M
Boys,99.79,2,Sean Allen,Poth,98.47,226.8,156.49,213.19,596.47,Single-ply,SBD,M
Boys,99.79,3,Sebastian Segura,Karnes City,98.61,235.87,136.08,213.19,585.13,Single-ply,SBD,M
Boys,99.79,4,Moses Carrasco,Poteet,99.74,226.8,113.4,226.8,566.99,Single-ply,SBD,M
Boys,99.79,5,Naythen Cardenas,San Antonio Southwest Legacy,96.52,188.24,142.88,179.17,510.29,Single-ply,SBD,M
Boys,99.79,6,Michael Cespedes,Universal City Randolph,97.25,208.65,104.33,183.7,496.68,Single-ply,SBD,M
Boys,99.79,7,Alex Aguilar #3,Marion,99.06,170.1,99.79,183.7,453.59,Single-ply,SBD,M
Boys,99.79,8,Garrett Garcia,Universal City Randolph,94.26,188.24,88.45,174.63,451.32,Single-ply,SBD,M
Boys,99.79,9,Austin Montanez,San Antonio Cole,92.12,174.63,83.91,161.03,419.57,Single-ply,SBD,M
Boys,99.79,DQ,Corey Hunter,San Antonio Cole,95.62,,,,,Single-ply,SBD,M
Boys,99.79,DQ,Francisco Duran,Marion,94.39,215.46,138.35,,,Single-ply,SBD,M
Boys,99.79,DQ,Tim Carrasco,Poteet,96.43,,,,,Single-ply,SBD,M
Boys,99.79,DQ,Cole Booker,Geronimo Navarro,98.47,183.7,,,,Single-ply,SBD,M
Boys,109.77,1,Spencer Payne,Castroville Medina Valley,109.13,247.21,154.22,226.8,628.23,Single-ply,SBD,M
Boys,109.77,2,Nathaniel Gomez,Karnes City,109.36,229.06,136.08,192.78,557.92,Single-ply,SBD,M
Boys,109.77,3,Logan Hebert,Stockdale,105.05,181.44,124.74,181.44,487.61,Single-ply,SBD,M
Boys,109.77,4,Deshawn Borders,Universal City Randolph,106.23,199.58,102.06,181.44,483.08,Single-ply,SBD,M
Boys,109.77,5,Frank Alvarez,San Antonio Southwest Legacy,102.06,183.7,136.08,158.76,478.54,Single-ply,SBD,M
Boys,109.77,6,Kevin Zaiontz,Poth,103.51,170.1,104.33,183.7,458.13,Single-ply,SBD,M
Boys,109.77,7,Jose Aleman,San Antonio Southside,107.14,174.63,108.86,170.1,453.59,Single-ply,SBD,M
Boys,109.77,8,Nick Sanchez,Poth,109.72,165.56,92.99,172.37,430.91,Single-ply,SBD,M
Boys,109.77,9,Erik Diaz,San Antonio Southside,103.6,142.88,102.06,151.95,396.89,Single-ply,SBD,M
Boys,109.77,DQ,Brandon Glaspie,Universal City Randolph,107.05,,,,,Single-ply,SBD,M
Boys,109.77,DQ,Raul Mata,Poteet,108.77,,,,,Single-ply,SBD,M
Boys,124.74,1,Jace Gonzales,Karnes City,117.39,276.69,138.35,229.06,644.1,Single-ply,SBD,M
Boys,124.74,2,Jacob Hernandez,Stockdale,119.93,226.8,158.76,206.38,591.94,Single-ply,SBD,M
Boys,124.74,3,Donnie Brown,Floresville,124.74,210.92,138.35,210.92,560.19,Single-ply,SBD,M
Boys,124.74,4,Dalton Perry,Poth,121.65,199.58,111.13,188.24,498.95,Single-ply,SBD,M
Boys,124.74,5,Josh Perieda,San Antonio Southwest Legacy,111.58,176.9,120.2,185.97,483.08,Single-ply,SBD,M
Boys,124.74,6,Fernando Martinez,San Antonio Southwest Legacy,121.02,204.12,106.59,151.95,462.66,Single-ply,SBD,M
Boys,124.74,7,Bode Walters,Marion,119.2,183.7,108.86,161.03,453.59,Single-ply,SBD,M
Boys,124.74,8,Daniel Ornelas,San Antonio Southwest Legacy,111.18,158.76,102.06,183.7,444.52,Single-ply,SBD,M
Boys,124.74+,1,Seth Ritchey,Poteet,134.54,238.14,124.74,229.06,591.94,Single-ply,SBD,M
Boys,124.74+,2,Carter Holtkamp,Geronimo Navarro,135.62,226.8,163.29,190.51,580.6,Single-ply,SBD,M
Boys,124.74+,3,Isaiah Ulibarri,San Antonio Southwest Legacy,126.01,195.04,99.79,183.7,478.54,Single-ply,SBD,M
Boys,124.74+,4,Ed Saldivar,Marion,131.54,142.88,129.27,181.44,453.59,Single-ply,SBD,M
Boys,124.74+,DQ,Rudy Orosco,Pettus,126.1,,,,,Single-ply,SBD,M
Boys,124.74+,DQ,Pedro Castillo,Floresville,134.9,,,,,Single-ply,SBD,M
Boys,124.74+,DQ,Jonah Barrow,Castroville Medina Valley,132.04,,,,,Single-ply,SBD,M
