Division,WeightClassKg,Place,Name,Team,BodyweightKg,Best3SquatKg,Best3BenchKg,Best3DeadliftKg,TotalKg,Equipment,Event,Sex
Boys,51.71,1,Jeovanny Navarro,Rockdale,51.71,115.67,68.04,133.81,317.51,Single-ply,SBD,M
Boys,51.71,2,Cristian Ramirez,Florence,51.71,113.4,72.57,122.47,308.44,Single-ply,SBD,M
Boys,51.71,3,Horacio Huerta,Salado,51.71,106.59,61.23,122.47,290.3,Single-ply,SBD,M
Boys,51.71,4,Isrreal Rosas,Bruceville-Eddy,51.17,108.86,52.16,124.74,285.76,Single-ply,SBD,M
Boys,51.71,5,Nathan Jeter,Rockdale,51.07,102.06,58.97,122.47,283.5,Single-ply,SBD,M
Boys,51.71,DQ,Aaron Ragsdale,Jarrell,50.98,117.93,68.04,,,Single-ply,SBD,M
Boys,55.79,1,Michael Palmer,Little River Academy,55.79,138.35,72.57,165.56,376.48,Single-ply,SBD,M
Boys,55.79,3,Preston Culp,Salado,54.88,92.99,56.7,88.45,238.14,Single-ply,SBD,M
Boys,55.79,4,Vidal O'Connell,Jarrell,54.79,88.45,49.9,92.99,231.33,Single-ply,SBD,M
Boys,59.87,1,Hunter Mullins,Jarrell,58.88,204.12,108.86,213.19,526.17,Single-ply,SBD,M
Boys,59.87,2,Angel Soriano,Jarrell,56.15,124.74,70.31,127.01,322.05,Single-ply,SBD,M
Boys,59.87,2,Jaylen Montgomery,Waco Midway,59.78,149.69,90.72,158.76,399.16,Single-ply,SBD,M
Boys,59.87,3,Dalton Glover,Little River Academy,59.15,138.35,86.18,163.29,387.82,Single-ply,SBD,M
Boys,59.87,4,Wyatt Wooley,Holland,59.42,106.59,68.04,122.47,297.1,Single-ply,SBD,M
Boys,67.13,1,Cameron Naumann,Florence,66.13,181.44,104.33,199.58,485.34,Single-ply,SBD,M
Boys,67.13,2,Caleb Carlisle,Jarrell,65.86,188.24,88.45,188.24,464.93,Single-ply,SBD,M
Boys,67.13,3,Gavin Freeman,Little River Academy,65.77,174.63,102.06,183.7,460.4,Single-ply,SBD,M
Boys,67.13,4,Elijah Botts,Holland,67.04,149.69,83.91,163.29,396.89,Single-ply,SBD,M
Boys,67.13,5,Braxton Carlile,Florence,66.13,149.69,86.18,158.76,394.63,Single-ply,SBD,M
Boys,67.13,6,Derain Duduik,Little River Academy,67.04,136.08,95.25,142.88,374.21,Single-ply,SBD,M
Boys,67.13,7,Karson Trice,Salado,63.96,138.35,83.91,138.35,360.61,Single-ply,SBD,M
Boys,67.13,8,Charles Guerra,Jarrell,62.51,120.2,81.65,147.42,349.27,Single-ply,SBD,M
Boys,67.13,9,Troy Douglas,Jarrell,63.59,115.67,79.38,142.88,337.93,Single-ply,SBD,M
Boys,67.13,10,Paul Lietzke,Pflugerville Hendrickson,65.23,122.47,77.11,113.4,312.98,Single-ply,SBD,M
Boys,67.13,11,William Bradley,Little River Academy,62.05,79.38,74.84,122.47,276.69,Single-ply,SBD,M
Boys,67.13,12,Trenton Hibler,Jarrell,66.68,111.13,45.36,95.25,251.74,Single-ply,SBD,M
Boys,67.13,DQ,Brett Lange,Holland,65.23,142.88,,,,Single-ply,SBD,M
Boys,67.13,DQ,Alex Hernandez #1,Jarrell,63.87,172.37,,,,Single-ply,SBD,M
Boys,74.84,1,Jt Cooper,Holland,74.75,199.58,113.4,197.31,510.29,Single-ply,SBD,M
Boys,74.84,2,Shawn Davis,Florence,72.12,185.97,88.45,215.46,489.88,Single-ply,SBD,M
Boys,74.84,3,TJ Eldridge,Pflugerville Hendrickson,73.03,174.63,95.25,188.24,458.13,Single-ply,SBD,M
Boys,74.84,4,Nathan Quattlebaum,Bruceville-Eddy,69.67,170.1,92.99,156.49,419.57,Single-ply,SBD,M
Boys,74.84,5,Ethan Rendon,Holland,71.12,154.22,92.99,156.49,403.7,Single-ply,SBD,M
Boys,74.84,6,Jacob Pajestka,Holland,70.94,151.95,95.25,149.69,396.89,Single-ply,SBD,M
Boys,74.84,7,Tucker Cargill,Holland,73.48,129.27,77.11,149.69,356.07,Single-ply,SBD,M
Boys,82.1,1,Hunter Duzat,Little River Academy,80.29,272.16,181.44,240.4,694,Single-ply,SBD,M
Boys,82.1,2,Conner Cook,Salado,81.74,210.92,136.08,217.72,564.72,Single-ply,SBD,M
Boys,82.1,3,Clay Cooper,Holland,79.02,199.58,120.2,206.38,526.17,Single-ply,SBD,M
Boys,82.1,4,Heath Hutka,Holland,78.74,174.63,113.4,197.31,485.34,Single-ply,SBD,M
Boys,82.1,5,Nick Deen,Salado,80.74,131.54,95.25,167.83,394.63,Single-ply,SBD,M
Boys,82.1,6,Jack Rees,Pflugerville Hendrickson,81.74,142.88,83.91,156.49,383.29,Single-ply,SBD,M
Boys,82.1,7,Lenny Lopez,Holland,79.47,138.35,90.72,124.74,353.8,Single-ply,SBD,M
Boys,82.1,DQ,Nathan von Stosch,Holland,79.29,158.76,95.25,,,Single-ply,SBD,M
Boys,82.1,DQ,William Hays,Florence,80.92,77.11,,,,Single-ply,SBD,M
Boys,82.1,DQ,Trey Schaub,Salado,76.66,,,,,Single-ply,SBD,M
Boys,89.81,1,Steven Arispe,Bruceville-Eddy,85.64,181.44,111.13,217.72,510.29,Single-ply,SBD,M
Boys,89.81,2,Joe Sampson,Salado,89.68,190.51,124.74,183.7,498.95,Single-ply,SBD,M
Boys,89.81,3,Brandon Vazquez,Florence,89.81,167.83,117.93,206.38,492.15,Single-ply,SBD,M
Boys,89.81,4,Ashton Sniggs,Salado,84.82,190.51,113.4,176.9,480.81,Single-ply,SBD,M
Boys,89.81,5,Kenny Kreinheder,Holland,87.91,163.29,113.4,185.97,462.66,Single-ply,SBD,M
Boys,89.81,6,Trey Mays,Holland,85.64,149.69,86.18,185.97,421.84,Single-ply,SBD,M
Boys,89.81,7,Walker Hawkins,Salado,88.45,124.74,79.38,149.69,353.8,Single-ply,SBD,M
Boys,89.81,DQ,Ian Moore,Bruceville-Eddy,84.64,179.17,,,,Single-ply,SBD,M
Boys,99.79,1,Adrian Spencer,Florence,99.79,226.8,108.86,204.12,539.77,Single-ply,SBD,M
Boys,99.79,2,Tommy Barker,Salado,99.61,204.12,131.54,199.58,535.24,Single-ply,SBD,M
Boys,99.79,3,Ryan Starritt,Salado,99.25,210.92,120.2,199.58,530.7,Single-ply,SBD,M
Boys,99.79,4,Kash Eddelman,Salado,95.25,165.56,111.13,185.97,462.66,Single-ply,SBD,M
Boys,99.79,5,JR Castillo,Florence,94.35,151.95,77.11,181.44,410.5,Single-ply,SBD,M
Boys,99.79,6,Tyler Finch,Bruceville-Eddy,91.53,158.76,72.57,165.56,396.89,Single-ply,SBD,M
Boys,99.79,7,Cameron Fouts,Bruceville-Eddy,95.07,149.69,83.91,142.88,376.48,Single-ply,SBD,M
Boys,99.79,DQ,Blake Rogers,Bruceville-Eddy,95.35,,,,,Single-ply,SBD,M
Boys,99.79,DQ,Bobby Cunningham,Salado,96.16,195.04,124.74,,,Single-ply,SBD,M
Boys,109.77,1,Chandler Strmiska,Little River Academy,108.77,274.42,172.37,258.55,705.34,Single-ply,SBD,M
Boys,109.77,2,Jace Chambers,Pflugerville Hendrickson,107.77,238.14,142.88,256.28,637.3,Single-ply,SBD,M
Boys,109.77,3,Alex Gomez,Holland,107.68,235.87,136.08,213.19,585.13,Single-ply,SBD,M
Boys,109.77,4,Devin Gregory,Pflugerville Hendrickson,107.23,219.99,133.81,229.06,582.87,Single-ply,SBD,M
Boys,109.77,5,Thomas Clawson,Jarrell,107.32,210.92,138.35,197.31,546.58,Single-ply,SBD,M
Boys,109.77,6,Alejandro Loma,Jarrell,102.69,210.92,124.74,183.7,519.36,Single-ply,SBD,M
Boys,109.77,7,Hunter Robertson,Pflugerville Hendrickson,102.87,219.99,102.06,188.24,510.29,Single-ply,SBD,M
Boys,109.77,8,Jesus Mejia,Jarrell,101.06,142.88,111.13,154.22,408.23,Single-ply,SBD,M
Boys,109.77,9,Jo'Kwan Langston,Salado,102.97,142.88,92.99,151.95,387.82,Single-ply,SBD,M
Boys,109.77,10,Shane Miller,Holland,104.51,129.27,77.11,167.83,374.21,Single-ply,SBD,M
Boys,109.77,DQ,Jaden Neil,Jarrell,103.15,149.69,92.99,,,Single-ply,SBD,M
Boys,124.74,1,Rey Sanchez,Pflugerville Hendrickson,110.77,219.99,142.88,231.33,594.21,Single-ply,SBD,M
Boys,124.74,2,Wyatt Gardner,Little River Academy,112.49,208.65,142.88,238.14,589.67,Single-ply,SBD,M
Boys,124.74,3,Wyatt Chambers,Rockdale,117.12,213.19,158.76,181.44,553.38,Single-ply,SBD,M
Boys,124.74,4,Jason Marek,Little River Academy,111.67,195.04,127.01,195.04,517.1,Single-ply,SBD,M
Boys,124.74,5,Austin Culver,Bruceville-Eddy,113.22,170.1,133.81,204.12,508.02,Single-ply,SBD,M
Boys,124.74,6,Marshall Mays,Holland,116.94,181.44,99.79,185.97,467.2,Single-ply,SBD,M
Boys,124.74,7,Gabe Valdespino,Pflugerville Hendrickson,113.13,183.7,111.13,170.1,464.93,Single-ply,SBD,M
Boys,124.74,8,Jae'vone Brown,Holland,124.74,145.15,102.06,181.44,428.64,Single-ply,SBD,M
Boys,124.74+,1,Walker Riley,Pflugerville Hendrickson,131.09,231.33,138.35,226.8,596.47,Single-ply,SBD,M
Boys,124.74+,DQ,Troy Dunagan,Florence,159.48,,,,,Single-ply,SBD,M
