Division,WeightClassKg,Place,Name,Team,BodyweightKg,Best3SquatKg,Best3BenchKg,Best3DeadliftKg,TotalKg,Equipment,Event,Sex
Boys,51.71,1,Jaime Flores,Mount Pleasant,50.8,102.06,79.38,122.47,303.91,Single-ply,SBD,M
Boys,51.71,2,Pablo Gutierrez,Mount Pleasant,47.17,92.99,54.43,115.67,263.08,Single-ply,SBD,M
Boys,51.71,DQ,Devin Thompson,Gladewater Sabine,50.58,83.91,,,,Single-ply,SBD,M
Boys,55.79,1,David Martin-Flores,Texarkana Pleasant Grove,55.68,136.08,81.65,149.69,367.41,Single-ply,SBD,M
Boys,55.79,2,Jackson Kennedy,Redwater,53.98,102.06,74.84,102.06,278.96,Single-ply,SBD,M
Boys,59.87,1,Matt Hahn,Texarkana Pleasant Grove,59.31,147.42,81.65,172.37,401.43,Single-ply,SBD,M
Boys,67.13,2,Gage Baughman,Winnsboro,60.1,142.88,95.25,147.42,385.55,Single-ply,SBD,M
Boys,67.13,3,Zac Thompson,Big Sandy Harmony,60.1,131.54,83.91,147.42,362.87,Single-ply,SBD,M
Boys,59.87,4,Ethan Wagner,Texarkana Pleasant Grove,58.51,133.81,79.38,136.08,349.27,Single-ply,SBD,M
Boys,59.87,5,Micah Tilley,Winnsboro,59.19,122.47,70.31,129.27,322.05,Single-ply,SBD,M
Boys,59.87,6,Donovan Roberts,Winnsboro,58.06,129.27,65.77,115.67,310.71,Single-ply,SBD,M
Boys,59.87,7,Eric Cox,Texarkana Pleasant Grove,57.61,108.86,58.97,115.67,283.5,Single-ply,SBD,M
Boys,67.13,1,Lucas Pinnell,Winnsboro,67.13,165.56,88.45,199.58,453.59,Single-ply,SBD,M
Boys,67.13,2,Ty Everett,Texarkana Pleasant Grove,65.66,151.95,92.99,181.44,426.38,Single-ply,SBD,M
Boys,67.13,3,Jared Scott #2,Texarkana Pleasant Grove,65.32,181.44,77.11,165.56,424.11,Single-ply,SBD,M
Boys,67.13,4,Joshua Martinez,Mount Pleasant,66.11,136.08,108.86,149.69,394.63,Single-ply,SBD,M
Boys,67.13,5,Ryan Laborde,Winnsboro,60.78,156.49,70.31,138.35,365.14,Single-ply,SBD,M
Boys,67.13,6,Cordell Caldwell,Gladewater Sabine,63.39,120.2,83.91,145.15,349.27,Single-ply,SBD,M
Boys,67.13,7,Spencer Jones,Mineola,63.05,124.74,79.38,142.88,347,Single-ply,SBD,M
Boys,67.13,8,Gustavo Arango,Mineola,62.82,124.74,72.57,145.15,342.46,Single-ply,SBD,M
Boys,67.13,9,Fabian Roman,Quitman,62.94,120.2,81.65,140.61,342.46,Single-ply,SBD,M
Boys,67.13,10,Erik Arriaga,Big Sandy Harmony,65.88,124.74,68.04,133.81,326.59,Single-ply,SBD,M
Boys,67.13,11,Noah Sayon,Gladewater Sabine,64.41,97.52,58.97,106.59,263.08,Single-ply,SBD,M
Boys,74.84,1,Brad Meadows,Texarkana Pleasant Grove,74.84,210.92,154.22,233.6,598.74,Single-ply,SBD,M
Boys,74.84,2,Maurice Ramirez,Winnsboro,74.16,213.19,136.08,183.7,532.97,Single-ply,SBD,M
Boys,74.84,3,Jeremy Moses,Winnsboro,71.67,174.63,113.4,215.46,503.49,Single-ply,SBD,M
Boys,74.84,4,Carson Craytor,Texarkana Pleasant Grove,72.8,181.44,92.99,206.38,480.81,Single-ply,SBD,M
Boys,82.1,5,Caleb Edney,Gladewater Sabine,75.07,158.76,106.59,167.83,433.18,Single-ply,SBD,M
Boys,74.84,6,Uriel De La Riva,Mount Pleasant,71.89,181.44,83.91,158.76,424.11,Single-ply,SBD,M
Boys,74.84,7,Jonathan Spurlin,Winnsboro,68.04,142.88,74.84,158.76,376.48,Single-ply,SBD,M
Boys,74.84,8,Chris Irizarry,Redwater,71.55,136.08,79.38,161.03,376.48,Single-ply,SBD,M
Boys,74.84,9,Bruce Broyles III,Gladewater Sabine,71.89,124.74,97.52,151.95,374.21,Single-ply,SBD,M
Boys,74.84,10,Devante Wright,Mineola,69.17,138.35,79.38,145.15,362.87,Single-ply,SBD,M
Boys,74.84,11,Justin Noll,Winnsboro,71.21,92.99,61.23,120.2,274.42,Single-ply,SBD,M
Boys,82.1,1,Hunter Hatfield,Texarkana Pleasant Grove,81.65,204.12,117.93,210.92,532.97,Single-ply,SBD,M
Boys,89.81,2,Eric Hernandez,Mineola,82.33,172.37,104.33,167.83,444.52,Single-ply,SBD,M
Boys,82.1,3,Mitchell Attaway,Winnsboro,80.4,179.17,86.18,158.76,424.11,Single-ply,SBD,M
Boys,82.1,4,Colton Finney,Redwater,78.81,158.76,88.45,174.63,421.84,Single-ply,SBD,M
Boys,82.1,5,Hunter Harrison,Redwater,77.79,136.08,81.65,149.69,367.41,Single-ply,SBD,M
Boys,82.1,6,Brennan Watkins,Gladewater Sabine,78.47,140.61,86.18,140.61,367.41,Single-ply,SBD,M
Boys,82.1,7,Noah Bates,Texarkana Pleasant Grove,76.66,129.27,83.91,145.15,358.34,Single-ply,SBD,M
Boys,82.1,8,Brandon Munoz,Mount Pleasant,78.24,79.38,90.72,133.81,303.91,Single-ply,SBD,M
Boys,82.1,9,Angel Aguillon,Big Sandy Harmony,76.66,122.47,58.97,104.33,285.76,Single-ply,SBD,M
Boys,82.1,DQ,Tristan Olivares,Gilmer,76.88,156.49,,,,Single-ply,SBD,M
Boys,89.81,1,Cody Brantley,Mount Pleasant,87.77,215.46,151.95,192.78,560.19,Single-ply,SBD,M
Boys,89.81,2,David Mitchell-Blaylock,Winona,89.58,183.7,124.74,188.24,496.68,Single-ply,SBD,M
Boys,89.81,3,John Phillips,Big Sandy Harmony,87.09,181.44,117.93,174.63,474,Single-ply,SBD,M
Boys,89.81,4,Andrew Turner,Mount Pleasant,85.16,156.49,111.13,188.24,455.86,Single-ply,SBD,M
Boys,89.81,5,Zach Smith #14,Big Sandy Harmony,88.11,170.1,99.79,183.7,453.59,Single-ply,SBD,M
Boys,89.81,6,Christian Loyd,Gilmer,83.01,147.42,90.72,142.88,381.02,Single-ply,SBD,M
Boys,89.81,7,Matt Caldwell,Gilmer,87.09,147.42,90.72,142.88,381.02,Single-ply,SBD,M
Boys,99.79,1,Neco Smith,Texarkana Pleasant Grove,99.34,260.82,151.95,222.26,635.03,Single-ply,SBD,M
Boys,99.79,2,Bryan Winburn,Winnsboro,99.79,231.33,147.42,226.8,605.55,Single-ply,SBD,M
Boys,99.79,3,Seth Lemley,Texarkana Pleasant Grove,91.63,224.53,136.08,206.38,566.99,Single-ply,SBD,M
Boys,99.79,4,Joseph Hart,Winona,99.11,215.46,127.01,217.72,560.19,Single-ply,SBD,M
Boys,99.79,5,Tyson Gearner,Winnsboro,95.71,210.92,133.81,206.38,551.11,Single-ply,SBD,M
Boys,99.79,6,Branson Davis,Big Sandy Harmony,94.57,190.51,124.74,219.99,535.24,Single-ply,SBD,M
Boys,99.79,7,Brandon Gann,Gladewater Sabine,99.79,197.31,127.01,197.31,521.63,Single-ply,SBD,M
Boys,99.79,8,Grant Stansberry,Gladewater Sabine,92.65,197.31,120.2,188.24,505.76,Single-ply,SBD,M
Boys,99.79,9,De'Andre Jefferson,Winona,91.74,190.51,124.74,185.97,501.22,Single-ply,SBD,M
Boys,109.77,10,Will Anderson,Mount Pleasant,100.02,181.44,117.93,179.17,478.54,Single-ply,SBD,M
Boys,99.79,11,Mitchell Parra,Mount Pleasant,98.2,172.37,90.72,158.76,421.84,Single-ply,SBD,M
Boys,99.79,12,Montana Moore,Redwater,93.44,147.42,92.99,149.69,390.09,Single-ply,SBD,M
Boys,99.79,13,Tyler Nixon,Gladewater Sabine,94.01,117.93,99.79,136.08,353.8,Single-ply,SBD,M
Boys,109.77,1,Josh Hurst,Mineola,107.95,233.6,115.67,219.99,569.26,Single-ply,SBD,M
Boys,109.77,2,Chris Bloyd,Big Sandy Harmony,100.7,217.72,131.54,204.12,553.38,Single-ply,SBD,M
Boys,109.77,3,Kyle Boyd,Winona,103.87,215.46,129.27,197.31,542.04,Single-ply,SBD,M
Boys,109.77,4,Joseph Snodgrass,Texarkana Pleasant Grove,109.54,199.58,127.01,190.51,517.1,Single-ply,SBD,M
Boys,109.77,5,Rowdy Smith,Winnsboro,101.15,208.65,104.33,176.9,489.88,Single-ply,SBD,M
Boys,109.77,6,Timothy Wilson,Winona,104.78,174.63,115.67,197.31,487.61,Single-ply,SBD,M
Boys,109.77,7,Baltizaar Santiago,Quitman,106.59,151.95,99.79,181.44,433.18,Single-ply,SBD,M
Boys,109.77,8,Quincy Spells,Texarkana Pleasant Grove,101.6,136.08,90.72,142.88,369.68,Single-ply,SBD,M
Boys,109.77,9,Ryan Forbes,Texarkana Pleasant Grove,102.51,136.08,81.65,147.42,365.14,Single-ply,SBD,M
Boys,109.77,10,Josh Whitworth,Gladewater Sabine,102.29,129.27,58.97,124.74,312.98,Single-ply,SBD,M
Boys,124.74,1,Drew Davis,Texarkana Pleasant Grove,120.88,263.08,174.63,215.46,653.17,Single-ply,SBD,M
Boys,124.74,2,Daniel Logan,Big Sandy Harmony,120.66,222.26,115.67,226.8,564.72,Single-ply,SBD,M
Boys,124.74,3,James Hanson,Mount Pleasant,117.93,215.46,113.4,226.8,555.65,Single-ply,SBD,M
Boys,124.74,4,Emiliano Ramirez,Quitman,119.29,197.31,129.27,176.9,503.49,Single-ply,SBD,M
Boys,124.74,5,Joseph McKee,Winnsboro,113.17,183.7,113.4,181.44,478.54,Single-ply,SBD,M
Boys,124.74,6,Austin Restine,Gilmer,113.4,181.44,113.4,167.83,462.66,Single-ply,SBD,M
Boys,124.74,7,Peter Ramirez,Quitman,123.49,165.56,113.4,163.29,442.25,Single-ply,SBD,M
Boys,124.74+,8,Caleb Johnson,Mount Pleasant,124.96,181.44,81.65,163.29,426.38,Single-ply,SBD,M
Boys,124.74,9,Tanner Tucker,Gladewater Sabine,118.84,129.27,108.86,129.27,367.41,Single-ply,SBD,M
Boys,124.74,10,Ben Grissom,Mount Pleasant,120.2,138.35,79.38,111.13,328.85,Single-ply,SBD,M
Boys,124.74+,1,Will Wright,Mount Pleasant,168.06,272.16,154.22,219.99,646.37,Single-ply,SBD,M
Boys,124.74+,2,Jordan LaBrie,Texarkana Pleasant Grove,138.35,267.62,167.83,204.12,639.57,Single-ply,SBD,M
Boys,124.74+,3,Joel Bautista,Mount Pleasant,126.55,240.4,167.83,181.44,589.67,Single-ply,SBD,M
Boys,124.74+,4,Francisco Morales,Mount Pleasant,130.86,217.72,111.13,217.72,546.58,Single-ply,SBD,M
Boys,124.74+,5,Jalen Brown,Mount Pleasant,134.49,181.44,138.35,204.12,523.9,Single-ply,SBD,M
Boys,124.74+,6,Bryce McGovern,Winnsboro,131.31,170.1,90.72,151.95,412.77,Single-ply,SBD,M
