Division,WeightClassKg,Place,Name,Team,BodyweightKg,Best3SquatKg,Best3BenchKg,Best3DeadliftKg,TotalKg,Equipment,Event,Sex
Boys,51.71,1,Jesse Ramirez,San Angelo Lake View,51.71,136.08,86.18,163.29,385.55,Single-ply,SBD,M
Boys,51.71,2,Clarence Smith,Abilene Cooper,50.35,140.61,70.31,151.95,362.87,Single-ply,SBD,M
Boys,51.71,3,Jaxon Sullivan,Clyde,50.35,129.27,72.57,122.47,324.32,Single-ply,SBD,M
Boys,51.71,4,Edrick Gonzales,Abilene Cooper,49.62,99.79,61.23,113.4,274.42,Single-ply,SBD,M
Boys,51.71,5,Nathaniel Martinez,Loraine,50.62,83.91,58.97,122.47,265.35,Single-ply,SBD,M
Boys,51.71,6,Marco Sandate,San Angelo Lake View,47.45,97.52,49.9,115.67,263.08,Single-ply,SBD,M
Boys,51.71,7,Jaden Dement,Clyde,51.53,90.72,58.97,113.4,263.08,Single-ply,SBD,M
Boys,51.71,8,Drew Votaw,Merkel,50.8,90.72,52.16,99.79,242.67,Single-ply,SBD,M
Boys,51.71,9,Tanner Daniel,Merkel,47.63,86.18,38.56,95.25,219.99,Single-ply,SBD,M
Boys,51.71,DQ,Hunter Gammage,Coleman,50.53,77.11,,,,Single-ply,SBD,M
Boys,55.79,1,Jay Lomas,Sweetwater,55.52,127.01,74.84,138.35,340.19,Single-ply,SBD,M
Boys,55.79,2,Mario Manquero,Garden City,55.61,131.54,74.84,133.81,340.19,Single-ply,SBD,M
Boys,55.79,3,Tristin Cauthen,Clyde,54.43,115.67,81.65,140.61,337.93,Single-ply,SBD,M
Boys,55.79,4,Esteban Garcia,Sonora,54.88,124.74,83.91,127.01,335.66,Single-ply,SBD,M
Boys,55.79,5,Brandon Kinard,Hawley,55.25,124.74,61.23,108.86,294.84,Single-ply,SBD,M
Boys,55.79,6,Damian Cate,Coahoma,52.98,104.33,58.97,113.4,276.69,Single-ply,SBD,M
Boys,55.79,7,Lorenzo Garcia,San Angelo Lake View,53.98,97.52,54.43,122.47,274.42,Single-ply,SBD,M
Boys,59.87,DQ,Chris Cantu,Ozona,56.02,124.74,,,,Single-ply,SBD,M
Boys,59.87,1,Edward Garza,Sonora,59.87,183.7,106.59,174.63,464.93,Single-ply,SBD,M
Boys,59.87,2,Bryce DeVore,Hawley,59.24,176.9,86.18,170.1,433.18,Single-ply,SBD,M
Boys,67.13,3,James Powell,Abilene,60.06,147.42,79.38,170.1,396.89,Single-ply,SBD,M
Boys,67.13,4,Taylor Baum,Coleman,60.06,140.61,102.06,149.69,392.36,Single-ply,SBD,M
Boys,59.87,5,Michael Vargas,Ozona,58.06,158.76,77.11,149.69,385.55,Single-ply,SBD,M
Boys,59.87,6,Edson Dehoyos,San Angelo Central,58.88,145.15,83.91,142.88,371.95,Single-ply,SBD,M
Boys,59.87,7,Ryan San Miguel,Sonora,57.52,147.42,77.11,145.15,369.68,Single-ply,SBD,M
Boys,59.87,8,Zack Rosas,Sweetwater,59.69,142.88,79.38,147.42,369.68,Single-ply,SBD,M
Boys,67.13,9,Brandon Mireles,San Angelo Lake View,60.1,140.61,68.04,156.49,365.14,Single-ply,SBD,M
Boys,67.13,10,Kenneth Gonzales,Abilene Cooper,60.06,102.06,108.86,151.95,362.87,Single-ply,SBD,M
Boys,67.13,11,Julian Uranga,Coahoma,60.1,136.08,74.84,142.88,353.8,Single-ply,SBD,M
Boys,67.13,12,Julio Dominguez,San Angelo Lake View,59.96,108.86,81.65,136.08,326.59,Single-ply,SBD,M
Boys,59.87,13,Justin Coleman,Coleman,58.33,106.59,72.57,117.93,297.1,Single-ply,SBD,M
Boys,59.87,14,Toby Pippin,Roby,57.15,102.06,65.77,113.4,281.23,Single-ply,SBD,M
Boys,59.87,15,Robbie Sanchez,Ozona,59.33,90.72,47.63,95.25,233.6,Single-ply,SBD,M
Boys,67.13,1,Brett DeVore,Hawley,66.95,217.72,113.4,229.06,560.19,Single-ply,SBD,M
Boys,67.13,2,Jazper Solis,Abilene,64.68,240.4,113.4,204.12,557.92,Single-ply,SBD,M
Boys,67.13,3,Choeung Sei,Snyder,65.14,190.51,122.47,190.51,503.49,Single-ply,SBD,M
Boys,74.84,4,Tj Bruns,Abilene Cooper,67.22,201.85,108.86,167.83,478.54,Single-ply,SBD,M
Boys,67.13,5,Jose Rangel,Roscoe,66.59,190.51,108.86,165.56,464.93,Single-ply,SBD,M
Boys,74.84,6,Kneeland Donnelly,Abilene,67.22,181.44,99.79,183.7,464.93,Single-ply,SBD,M
Boys,67.13,7,Adrian Lopez,Sweetwater,64.68,158.76,106.59,188.24,453.59,Single-ply,SBD,M
Boys,67.13,8,Hunter Sykes,San Angelo Lake View,66.13,170.1,97.52,170.1,437.72,Single-ply,SBD,M
Boys,67.13,9,Jonathan Seabourn,Clyde,60.87,174.63,99.79,161.03,435.45,Single-ply,SBD,M
Boys,67.13,10,Kerry Sims,Abilene Cooper,66.86,167.83,90.72,174.63,433.18,Single-ply,SBD,M
Boys,67.13,11,Martin Zambrano,Big Spring,65.77,147.42,97.52,170.1,415.04,Single-ply,SBD,M
Boys,67.13,12,Dakota Brewster,Clyde,64.23,167.83,90.72,154.22,412.77,Single-ply,SBD,M
Boys,67.13,13,Donald Baker,Sweetwater,64.86,158.76,92.99,151.95,403.7,Single-ply,SBD,M
Boys,67.13,14,Chase McKissick,Tuscola Jim Ned,65.32,145.15,83.91,158.76,387.82,Single-ply,SBD,M
Boys,67.13,15,Dustin Gallihar,Clyde,61.33,127.01,95.25,154.22,376.48,Single-ply,SBD,M
Boys,67.13,16,Erik Santana,Sonora,67.04,124.74,92.99,142.88,360.61,Single-ply,SBD,M
Boys,67.13,17,Jeff Reese,Tuscola Jim Ned,62.14,136.08,79.38,136.08,351.53,Single-ply,SBD,M
Boys,67.13,18,Nick Nemir,Sweetwater,62.6,131.54,81.65,136.08,349.27,Single-ply,SBD,M
Boys,67.13,19,Juan Marquez,Big Lake Reagan County,64.05,136.08,68.04,145.15,349.27,Single-ply,SBD,M
Boys,67.13,20,Taylor Robertson,Big Spring,66.32,127.01,74.84,147.42,349.27,Single-ply,SBD,M
Boys,67.13,21,Austin Odem,Garden City,65.23,138.35,72.57,133.81,344.73,Single-ply,SBD,M
Boys,67.13,22,Eli Peterson,San Angelo Lake View,61.14,124.74,74.84,142.88,342.46,Single-ply,SBD,M
Boys,74.84,23,Dakota Smith,Clyde,67.31,117.93,81.65,136.08,335.66,Single-ply,SBD,M
Boys,67.13,24,Brooks Jones,Coleman,63.5,117.93,72.57,124.74,315.25,Single-ply,SBD,M
Boys,67.13,25,Pj Hammonds,Coleman,66.5,111.13,61.23,120.2,292.57,Single-ply,SBD,M
Boys,67.13,DQ,James Baird,Clyde,66.04,113.4,63.5,136.08,,Single-ply,SBD,M
Boys,67.13,DQ,Ryan Frakes,Tuscola Jim Ned,63.68,142.88,81.65,,,Single-ply,SBD,M
Boys,82.1,1,Sam Nemir,Sweetwater,74.93,226.8,122.47,208.65,557.92,Single-ply,SBD,M
Boys,74.84,2,Ryan Linebaugh,Sweetwater,72.03,197.31,108.86,201.85,508.02,Single-ply,SBD,M
Boys,74.84,3,Ian Pryor,Merkel,73.66,195.04,115.67,195.04,505.76,Single-ply,SBD,M
Boys,74.84,4,Dakota Morris,Clyde,74.84,174.63,138.35,192.78,505.76,Single-ply,SBD,M
Boys,82.1,5,Fernando Saucedo,Big Lake Reagan County,75.07,181.44,92.99,181.44,455.86,Single-ply,SBD,M
Boys,74.84,6,Daniel Sotelo,Abilene,74.75,161.03,102.06,181.44,444.52,Single-ply,SBD,M
Boys,74.84,7,Aaron Cantu,Abilene Cooper,69.58,147.42,111.13,179.17,437.72,Single-ply,SBD,M
Boys,74.84,8,Charles McGill,Abilene,72.67,142.88,102.06,190.51,435.45,Single-ply,SBD,M
Boys,74.84,9,Angel Moreno,San Angelo Lake View,73.12,172.37,99.79,163.29,435.45,Single-ply,SBD,M
Boys,74.84,10,Wade Hamer,Abilene,74.39,149.69,104.33,181.44,435.45,Single-ply,SBD,M
Boys,74.84,11,Blayne Darnell,Clyde,69.49,158.76,83.91,170.1,412.77,Single-ply,SBD,M
Boys,74.84,12,Brandon Galindo,Sweetwater,68.95,142.88,92.99,172.37,408.23,Single-ply,SBD,M
Boys,74.84,13,Randel Boswell,Merkel,71.21,176.9,79.38,147.42,403.7,Single-ply,SBD,M
Boys,74.84,14,Dylan Hankins,Coleman,68.22,142.88,90.72,163.29,396.89,Single-ply,SBD,M
Boys,74.84,15,Austin Rain,Clyde,74.21,149.69,83.91,161.03,394.63,Single-ply,SBD,M
Boys,74.84,16,Michael Chavez,Sonora,71.03,147.42,70.31,149.69,367.41,Single-ply,SBD,M
Boys,74.84,17,Aric Ramzanali,Hawley,73.75,124.74,83.91,147.42,356.07,Single-ply,SBD,M
Boys,74.84,18,Cody Majorowski,San Angelo Central,69.31,92.99,74.84,147.42,315.25,Single-ply,SBD,M
Boys,74.84,DQ,Jake Morgan,Clyde,72.3,120.2,79.38,138.35,,Single-ply,SBD,M
Boys,82.1,1,Brad Wills,Clyde,80.83,249.48,158.76,226.8,635.03,Single-ply,SBD,M
Boys,82.1,2,Levi Irby,Hawley,81.1,201.85,113.4,204.12,519.36,Single-ply,SBD,M
Boys,82.1,3,Alex Garcia #1,Sweetwater,79.83,183.7,99.79,226.8,510.29,Single-ply,SBD,M
Boys,82.1,4,Caleb Miller,Clyde,79.83,192.78,131.54,176.9,501.22,Single-ply,SBD,M
Boys,82.1,5,Landon Jones,Roscoe,79.11,190.51,111.13,197.31,498.95,Single-ply,SBD,M
Boys,82.1,6,Maurico Valdez,San Angelo Lake View,79.47,190.51,106.59,199.58,496.68,Single-ply,SBD,M
Boys,82.1,7,Ben Bowman,San Angelo Central,78.2,185.97,108.86,185.97,480.81,Single-ply,SBD,M
Boys,82.1,8,Kenneth Lewis,Abilene Cooper,81.92,181.44,113.4,185.97,480.81,Single-ply,SBD,M
Boys,82.1,9,Cody Buczyna,Merkel,79.29,195.04,99.79,183.7,478.54,Single-ply,SBD,M
Boys,82.1,10,Adam Moncibais,Snyder,81.65,172.37,117.93,172.37,462.66,Single-ply,SBD,M
Boys,82.1,11,Skyler O'Donald,Clyde,77.38,142.88,133.81,181.44,458.13,Single-ply,SBD,M
Boys,82.1,12,Jacob Reicheniker,Tuscola Jim Ned,79.83,158.76,104.33,172.37,435.45,Single-ply,SBD,M
Boys,82.1,13,Caleb Korey,Abilene Cooper,81.01,163.29,83.91,185.97,433.18,Single-ply,SBD,M
Boys,82.1,14,William Varela,Snyder,82.1,163.29,113.4,147.42,424.11,Single-ply,SBD,M
Boys,82.1,15,Blake Hammonds,Coleman,78.93,149.69,99.79,161.03,410.5,Single-ply,SBD,M
Boys,82.1,16,Garret Hammer,Tuscola Jim Ned,79.02,156.49,95.25,154.22,405.97,Single-ply,SBD,M
Boys,82.1,17,Aberiel Martinez,Abilene,76.11,163.29,90.72,147.42,401.43,Single-ply,SBD,M
Boys,82.1,18,Trenton Gardner,Big Lake Reagan County,75.39,136.08,79.38,151.95,367.41,Single-ply,SBD,M
Boys,82.1,19,Noah Tambunga,Ozona,75.75,104.33,72.57,140.61,317.51,Single-ply,SBD,M
Boys,82.1,DQ,Jimmy Cruz,Coahoma,75.66,147.42,,,,Single-ply,SBD,M
Boys,89.81,1,Alford Cooper,Abilene Cooper,84.55,206.38,106.59,215.46,528.44,Single-ply,SBD,M
Boys,89.81,2,Tanner Fannin,Clyde,89.18,201.85,115.67,210.92,528.44,Single-ply,SBD,M
Boys,89.81,3,Nic Garcia,Abilene Cooper,88.9,170.1,136.08,208.65,514.83,Single-ply,SBD,M
Boys,89.81,4,Miguel López,Big Lake Reagan County,88.27,181.44,95.25,226.8,503.49,Single-ply,SBD,M
Boys,89.81,5,Anthony McLendon,Abilene,87.72,195.04,120.2,181.44,496.68,Single-ply,SBD,M
Boys,89.81,6,Angel Barrios,Coleman,86.82,192.78,136.08,163.29,492.15,Single-ply,SBD,M
Boys,89.81,7,Josh Klingel,Hawley,87.54,226.8,88.45,174.63,489.88,Single-ply,SBD,M
Boys,89.81,8,Kyle Lambert,Sweetwater,84.82,174.63,120.2,185.97,480.81,Single-ply,SBD,M
Boys,89.81,9,Austin Sellers,Hawley,86.09,176.9,122.47,172.37,471.74,Single-ply,SBD,M
Boys,89.81,10,Anthony Palacious,Sweetwater,86.64,185.97,99.79,185.97,471.74,Single-ply,SBD,M
Boys,89.81,11,Zac Toomer,Abilene Cooper,86.64,154.22,124.74,185.97,464.93,Single-ply,SBD,M
Boys,89.81,12,Charlie Thomas,Coleman,87.91,147.42,108.86,188.24,444.52,Single-ply,SBD,M
Boys,89.81,13,Tyler Cagle,Abilene,84.46,163.29,99.79,156.49,419.57,Single-ply,SBD,M
Boys,89.81,14,Mario Sifuentes,Ozona,84.91,147.42,95.25,158.76,401.43,Single-ply,SBD,M
Boys,89.81,15,Nick Ramirez,San Angelo Lake View,87.54,145.15,95.25,158.76,399.16,Single-ply,SBD,M
Boys,89.81,16,Greg Davis,Abilene,85.64,145.15,88.45,156.49,390.09,Single-ply,SBD,M
Boys,89.81,17,Peter Zeller,Abilene,86.27,138.35,86.18,154.22,378.75,Single-ply,SBD,M
Boys,89.81,18,Sam Powers,Sonora,87.72,127.01,88.45,158.76,374.21,Single-ply,SBD,M
Boys,89.81,19,Austin McLeod,Abilene,86.27,111.13,83.91,176.9,371.95,Single-ply,SBD,M
Boys,89.81,20,Tanner Brown,Abilene Cooper,89.45,97.52,77.11,136.08,310.71,Single-ply,SBD,M
Boys,89.81,21,Aj Romas,Ozona,89.18,79.38,43.09,92.99,215.46,Single-ply,SBD,M
Boys,89.81,DQ,Taz Sims,Abilene,83.01,,,,,Single-ply,SBD,M
Boys,89.81,DQ,Ryan Childress,Abilene,82.46,,,,,Single-ply,SBD,M
Boys,89.81,DQ,Joseph Haddad,Clyde,86.09,,,,,Single-ply,SBD,M
Boys,89.81,DQ,Spencer Young,Sweetwater,84.59,165.56,,,,Single-ply,SBD,M
Boys,89.81,DQ,Jason Gann,Tuscola Jim Ned,87.45,181.44,97.52,,,Single-ply,SBD,M
Boys,99.79,1,Justin Goble,Clyde,94.26,226.8,136.08,226.8,589.67,Single-ply,SBD,M
Boys,99.79,2,Jordan Stokes,Clyde,95.8,210.92,124.74,226.8,562.45,Single-ply,SBD,M
Boys,99.79,3,Zack Martinez,Tuscola Jim Ned,96.71,226.8,142.88,192.78,562.45,Single-ply,SBD,M
Boys,99.79,4,Cory Armstrong,Abilene Cooper,96.16,226.8,136.08,181.44,544.31,Single-ply,SBD,M
Boys,99.79,5,Chad Easley,Clyde,93.98,192.78,138.35,192.78,523.9,Single-ply,SBD,M
Boys,99.79,6,Brady Odom,Abilene,93.26,188.24,104.33,217.72,510.29,Single-ply,SBD,M
Boys,99.79,7,Cory Burns,Sweetwater,93.17,179.17,124.74,204.12,508.02,Single-ply,SBD,M
Boys,99.79,8,Shelton Zarate,Coleman,92.9,176.9,124.74,197.31,498.95,Single-ply,SBD,M
Boys,99.79,9,David Salazar,Abilene Cooper,98.79,174.63,120.2,197.31,492.15,Single-ply,SBD,M
Boys,99.79,10,Ben Alexander,San Angelo Central,96.8,156.49,129.27,204.12,489.88,Single-ply,SBD,M
Boys,99.79,11,Tyler Simpson,Abilene Cooper,97.98,188.24,102.06,181.44,471.74,Single-ply,SBD,M
Boys,99.79,12,Max Saxon,Clyde,98.07,170.1,113.4,181.44,464.93,Single-ply,SBD,M
Boys,99.79,13,Kendall Rae,Sweetwater,96.16,176.9,113.4,170.1,460.4,Single-ply,SBD,M
Boys,99.79,14,Mark Gallardo,Ozona,93.71,183.7,102.06,172.37,458.13,Single-ply,SBD,M
Boys,99.79,15,Chris Garza #4,Snyder,90.17,167.83,113.4,174.63,455.86,Single-ply,SBD,M
Boys,99.79,16,Hazael Damin,Ozona,98.79,151.95,72.57,172.37,396.89,Single-ply,SBD,M
Boys,99.79,17,Douglas Pilkington,Coahoma,95.35,95.25,63.5,120.2,278.96,Single-ply,SBD,M
Boys,99.79,DQ,Oscar Valdez,Clyde,92.62,151.95,79.38,151.95,,Single-ply,SBD,M
Boys,99.79,DQ,Hunter Fannin,Clyde,95.71,113.4,,,,Single-ply,SBD,M
Boys,99.79,DQ,Diamond Bailey,Big Spring,97.98,,,,,Single-ply,SBD,M
Boys,99.79,DQ,Josh Helzer,Hawley,91.44,,,,,Single-ply,SBD,M
Boys,99.79,DQ,Zach Pfluger,San Angelo Central,97.52,229.06,127.01,,,Single-ply,SBD,M
Boys,99.79,DQ,Roman Romero,Snyder,96.07,192.78,,,,Single-ply,SBD,M
Boys,109.77,1,Robert Martinez,San Angelo Central,104.78,274.42,145.15,240.4,659.98,Single-ply,SBD,M
Boys,109.77,2,Daniel Montez,Roby,107.77,258.55,165.56,229.06,653.17,Single-ply,SBD,M
Boys,109.77,3,Mateo Gonzales,Sweetwater,104.78,215.46,151.95,226.8,594.21,Single-ply,SBD,M
Boys,109.77,4,Corey Hatcher,Roscoe,102.87,208.65,140.61,231.33,580.6,Single-ply,SBD,M
Boys,109.77,5,Jose Escamilla,Abilene Cooper,106.05,213.19,133.81,217.72,564.72,Single-ply,SBD,M
Boys,109.77,6,Jake McMillon,Abilene,103.06,204.12,133.81,215.46,553.38,Single-ply,SBD,M
Boys,109.77,7,Nick Evans,San Angelo Central,109.5,213.19,117.93,201.85,532.97,Single-ply,SBD,M
Boys,109.77,8,Chantz Anderson,Abilene,101.15,197.31,133.81,167.83,498.95,Single-ply,SBD,M
Boys,109.77,9,Hunter Johnson,Sweetwater,103.87,181.44,120.2,197.31,498.95,Single-ply,SBD,M
Boys,109.77,10,William Carmicheal,Abilene Cooper,101.88,188.24,108.86,190.51,487.61,Single-ply,SBD,M
Boys,124.74,11,Nathan Ceballos,Tuscola Jim Ned,109.95,176.9,104.33,167.83,449.06,Single-ply,SBD,M
Boys,109.77,12,Rudy Brito,Coahoma,104.6,190.51,86.18,170.1,446.79,Single-ply,SBD,M
Boys,109.77,13,Brandon Lopez,San Angelo Lake View,103.87,170.1,106.59,158.76,435.45,Single-ply,SBD,M
Boys,109.77,14,Anthony Avila,Ozona,102.06,127.01,108.86,170.1,405.97,Single-ply,SBD,M
Boys,109.77,15,Gatlin Baker,Coleman,104.05,138.35,97.52,156.49,392.36,Single-ply,SBD,M
Boys,109.77,16,Dillon Ogle,Big Spring,106.41,136.08,81.65,127.01,344.73,Single-ply,SBD,M
Boys,109.77,17,Chris Rendon,Sonora,108.05,108.86,81.65,127.01,317.51,Single-ply,SBD,M
Boys,109.77,DQ,Angel Aguilera,Big Lake Reagan County,107.5,,,,,Single-ply,SBD,M
Boys,124.74,1,Devon Davis-Locke,Big Spring,120.56,263.08,167.83,204.12,635.03,Single-ply,SBD,M
Boys,124.74,2,Rhett Lawrence,Clyde,110.59,226.8,179.17,226.8,632.76,Single-ply,SBD,M
Boys,124.74,3,Cj Casas,Snyder,115.67,204.12,129.27,210.92,544.31,Single-ply,SBD,M
Boys,124.74,4,Jose Garcia,Sweetwater,111.22,215.46,142.88,181.44,539.77,Single-ply,SBD,M
Boys,124.74,5,Dustin Fontana,Coahoma,111.95,199.58,136.08,195.04,530.7,Single-ply,SBD,M
Boys,124.74,6,Jeremy Matscheck,San Angelo Central,119.39,201.85,151.95,172.37,526.17,Single-ply,SBD,M
Boys,124.74,7,Chris Nunez,Big Spring,118.48,181.44,136.08,195.04,512.56,Single-ply,SBD,M
Boys,124.74,8,Malcom Jackson,Sweetwater,115.67,192.78,136.08,181.44,510.29,Single-ply,SBD,M
Boys,124.74,9,Anthony Drayton,Abilene,124.65,204.12,102.06,158.76,464.93,Single-ply,SBD,M
Boys,124.74,10,Christian Delgado,San Angelo Lake View,120.75,181.44,104.33,161.03,446.79,Single-ply,SBD,M
Boys,124.74,11,Jeremy Garza,Snyder,121.65,158.76,106.59,165.56,430.91,Single-ply,SBD,M
Boys,124.74,12,Aric Rutledge,Big Spring,112.4,163.29,97.52,151.95,412.77,Single-ply,SBD,M
Boys,124.74,13,Angel Caballero,Sweetwater,114.31,165.56,102.06,140.61,408.23,Single-ply,SBD,M
Boys,124.74,14,Connor Willis,Tuscola Jim Ned,116.21,154.22,92.99,158.76,405.97,Single-ply,SBD,M
Boys,124.74,15,Aj Martinez,Big Spring,117.03,151.95,72.57,129.27,353.8,Single-ply,SBD,M
Boys,124.74,DQ,Victor Cruz,Abilene,123.2,208.65,147.42,,,Single-ply,SBD,M
Boys,124.74+,1,Brayden Newcomb,Hawley,127.28,254.01,145.15,235.87,635.03,Single-ply,SBD,M
Boys,124.74+,2,Jordan Stevenson,Abilene Cooper,128.19,254.01,129.27,240.4,623.69,Single-ply,SBD,M
Boys,124.74+,3,Dylan Early,Snyder,138.07,235.87,158.76,226.8,621.42,Single-ply,SBD,M
Boys,124.74+,4,Sawyer Roberts,Big Spring,175.36,222.26,145.15,244.94,612.35,Single-ply,SBD,M
Boys,124.74+,5,James Marroquin,San Angelo Lake View,137.71,201.85,120.2,206.38,528.44,Single-ply,SBD,M
Boys,124.74+,6,Huelon Martinez,Abilene,130.82,215.46,122.47,188.24,526.17,Single-ply,SBD,M
Boys,124.74+,7,Riley Owens,Abilene Cooper,134.72,215.46,111.13,192.78,519.36,Single-ply,SBD,M
Boys,124.74+,8,Mike Villareal,Coahoma,180.08,231.33,102.06,181.44,514.83,Single-ply,SBD,M
Boys,124.74+,9,Brex Burris,Abilene Cooper,135.35,199.58,113.4,197.31,510.29,Single-ply,SBD,M
Boys,124.74+,10,Mark Hudson,San Angelo Lake View,154.49,188.24,92.99,188.24,469.47,Single-ply,SBD,M
Boys,124.74+,11,Andrew Sanchez,Ozona,127.1,158.76,113.4,158.76,430.91,Single-ply,SBD,M
Boys,124.74+,DQ,Hayden Vinson,San Angelo Central,131.09,,,,,Single-ply,SBD,M
Boys,124.74+,DQ,Max Rivero,San Angelo Central,135.35,,,,,Single-ply,SBD,M
