Division,WeightClassKg,Place,Name,Team,BodyweightKg,Best3SquatKg,Best3BenchKg,Best3DeadliftKg,TotalKg,Equipment,Event,Sex
Boys,51.71,1,Angel Bermudez,Poteet,50.53,142.88,90.72,145.15,378.75,Single-ply,SBD,M
Boys,51.71,2,Devin Medina,Kenedy,51.62,133.81,74.84,140.61,349.27,Single-ply,SBD,M
Boys,51.71,3,Oziel Padilla,Natalia,51.26,129.27,58.97,131.54,319.78,Single-ply,SBD,M
Boys,55.79,4,Jose Hernandez #3,Karnes City,51.94,113.4,68.04,122.47,303.91,Single-ply,SBD,M
Boys,51.71,5,Rigo Franco,Poth,51.48,113.4,72.57,106.59,292.57,Single-ply,SBD,M
Boys,51.71,DQ,Jorge Saldana,Natalia,51.71,,,,,Single-ply,SBD,M
Boys,55.79,1,Ricky Guerra,Poteet,55.11,172.37,113.4,185.97,471.74,Single-ply,SBD,M
Boys,59.87,2,Tom Palocio,Nixon Smiley,55.88,136.08,83.91,154.22,374.21,Single-ply,SBD,M
Boys,55.79,3,Parth Patel,Kenedy,55.25,127.01,81.65,145.15,353.8,Single-ply,SBD,M
Boys,55.79,4,Devin McMahan,Stockdale,55.7,115.67,74.84,156.49,347,Single-ply,SBD,M
Boys,59.87,5,Wesley Lover,Karnes City,56.02,122.47,70.31,131.54,324.32,Single-ply,SBD,M
Boys,55.79,6,Michael Chomot,Yoakum,53.98,97.52,63.5,106.59,267.62,Single-ply,SBD,M
Boys,55.79,DQ,Carlos Ocampo,Natalia,54.34,120.2,54.43,,,Single-ply,SBD,M
Boys,55.79,DQ,Victor Monsevias,Kenedy,55.79,,,,,Single-ply,SBD,M
Boys,59.87,1,Miguel Hernandez,Nixon Smiley,58.24,167.83,92.99,185.97,446.79,Single-ply,SBD,M
Boys,59.87,2,Lane Faust,Yoakum,59.65,156.49,104.33,165.56,426.38,Single-ply,SBD,M
Boys,59.87,3,Jacob Hinojosa,Kenedy,59.33,136.08,79.38,161.03,376.48,Single-ply,SBD,M
Boys,67.13,4,Joaquin Munoz,Stockdale,60.1,113.4,79.38,163.29,356.07,Single-ply,SBD,M
Boys,67.13,5,Robert Morin,Karnes City,60.1,120.2,79.38,149.69,349.27,Single-ply,SBD,M
Boys,67.13,6,Fernando Albino,San Antonio Cole,60.1,124.74,70.31,136.08,331.12,Single-ply,SBD,M
Boys,59.87,7,Jesse Balderas,San Antonio Cole,58.29,120.2,65.77,120.2,306.17,Single-ply,SBD,M
Boys,59.87,8,Ty Burson,Karnes City,57.61,104.33,56.7,129.27,290.3,Single-ply,SBD,M
Boys,59.87,9,Miliam Eckhardt,Yorktown,59.65,102.06,61.23,117.93,281.23,Single-ply,SBD,M
Boys,67.13,10,Carlos Ramirez,Natalia,60.1,83.91,43.09,97.52,224.53,Single-ply,SBD,M
Boys,59.87,DQ,Daniel Alvarado,Natalia,59.87,,,,,Single-ply,SBD,M
Boys,67.13,1,Darion McMahan,Stockdale,67.13,235.87,151.95,233.6,621.42,Single-ply,SBD,M
Boys,67.13,2,Matt Valadez,Stockdale,66.32,208.65,122.47,222.26,553.38,Single-ply,SBD,M
Boys,67.13,3,Tyler Gould,Pleasanton,66.45,174.63,92.99,161.03,428.64,Single-ply,SBD,M
Boys,67.13,4,Jared Garza,Yoakum,66.68,154.22,92.99,172.37,419.57,Single-ply,SBD,M
Boys,67.13,5,Alan Johns,Poth,66.41,140.61,117.93,158.76,417.3,Single-ply,SBD,M
Boys,67.13,6,Nathan Thiry,Yoakum,63.59,129.27,108.86,158.76,396.89,Single-ply,SBD,M
Boys,67.13,7,Craig Jacobs,Center Point,65.32,154.22,92.99,140.61,387.82,Single-ply,SBD,M
Boys,67.13,8,Andrew Aguero,Kenedy,62.37,131.54,86.18,140.61,358.34,Single-ply,SBD,M
Boys,67.13,9,Chris Cherry,Center Point,67.04,138.35,81.65,138.35,358.34,Single-ply,SBD,M
Boys,67.13,10,Jadran Ramirez,Kenedy,64.59,129.27,77.11,149.69,356.07,Single-ply,SBD,M
Boys,67.13,11,Hunter Jansky,Poth,66.45,120.2,81.65,149.69,351.53,Single-ply,SBD,M
Boys,67.13,12,Lee Marklund,San Antonio Cole,65.09,111.13,65.77,149.69,326.59,Single-ply,SBD,M
Boys,67.13,DQ,Mardio Lattimore,San Antonio Cole,66,136.08,,,,Single-ply,SBD,M
Boys,67.13,DQ,Brandon De Los Santos,Poth,67.13,,,,,Single-ply,SBD,M
Boys,67.13,DQ,Erik Villarreal,Natalia,67.13,,,,,Single-ply,SBD,M
Boys,74.84,1,Jacob Perez,Nixon Smiley,70.31,213.19,108.86,190.51,512.56,Single-ply,SBD,M
Boys,74.84,2,Caleb Schendel,Yorktown,72.67,170.1,108.86,163.29,442.25,Single-ply,SBD,M
Boys,74.84,3,Steven Nicholson,Natalia,74.03,172.37,77.11,181.44,430.91,Single-ply,SBD,M
Boys,74.84,4,Hector Compose,Nixon Smiley,69.04,147.42,97.52,172.37,417.3,Single-ply,SBD,M
Boys,74.84,5,Ric Chapa,Natalia,70.85,142.88,81.65,174.63,399.16,Single-ply,SBD,M
Boys,74.84,6,Jon DeLeon,Taft,71.76,149.69,90.72,151.95,392.36,Single-ply,SBD,M
Boys,74.84,7,Daniel Martin,Center Point,72.35,145.15,81.65,154.22,381.02,Single-ply,SBD,M
Boys,74.84,8,Ryan Gasch,Yoakum,68.27,97.52,72.57,111.13,281.23,Single-ply,SBD,M
Boys,74.84,DQ,Jerren Scott,San Antonio Cole,70.31,,,,,Single-ply,SBD,M
Boys,74.84,DQ,James Small,San Antonio Cole,74.84,,,,,Single-ply,SBD,M
Boys,74.84,DQ,Mark Hernandez,Natalia,74.84,,,,,Single-ply,SBD,M
Boys,82.1,1,Thomas Trevino,Pleasanton,80.65,208.65,120.2,204.12,532.97,Single-ply,SBD,M
Boys,82.1,2,Francisco Martinez,Poteet,79.74,183.7,145.15,188.24,517.1,Single-ply,SBD,M
Boys,82.1,3,Matt Chapa,Center Point,75.75,190.51,120.2,188.24,498.95,Single-ply,SBD,M
Boys,89.81,4,Ben Guthrie,Center Point,82.33,195.04,127.01,170.1,492.15,Single-ply,SBD,M
Boys,82.1,5,Nick Quintanilla,Karnes City,76.2,197.31,104.33,188.24,489.88,Single-ply,SBD,M
Boys,82.1,6,Jamison Smolka,Poth,75.98,190.51,122.47,163.29,476.27,Single-ply,SBD,M
Boys,82.1,7,Hakim James,San Antonio Cole,76.66,176.9,92.99,204.12,474,Single-ply,SBD,M
Boys,82.1,8,Lemuel Ramirez,Center Point,76.43,172.37,102.06,154.22,428.64,Single-ply,SBD,M
Boys,82.1,9,Ricky Camarillo,Yoakum,79.15,165.56,97.52,158.76,421.84,Single-ply,SBD,M
Boys,82.1,10,Papito Monreal,Natalia,76.38,149.69,83.91,174.63,408.23,Single-ply,SBD,M
Boys,82.1,11,Zach Reeves,San Antonio Cole,81.65,142.88,92.99,149.69,385.55,Single-ply,SBD,M
Boys,82.1,12,Xzavier Reyes,Poteet,78.24,129.27,79.38,140.61,349.27,Single-ply,SBD,M
Boys,82.1,DQ,Chris Vasquez,Pleasanton,82.1,,,,,Single-ply,SBD,M
Boys,82.1,DQ,Raul Tovar,Nixon Smiley,82.1,,,,,Single-ply,SBD,M
Boys,82.1,DQ,Conner McLaughlin,Stockdale,82.1,,,,,Single-ply,SBD,M
Boys,99.79,1,Derek Franke,Yorktown,90.04,240.4,167.83,240.4,648.64,Single-ply,SBD,M
Boys,99.79,2,Matthew Zavala,Poth,89.99,208.65,145.15,181.44,535.24,Single-ply,SBD,M
Boys,89.81,3,David Bernal,Pleasanton,88.9,222.26,113.4,192.78,528.44,Single-ply,SBD,M
Boys,99.79,4,Oscar Torres,Nixon Smiley,90.04,170.1,108.86,192.78,471.74,Single-ply,SBD,M
Boys,89.81,5,Nick Calderone,San Antonio Cole,84.82,158.76,111.13,154.22,424.11,Single-ply,SBD,M
Boys,89.81,6,Nick Casanova,Karnes City,89.81,154.22,83.91,181.44,419.57,Single-ply,SBD,M
Boys,99.79,1,Bryce Sandoval,Poteet,98.34,181.44,117.93,176.9,476.27,Single-ply,SBD,M
Boys,99.79,2,Aaron Lopez,Karnes City,91.17,181.44,111.13,176.9,469.47,Single-ply,SBD,M
Boys,99.79,3,Leo Martinez,Center Point,99.79,170.1,99.79,188.24,458.13,Single-ply,SBD,M
Boys,99.79,4,Roman Trevino,Karnes City,99.11,122.47,77.11,138.35,337.93,Single-ply,SBD,M
Boys,99.79,DQ,Brayden Bauer,Pleasanton,99.79,,,,,Single-ply,SBD,M
Boys,99.79,DQ,Jacob Caldera,San Antonio Cole,99.79,,,,,Single-ply,SBD,M
Boys,99.79,DQ,Abraham Mayo,San Antonio Cole,99.79,,,,,Single-ply,SBD,M
Boys,109.77,1,Weston Block,Karnes City,100.24,233.6,136.08,224.53,594.21,Single-ply,SBD,M
Boys,109.77,2,Gabriel García,Yoakum,107.68,238.14,131.54,219.99,589.67,Single-ply,SBD,M
Boys,109.77,3,Austin Block,Karnes City,101.6,233.6,129.27,222.26,585.13,Single-ply,SBD,M
Boys,109.77,4,Chris Trujillo,Center Point,104.96,222.26,133.81,204.12,560.19,Single-ply,SBD,M
Boys,109.77,5,Neal Formalo,Yoakum,106.59,204.12,113.4,181.44,498.95,Single-ply,SBD,M
Boys,109.77,6,Manny Leija,Pleasanton,102.6,195.04,111.13,183.7,489.88,Single-ply,SBD,M
Boys,109.77,7,Matt Garcia,Poteet,108.32,183.7,106.59,167.83,458.13,Single-ply,SBD,M
Boys,109.77,8,Jonah Masters,San Antonio Cole,107.59,124.74,65.77,136.08,326.59,Single-ply,SBD,M
Boys,109.77,DQ,Krystian Brzowowski,Yoakum,109.77,,,,,Single-ply,SBD,M
Boys,109.77,DQ,Gerald Garcia,Pleasanton,109.77,,,,,Single-ply,SBD,M
Boys,124.74,1,Gabriel Garza,Yorktown,120.38,272.16,147.42,226.8,646.37,Single-ply,SBD,M
Boys,124.74,2,Logan McMain,Nixon Smiley,112.4,244.94,147.42,213.19,605.55,Single-ply,SBD,M
Boys,124.74,3,Joe Castillo,Taft,113.85,213.19,147.42,213.19,573.79,Single-ply,SBD,M
Boys,124.74,4,Joe Saldana,Taft,112.04,222.26,129.27,210.92,562.45,Single-ply,SBD,M
Boys,124.74,5,Josh Jennings,San Antonio Cole,115.67,217.72,140.61,204.12,562.45,Single-ply,SBD,M
Boys,124.74,6,Travis Vickery,Kenedy,124.74,188.24,113.4,190.51,492.15,Single-ply,SBD,M
Boys,124.74,7,Michael Balderas,Poteet,117.03,208.65,83.91,181.44,474,Single-ply,SBD,M
Boys,124.74,8,Ray Navarro,Natalia,124.74,190.51,79.38,181.44,451.32,Single-ply,SBD,M
Boys,124.74,9,Jon Lara,Natalia,117.93,181.44,83.91,174.63,439.98,Single-ply,SBD,M
Boys,124.74,10,Damien Bulllis,Center Point,116.48,136.08,83.91,113.4,333.39,Single-ply,SBD,M
Boys,124.74,DQ,David Miles,Nixon Smiley,124.74,,,,,Single-ply,SBD,M
Boys,124.74,DQ,Colton Knapp,Pleasanton,124.74,,,,,Single-ply,SBD,M
Boys,124.74,DQ,Cody Peterson,Pleasanton,124.74,,,,,Single-ply,SBD,M
Boys,124.74,DQ,Adrian Contreras,Poteet,124.74,,,,,Single-ply,SBD,M
Boys,124.74,DQ,AJ Perez,Taft,124.74,,,,,Single-ply,SBD,M
Boys,124.74+,1,Michael Reyes,Natalia,151.05,294.84,149.69,249.48,694,Single-ply,SBD,M
Boys,124.74+,2,Cody Martin,Center Point,131.31,226.8,142.88,226.8,596.47,Single-ply,SBD,M
Boys,124.74+,3,Trent Enriquez,Karnes City,127.46,233.6,131.54,208.65,573.79,Single-ply,SBD,M
Boys,124.74+,4,Ronnie Lucio,Poteet,127.55,240.4,122.47,195.04,557.92,Single-ply,SBD,M
Boys,124.74+,5,James Cooksey,Kenedy,131.54,206.38,106.59,199.58,512.56,Single-ply,SBD,M
Boys,124.74+,6,Nathan Hernandez,Kenedy,125.87,174.63,106.59,106.59,387.82,Single-ply,SBD,M
Boys,124.74+,DQ,Robby Gutierrez,Kenedy,125.19,,,,,Single-ply,SBD,M
