Division,WeightClassKg,Place,Name,Team,BodyweightKg,Best3SquatKg,Best3BenchKg,Best3DeadliftKg,TotalKg,Equipment,Event,Sex
Girls,44.23,1,Ayssa Hinojosa,Hebbronville,44.09,92.99,36.29,113.4,242.67,Single-ply,SBD,F
Girls,44.23,2,Briana Gonzales,Hebbronville,44.18,95.25,43.09,104.33,242.67,Single-ply,SBD,F
Girls,44.23,3,Mireya Cantu,Hebbronville,43.82,92.99,36.29,102.06,231.33,Single-ply,SBD,F
Girls,44.23,4,Melissa Andrade,Laredo Nixon,43.36,36.29,27.22,61.23,124.74,Single-ply,SBD,F
Girls,47.85,1,Karla Carpentier,Hebbronville,47.45,111.13,40.82,104.33,256.28,Single-ply,SBD,F
Girls,47.85,2,Karina Garay,Carrizo Springs,47.63,81.65,49.9,97.52,229.06,Single-ply,SBD,F
Girls,47.85,3,Serina Moss,Hebbronville,45.09,92.99,38.56,95.25,226.8,Single-ply,SBD,F
Girls,47.85,4,Zarina Molina,Hebbronville,47.72,47.63,31.75,86.18,165.56,Single-ply,SBD,F
Girls,51.94,1,Brianna Gonzalez,Zapata,51.35,136.08,63.5,145.15,344.73,Single-ply,SBD,F
Girls,51.94,2,Alexandra García,Zapata,51.35,124.74,63.5,136.08,324.32,Single-ply,SBD,F
Girls,51.94,3,Katherine Espinoza,Hebbronville,51.89,111.13,43.09,131.54,285.76,Single-ply,SBD,F
Girls,51.94,4,Joeli Castillo,Zapata,51.53,102.06,56.7,122.47,281.23,Single-ply,SBD,F
Girls,51.94,5,Erika Peralta,Carrizo Springs,51.35,111.13,61.23,106.59,278.96,Single-ply,SBD,F
Girls,51.94,6,Monika Saldivar,Laredo United South,51.62,99.79,56.7,117.93,274.42,Single-ply,SBD,F
Girls,51.94,7,Tammy Idrogo,Laredo United South,50.44,102.06,47.63,117.93,267.62,Single-ply,SBD,F
Girls,51.94,8,Alexis Soto,Bruni,50.62,99.79,58.97,108.86,267.62,Single-ply,SBD,F
Girls,51.94,9,Carolina Flores,Hebbronville,51.44,97.52,47.63,102.06,247.21,Single-ply,SBD,F
Girls,51.94,10,Kat Cantu,Hebbronville,51.8,102.06,38.56,102.06,242.67,Single-ply,SBD,F
Girls,51.94,11,Casey Castillo #2,Bruni,49.9,97.52,47.63,95.25,240.4,Single-ply,SBD,F
Girls,51.94,12,Victoria Rodriguez,Laredo United,51.89,86.18,36.29,68.04,190.51,Single-ply,SBD,F
Girls,56.02,1,Alana Montes,Zapata,55.34,158.76,74.84,156.49,390.09,Single-ply,SBD,F
Girls,56.02,2,Miranda Moss,Hebbronville,54.79,120.2,45.36,136.08,301.64,Single-ply,SBD,F
Girls,56.02,3,Amanda Perez,Laredo Nixon,53.25,102.06,61.23,122.47,285.76,Single-ply,SBD,F
Girls,56.02,4,Andrea Guerra,Zapata,55.79,108.86,56.7,113.4,278.96,Single-ply,SBD,F
Girls,56.02,5,Nancy Lopez,Laredo United South,53.52,113.4,45.36,104.33,263.08,Single-ply,SBD,F
Girls,56.02,6,Aly Lopez,Hebbronville,54.16,104.33,45.36,108.86,258.55,Single-ply,SBD,F
Girls,56.02,7,Marlene Rodriguez,Laredo United South,53.43,102.06,45.36,108.86,256.28,Single-ply,SBD,F
Girls,56.02,8,Abby Saenz,Bruni,52.53,99.79,47.63,102.06,249.48,Single-ply,SBD,F
Girls,56.02,9,Brenda Quintero,Laredo Martin,51.98,90.72,38.56,92.99,222.26,Single-ply,SBD,F
Girls,56.02,10,Naomi Garza,Laredo United,53.25,86.18,43.09,92.99,222.26,Single-ply,SBD,F
Girls,56.02,11,Kelly Huerta,Carrizo Springs,55.79,70.31,34.02,92.99,197.31,Single-ply,SBD,F
Girls,60.1,1,Chantel Cerna,Hebbronville,58.51,127.01,56.7,131.54,315.25,Single-ply,SBD,F
Girls,60.1,2,Veronica Rodriguez,Laredo Nixon,59.33,127.01,58.97,129.27,315.25,Single-ply,SBD,F
Girls,60.1,3,Priscilla Guerra,Laredo United South,59.87,117.93,63.5,113.4,294.84,Single-ply,SBD,F
Girls,60.1,4,Cindy Castillo,Laredo Nixon,59.96,122.47,54.43,117.93,294.84,Single-ply,SBD,F
Girls,60.1,5,Dalynda Landa,Hebbronville,57.24,108.86,49.9,120.2,278.96,Single-ply,SBD,F
Girls,60.1,6,Joneida Hernandez,Hebbronville,58.24,86.18,40.82,117.93,244.94,Single-ply,SBD,F
Girls,60.1,7,Victoria Garcia,Bruni,60.06,86.18,45.36,99.79,231.33,Single-ply,SBD,F
Girls,60.1,8,Cassie Natividad,Hebbronville,59.78,86.18,34.02,92.99,213.19,Single-ply,SBD,F
Girls,67.36,1,Ashley DeAnda,Laredo Martin,65.41,142.88,68.04,142.88,353.8,Single-ply,SBD,F
Girls,67.36,2,Olivia Garcia,Hebbronville,63.59,142.88,54.43,124.74,322.05,Single-ply,SBD,F
Girls,67.36,3,Delilah Hernandez,Carrizo Springs,62.23,122.47,61.23,117.93,301.64,Single-ply,SBD,F
Girls,67.36,4,Sayra Lara,Zapata,66.32,102.06,54.43,113.4,269.89,Single-ply,SBD,F
Girls,67.36,5,Karina Guzman,Zapata,67.04,115.67,49.9,104.33,269.89,Single-ply,SBD,F
Girls,67.36,6,Crystal Carrillo,Laredo Cigarroa,62.05,97.52,43.09,120.2,260.82,Single-ply,SBD,F
Girls,67.36,7,Sabrina Gonzalez,Bruni,64.05,97.52,40.82,108.86,247.21,Single-ply,SBD,F
Girls,67.36,8,Kassy de la Cruz,Laredo Cigarroa,65.68,81.65,43.09,113.4,238.14,Single-ply,SBD,F
Girls,67.36,9,Denise Alvarez,Laredo Nixon,64.23,72.57,43.09,117.93,233.6,Single-ply,SBD,F
Girls,75.07,1,Amanda Esquivel,Zapata,73.84,158.76,90.72,163.29,412.77,Single-ply,SBD,F
Girls,75.07,2,Karina Garza,Laredo United South,71.3,149.69,61.23,158.76,369.68,Single-ply,SBD,F
Girls,75.07,3,Christa Iglesias,Laredo United South,73.21,147.42,70.31,147.42,365.14,Single-ply,SBD,F
Girls,75.07,4,Trisha Garcia,Zapata,74.3,127.01,61.23,140.61,328.85,Single-ply,SBD,F
Girls,75.07,5,Kazzandra Alaniz,Zapata,74.12,124.74,54.43,136.08,315.25,Single-ply,SBD,F
Girls,75.07,6,Desirae Morgan,Bruni,72.76,127.01,58.97,122.47,308.44,Single-ply,SBD,F
Girls,75.07,7,Alyssa Garza,Laredo Johnson,71.85,106.59,40.82,102.06,249.48,Single-ply,SBD,F
Girls,75.07,8,Cristine Carrillo,Laredo Cigarroa,69.76,88.45,29.48,97.52,215.46,Single-ply,SBD,F
Girls,75.07,9,Liliana Silva,Laredo Johnson,71.67,61.23,29.48,79.38,170.1,Single-ply,SBD,F
Girls,75.07,10,Kristen Lira,Carrizo Springs,74.84,47.63,29.48,83.91,161.03,Single-ply,SBD,F
Girls,75.07,DQ,Jennifer Martinez #8,Laredo Martin,71.94,45.36,,,,Single-ply,SBD,F
Girls,82.33,1,Zena Esquivel,Carrizo Springs,75.57,163.29,90.72,163.29,417.3,Single-ply,SBD,F
Girls,82.33,2,Laisha Gardner,Laredo United South,80.1,156.49,77.11,136.08,369.68,Single-ply,SBD,F
Girls,82.33,3,Danielle Kent,Carrizo Springs,75.75,151.95,70.31,140.61,362.87,Single-ply,SBD,F
Girls,82.33,4,Mariana Mejia,Laredo Cigarroa,81.28,115.67,52.16,111.13,278.96,Single-ply,SBD,F
Girls,82.33,5,Roxy Flores,Laredo Johnson,75.39,102.06,47.63,127.01,276.69,Single-ply,SBD,F
Girls,82.33,6,Erika Moya,Laredo Cigarroa,81.92,104.33,47.63,120.2,272.16,Single-ply,SBD,F
Girls,82.33,7,Kendra Kluting,Laredo Nixon,82.19,102.06,47.63,117.93,267.62,Single-ply,SBD,F
Girls,82.33,8,Gabriela Garcia,Roma,79.38,83.91,49.9,106.59,240.4,Single-ply,SBD,F
Girls,82.33,9,Anika Perez,Laredo United South,75.84,86.18,34.02,97.52,217.72,Single-ply,SBD,F
Girls,90.04,1,Gaby Reyes,Zapata,87.82,165.56,90.72,167.83,424.11,Single-ply,SBD,F
Girls,90.04,2,Caryna Flores,Bruni,82.83,147.42,95.25,140.61,383.29,Single-ply,SBD,F
Girls,90.04,3,Melissa Reyes,Carrizo Springs,86.55,156.49,70.31,151.95,378.75,Single-ply,SBD,F
Girls,90.04,4,Abigail Chapa,Bruni,87.63,131.54,61.23,145.15,337.93,Single-ply,SBD,F
Girls,90.04,5,Josie Arredondo,Hebbronville,85.46,115.67,58.97,124.74,299.37,Single-ply,SBD,F
Girls,90.04,6,Pamela Saenz,Bruni,84.73,115.67,45.36,104.33,265.35,Single-ply,SBD,F
Girls,90.04,7,Tessa Berrios,Bruni,88.45,99.79,31.75,111.13,242.67,Single-ply,SBD,F
Girls,90.04,DQ,Liana Garcia,Roma,83.28,111.13,,,,Single-ply,SBD,F
Girls,100.02,1,Sophia Hernandez,Roma,96.16,124.74,65.77,106.59,297.1,Single-ply,SBD,F
Girls,100.02+,1,Karina Davalos,Laredo Nixon,116.57,181.44,79.38,165.56,426.38,Single-ply,SBD,F
Girls,100.02+,2,Lori Torres,Laredo Cigarroa,107.32,104.33,45.36,117.93,267.62,Single-ply,SBD,F
Girls,100.02+,3,Monique Vela,Roma,104.51,81.65,58.97,104.33,244.94,Single-ply,SBD,F
Girls,100.02+,4,Erica Solis,Laredo Nixon,122.92,63.5,47.63,104.33,215.46,Single-ply,SBD,F
Girls,100.02+,5,Briana Benavidez,Hebbronville,107.32,70.31,38.56,95.25,204.12,Single-ply,SBD,F
