Division,WeightClassKg,Place,Name,Team,BodyweightKg,Best3SquatKg,Best3BenchKg,Best3DeadliftKg,TotalKg,Equipment,Event,Sex
Boys,59.87,1,Aaron Pomerantz,Lewisville Marcus,55.88,151.95,79.38,140.61,371.95,Single-ply,SBD,M
Boys,55.79,2,Ivan Oropeza,Fort Worth North Side,55.47,111.13,47.63,124.74,283.5,Single-ply,SBD,M
Boys,59.87,3,Joseph Gonzales,Fort Worth Arlington Heights,56.02,102.06,61.23,102.06,265.35,Single-ply,SBD,M
Boys,55.79,4,Rueben Sims,Fort Worth Arlington Heights,55.75,113.4,43.09,102.06,258.55,Single-ply,SBD,M
Boys,59.87,1,Ellic Hayden,Justin Northwest,59.51,136.08,92.99,156.49,385.55,Single-ply,SBD,M
Boys,67.13,1,Tyler Barnett,Keller Central,66.04,192.78,102.06,167.83,462.66,Single-ply,SBD,M
Boys,67.13,2,Gonzalo Berlingeri,Keller Fossil Ridge,64.95,167.83,102.06,147.42,417.3,Single-ply,SBD,M
Boys,67.13,3,Dakota Chavis,Justin Northwest,66.13,136.08,81.65,172.37,390.09,Single-ply,SBD,M
Boys,74.84,4,Jason Hitt,Northwest Nelson,67.36,149.69,81.65,145.15,376.48,Single-ply,SBD,M
Boys,67.13,5,Ian Astorga,Keller Central,60.51,136.08,83.91,149.69,369.68,Single-ply,SBD,M
Boys,67.13,6,Collin Dwyer,Keller,64.59,129.27,83.91,145.15,358.34,Single-ply,SBD,M
Boys,67.13,7,D'Vante Johnson,Keller Fossil Ridge,63.23,136.08,88.45,124.74,349.27,Single-ply,SBD,M
Boys,67.13,DQ,Cullen Brasuell,Northwest Nelson,65.41,,,,,Single-ply,SBD,M
Boys,74.84,1,Antonio Alba,Fort Worth North Side,73.57,204.12,113.4,226.8,544.31,Single-ply,SBD,M
Boys,82.1,2,Brennan Sooter,Justin Northwest,74.93,195.04,102.06,206.38,503.49,Single-ply,SBD,M
Boys,74.84,3,Reed Puckett,Keller Fossil Ridge,73.94,145.15,99.79,161.03,405.97,Single-ply,SBD,M
Boys,74.84,4,Kurt Rowe,Keller Central,70.35,149.69,88.45,151.95,390.09,Single-ply,SBD,M
Boys,74.84,5,Matt Jones #5,Northwest Nelson,72.17,145.15,97.52,140.61,383.29,Single-ply,SBD,M
Boys,74.84,6,Joseph Rasor,Keller Fossil Ridge,70.17,127.01,99.79,154.22,381.02,Single-ply,SBD,M
Boys,74.84,7,Nathan Saenz,Northwest Nelson,73.44,140.61,86.18,145.15,371.95,Single-ply,SBD,M
Boys,74.84,8,Blake Ritenour,Keller Central,69.81,138.35,90.72,138.35,367.41,Single-ply,SBD,M
Boys,74.84,9,Gabe Duron,Northwest Nelson,73.44,138.35,86.18,127.01,351.53,Single-ply,SBD,M
Boys,74.84,10,Travis Ferguson,Fort Worth Arlington Heights,72.08,102.06,77.11,108.86,288.03,Single-ply,SBD,M
Boys,74.84,11,Landon Whitsel,Keller Central,69.76,102.06,61.23,113.4,276.69,Single-ply,SBD,M
Boys,82.1,1,Jeff Stevens #2,Justin Northwest,82.01,238.14,147.42,240.4,625.96,Single-ply,SBD,M
Boys,82.1,2,John Samluk,Lewisville Marcus,81.56,222.26,127.01,208.65,557.92,Single-ply,SBD,M
Boys,89.81,3,Justin Campos,Fort Worth North Side,82.19,213.19,127.01,199.58,539.77,Single-ply,SBD,M
Boys,82.1,4,Jeremy Horne,Keller,80.65,181.44,111.13,167.83,460.4,Single-ply,SBD,M
Boys,82.1,5,Lance Honeycutt,Northwest Nelson,81.78,172.37,97.52,158.76,428.64,Single-ply,SBD,M
Boys,82.1,6,Blake Anderson,Keller,81.6,149.69,104.33,170.1,424.11,Single-ply,SBD,M
Boys,82.1,7,Kevin Xayovong,Keller Fossil Ridge,80.65,163.29,115.67,136.08,415.04,Single-ply,SBD,M
Boys,82.1,8,Keynon Smith,Fort Worth Arlington Heights,78.83,165.56,102.06,113.4,381.02,Single-ply,SBD,M
Boys,82.1,9,Cameron Holmes,Fort Worth Arlington Heights,80.24,113.4,124.74,102.06,340.19,Single-ply,SBD,M
Boys,82.1,10,Kade Suratt,Keller Central,75.11,124.74,70.31,142.88,337.93,Single-ply,SBD,M
Boys,82.1,DQ,Austin Savage,Northwest Nelson,75.11,147.42,,,,Single-ply,SBD,M
Boys,89.81,1,Michael Ray,Justin Northwest,88.63,204.12,129.27,240.4,573.79,Single-ply,SBD,M
Boys,89.81,2,Amir Murad,Keller,88.72,181.44,106.59,204.12,492.15,Single-ply,SBD,M
Boys,89.81,3,Cj Kirk,Keller Central,83.91,170.1,129.27,188.24,487.61,Single-ply,SBD,M
Boys,89.81,4,Tony Lareanas,Lewisville Marcus,83.14,181.44,129.27,174.63,485.34,Single-ply,SBD,M
Boys,89.81,5,Cedric Johnson,Keller Fossil Ridge,86.86,181.44,108.86,170.1,460.4,Single-ply,SBD,M
Boys,89.81,6,Obie Hillpot,Lewisville Marcus,87.91,156.49,104.33,163.29,424.11,Single-ply,SBD,M
Boys,89.81,7,Dillon Hebert,Keller,87.18,142.88,81.65,174.63,399.16,Single-ply,SBD,M
Boys,89.81,8,Chance Romans,Fort Worth Arlington Heights,84.69,142.88,102.06,102.06,347,Single-ply,SBD,M
Boys,89.81,DQ,Alex Olson,Lewisville Marcus,86.18,,,,,Single-ply,SBD,M
Boys,89.81,DQ,Matt Mullins,Keller Central,89.36,,,,,Single-ply,SBD,M
Boys,99.79,1,Nathan Ferrara,Lewisville Marcus,91.44,222.26,136.08,204.12,562.45,Single-ply,SBD,M
Boys,99.79,2,Shane King,Justin Northwest,94.44,215.46,106.59,217.72,539.77,Single-ply,SBD,M
Boys,99.79,3,Harvey Giddeons,Lewisville Marcus,91.67,213.19,127.01,190.51,530.7,Single-ply,SBD,M
Boys,109.77,4,Carter James,Justin Northwest,99.88,197.31,108.86,208.65,514.83,Single-ply,SBD,M
Boys,99.79,5,Trevor Barton,Keller,96.71,197.31,92.99,181.44,471.74,Single-ply,SBD,M
Boys,99.79,6,Austin Cutting,Keller Central,93.26,163.29,95.25,170.1,428.64,Single-ply,SBD,M
Boys,99.79,7,Nigel Spencer,Northwest Nelson,92.67,158.76,102.06,142.88,403.7,Single-ply,SBD,M
Boys,99.79,8,Gary Foster,Keller Central,97.16,142.88,97.52,145.15,385.55,Single-ply,SBD,M
Boys,99.79,9,Landon Woolridge,Northwest Nelson,93.53,136.08,90.72,147.42,374.21,Single-ply,SBD,M
Boys,99.79,10,Robert Greene,Fort Worth North Side,96.62,147.42,72.57,136.08,356.07,Single-ply,SBD,M
Boys,109.77,1,Clayton McGilvray,Justin Northwest,107.41,226.8,145.15,244.94,616.89,Single-ply,SBD,M
Boys,109.77,2,Mason Decker,Justin Northwest,106.59,235.87,108.86,192.78,537.51,Single-ply,SBD,M
Boys,109.77,3,Daniel Picinic,Keller,107.64,163.29,92.99,174.63,430.91,Single-ply,SBD,M
Boys,109.77,4,Collin Borcik,Northwest Nelson,104.42,156.49,113.4,142.88,412.77,Single-ply,SBD,M
Boys,109.77,5,Eric Prescott,Fort Worth Arlington Heights,107.09,142.88,113.4,142.88,399.16,Single-ply,SBD,M
Boys,124.74,1,Sawyer Cooper,Justin Northwest,123.38,276.69,158.76,226.8,662.24,Single-ply,SBD,M
Boys,124.74,2,Travis Stubblefield,Justin Northwest,113.04,244.94,145.15,226.8,616.89,Single-ply,SBD,M
Boys,124.74,3,Luke Young,Keller,121.93,229.06,138.35,213.19,580.6,Single-ply,SBD,M
Boys,124.74,4,Othon Perales,Fort Worth Arlington Heights,112.85,229.06,136.08,204.12,569.26,Single-ply,SBD,M
Boys,124.74,5,Aj Washington,Northwest Nelson,112.76,181.44,111.13,190.51,483.08,Single-ply,SBD,M
Boys,124.74,6,Cole Caldwell,Keller,115.94,174.63,113.4,185.97,474,Single-ply,SBD,M
Boys,124.74,7,Cody Nelson,Keller,113.85,138.35,99.79,142.88,381.02,Single-ply,SBD,M
Boys,124.74+,1,Benny Williams,Fort Worth Arlington Heights,126.28,215.46,145.15,188.24,548.85,Single-ply,SBD,M
Boys,124.74+,2,Joe Munifo,Keller,127.37,210.92,115.67,158.76,485.34,Single-ply,SBD,M
Boys,124.74+,3,Robert Byrd,Fort Worth Arlington Heights,141.07,233.6,83.91,129.27,446.79,Single-ply,SBD,M
