Division,WeightClassKg,Place,Name,Team,BodyweightKg,Best3SquatKg,Best3BenchKg,Best3DeadliftKg,TotalKg,Equipment,Event,Sex
Boys,51.71,1,Eloy Garza,Corpus Christi West Oso,51.48,147.42,65.77,145.15,358.34,Single-ply,SBD,M
Boys,51.71,2,Joey Heard,Orange Grove,51.48,115.67,77.11,138.35,331.12,Single-ply,SBD,M
Boys,55.79,3,Blake Suarez,Corpus Christi Tuloso-Midway,51.94,127.01,61.23,136.08,324.32,Single-ply,SBD,M
Boys,51.71,4,Cody Juarez,Alice,45.13,113.4,72.57,113.4,299.37,Single-ply,SBD,M
Boys,51.71,DQ,LA Gonzalez,Alice,51.26,170.1,,,,Single-ply,SBD,M
Boys,55.79,1,Dylan Breland,Banquete,55.11,131.54,74.84,151.95,358.34,Single-ply,SBD,M
Boys,55.79,2,Joel Garza,Corpus Christi Calallen,55.11,136.08,74.84,142.88,353.8,Single-ply,SBD,M
Boys,59.87,3,Mike Nunez,Corpus Christi West Oso,56.02,131.54,61.23,149.69,342.46,Single-ply,SBD,M
Boys,55.79,4,Ulysses Botello,Banquete,53.75,95.25,65.77,122.47,283.5,Single-ply,SBD,M
Boys,59.87,1,Patrick Ayala,Banquete,59.19,154.22,90.72,201.85,446.79,Single-ply,SBD,M
Boys,67.13,2,Cody Hartman,Corpus Christi West Oso,60.1,167.83,104.33,174.63,446.79,Single-ply,SBD,M
Boys,59.87,3,Arturo Reyna,Bishop,59.19,145.15,83.91,154.22,383.29,Single-ply,SBD,M
Boys,59.87,4,Trevor DeLuna,Corpus Christi Tuloso-Midway,58.97,131.54,86.18,145.15,362.87,Single-ply,SBD,M
Boys,59.87,5,Christian Vasquez,Corpus Christi Calallen,59.42,127.01,63.5,149.69,340.19,Single-ply,SBD,M
Boys,59.87,6,Shawn Charles,Corpus Christi Calallen,56.7,104.33,63.5,131.54,299.37,Single-ply,SBD,M
Boys,59.87,7,Ben Schneider,Corpus Christi Calallen,58.51,99.79,58.97,129.27,288.03,Single-ply,SBD,M
Boys,59.87,8,Juan George,Corpus Christi Calallen,58.51,92.99,65.77,120.2,278.96,Single-ply,SBD,M
Boys,67.13,DQ,Daniel Tortu,Corpus Christi West Oso,60.1,158.76,97.52,,,Single-ply,SBD,M
Boys,74.84,1,Samuel Navarro,Beeville Jones,67.36,219.99,136.08,208.65,564.72,Single-ply,SBD,M
Boys,67.13,2,Aaron Gonzalez,Alice,64.18,190.51,120.2,190.51,501.22,Single-ply,SBD,M
Boys,67.13,3,Alonzo Moya,Corpus Christi West Oso,63.28,172.37,97.52,190.51,460.4,Single-ply,SBD,M
Boys,67.13,4,Alex Gonzales #2,Alice,61.92,158.76,83.91,167.83,410.5,Single-ply,SBD,M
Boys,67.13,5,Jonathan Galvan,Corpus Christi Tuloso-Midway,61.23,154.22,92.99,161.03,408.23,Single-ply,SBD,M
Boys,67.13,6,Mario Zarate,Kingsville King,66,145.15,86.18,170.1,401.43,Single-ply,SBD,M
Boys,67.13,7,Derrick Carroll,Beeville Jones,66.68,154.22,70.31,165.56,390.09,Single-ply,SBD,M
Boys,67.13,8,Brandon Perez,Alice,63.5,158.76,83.91,142.88,385.55,Single-ply,SBD,M
Boys,67.13,9,Tommy Aguilar,Orange Grove,64.64,142.88,81.65,156.49,381.02,Single-ply,SBD,M
Boys,67.13,10,Reed Anastasio,Gregory-Portland,65.09,136.08,90.72,154.22,381.02,Single-ply,SBD,M
Boys,67.13,11,Brandon Charles,Corpus Christi Calallen,66.22,136.08,86.18,154.22,376.48,Single-ply,SBD,M
Boys,67.13,12,Cristian Alvarado,Corpus Christi Calallen,66.45,136.08,81.65,151.95,369.68,Single-ply,SBD,M
Boys,67.13,13,Raiden Wyndham,Gregory-Portland,64.64,133.81,74.84,131.54,340.19,Single-ply,SBD,M
Boys,67.13,14,Tim Diaz,Skidmore-Tynan,65.32,111.13,72.57,145.15,328.85,Single-ply,SBD,M
Boys,67.13,15,Michael Baker,Gregory-Portland,62.14,102.06,58.97,124.74,285.76,Single-ply,SBD,M
Boys,67.13,DQ,Josh Figuerroa,Corpus Christi Tuloso-Midway,62.6,,,,,Single-ply,SBD,M
Boys,67.13,DQ,Sean Rodriguez,Alice,62.14,106.59,,,,Single-ply,SBD,M
Boys,74.84,DQ,Rene Luna,Alice,67.36,199.58,,,,Single-ply,SBD,M
Boys,74.84,DQ,Marc Riddell,Banquete,67.36,,,,,Single-ply,SBD,M
Boys,74.84,1,Alex Rocha,Skidmore-Tynan,72.57,195.04,140.61,181.44,517.1,Single-ply,SBD,M
Boys,74.84,2,Johnathon Garza,Kingsville King,74.16,181.44,108.86,188.24,478.54,Single-ply,SBD,M
Boys,74.84,3,Jeremy Hernandez,Corpus Christi West Oso,71.67,181.44,97.52,165.56,444.52,Single-ply,SBD,M
Boys,74.84,4,Valentine Sanchez,Three Rivers,69.85,145.15,81.65,163.29,390.09,Single-ply,SBD,M
Boys,74.84,5,Raul Chapa,Corpus Christi West Oso,71.89,133.81,86.18,163.29,383.29,Single-ply,SBD,M
Boys,74.84,6,Dylan Giles,Corpus Christi Tuloso-Midway,71.44,151.95,77.11,147.42,376.48,Single-ply,SBD,M
Boys,74.84,7,Austen Flores,Corpus Christi Calallen,72.8,129.27,68.04,142.88,340.19,Single-ply,SBD,M
Boys,74.84,8,Fabian Navarro,Kingsville King,69.17,95.25,70.31,122.47,288.03,Single-ply,SBD,M
Boys,74.84,9,Miguel Salas,Bishop,67.81,90.72,72.57,102.06,265.35,Single-ply,SBD,M
Boys,74.84,DQ,Chris Madrigal,Beeville Jones,73.03,165.56,106.59,,,Single-ply,SBD,M
Boys,82.1,1,Carlos Charles,Bishop,80.51,263.08,165.56,244.94,673.58,Single-ply,SBD,M
Boys,82.1,2,Milton Sarceno,Kingsville King,78.93,188.24,133.81,233.6,555.65,Single-ply,SBD,M
Boys,82.1,3,Ben Torres,Alice,79.15,199.58,117.93,210.92,528.44,Single-ply,SBD,M
Boys,82.1,4,Justin Rodriguez,Corpus Christi Tuloso-Midway,79.38,226.8,99.79,183.7,510.29,Single-ply,SBD,M
Boys,82.1,5,Josh D Perez,Beeville Jones,76.2,151.95,97.52,181.44,430.91,Single-ply,SBD,M
Boys,82.1,6,Patrick Prieto,Beeville Jones,76.2,165.56,90.72,170.1,426.38,Single-ply,SBD,M
Boys,82.1,7,Chase Benavides,Corpus Christi Tuloso-Midway,79.83,149.69,97.52,167.83,415.04,Single-ply,SBD,M
Boys,82.1,8,Allan Medrano,Bishop,80.29,142.88,92.99,151.95,387.82,Single-ply,SBD,M
Boys,82.1,9,Jvon Cedeno-Ortiz,Gregory-Portland,81.65,97.52,79.38,136.08,312.98,Single-ply,SBD,M
Boys,82.1,10,Keenan Nash,Gregory-Portland,78.47,97.52,68.04,136.08,301.64,Single-ply,SBD,M
Boys,82.1,11,Zachariah Segovia,Beeville Jones,75.75,90.72,61.23,115.67,267.62,Single-ply,SBD,M
Boys,89.81,DQ,Saulo Ramos,Kingsville King,82.33,,,,,Single-ply,SBD,M
Boys,82.1,DQ,Elijah Valencia,Orange Grove,78.24,188.24,,,,Single-ply,SBD,M
Boys,89.81,1,Jon Andrew Villarreal,Corpus Christi West Oso,89.81,201.85,124.74,213.19,539.77,Single-ply,SBD,M
Boys,89.81,2,Gilbert Aguirre,Three Rivers,84.59,201.85,127.01,190.51,519.36,Single-ply,SBD,M
Boys,89.81,3,Abel Rodriguez,Corpus Christi Tuloso-Midway,88,190.51,131.54,183.7,505.76,Single-ply,SBD,M
Boys,89.81,4,Elijah Holifield,Skidmore-Tynan,83.01,163.29,102.06,190.51,455.86,Single-ply,SBD,M
Boys,89.81,5,Brandon Mejia,Corpus Christi West Oso,88.45,161.03,108.86,170.1,439.98,Single-ply,SBD,M
Boys,99.79,6,John Castro,Corpus Christi Tuloso-Midway,90.04,145.15,108.86,117.93,371.95,Single-ply,SBD,M
Boys,89.81,DQ,Jonas De La Garza,Corpus Christi Calallen,88.22,,,,,Single-ply,SBD,M
Boys,99.79,1,Aaron Rodriguez,Beeville Jones,98.43,272.16,163.29,215.46,650.91,Single-ply,SBD,M
Boys,99.79,2,Jason Patterson,Kingsville King,97.52,249.48,136.08,260.82,646.37,Single-ply,SBD,M
Boys,99.79,3,Ilas Rodriguez,Three Rivers,95.48,181.44,102.06,188.24,471.74,Single-ply,SBD,M
Boys,109.77,4,Esteban Ruiz,Corpus Christi Tuloso-Midway,100.02,208.65,72.57,158.76,439.98,Single-ply,SBD,M
Boys,99.79,5,Tommy Munoz,Banquete,96.16,151.95,92.99,151.95,396.89,Single-ply,SBD,M
Boys,99.79,6,Adam Gonzalez,Kingsville King,92.53,131.54,61.23,138.35,331.12,Single-ply,SBD,M
Boys,99.79,7,Caleb Wilson,Skidmore-Tynan,92.31,113.4,74.84,127.01,315.25,Single-ply,SBD,M
Boys,109.77,1,Andres Arizu,Alice,108.86,297.1,176.9,272.16,746.16,Single-ply,SBD,M
Boys,109.77,2,Billy Singleton,Orange Grove,104.33,201.85,124.74,219.99,546.58,Single-ply,SBD,M
Boys,109.77,3,Josh Sturgeon,Corpus Christi West Oso,105.91,199.58,117.93,204.12,521.63,Single-ply,SBD,M
Boys,109.77,4,Michael Duenes,Gregory-Portland,108.41,179.17,111.13,172.37,462.66,Single-ply,SBD,M
Boys,109.77,5,Alex Martinez #7,Kingsville King,102.97,151.95,90.72,190.51,433.18,Single-ply,SBD,M
Boys,109.77,6,Jose Chavera,Banquete,102.51,154.22,90.72,183.7,428.64,Single-ply,SBD,M
Boys,109.77,7,Joel Garcia,Bishop,101.83,142.88,92.99,145.15,381.02,Single-ply,SBD,M
Boys,109.77,8,Duque Waddill,Corpus Christi Calallen,104.1,138.35,95.25,145.15,378.75,Single-ply,SBD,M
Boys,109.77,9,David Sendejo,Kingsville King,108.18,124.74,86.18,127.01,337.93,Single-ply,SBD,M
Boys,109.77,10,Julian Beltra,Corpus Christi Calallen,109.32,117.93,74.84,129.27,322.05,Single-ply,SBD,M
Boys,109.77,DQ,Jose Soliz,Orange Grove,104.55,240.4,142.88,,,Single-ply,SBD,M
Boys,109.77,DQ,Adolfo Ramon,Banquete,109.32,,,,,Single-ply,SBD,M
Boys,109.77,DQ,Zach Kwiatkowski,Corpus Christi West Oso,101.83,,,,,Single-ply,SBD,M
Boys,124.74,1,Nicholas Zapata,Bishop,122.92,263.08,161.03,240.4,664.51,Single-ply,SBD,M
Boys,124.74,2,Levi Fulcher,Three Rivers,118.61,251.74,158.76,224.53,635.03,Single-ply,SBD,M
Boys,124.74,3,Al Cancino,Kingsville King,118.84,233.6,122.47,226.8,582.87,Single-ply,SBD,M
Boys,124.74,4,Joey Rodriguez,Corpus Christi West Oso,120.43,206.38,124.74,199.58,530.7,Single-ply,SBD,M
Boys,124.74,5,Jeremy Trevino,Gregory-Portland,112.26,204.12,113.4,204.12,521.63,Single-ply,SBD,M
Boys,124.74,6,Seth Watts,Gregory-Portland,110.68,192.78,127.01,195.04,514.83,Single-ply,SBD,M
Boys,124.74,7,Juan Gonzalez,Riviera Kaufer,116.35,183.7,102.06,192.78,478.54,Single-ply,SBD,M
Boys,124.74,DQ,Jagger Weatherford,Gregory-Portland,119.52,,,,,Single-ply,SBD,M
Boys,124.74,DQ,Edward Hernandez,Corpus Christi Tuloso-Midway,113.85,,,,,Single-ply,SBD,M
Boys,124.74+,1,Jonathan Lopez,Banquete,134.94,272.16,165.56,204.12,641.83,Single-ply,SBD,M
Boys,124.74+,2,Alexander Acosta,Skidmore-Tynan,127.91,226.8,147.42,249.48,623.69,Single-ply,SBD,M
Boys,124.74+,3,John Lazo,Alice,157.62,254.01,149.69,204.12,607.81,Single-ply,SBD,M
Boys,124.74+,4,Angel Salinas,Orange Grove,158.3,217.72,151.95,222.26,591.94,Single-ply,SBD,M
Boys,124.74+,5,Joe Rodriguez,Kingsville King,129.27,226.8,122.47,213.19,562.45,Single-ply,SBD,M
Boys,124.74+,6,Ed Hernandez,Corpus Christi West Oso,145.15,215.46,115.67,181.44,512.56,Single-ply,SBD,M
Boys,124.74+,7,George Hughes,San Diego,128.59,174.63,102.06,133.81,410.5,Single-ply,SBD,M
Boys,124.74+,8,Dante Boggiano,Banquete,132.9,113.4,72.57,102.06,288.03,Single-ply,SBD,M
Boys,124.74+,DQ,Jesse James,Alice,154.9,260.82,,,,Single-ply,SBD,M
