Division,WeightClassKg,Place,Name,Team,BodyweightKg,Best3SquatKg,Best3BenchKg,Best3DeadliftKg,TotalKg,Equipment,Event,Sex
Boys,51.71,1,Cristian Ramirez,Florence,51.71,99.79,68.04,122.47,290.3,Single-ply,SBD,M
Boys,51.71,2,Isrreal Rosas,Bruceville-Eddy,50.17,108.86,52.16,120.2,281.23,Single-ply,SBD,M
Boys,51.71,3,Aaron Ragsdale,Jarrell,50.8,102.06,65.77,102.06,269.89,Single-ply,SBD,M
Boys,51.71,4,Nathan Jeter,Rockdale,50.8,95.25,56.7,117.93,269.89,Single-ply,SBD,M
Boys,51.71,5,Horacio Huerta,Salado,51.35,92.99,61.23,115.67,269.89,Single-ply,SBD,M
Boys,51.71,6,Michael Rodriguez #9,Thrall,51.71,102.06,49.9,111.13,263.08,Single-ply,SBD,M
Boys,55.79,1,Michael Palmer,Little River Academy,55.7,138.35,68.04,161.03,367.41,Single-ply,SBD,M
Boys,55.79,2,Jeo Navarro,Rockdale,52.16,104.33,63.5,127.01,294.84,Single-ply,SBD,M
Boys,59.87,1,Dalton Glover,Little River Academy,59.87,145.15,90.72,174.63,410.5,Single-ply,SBD,M
Boys,59.87,2,Wyatt Wooley,Holland,59.42,104.33,52.16,120.2,276.69,Single-ply,SBD,M
Boys,59.87,DQ,Hunter Mullins,Jarrell,58.06,201.85,,,,Single-ply,SBD,M
Boys,67.13,1,Cameron Naumann,Florence,65.5,176.9,90.72,192.78,460.4,Single-ply,SBD,M
Boys,67.13,2,Alex Hernandez #1,Jarrell,63.59,176.9,102.06,179.17,458.13,Single-ply,SBD,M
Boys,67.13,3,Gavin Freeman,Little River Academy,65.77,174.63,97.52,181.44,453.59,Single-ply,SBD,M
Boys,67.13,4,Marshall Conde,Little River Academy,67.13,167.83,97.52,188.24,453.59,Single-ply,SBD,M
Boys,67.13,5,Caleb Carlisle,Jarrell,65.68,183.7,83.91,179.17,446.79,Single-ply,SBD,M
Boys,67.13,6,Elijah Botts,Holland,66.68,158.76,88.45,154.22,401.43,Single-ply,SBD,M
Boys,67.13,7,Braxton Carlile,Florence,65.32,149.69,74.84,158.76,383.29,Single-ply,SBD,M
Boys,67.13,8,Brett Lange,Holland,65.59,136.08,81.65,163.29,381.02,Single-ply,SBD,M
Boys,67.13,9,Corbin Bush,Little River Academy,63.96,145.15,72.57,156.49,374.21,Single-ply,SBD,M
Boys,67.13,10,Karson Trice,Salado,65.32,142.88,83.91,136.08,362.87,Single-ply,SBD,M
Boys,67.13,11,Mario Mendez,Thrall,65.05,133.81,83.91,138.35,356.07,Single-ply,SBD,M
Boys,67.13,12,Troy Douglas,Jarrell,63.41,111.13,70.31,131.54,312.98,Single-ply,SBD,M
Boys,67.13,DQ,Trenten Hibler,Jarrell,66.77,106.59,49.9,,,Single-ply,SBD,M
Boys,74.84,1,Shawn Davis,Florence,74.12,181.44,92.99,215.46,489.88,Single-ply,SBD,M
Boys,74.84,2,Zachary Johle,Thrall,72.3,158.76,129.27,195.04,483.08,Single-ply,SBD,M
Boys,74.84,3,Jt Cooper,Holland,74.12,181.44,102.06,192.78,476.27,Single-ply,SBD,M
Boys,74.84,4,Nathan Quattlebaum,Bruceville-Eddy,70.53,170.1,88.45,156.49,415.04,Single-ply,SBD,M
Boys,74.84,5,Ethan Rendon,Holland,71.4,151.95,102.06,151.95,405.97,Single-ply,SBD,M
Boys,74.84,6,Jacob Pajestka,Holland,70.22,149.69,90.72,147.42,387.82,Single-ply,SBD,M
Boys,74.84,7,Derian Dudik,Little River Academy,68.04,131.54,95.25,145.15,371.95,Single-ply,SBD,M
Boys,74.84,8,Roy Finn,Thrall,70.67,133.81,74.84,136.08,344.73,Single-ply,SBD,M
Boys,82.1,1,Hunter Duzat,Little River Academy,79.83,260.82,174.63,244.94,680.39,Single-ply,SBD,M
Boys,82.1,2,Conner Cook,Salado,82.1,197.31,129.27,204.12,530.7,Single-ply,SBD,M
Boys,82.1,3,Trey Schaub,Salado,76.66,190.51,99.79,206.38,496.68,Single-ply,SBD,M
Boys,82.1,4,Clay Cooper,Holland,79.38,190.51,124.74,181.44,496.68,Single-ply,SBD,M
Boys,82.1,5,Heath Hutka,Holland,78.93,181.44,113.4,183.7,478.54,Single-ply,SBD,M
Boys,82.1,6,Ethan DeLaCruz,Thrall,80.56,149.69,102.06,190.51,442.25,Single-ply,SBD,M
Boys,82.1,7,Martin Aguado,Jarrell,80.29,147.42,111.13,151.95,410.5,Single-ply,SBD,M
Boys,82.1,8,Nathan von Stosch,Holland,79.83,142.88,97.52,167.83,408.23,Single-ply,SBD,M
Boys,82.1,9,Kable Rowland,Thrall,77.38,149.69,81.65,158.76,390.09,Single-ply,SBD,M
Boys,82.1,10,Marcus Stautz,Thrall,77.29,140.61,79.38,161.03,381.02,Single-ply,SBD,M
Boys,82.1,11,Nick Deen,Salado,81.19,129.27,86.18,163.29,378.75,Single-ply,SBD,M
Boys,82.1,12,Chris Remaley,Rockdale,78.38,145.15,81.65,147.42,374.21,Single-ply,SBD,M
Boys,82.1,13,Lenny Lopez,Holland,78.38,142.88,97.52,113.4,353.8,Single-ply,SBD,M
Boys,89.81,1,Steven Arispe,Bruceville-Eddy,84.91,181.44,120.2,210.92,512.56,Single-ply,SBD,M
Boys,89.81,2,Brandon Vazquez,Florence,89.09,163.29,106.59,201.85,471.74,Single-ply,SBD,M
Boys,89.81,3,Ian Moore,Bruceville-Eddy,83.37,176.9,102.06,181.44,460.4,Single-ply,SBD,M
Boys,89.81,4,Kenny Kreinheder,Holland,88.9,158.76,108.86,183.7,451.32,Single-ply,SBD,M
Boys,89.81,5,Walker Hawkins,Salado,84.37,120.2,74.84,142.88,337.93,Single-ply,SBD,M
Boys,99.79,1,Blake Rogers,Bruceville-Eddy,94.89,204.12,115.67,217.72,537.51,Single-ply,SBD,M
Boys,99.79,2,Adrian Spencer,Florence,99.79,217.72,111.13,199.58,528.44,Single-ply,SBD,M
Boys,99.79,3,Ryan Starritt,Salado,98.88,204.12,120.2,195.04,519.36,Single-ply,SBD,M
Boys,99.79,4,Tommy Barker,Salado,99.7,199.58,122.47,192.78,514.83,Single-ply,SBD,M
Boys,99.79,5,Bobby Cunningham,Salado,97.52,204.12,113.4,190.51,508.02,Single-ply,SBD,M
Boys,99.79,6,Tyler Finch,Bruceville-Eddy,91.9,156.49,74.84,154.22,385.55,Single-ply,SBD,M
Boys,99.79,7,Cameron Fouts,Bruceville-Eddy,94.89,129.27,70.31,161.03,360.61,Single-ply,SBD,M
Boys,109.77,1,Chandler Strmiska,Little River Academy,108.86,272.16,204.12,272.16,748.43,Single-ply,SBD,M
Boys,109.77,2,Alex Gomez,Holland,107.05,242.67,145.15,219.99,607.81,Single-ply,SBD,M
Boys,109.77,3,Thomas Clawson,Jarrell,107.59,206.38,138.35,197.31,542.04,Single-ply,SBD,M
Boys,109.77,4,Alejandro Loma,Jarrell,103.15,204.12,124.74,190.51,519.36,Single-ply,SBD,M
Boys,109.77,5,Dalton Konarsky,Thrall,101.42,167.83,104.33,170.1,442.25,Single-ply,SBD,M
Boys,109.77,6,Jaden Neill,Jarrell,100.52,136.08,81.65,176.9,394.63,Single-ply,SBD,M
Boys,109.77,7,Jesus Mejia,Jarrell,100.06,142.88,97.52,147.42,387.82,Single-ply,SBD,M
Boys,109.77,8,Shane Miller,Holland,103.6,129.27,77.11,172.37,378.75,Single-ply,SBD,M
Boys,109.77,9,Jo'Kwan Langston,Salado,100.52,115.67,90.72,108.86,315.25,Single-ply,SBD,M
Boys,124.74,1,Wyatt Gardner,Little River Academy,112.85,206.38,136.08,235.87,578.33,Single-ply,SBD,M
Boys,124.74,2,Jason Marek,Little River Academy,111.13,192.78,131.54,204.12,528.44,Single-ply,SBD,M
Boys,124.74,3,Austin Culver,Bruceville-Eddy,113.22,172.37,127.01,197.31,496.68,Single-ply,SBD,M
Boys,124.74,4,Marshall Mays,Holland,115.21,174.63,99.79,185.97,460.4,Single-ply,SBD,M
Boys,124.74,DQ,Chris Martinez,Bruceville-Eddy,118.12,151.95,,,,Single-ply,SBD,M
Boys,124.74+,1,Troy Dunagan,Florence,160.57,254.01,111.13,272.16,637.3,Single-ply,SBD,M
Boys,,NS,Brandon Stratton,Bruceville-Eddy,,,,,,Single-ply,SBD,M
Boys,,NS,Dylan Diestel,Rockdale,,,,,,Single-ply,SBD,M
Boys,,NS,Ashten Sniggs,Salado,,,,,,Single-ply,SBD,M
Boys,,NS,Matthew Jarosek,Thrall,,,,,,Single-ply,SBD,M
