Division,WeightClassKg,Place,Name,Team,BodyweightKg,Best3SquatKg,Best3BenchKg,Best3DeadliftKg,TotalKg,Equipment,Event,Sex
Girls,44.23,1,Jessica Smith,Bonham,43.82,120.2,52.16,115.67,288.03,Single-ply,SBD,F
Girls,44.23,2,Chloe Keating,Bells,41.91,90.72,47.63,95.25,233.6,Single-ply,SBD,F
Girls,44.23,3,Shelby Dodson,Pottsboro,44,90.72,45.36,97.52,233.6,Single-ply,SBD,F
Girls,44.23,4,Lourdes James,Bonham,43.36,90.72,29.48,92.99,213.19,Single-ply,SBD,F
Girls,44.23,5,Danielle Rodriguez,Princeton,41.82,74.84,34.02,86.18,195.04,Single-ply,SBD,F
Girls,44.23,6,Rosario Labrada,Whitesboro,43.73,77.11,40.82,74.84,192.78,Single-ply,SBD,F
Girls,44.23,7,Chloe Roberts,Whitesboro,43.73,72.57,31.75,83.91,188.24,Single-ply,SBD,F
Girls,44.23,8,Logan Vance,Bells,42.18,68.04,34.02,77.11,179.17,Single-ply,SBD,F
Girls,44.23,9,Ashley Griffin,Whitesboro,43.91,,34.02,106.59,140.61,Single-ply,BD,F
Girls,44.23,10,Ginger Phennel,Princeton,40.73,45.36,47.63,38.56,131.54,Single-ply,SBD,F
Girls,44.23,11,Sydnee Addington,Farmersville,44.18,43.09,20.41,63.5,127.01,Single-ply,SBD,F
Girls,44.23,12,Hali Williams,Bells,38.1,47.63,24.95,45.36,117.93,Single-ply,SBD,F
Girls,47.85,1,Terilyn Bufkin,Whitesboro,47.17,99.79,52.16,115.67,267.62,Single-ply,SBD,F
Girls,47.85,2,Skye Johnson,Denison,47.72,99.79,45.36,113.4,258.55,Single-ply,SBD,F
Girls,47.85,3,Katlyn Armstrong,Callisburg,47.36,86.18,34.02,88.45,208.65,Single-ply,SBD,F
Girls,47.85,4,Rachel Greve,Van Alstyne,45.45,81.65,34.02,88.45,204.12,Single-ply,SBD,F
Girls,47.85,5,Sarah Ballenger,Princeton,45.54,72.57,29.48,79.38,181.44,Single-ply,SBD,F
Girls,47.85,6,Natalie Acala,Lindsay,45.27,63.5,24.95,90.72,179.17,Single-ply,SBD,F
Girls,47.85,7,Lexi Hering,Little Elm,47.54,86.18,,92.99,179.17,Single-ply,SD,F
Girls,47.85,8,Alyssa Rivera,Princeton,47.81,61.23,27.22,83.91,172.37,Single-ply,SBD,F
Girls,47.85,9,Abby Harrison,Lindsay,46.08,63.5,31.75,72.57,167.83,Single-ply,SBD,F
Girls,47.85,10,Jayla Melvin,Bells,45.9,58.97,29.48,74.84,163.29,Single-ply,SBD,F
Girls,47.85,11,Taylor Ortega,Valley View,45.99,61.23,29.48,68.04,158.76,Single-ply,SBD,F
Girls,47.85,12,MaKayla Madden,Denison,45.99,74.84,,83.91,158.76,Single-ply,SD,F
Girls,47.85,13,Julie Rushing,Whitewright,47.54,68.04,,79.38,147.42,Single-ply,SD,F
Girls,47.85,14,Nina Manzanares,Farmersville,45.18,49.9,20.41,61.23,131.54,Single-ply,SBD,F
Girls,47.85,DQ,Michelle Moore,Collinsville,46.99,,38.56,,,Single-ply,SBD,F
Girls,51.94,1,Taylor Stults,Pottsboro,50.44,97.52,45.36,108.86,251.74,Single-ply,SBD,F
Girls,51.94,2,Destiny Strain,Leonard,49.71,90.72,43.09,111.13,244.94,Single-ply,SBD,F
Girls,51.94,3,Shelbie Rhodes,Little Elm,50.8,86.18,36.29,111.13,233.6,Single-ply,SBD,F
Girls,51.94,4,Lindsey Gibbs,Lindsay,50.71,97.52,36.29,90.72,224.53,Single-ply,SBD,F
Girls,51.94,5,Autumn Spaeth,Anna,50.89,86.18,43.09,92.99,222.26,Single-ply,SBD,F
Girls,51.94,6,Brittany Cundiff,Anna,50.53,83.91,38.56,92.99,215.46,Single-ply,SBD,F
Girls,51.94,7,Caitlin Weaver,Van Alstyne,50.71,81.65,43.09,90.72,215.46,Single-ply,SBD,F
Girls,51.94,8,Melanie Hapiuk,Whitesboro,51.07,86.18,38.56,90.72,215.46,Single-ply,SBD,F
Girls,51.94,9,Carissa Campbell,Leonard,50.98,83.91,38.56,88.45,210.92,Single-ply,SBD,F
Girls,51.94,10,Makensey Woodson,Sadler S & S Cons,51.62,79.38,36.29,92.99,208.65,Single-ply,SBD,F
Girls,51.94,11,Cortney Leonard,Gainesville,48.99,79.38,34.02,90.72,204.12,Single-ply,SBD,F
Girls,51.94,12,Lauren Cockrill,Bells,49.99,74.84,36.29,90.72,201.85,Single-ply,SBD,F
Girls,51.94,13,Kaleigh Eason,Lindsay,50.53,68.04,34.02,90.72,192.78,Single-ply,SBD,F
Girls,51.94,14,Rhiannon Spaulding,Farmersville,48.63,63.5,40.82,83.91,188.24,Single-ply,SBD,F
Girls,51.94,15,Kayla Green,Farmersville,50.44,61.23,34.02,83.91,179.17,Single-ply,SBD,F
Girls,51.94,16,Marlaina Morgan,Blue Ridge,50.35,52.16,29.48,65.77,147.42,Single-ply,SBD,F
Girls,56.02,1,Sierra Knowles,Celina,54.7,129.27,63.5,142.88,335.66,Single-ply,SBD,F
Girls,56.02,2,Beatriz Mages,Little Elm,55.52,127.01,54.43,129.27,310.71,Single-ply,SBD,F
Girls,56.02,3,Chloe Houston,Van Alstyne,54.79,97.52,43.09,122.47,263.08,Single-ply,SBD,F
Girls,56.02,4,Natalie Koenig,Anna,54.79,92.99,36.29,108.86,238.14,Single-ply,SBD,F
Girls,56.02,5,Taylor Smith #7,Van Alstyne,55.52,92.99,45.36,97.52,235.87,Single-ply,SBD,F
Girls,56.02,6,Makenzie Gentry,Leonard,55.07,77.11,47.63,106.59,231.33,Single-ply,SBD,F
Girls,56.02,7,Amy Trimble,Little Elm,54.07,97.52,36.29,92.99,226.8,Single-ply,SBD,F
Girls,56.02,8,Stefani Alvarado,Whitesboro,55.61,90.72,38.56,97.52,226.8,Single-ply,SBD,F
Girls,56.02,9,Madison O'Brien,Denison,54.88,92.99,43.09,83.91,219.99,Single-ply,SBD,F
Girls,56.02,10,Lindsey Stegall,Van Alstyne,53.89,104.33,,108.86,213.19,Single-ply,SD,F
Girls,56.02,11,Maddy Middleton,Sanger,54.98,88.45,43.09,81.65,213.19,Single-ply,SBD,F
Girls,56.02,12,Lauren Frey,Van Alstyne,54.61,79.38,43.09,88.45,210.92,Single-ply,SBD,F
Girls,56.02,13,Erin Plemmons,Denison,52.16,74.84,40.82,90.72,206.38,Single-ply,SBD,F
Girls,56.02,14,Samantha Striplin,Callisburg,54.88,74.84,38.56,90.72,204.12,Single-ply,SBD,F
Girls,56.02,15,Darla Grey,Pottsboro,54.88,79.38,49.9,74.84,204.12,Single-ply,SBD,F
Girls,56.02,16,Mia Burrows,Lindsay,52.25,72.57,38.56,88.45,199.58,Single-ply,SBD,F
Girls,56.02,17,Natasha Goforth,Pottsboro,52.62,81.65,38.56,77.11,197.31,Single-ply,SBD,F
Girls,56.02,18,Angell Martinez,Denison,53.34,83.91,,102.06,185.97,Single-ply,SD,F
Girls,56.02,19,Natalie Sloan,Howe,53.8,72.57,36.29,70.31,179.17,Single-ply,SBD,F
Girls,56.02,20,Tristen Reed,Collinsville,52.44,56.7,34.02,79.38,170.1,Single-ply,SBD,F
Girls,56.02,21,Hannah Seiber,Collinsville,53.61,74.84,36.29,,111.13,Single-ply,SB,F
Girls,56.02,22,Cammie Chandler,Princeton,54.61,86.18,,,86.18,Single-ply,S,F
Girls,60.1,1,Mariisa Carson,Van Alstyne,58.15,108.86,49.9,120.2,278.96,Single-ply,SBD,F
Girls,60.1,2,Blaze Fajerson,Sadler S & S Cons,59.69,111.13,49.9,117.93,278.96,Single-ply,SBD,F
Girls,60.1,3,Kylie Roach,Pottsboro,59.96,102.06,45.36,108.86,256.28,Single-ply,SBD,F
Girls,60.1,4,Lexi Butner,Bonham,57.97,104.33,43.09,106.59,254.01,Single-ply,SBD,F
Girls,60.1,5,Sarah Scott,Anna,58.88,90.72,49.9,108.86,249.48,Single-ply,SBD,F
Girls,60.1,6,Heather Skowron,Little Elm,57.7,95.25,43.09,102.06,240.4,Single-ply,SBD,F
Girls,60.1,7,Cassidy Burns,Leonard,58.6,92.99,43.09,104.33,240.4,Single-ply,SBD,F
Girls,60.1,8,Megan Tolleson,Little Elm,58.69,92.99,38.56,108.86,240.4,Single-ply,SBD,F
Girls,60.1,9,Natalie Dills,Leonard,59.51,90.72,47.63,102.06,240.4,Single-ply,SBD,F
Girls,60.1,10,Alexis Finnigan,Little Elm,56.25,90.72,45.36,102.06,238.14,Single-ply,SBD,F
Girls,60.1,11,Hailee Medler,Pottsboro,58.79,97.52,43.09,95.25,235.87,Single-ply,SBD,F
Girls,60.1,12,Skylor Parker,Pottsboro,60.06,81.65,34.02,90.72,206.38,Single-ply,SBD,F
Girls,60.1,13,Yareli Garcia,Pottsboro,57.42,81.65,29.48,90.72,201.85,Single-ply,SBD,F
Girls,60.1,14,Shara Chumley,Sadler S & S Cons,59.51,70.31,38.56,90.72,199.58,Single-ply,SBD,F
Girls,60.1,15,Destiny Caperton,Gunter,58.51,83.91,36.29,,120.2,Single-ply,SB,F
Girls,60.1,DQ,London Loftice,Howe,56.7,79.38,38.56,83.91,,Single-ply,SBD,F
Girls,67.36,1,Vail Springer,Anna,67.31,149.69,88.45,131.54,369.68,Single-ply,SBD,F
Girls,67.36,2,Rebecca Eugster,Callisburg,61.23,127.01,61.23,129.27,317.51,Single-ply,SBD,F
Girls,67.36,3,Michelle Aldaco,Collinsville,67.22,120.2,52.16,129.27,301.64,Single-ply,SBD,F
Girls,67.36,4,Rylee Barnes,Bonham,62.6,124.74,52.16,117.93,294.84,Single-ply,SBD,F
Girls,67.36,5,Brianna Cole,Melissa,62.14,120.2,45.36,120.2,285.76,Single-ply,SBD,F
Girls,67.36,6,Sarah Biscarro,Van Alstyne,63.32,106.59,58.97,120.2,285.76,Single-ply,SBD,F
Girls,67.36,7,Addison Bates,Pottsboro,62.87,102.06,52.16,120.2,274.42,Single-ply,SBD,F
Girls,67.36,8,Stephanie Aldaco,Collinsville,61.78,106.59,47.63,115.67,269.89,Single-ply,SBD,F
Girls,67.36,9,Charley Ashworth,Leonard,67.31,95.25,52.16,122.47,269.89,Single-ply,SBD,F
Girls,67.36,10,Jamie Patterson,Howe,62.32,97.52,52.16,115.67,265.35,Single-ply,SBD,F
Girls,67.36,11,Brienne Marshall,Denison,65.41,83.91,61.23,120.2,265.35,Single-ply,SBD,F
Girls,67.36,12,Jalcee Morriss,Little Elm,66.59,90.72,45.36,129.27,265.35,Single-ply,SBD,F
Girls,67.36,13,Kaylea Sanderson,Leonard,63.59,97.52,49.9,113.4,260.82,Single-ply,SBD,F
Girls,67.36,14,Ashley Short,Pottsboro,64.23,104.33,54.43,99.79,258.55,Single-ply,SBD,F
Girls,67.36,15,Kenly Parker,Celina,66.77,102.06,56.7,92.99,251.74,Single-ply,SBD,F
Girls,67.36,16,Alicia Oviedo,Howe,65.5,88.45,43.09,115.67,247.21,Single-ply,SBD,F
Girls,67.36,17,Merideth Blake,Farmersville,65.68,97.52,45.36,102.06,244.94,Single-ply,SBD,F
Girls,67.36,18,Gwinivere Turley,Whitesboro,64.05,90.72,45.36,102.06,238.14,Single-ply,SBD,F
Girls,67.36,19,Sonya Linan,Little Elm,61.33,95.25,40.82,97.52,233.6,Single-ply,SBD,F
Girls,67.36,20,Sophia Inestroza,Sanger,65.5,86.18,40.82,102.06,229.06,Single-ply,SBD,F
Girls,67.36,21,Asia Wood,Melissa,62.6,81.65,36.29,95.25,213.19,Single-ply,SBD,F
Girls,67.36,22,Allyssa Kirchen,Farmersville,62.41,83.91,43.09,83.91,210.92,Single-ply,SBD,F
Girls,67.36,23,Tara Atkins,Lindsay,62.14,77.11,40.82,90.72,208.65,Single-ply,SBD,F
Girls,67.36,24,Amelia Benton,Sadler S & S Cons,60.87,68.04,38.56,72.57,179.17,Single-ply,SBD,F
Girls,67.36,25,Christine Wolf,Denison,67.04,,61.23,108.86,170.1,Single-ply,BD,F
Girls,67.36,26,Lyndze Curry,Princeton,67.04,102.06,54.43,,156.49,Single-ply,SB,F
Girls,67.36,27,Devon Black,Princeton,66.22,,40.82,104.33,145.15,Single-ply,BD,F
Girls,67.36,28,Emily Milam,Collinsville,67.36,,38.56,102.06,140.61,Single-ply,BD,F
Girls,67.36,29,Lydia Cates,Collinsville,62.78,90.72,45.36,,136.08,Single-ply,SB,F
Girls,75.07,1,Kaylin Miller,Whitesboro,68.95,133.81,72.57,142.88,349.27,Single-ply,SBD,F
Girls,75.07,2,Kailey Jones,Denison,72.12,117.93,47.63,131.54,297.1,Single-ply,SBD,F
Girls,75.07,3,Chloe Howard,Sanger,70.76,108.86,61.23,111.13,281.23,Single-ply,SBD,F
Girls,75.07,4,Cassie Harder,Pottsboro,72.03,104.33,54.43,106.59,265.35,Single-ply,SBD,F
Girls,75.07,5,Mariah Kirby,Princeton,72.39,104.33,47.63,113.4,265.35,Single-ply,SBD,F
Girls,75.07,6,Alaina Kirchen,Farmersville,68.22,97.52,43.09,111.13,251.74,Single-ply,SBD,F
Girls,75.07,7,Ashleigh Alexander,Leonard,70.13,88.45,38.56,102.06,229.06,Single-ply,SBD,F
Girls,75.07,8,Nabihah Shah,Little Elm,73.21,92.99,36.29,99.79,229.06,Single-ply,SBD,F
Girls,75.07,9,Camrie Smart,Little Elm,68.4,97.52,40.82,88.45,226.8,Single-ply,SBD,F
Girls,75.07,10,Rachel Salters,Bells,71.94,65.77,52.16,108.86,226.8,Single-ply,SBD,F
Girls,75.07,11,Ashley Tice,Princeton,68.95,86.18,47.63,90.72,224.53,Single-ply,SBD,F
Girls,82.33,1,Mikayla Pokorny,Whitesboro,75.3,133.81,63.5,165.56,362.87,Single-ply,SBD,F
Girls,82.33,2,Hailee Anderson,Anna,80.83,129.27,70.31,142.88,342.46,Single-ply,SBD,F
Girls,82.33,3,Kaylen Jowitt,Whitesboro,75.93,113.4,58.97,120.2,292.57,Single-ply,SBD,F
Girls,82.33,4,Ashleigh Schroeder,Sadler S & S Cons,76.11,108.86,54.43,122.47,285.76,Single-ply,SBD,F
Girls,82.33,5,Sharayah Mullins,Gunter,80.83,111.13,45.36,117.93,274.42,Single-ply,SBD,F
Girls,82.33,6,Maria Giudicy,Denison,79.02,99.79,56.7,113.4,269.89,Single-ply,SBD,F
Girls,82.33,7,Jessica Doty,Howe,76.66,102.06,45.36,120.2,267.62,Single-ply,SBD,F
Girls,82.33,8,Haley Page,Farmersville,77.38,86.18,49.9,124.74,260.82,Single-ply,SBD,F
Girls,82.33,9,Catie Beall,Bells,76.57,90.72,43.09,115.67,249.48,Single-ply,SBD,F
Girls,82.33,10,Kailee Worthy,Celina,75.93,83.91,52.16,102.06,238.14,Single-ply,SBD,F
Girls,82.33,11,Julie Barnes,Van Alstyne,80.56,88.45,43.09,95.25,226.8,Single-ply,SBD,F
Girls,82.33,12,Maddie Kramer,Blue Ridge,81.56,79.38,38.56,102.06,219.99,Single-ply,SBD,F
Girls,82.33,13,Savannah Brown,Bells,78.2,104.33,,97.52,201.85,Single-ply,SD,F
Girls,90.04,1,Macy Alexander,Sadler S & S Cons,89.95,145.15,92.99,140.61,378.75,Single-ply,SBD,F
Girls,90.04,2,McKenzie Crossland,Leonard,82.37,127.01,63.5,145.15,335.66,Single-ply,SBD,F
Girls,90.04,3,Makenzie Smith,Collinsville,87.72,124.74,54.43,149.69,328.85,Single-ply,SBD,F
Girls,90.04,4,Bailee Glenn,Van Alstyne,85.64,122.47,63.5,127.01,312.98,Single-ply,SBD,F
Girls,90.04,5,Clarissa Rios,Sanger,85.28,111.13,52.16,115.67,278.96,Single-ply,SBD,F
Girls,90.04,6,Brooke Bramer,Van Alstyne,89.99,111.13,45.36,111.13,267.62,Single-ply,SBD,F
Girls,90.04,7,Katlyn Poindexter,Bells,83.1,86.18,43.09,81.65,210.92,Single-ply,SBD,F
Girls,90.04,8,Baileigh Massey,Bells,86.09,72.57,38.56,90.72,201.85,Single-ply,SBD,F
Girls,90.04,9,Avery Northington,Sadler S & S Cons,86.36,65.77,36.29,92.99,195.04,Single-ply,SBD,F
Girls,90.04,DQ,Jasmine Bryant,Princeton,88.72,147.42,83.91,,,Single-ply,SBD,F
Girls,90.04,DQ,Megan Doyle,Denison,87.18,,68.04,158.76,,Single-ply,SBD,F
Girls,100.02,1,Priscilla Adejokun,Melissa,95.07,204.12,88.45,190.51,483.08,Single-ply,SBD,F
Girls,100.02,2,Breanna Rushing,Blue Ridge,93.44,149.69,79.38,138.35,367.41,Single-ply,SBD,F
Girls,100.02,3,Chelsie Riley,Leonard,92.26,81.65,47.63,111.13,240.4,Single-ply,SBD,F
Girls,100.02,4,Kylie Miller,Farmersville,90.9,68.04,43.09,95.25,206.38,Single-ply,SBD,F
Girls,100.02+,1,Paige Albert,Blue Ridge,121.38,170.1,92.99,142.88,405.97,Single-ply,SBD,F
Girls,100.02+,2,Lauryn Dixon,Princeton,120.47,138.35,65.77,136.08,340.19,Single-ply,SBD,F
Girls,100.02+,3,Tori Scott,Gainesville,152.04,149.69,52.16,133.81,335.66,Single-ply,SBD,F
Girls,100.02+,4,Alexis Bolin,Leonard,112.67,133.81,63.5,136.08,333.39,Single-ply,SBD,F
Girls,100.02+,5,Isabella Linwood,Denison,105.23,113.4,68.04,124.74,306.17,Single-ply,SBD,F
Girls,100.02+,6,Tess Hickey,Sanger,118.66,117.93,63.5,115.67,297.1,Single-ply,SBD,F
Girls,100.02+,7,Lindsey Cain,Whitesboro,114.85,86.18,56.7,106.59,249.48,Single-ply,SBD,F
Girls,100.02+,8,Mackenzie Lewis #1,Bells,122.11,72.57,38.56,113.4,224.53,Single-ply,SBD,F
