Name,Team,Age,Division,BodyweightKg,WeightClassKg,Squat1Kg,Squat2Kg,Squat3Kg,Best3SquatKg,Bench1Kg,Bench2Kg,Bench3Kg,Best3BenchKg,Deadlift1Kg,Deadlift2Kg,Deadlift3Kg,Best3DeadliftKg,TotalKg,Place,Sex,Event,Equipment
Ashley Cross,Necedah,14,F-JV,38.4,44,75,-77.5,-80,75,35,37.5,40,40,82.5,92.5,97.5,97.5,212.5,1,F,SBD,Single-ply
Celina Johnston,Necedah,16,F-JV,43.8,44,77.5,82.5,-90,82.5,30,32.5,37.5,37.5,77.5,87.5,92.5,92.5,212.5,2,F,SBD,Single-ply
Morgan Schillinger,Phillips HS,15,F-JV,45.9,48,97.5,-102.5,-102.5,97.5,42.5,47.5,-50,47.5,122.5,132.5,-137.5,132.5,277.5,1,F,SBD,Single-ply
Laura Saveressig,Oostberg,15,F-JV,46.8,48,102.5,107.5,110,110,32.5,40,42.5,42.5,105,110,115,115,267.5,2,F,SBD,Single-ply
Danielle Tasher,Pennridge,16,F-JV,45.1,48,75,82.5,90,90,35,37.5,-40,37.5,85,97.5,105,105,232.5,3,F,SBD,Single-ply
MaeAnna Chapin,Omro,14,F-JV,48,48,72.5,-77.5,77.5,77.5,37.5,-42.5,-42.5,37.5,87.5,-95,95,95,210,4,F,SBD,Single-ply
Libby McRaven,Eauclaire N,15,F-JV,46.9,48,60,65,70,70,32.5,35,42.5,42.5,70,-82.5,82.5,82.5,195,5,F,SBD,Single-ply
Lena Thao,Clarinda,15,F-JV,46.5,48,-52.5,-52.5,-52.5,,,,,,,,,,,DQ,F,SBD,Single-ply
Drew Beil,Phillips HS,14,F-JV,51,52,117.5,125,130,130,62.5,67.5,-70,67.5,112.5,122.5,-132.5,122.5,320,1,F,SBD,Single-ply
Marissa Peterson,Necedah,15,F-JV,51.2,52,92.5,97.5,-102.5,97.5,42.5,50,-55,50,92.5,102.5,107.5,107.5,255,2,F,SBD,Single-ply
Cameron Ruiz,,15,F-JV,51.9,52,85,87.5,-92.5,87.5,32.5,35,-37.5,35,87.5,92.5,95,95,217.5,3,F,SBD,Single-ply
Ariel Baumel,Necedah,15,F-JV,51.6,52,75,77.5,-82.5,77.5,30,32.5,37.5,37.5,77.5,85,90,90,205,4,F,SBD,Single-ply
Hannah Zimmer,Eauclaire N,16,F-JV,53.6,56,107.5,115,-125,115,55,60,67.5,67.5,112.5,122.5,127.5,127.5,310,1,F,SBD,Single-ply
Casey Freeman,Phillips HS,16,F-JV,54.3,56,112.5,-122.5,-122.5,112.5,60,65,67.5,67.5,110,120,125,125,305,2,F,SBD,Single-ply
Jenna Hardy,Pennridge,16,F-JV,54.5,56,107.5,-120,-120,107.5,62.5,65,-70,65,115,125,-137.5,125,297.5,3,F,SBD,Single-ply
Christina Schumer,Necedah,16,F-JV,54.4,56,105,115,-122.5,115,37.5,-45,-45,37.5,115,125,132.5,132.5,285,4,F,SBD,Single-ply
Meredith Stephens,Team Idaho,15,F-JV,55.3,56,90,102.5,-107.5,102.5,40,45,-52.5,45,102.5,117.5,122.5,122.5,270,5,F,SBD,Single-ply
Amanda Magaly Vega,Oostberg,16,F-JV,55.8,56,95,-102.5,-102.5,95,47.5,52.5,55,55,110,117.5,120,120,270,6,F,SBD,Single-ply
Leah Morrow,River Falls,15,F-JV,54.9,56,92.5,-100,-100,92.5,45,47.5,-50,47.5,105,-117.5,-117.5,105,245,7,F,SBD,Single-ply
Samantha Perrine,Pennridge,15,F-JV,57.6,60,-115,115,-127.5,115,57.5,-60,60,60,132.5,142.5,145,145,320,1,F,SBD,Single-ply
Mykala Myhre,Necedah,15,F-JV,59.9,60,110,115,117.5,117.5,47.5,55,-62.5,55,105,112.5,115,115,287.5,2,F,SBD,Single-ply
Tomisha Ezell,Clarinda,16,F-JV,59.6,60,90,-97.5,102.5,102.5,45,50,-55,50,102.5,110,117.5,117.5,270,3,F,SBD,Single-ply
Anna Garlick,Eauclaire N,15,F-JV,57.4,60,92.5,97.5,102.5,102.5,42.5,45,-47.5,45,102.5,112.5,117.5,117.5,265,4,F,SBD,Single-ply
Macy Emery,Necedah,15,F-JV,59.2,60,92.5,97.5,105,105,40,42.5,45,45,92.5,100,115,115,265,5,F,SBD,Single-ply
Anke Wang,Hershey,15,F-JV,58.2,60,82.5,90,-92.5,90,30,35,-37.5,35,90,102.5,107.5,107.5,232.5,6,F,SBD,Single-ply
Eva Hambrick,Eauclaire N,15,F-JV,66.5,67.5,107.5,115,-120,115,62.5,67.5,72.5,72.5,125,135,145,145,332.5,1,F,SBD,Single-ply
Mercedes Vandaver,Necedah,16,F-JV,64.8,67.5,125,132.5,-142.5,132.5,62.5,70,75,75,107.5,115,122.5,122.5,330,2,F,SBD,Single-ply
Lauren Fisher,Omro,14,F-JV,60.7,67.5,102.5,-107.5,-110,102.5,50,52.5,-55,52.5,107.5,115,125,125,280,3,F,SBD,Single-ply
Carly Kolodzik,Omro,15,F-JV,64.3,67.5,100,105,-110,105,47.5,50,-52.5,50,107.5,115,125,125,280,4,F,SBD,Single-ply
Tylinn Houy,Necedah,15,F-JV,67.1,67.5,-107.5,110,122.5,122.5,32.5,37.5,47.5,47.5,92.5,100,110,110,280,5,F,SBD,Single-ply
Dani Sebold,Omro,16,F-JV,65.6,67.5,97.5,102.5,-110,102.5,52.5,57.5,60,60,105,-115,115,115,277.5,6,F,SBD,Single-ply
Autumn Herried,Necedah,15,F-JV,63.4,67.5,112.5,117.5,-122.5,117.5,40,45,-50,45,100,105,112.5,112.5,275,7,F,SBD,Single-ply
Renee Thornton,Necedah,16,F-JV,66.7,67.5,-100,102.5,107.5,107.5,37.5,42.5,47.5,47.5,107.5,112.5,120,120,275,8,F,SBD,Single-ply
Linnzy Gely,Whitnall,15,F-JV,65.6,67.5,-102.5,102.5,-115,102.5,50,55,-57.5,55,102.5,115,-122.5,115,272.5,9,F,SBD,Single-ply
Stephanie Flipse,Oostberg,15,F-JV,73.5,75,-160,-170,170,170,62.5,67.5,-70,67.5,142.5,147.5,-150,147.5,385,1,F,SBD,Single-ply
Aimee Cowdery,Pennridge,15,F-JV,73.2,75,-112.5,-112.5,112.5,112.5,62.5,65,67.5,67.5,142.5,150,160,160,340,2,F,SBD,Single-ply
Anna Brettingen,River Falls,15,F-JV,71.8,75,-125,125,-142.5,125,62.5,-72.5,72.5,72.5,110,120,127.5,127.5,325,3,F,SBD,Single-ply
Courtney Freeman,Omro,17,F-JV,70.7,75,130,-132.5,-132.5,130,65,67.5,70,70,105,110,122.5,122.5,322.5,4,F,SBD,Single-ply
Lexi Ward,Dells,15,F-JV,73.8,75,115,120,-122.5,120,52.5,55,-57.5,55,122.5,-127.5,-130,122.5,297.5,5,F,SBD,Single-ply
Nicole Hardy,Pennridge,15,F-JV,72.8,75,-95,95,-105,95,70,75,-77.5,75,110,115,125,125,295,6,F,SBD,Single-ply
Anna Rodriguez,,14,F-JV,73.9,75,92.5,102.5,110,110,47.5,52.5,57.5,57.5,110,117.5,125,125,292.5,7,F,SBD,Single-ply
Taylor Podboy,Necedah,15,F-JV,73.3,75,97.5,-105,-105,97.5,42.5,47.5,52.5,52.5,122.5,132.5,-147.5,132.5,282.5,8,F,SBD,Single-ply
Jennifer Huddleston,Yorktown,15,F-JV,68.3,75,100,105,-107.5,105,37.5,42.5,45,45,105,115,125,125,275,9,F,SBD,Single-ply
Rachael Bennett,Omro,15,F-JV,73.7,75,97.5,-100,-100,97.5,50,-55,-55,50,110,117.5,122.5,122.5,270,10,F,SBD,Single-ply
Nickie Amundson,Omro,16,F-JV,68.7,75,-92.5,-92.5,92.5,92.5,47.5,50,52.5,52.5,105,110,-112.5,110,255,11,F,SBD,Single-ply
Jessica Lopez,PSJA,14,F-JV,76.6,82.5,142.5,-150,-150,142.5,62.5,70,-72.5,70,135,-145,147.5,147.5,360,1,F,SBD,Single-ply
Nicole Lynch,Necedah,15,F-JV,75.6,82.5,115,122.5,127.5,127.5,47.5,52.5,-57.5,52.5,120,130,140,140,320,2,F,SBD,Single-ply
Holley Thums,Omro,14,F-JV,77.6,82.5,127.5,-132.5,-135,127.5,-52.5,52.5,-57.5,52.5,112.5,120,-142.5,120,300,3,F,SBD,Single-ply
Jennifer Kozinski,Necedah,14,F-JV,88.8,90,-125,125,135,135,50,52.5,60,60,122.5,137.5,140,140,335,1,F,SBD,Single-ply
Natasha Dusek,River Falls,16,F-JV,89.9,90,-130,-130,-130,,42.5,50,55,55,120,127.5,-132.5,127.5,,DQ,F,SBD,Single-ply
Stefani Mareno,Phillips HS,16,F-JV,96.6,90+,142.5,150,-155,150,-77.5,77.5,-82.5,77.5,147.5,160,-165,160,387.5,1,F,SBD,Single-ply
Drew Rath,Kasson-Mantorville,15,F-JV,129,90+,137.5,145,155,155,60,67.5,72.5,72.5,137.5,-155,-155,137.5,365,2,F,SBD,Single-ply
Tyler Schilling,Phillips HS,15,M-JV,51.1,52,115,122.5,127.5,127.5,70,-75,75,75,127.5,137.5,147.5,147.5,350,1,M,SBD,Single-ply
Darrius Johnson,Clarinda,15,M-JV,51.4,52,110,-112.5,115,115,77.5,80,82.5,82.5,127.5,132.5,137.5,137.5,335,2,M,SBD,Single-ply
Jesus Flores-Correa,Team Idaho,16,M-JV,48,52,-130,135,-140,135,55,-60,-60,55,120,132.5,-147.5,132.5,322.5,3,M,SBD,Single-ply
Muniunmee Hendrix,,15,M-JV,51.8,52,-80,97.5,110,110,55,-60,-70,55,137.5,-157.5,157.5,157.5,322.5,4,M,SBD,Single-ply
Jesse Sellers,Woodward Acdemy,16,M-JV,51.6,52,-105,105,-110,105,62.5,67.5,-72.5,67.5,127.5,142.5,-150,142.5,315,5,M,SBD,Single-ply
Javaris Milton,Clarinda,15,M-JV,51.7,52,-107.5,107.5,-115,107.5,-62.5,-62.5,-62.5,,,,,,,DQ,M,SBD,Single-ply
Devin Fries,Phillips HS,15,M-JV,50.8,52,92.5,100,-105,100,-65,-65,-65,,120,130,132.5,132.5,,DQ,M,SBD,Single-ply
David Gergorio,Woodward Acdemy,15,M-JV,55.3,56,130,140,-145,140,70,75,-80,75,125,140,152.5,152.5,367.5,1,M,SBD,Single-ply
Austin Feggestad,Omro,16,M-JV,56,56,102.5,105,110,110,67.5,70,-72.5,70,125,135,-150,135,315,2,M,SBD,Single-ply
Cory Adamczak,Necedah,15,M-JV,58.9,60,157.5,170,185,185,77.5,87.5,97.5,97.5,152.5,172.5,182.5,182.5,465,1,M,SBD,Single-ply
Ronnie Camphor,,15,M-JV,57.2,60,107.5,127.5,150,150,92.5,102.5,-110,102.5,155,-172.5,-180,155,407.5,2,M,SBD,Single-ply
Joseph Bright,Woodward Acdemy,16,M-JV,59.7,60,130,-142.5,142.5,142.5,80,87.5,95,95,132.5,152.5,157.5,157.5,395,3,M,SBD,Single-ply
Hunter Wagner,Necedah,15,M-JV,59.9,60,135,147.5,-150,147.5,67.5,80,85,85,142.5,155,-165,155,387.5,5,M,SBD,Single-ply
Jesus Espinoza,Woodward Acdemy,16,M-JV,59.1,60,127.5,140,-152.5,140,85,95,-100,95,132.5,147.5,152.5,152.5,387.5,4,M,SBD,Single-ply
Kyle Gates,Omro,16,M-JV,59.3,60,107.5,112.5,-117.5,112.5,90,92.5,95,95,135,142.5,-150,142.5,350,6,M,SBD,Single-ply
Trevor Janak,Phillips HS,16,M-JV,59.9,60,112.5,120,125,125,52.5,57.5,-60,57.5,142.5,152.5,160,160,342.5,7,M,SBD,Single-ply
Altonio Barton,Woodward Acdemy,16,M-JV,66.4,67.5,167.5,180,-192.5,180,87.5,-97.5,100,100,160,180,190,190,470,1,M,SBD,Single-ply
Gabe Caldwell,Woodward Acdemy,16,M-JV,66.2,67.5,160,-175,-175,160,105,112.5,117.5,117.5,165,182.5,187.5,187.5,465,2,M,SBD,Single-ply
Dennis Fyksen III,AFHS,16,M-JV,66.9,67.5,150,160,-170,160,105,115,122.5,122.5,165,172.5,-180,172.5,455,3,M,SBD,Single-ply
Josh Fejfar,Hershey,16,M-JV,63.7,67.5,127.5,140,147.5,147.5,82.5,87.5,90,90,167.5,177.5,180,180,417.5,4,M,SBD,Single-ply
Jaegar Haubert,Phillips HS,16,M-JV,67.2,67.5,150,157.5,-162.5,157.5,72.5,-77.5,77.5,77.5,162.5,172.5,182.5,182.5,417.5,5,M,SBD,Single-ply
Jordan Mach,Necedah,15,M-JV,63,67.5,155,160,-175,160,67.5,77.5,-82.5,77.5,157.5,170,177.5,177.5,415,6,M,SBD,Single-ply
Gerald Murray,,15,M-JV,64.9,67.5,130,-137.5,137.5,137.5,82.5,90,92.5,92.5,152.5,167.5,-177.5,167.5,397.5,7,M,SBD,Single-ply
Dustin Van Aster,Kaukauna,15,M-JV,67.3,67.5,-165,-165,-165,,87.5,92.5,-100,92.5,180,195,205,205,,DQ,M,SBD,Single-ply
Jordan Kaiser,River Falls,16,M-JV,74.3,75,-192.5,192.5,-197.5,192.5,95,102.5,-107.5,102.5,205,212.5,-217.5,212.5,507.5,2,M,SBD,Single-ply
Ryan Flowers,Woodward Acdemy,15,M-JV,74,75,-185,-185,185,185,102.5,112.5,117.5,117.5,185,205,-215,205,507.5,1,M,SBD,Single-ply
Eugene Crabtree,Necedah,15,M-JV,74.3,75,175,185,-195,185,87.5,97.5,-105,97.5,202.5,-215,-225,202.5,485,3,M,SBD,Single-ply
Levi Parr,Phillips HS,16,M-JV,72.4,75,152.5,-160,160,160,77.5,82.5,87.5,87.5,192.5,202.5,212.5,212.5,460,4,M,SBD,Single-ply
Andy Reyes,Clarinda,16,M-JV,73.6,75,-172.5,175,-185,175,-105,-105,105,105,167.5,175,-185,175,455,5,M,SBD,Single-ply
Jeff Alvarado,Woodward Acdemy,15,M-JV,74.3,75,162.5,180,-187.5,180,92.5,-102.5,-102.5,92.5,-167.5,-175,177.5,177.5,450,6,M,SBD,Single-ply
Andrew Meyerhofer,Kaukauna,15,M-JV,72.3,75,152.5,162.5,-177.5,162.5,80,-87.5,-87.5,80,170,195,205,205,447.5,7,M,SBD,Single-ply
Nathan Runde,Kaukauna,15,M-JV,74.1,75,160,170,-175,170,80,-87.5,-87.5,80,160,182.5,195,195,445,8,M,SBD,Single-ply
Robert Gold,Team Idaho,16,M-JV,68.8,75,140,-155,-155,140,-95,95,-100,95,140,-155,-155,140,375,9,M,SBD,Single-ply
Donovan Flores,Harker Heights,16,M-JV,71.9,75,117.5,125,132.5,132.5,72.5,80,-85,80,125,137.5,-145,137.5,350,10,M,SBD,Single-ply
Travis McKinney,Iola,16,M-JV,79.2,82.5,-205,205,-220,205,155,165,172.5,172.5,205,,,205,582.5,1,M,SBD,Single-ply
Devonta Dunson,Woodward Acdemy,15,M-JV,78.7,82.5,205,220,-230,220,102.5,-112.5,-112.5,102.5,200,227.5,-260,227.5,550,2,M,SBD,Single-ply
Johnathon Schraub,,16,M-JV,81.9,82.5,205,-207.5,-232.5,205,110,117.5,-122.5,117.5,182.5,205,-262.5,205,527.5,3,M,SBD,Single-ply
Garrett Volz,Dells,17,M-JV,81.9,82.5,215,222.5,230,230,102.5,105,-110,105,157.5,175,182.5,182.5,517.5,4,M,SBD,Single-ply
Nate Ostrowski,,16,M-JV,80.8,82.5,-142.5,142.5,157.5,157.5,85,102.5,-110,102.5,157.5,167.5,177.5,177.5,437.5,5,M,SBD,Single-ply
Anthony Wolf,St Mary Central,15,M-JV,86.7,90,215,222.5,227.5,227.5,102.5,110,120,120,192.5,202.5,210,210,557.5,1,M,SBD,Single-ply
Eddie Schug,Omro,16,M-JV,87.3,90,-197.5,197.5,-200,197.5,130,140,-145,140,205,210,-217.5,210,547.5,2,M,SBD,Single-ply
Demius Jones,Clarinda,16,M-JV,88.7,90,172.5,-187.5,192.5,192.5,-100,100,110,110,182.5,185,192.5,192.5,495,3,M,SBD,Single-ply
Jamoni Pullum,Clarinda,17,M-JV,88.8,90,172.5,-187.5,-190,172.5,112.5,117.5,-125,117.5,170,187.5,190,190,480,4,M,SBD,Single-ply
Jordan Sanford,,15,M-JV,87.5,90,152.5,170,-185,170,-102.5,107.5,112.5,112.5,175,192.5,195,195,477.5,5,M,SBD,Single-ply
Jimmy Marks,Hershey,15,M-JV,88,90,157.5,170,175,175,95,100,-105,100,155,-167.5,170,170,445,6,M,SBD,Single-ply
Alex Hahn,Oak Creek,16,M-JV,86.9,90,-212.5,-212.5,-212.5,,102.5,110,-117.5,110,240,-255,-255,240,,DQ,M,SBD,Single-ply
Michael Reichelt,Souix Falls,16,M-JV,96,100,225,227.5,252.5,252.5,155,162.5,167.5,167.5,215,-235,235,235,655,1,M,SBD,Single-ply
Andrew Belnap,Team Idaho,16,M-JV,98.6,100,240,252.5,-262.5,252.5,150,157.5,-162.5,157.5,195,212.5,-230,212.5,622.5,2,M,SBD,Single-ply
Caleb Denson,,16,M-JV,98.2,100,185,200,-207.5,200,105,112.5,120,120,205,217.5,227.5,227.5,547.5,3,M,SBD,Single-ply
Tyrone Epinger,Clarinda,17,M-JV,99,100,185,200,-215,200,107.5,115,125,125,152.5,195,215,215,540,4,M,SBD,Single-ply
Caleb Hunt,Omro,17,M-JV,92.8,100,177.5,190,-197.5,190,122.5,130,-132.5,130,-197.5,215,-225,215,535,5,M,SBD,Single-ply
Cody Larkin,Powers Catholic,15,M-JV,96.7,100,160,177.5,-190,177.5,80,97.5,-112.5,97.5,147.5,167.5,-192.5,167.5,442.5,6,M,SBD,Single-ply
Ron Carson,Clarinda,16,M-JV,104.2,110,192.5,200,220,220,130,-137.5,-137.5,130,192.5,215,230,230,580,1,M,SBD,Single-ply
Sam Kelly,Kaukauna,15,M-JV,108.5,110,-205,205,227.5,227.5,125,132.5,142.5,142.5,180,195,205,205,575,2,M,SBD,Single-ply
Kyle Salzwedel,GET,14,M-JV,106.8,110,205,215,220,220,102.5,107.5,-110,107.5,175,-187.5,-187.5,175,502.5,3,M,SBD,Single-ply
JP Eaton,River Falls,16,M-JV,113.8,125,222.5,240,-255,240,102.5,120,130,130,-222.5,235,245,245,615,1,M,SBD,Single-ply
Cody Kennedy,VCA,16,M-JV,113.7,125,210,-220,220,220,187.5,200,-217.5,200,185,192.5,-217.5,192.5,612.5,2,M,SBD,Single-ply
Derek Trecha,Powers Catholic,16,M-JV,116.2,125,125,-182.5,-182.5,125,100,-117.5,-145,100,-170,-170,170,170,395,3,M,SBD,Single-ply
Desiree Estrada,O'Gorman HS,18,F-V,43.9,44,95,-102.5,-105,95,45,50,52.5,52.5,120,-133,133,133,280.5,1,F,SBD,Single-ply
Shannon Rattunde,Team Idaho,17,F-V,43.5,44,82.5,87.5,92.5,92.5,37.5,40,42.5,42.5,92.5,102.5,107.5,107.5,242.5,2,F,SBD,Single-ply
Angela Lopez,,17,F-V,43.8,44,-97.5,97.5,-102.5,97.5,40,45,-47.5,45,85,-95,95,95,237.5,3,F,SBD,Single-ply
Selena Alexander,,16,F-V,41.9,44,62.5,72.5,75,75,30,-37.5,37.5,37.5,92.5,100,-105,100,212.5,4,F,SBD,Single-ply
Kristine Polizzano,Eauclaire N,18,F-V,47.3,48,112.5,117.5,127.5,127.5,65,72.5,75,75,122.5,132.5,-137.5,132.5,335,1,F,SBD,Single-ply
Caitlin Bruns,Team Idaho,18,F-V,47.4,48,112.5,-122.5,122.5,122.5,42.5,45,50,50,117.5,132.5,142.5,142.5,315,2,F,SBD,Single-ply
Rilea Whitaker,Calhoun,18,F-V,47.9,48,125,-130,-132.5,125,60,62.5,65,65,120,-125,-125,120,310,3,F,SBD,Single-ply
Savannah May,,16,F-V,47.2,48,105,115,120,120,65,-72.5,-72.5,65,100,107.5,-125,107.5,292.5,4,F,SBD,Single-ply
April E. Guzman,River Falls,16,F-V,47.1,48,97.5,-105,-105,97.5,45,47.5,-50,47.5,112.5,117.5,-122.5,117.5,262.5,5,F,SBD,Single-ply
Tiffany Leurquin,,16,F-V,46.6,48,70,77.5,82.5,82.5,40,42.5,45,45,82.5,92.5,-97.5,92.5,220,6,F,SBD,Single-ply
Jenny Hudalla,AFHS,18,F-V,47.3,48,70,77.5,85,85,32.5,37.5,-40,37.5,82.5,92.5,97.5,97.5,220,7,F,SBD,Single-ply
Renee King,Bangor,16,F-V,48,48,-77.5,77.5,80,80,32.5,35,37.5,37.5,92.5,97.5,-105,97.5,215,8,F,SBD,Single-ply
Michelle Van Dusen,Slidell,18,F-V,51.5,52,160,170,177.5,177.5,67.5,72.5,75,75,-165,165,175,175,427.5,1,F,SBD,Single-ply
Alexia Trevino,River Falls,17,F-V,51.5,52,125,132.5,-137.5,132.5,62.5,70,75,75,127.5,-140,140,140,347.5,2,F,SBD,Single-ply
Michelle Sullwold,Calhoun,16,F-V,51.1,52,97.5,107.5,117.5,117.5,55,-62.5,62.5,62.5,110,-122.5,122.5,122.5,302.5,3,F,SBD,Single-ply
Priscilla Flores,Copperas Cove,18,F-V,51.6,52,-110,110,-122.5,110,60,-67.5,-67.5,60,112.5,122.5,-127.5,122.5,292.5,4,F,SBD,Single-ply
Kim Carlisle,Zapata,17,F-V,49,52,105,112.5,-117.5,112.5,42.5,47.5,50,50,112.5,120,122.5,122.5,285,5,F,SBD,Single-ply
Sarah Vogel,River Falls,16,F-V,51.9,52,102.5,-115,115,115,47.5,-52.5,-60,47.5,117.5,-132.5,-132.5,117.5,280,6,F,SBD,Single-ply
Rebeque Suchla,Necedah,17,F-V,51.2,52,115,122.5,-130,122.5,42.5,-45,-45,42.5,100,107.5,-115,107.5,272.5,7,F,SBD,Single-ply
Abby Guggenbuehl,,16,F-V,50.7,52,102.5,-110,-110,102.5,47.5,50,-52.5,50,105,112.5,117.5,117.5,270,8,F,SBD,Single-ply
Alex Ziepke,Holmen,15,F-V,51.6,52,97.5,102.5,-107.5,102.5,42.5,45,50,50,100,110,-120,110,262.5,9,F,SBD,Single-ply
Julia Dubiel,GET,16,F-V,52,52,92.5,105,-110,105,35,-42.5,-42.5,35,97.5,107.5,120,120,260,10,F,SBD,Single-ply
Angela Rodriguez,Calhoun,16,F-V,51.1,52,92.5,-97.5,-97.5,92.5,50,-52.5,52.5,52.5,110,112.5,-115,112.5,257.5,11,F,SBD,Single-ply
Katelyn Bjorge,Osceola,18,F-V,50.7,52,-87.5,87.5,92.5,92.5,37.5,-42.5,-42.5,37.5,-95,95,-100,95,225,12,F,SBD,Single-ply
Chelsea Saenz,Hebbronville,18,F-V,56,56,150,-155,155,155,60,65,-67.5,65,145,155,160,160,380,1,F,SBD,Single-ply
Carly Hofteizer,Eauclaire N,18,F-V,55.5,56,125,137.5,140,140,60,-67.5,67.5,67.5,-125,140,-145,140,347.5,2,F,SBD,Single-ply
Tia Harris,Omro,18,F-V,56,56,102.5,117.5,130,130,65,70,-72.5,70,135,-145,-147.5,135,335,3,F,SBD,Single-ply
Britni Hicks,Eauclaire N,15,F-V,54.7,56,-125,125,130,130,57.5,60,65,65,125,132.5,137.5,137.5,332.5,4,F,SBD,Single-ply
Bobbie Bush,Osceola,16,F-V,55.3,56,125,135,-145,135,62.5,65,67.5,67.5,120,127.5,-142.5,127.5,330,5,F,SBD,Single-ply
Lauren Deniger,Necedah,17,F-V,54.8,56,-110,120,130,130,62.5,-67.5,-67.5,62.5,112.5,125,-135,125,317.5,6,F,SBD,Single-ply
Michelle Wallner,Calhoun,15,F-V,55.5,56,112.5,120,-130,120,50,52.5,55,55,115,122.5,132.5,132.5,307.5,7,F,SBD,Single-ply
Bridget Hinz,Dells,18,F-V,55.2,56,110,-122.5,-122.5,110,47.5,52.5,-55,52.5,-132.5,132.5,-142.5,132.5,295,8,F,SBD,Single-ply
Giovonna Ortega,Omro,16,F-V,53.5,56,85,102.5,-110,102.5,47.5,-52.5,-52.5,47.5,100,-110,110,110,260,9,F,SBD,Single-ply
Andrea Cazares,Indee,18,F-V,57.6,60,-160,170,182.5,182.5,77.5,87.5,-90,87.5,160,175,182.5,182.5,452.5,1,F,SBD,Single-ply
Sarah Rogers,IND,17,F-V,59.3,60,145,-155,-155,145,80,85,-87.5,85,125,135,140,140,370,2,F,SBD,Single-ply
Shelby Barry,Appleton N,16,F-V,59.9,60,125,130,135,135,67.5,70,-72.5,70,132.5,140,150,150,355,3,F,SBD,Single-ply
Kelsey King,Necedah,17,F-V,57.4,60,142.5,-150,,142.5,70,75,-77.5,75,130,-132.5,135,135,352.5,4,F,SBD,Single-ply
Haley Horbinski,IND,18,F-V,60,60,-130,132.5,-142.5,132.5,72.5,75,80,80,125,130,-142.5,130,342.5,5,F,SBD,Single-ply
Haley Hespen,Team Idaho,17,F-V,57.9,60,120,130,-135,130,52.5,-57.5,-57.5,52.5,122.5,132.5,-137.5,132.5,315,6,F,SBD,Single-ply
Samantha Olson,Southside,17,F-V,56.1,60,-117.5,117.5,-135,117.5,50,-55,57.5,57.5,115,120,127.5,127.5,302.5,7,F,SBD,Single-ply
Teagan Schwab,,14,F-V,59,60,-115,115,-130,115,-52.5,52.5,-57.5,52.5,112.5,122.5,-137.5,122.5,290,8,F,SBD,Single-ply
Alyssa Roehrig,,18,F-V,59.4,60,110,-120,-120,110,50,-60,-60,50,120,130,-145,130,290,9,F,SBD,Single-ply
Emily Everson,,18,F-V,57.9,60,102.5,-112.5,112.5,112.5,47.5,52.5,-57.5,52.5,105,120,-122.5,120,285,10,F,SBD,Single-ply
Abby Lown,,18,F-V,59.8,60,97.5,-107.5,-110,97.5,52.5,55,57.5,57.5,117.5,-137.5,-137.5,117.5,272.5,11,F,SBD,Single-ply
Erin Leslea Stevenson,,17,F-V,57.2,60,-135,135,145,145,-75,-75,-75,,105,110,-120,110,,DQ,F,SBD,Single-ply
Suzanne Louque,,18,F-V,65.7,67.5,130,142.5,-152.5,142.5,-67.5,67.5,72.5,72.5,152.5,167.5,172.5,172.5,387.5,1,F,SBD,Single-ply
Brinna Villareal,,17,F-V,66.6,67.5,145,-157.5,-157.5,145,70,75,-80,75,157.5,167.5,-172.5,167.5,387.5,2,F,SBD,Single-ply
Sidney Blodgett,,16,F-V,65.1,67.5,150,-162.5,-162.5,150,65,72.5,-75,72.5,135,150,155,155,377.5,3,F,SBD,Single-ply
Jessica Dodel,,18,F-V,67.1,67.5,-145,145,152.5,152.5,75,-80,80,80,120,132.5,137.5,137.5,370,4,F,SBD,Single-ply
Suhai Solis,,18,F-V,67.1,67.5,142.5,-150,-150,142.5,70,75,-80,75,142.5,150,-162.5,150,367.5,5,F,SBD,Single-ply
Alma Rodriguez,,17,F-V,63.4,67.5,130,135,-140,135,67.5,70,-75,70,137.5,142.5,-145,142.5,347.5,6,F,SBD,Single-ply
Hannah Morrow,,16,F-V,65.7,67.5,132.5,137.5,-142.5,137.5,55,-60,-60,55,127.5,137.5,145,145,337.5,7,F,SBD,Single-ply
Amanda Eckols,,17,F-V,65.1,67.5,115,-120,-120,115,65,72.5,-77.5,72.5,137.5,-145,,137.5,325,8,F,SBD,Single-ply
Stephanie Bunker,,18,F-V,66.8,67.5,105,115,-122.5,115,55,62.5,-65,62.5,127.5,-132.5,132.5,132.5,310,9,F,SBD,Single-ply
Emilie Anderson,,17,F-V,66.7,67.5,-117.5,117.5,-142.5,117.5,52.5,57.5,-67.5,57.5,120,127.5,-135,127.5,302.5,10,F,SBD,Single-ply
Rebecca Miller,,17,F-V,64.6,67.5,97.5,-107.5,-110,97.5,60,-65,65,65,125,132.5,-140,132.5,295,11,F,SBD,Single-ply
Courtney Johnson,,16,F-V,64.7,67.5,100,-120,-120,100,55,60,65,65,117.5,-125,-125,117.5,282.5,12,F,SBD,Single-ply
Shantel Noel,,18,F-V,74.3,75,182.5,190,195,195,95,-105,105,105,162.5,170,175,175,475,1,F,SBD,Single-ply
Ashleigh Andrews,,17,F-V,74.7,75,-170,170,-182.5,170,85,92.5,95,95,170,177.5,-182.5,177.5,442.5,2,F,SBD,Single-ply
Michelle Renee Arce,,17,F-V,74.7,75,132.5,-150,-150,132.5,72.5,-80,-80,72.5,162.5,167.5,172.5,172.5,377.5,3,F,SBD,Single-ply
Megan Butler,,18,F-V,73.1,75,137.5,150,155,155,60,65,67.5,67.5,125,140,-150,140,362.5,4,F,SBD,Single-ply
Ashley Matson,,17,F-V,73.4,75,130,142.5,-145,142.5,55,62.5,-72.5,62.5,107.5,120,122.5,122.5,327.5,5,F,SBD,Single-ply
Michaela Hensiek,,16,F-V,75,75,125,-132.5,132.5,132.5,55,57.5,-60,57.5,120,127.5,-140,127.5,317.5,6,F,SBD,Single-ply
Sara Cantlon,,18,F-V,70.6,75,125,-145,-145,125,47.5,-70,70,70,102.5,112.5,-122.5,112.5,307.5,7,F,SBD,Single-ply
Nicole Auer,,17,F-V,73.2,75,-125,-125,-132.5,,52.5,-60,-60,52.5,125,-135,,125,,DQ,F,SBD,Single-ply
Veronica Garcia,,17,F-V,81.7,82.5,182.5,192.5,197.5,197.5,85,92.5,97.5,97.5,162.5,170,177.5,177.5,472.5,1,F,SBD,Single-ply
Mariah Hamm,,18,F-V,76.2,82.5,175,-185,-185,175,97.5,100,-102.5,100,165,180,-197.5,180,455,2,F,SBD,Single-ply
Victoria Avila,,18,F-V,78.6,82.5,160,-170,-170,160,67.5,-80,-80,67.5,155,160,170,170,397.5,3,F,SBD,Single-ply
Catherine Mohr,,17,F-V,77.7,82.5,130,147.5,-155,147.5,-70,70,72.5,72.5,142.5,160,167.5,167.5,387.5,4,F,SBD,Single-ply
Aerieal Schug,,18,F-V,77.5,82.5,125,130,-137.5,130,80,82.5,85,85,142.5,150,155,155,370,5,F,SBD,Single-ply
Savannah Mooney,,16,F-V,79.2,82.5,130,142.5,155,155,-57.5,-62.5,62.5,62.5,130,145,-150,145,362.5,6,F,SBD,Single-ply
Sarah Carufel,,16,F-V,79.7,82.5,135,142.5,-152.5,142.5,52.5,57.5,-60,57.5,125,135,140,140,340,7,F,SBD,Single-ply
Carissa Turcek,,17,F-V,78.4,82.5,110,122.5,125,125,52.5,60,-65,60,107.5,110,-125,110,295,8,F,SBD,Single-ply
Samantha Balajka,,18,F-V,82.8,90,172.5,182.5,190,190,77.5,82.5,87.5,87.5,155,160,-167.5,160,437.5,1,F,SBD,Single-ply
Emily Musaitef,,17,F-V,90,90,137.5,142.5,147.5,147.5,72.5,77.5,82.5,82.5,122.5,132.5,140,140,370,2,F,SBD,Single-ply
Jaclyn Fisher,,17,F-V,90,90,137.5,-140,-140,137.5,60,-65,65,65,127.5,135,140,140,342.5,3,F,SBD,Single-ply
Kaitie Guza,,18,F-V,90,90,112.5,125,-132.5,125,57.5,62.5,67.5,67.5,110,125,135,135,327.5,4,F,SBD,Single-ply
Katrina Cardona,,17,F-V,89.5,90,117.5,-125,125,125,55,57.5,60,60,120,127.5,-135,127.5,312.5,5,F,SBD,Single-ply
Elisa Danielson,,18,F-V,89.7,90,-122.5,122.5,-127.5,122.5,45,-50,-50,45,135,142.5,-162.5,142.5,310,6,F,SBD,Single-ply
Becky Cook,,17,F-V,143.2,90+,235,245,262.5,262.5,100,112.5,-117.5,112.5,182.5,-192.5,192.5,192.5,567.5,1,F,SBD,Single-ply
Elizabeth Segovia,,18,F-V,99.1,90+,185,-202.5,-202.5,185,92.5,97.5,-102.5,97.5,147.5,162.5,-170,162.5,445,2,F,SBD,Single-ply
Samantha Stephens,,18,F-V,121.2,90+,160,170,180,180,77.5,-90,90,90,120,145,-157.5,145,415,3,F,SBD,Single-ply
Sebastiana Santos,,17,F-V,90.2,90+,132.5,-140,-140,132.5,65,-72.5,72.5,72.5,137.5,-147.5,-147.5,137.5,342.5,4,F,SBD,Single-ply
Keng Xiong,Whitnall,18,M-V,51.3,52,162.5,-172.5,-172.5,162.5,80,-87.5,-87.5,80,160,170,-177.5,170,412.5,1,M,SBD,Single-ply
Matthew Oakes,Slidell,15,M-V,51.7,52,137.5,-152.5,-157.5,137.5,95,-105,105,105,142.5,155,-177.5,155,397.5,2,M,SBD,Single-ply
T. Tunnell,Glenn Mills,17,M-V,51.4,52,127.5,140,145,145,70,-77.5,-77.5,70,147.5,160,-177.5,160,375,3,M,SBD,Single-ply
Danny Voelkel,Whitnall,15,M-V,51.2,52,120,137.5,-145,137.5,57.5,62.5,-67.5,62.5,120,132.5,-140,132.5,332.5,4,M,SBD,Single-ply
D. Taylor #11,Glenn Mills,17,M-V,55.3,56,-132.5,137.5,142.5,142.5,82.5,-90,-90,82.5,177.5,192.5,-195,192.5,417.5,1,M,SBD,Single-ply
Eric D'Oro,Arlington Hts,18,M-V,55.2,56,137.5,145,150,150,82.5,92.5,97.5,97.5,165,-177.5,-177.5,165,412.5,2,M,SBD,Single-ply
Tyler Rupnow,Neenah,15,M-V,55.8,56,140,150,-157.5,150,72.5,-77.5,-77.5,72.5,152.5,-162.5,165,165,387.5,3,M,SBD,Single-ply
Zach Harenda,Whitnall,17,M-V,55.8,56,135,-147.5,147.5,147.5,67.5,75,80,80,142.5,155,-162.5,155,382.5,4,M,SBD,Single-ply
Kevin Correll,,16,M-V,54,56,127.5,142.5,-150,142.5,62.5,72.5,-75,72.5,142.5,162.5,-175,162.5,377.5,5,M,SBD,Single-ply
Kyle Nelson,Eauclaire N,16,M-V,59.6,60,205,-220,220,220,102.5,110,-112.5,110,192.5,212.5,-222.5,212.5,542.5,1,M,SBD,Single-ply
D. Fullman,Glenn Mills,18,M-V,59.6,60,142.5,-155,155,155,82.5,90,-95,90,157.5,172.5,-180,172.5,417.5,2,M,SBD,Single-ply
Kenneth Andrews,Glenn Mills,17,M-V,59.6,60,125,137.5,142.5,142.5,77.5,-82.5,-82.5,77.5,172.5,187.5,195,195,415,3,M,SBD,Single-ply
Nate Stemo,Whitnall,16,M-V,58.9,60,150,162.5,170,170,62.5,-67.5,67.5,67.5,137.5,150,160,160,397.5,4,M,SBD,Single-ply
Jason Rupnow,Neenah,18,M-V,67.1,67.5,-220,220,230,230,-135,135,-150,135,230,237.5,-242.5,237.5,602.5,1,M,SBD,Single-ply
Ryan Lepkowski,Whitnall,18,M-V,67,67.5,212.5,227.5,235,235,125,132.5,137.5,137.5,190,205,212.5,212.5,585,2,M,SBD,Single-ply
Russell Oyler,Team Idaho,18,M-V,66.1,67.5,195,210,-220,210,125,132.5,-135,132.5,215,225,-227.5,225,567.5,3,M,SBD,Single-ply
Jack Mui,Neenah,18,M-V,67,67.5,-197.5,197.5,202.5,202.5,87.5,92.5,-97.5,92.5,215,225,227.5,227.5,522.5,4,M,SBD,Single-ply
A. Hunter,Glenn Mills,18,M-V,66.9,67.5,175,187.5,200,200,105,115,-125,115,-175,185,-205,185,500,5,M,SBD,Single-ply
Nick Dubiel,Powers Catholic,18,M-V,65.5,67.5,170,-182.5,-182.5,170,92.5,-100,-100,92.5,195,212.5,-217.5,212.5,475,6,M,SBD,Single-ply
J. Ramos,Glenn Mills,17,M-V,65.9,67.5,155,172.5,-182.5,172.5,-102.5,-102.5,102.5,102.5,180,200,-207.5,200,475,7,M,SBD,Single-ply
A. Hairston,Glenn Mills,17,M-V,66.3,67.5,-165,-165,165,165,97.5,105,-110,105,175,-195,-210,175,445,8,M,SBD,Single-ply
Charles McDonald,Neenah,16,M-V,74.1,75,265,-282.5,287.5,287.5,132.5,147.5,155,155,265,282.5,-295,282.5,725,1,M,SBD,Single-ply
Alex Dellis,Whitnall,18,M-V,71.7,75,217.5,232.5,240,240,125,135,137.5,137.5,205,217.5,230,230,607.5,2,M,SBD,Single-ply
Kevante Jackson,Woodward Acdemy,17,M-V,73.5,75,205,-220,227.5,227.5,120,132.5,140,140,187.5,-205,205,205,572.5,3,M,SBD,Single-ply
P. Bell,Glenn Mills,18,M-V,74.7,75,185,205,-215,205,110,122.5,-130,122.5,202.5,225,235,235,562.5,4,M,SBD,Single-ply
Spencer Miller,Neenah,16,M-V,67.8,75,212.5,220,225,225,107.5,-115,-115,107.5,210,222.5,-230,222.5,555,5,M,SBD,Single-ply
Sam Ziemke,Neenah,18,M-V,73.8,75,197.5,-205,205,205,90,97.5,-107.5,97.5,215,227.5,232.5,232.5,535,6,M,SBD,Single-ply
Gabe Chapin,Omro,17,M-V,74.2,75,190,197.5,-205,197.5,105,112.5,120,120,205,212.5,217.5,217.5,535,7,M,SBD,Single-ply
Rob Hansen,Whitnall,18,M-V,73.7,75,195,207.5,-215,207.5,107.5,-115,117.5,117.5,175,190,197.5,197.5,522.5,8,M,SBD,Single-ply
D. Moore,Glenn Mills,16,M-V,73.9,75,187.5,-207.5,-207.5,187.5,102.5,110,-120,110,187.5,207.5,220,220,517.5,9,M,SBD,Single-ply
Ben Laska,Omro,17,M-V,74.8,75,190,195,-197.5,195,95,102.5,105,105,217.5,-230,-230,217.5,517.5,10,M,SBD,Single-ply
Josh Staniszewski,Dells Christian Academy,18,M-V,74.4,75,155,-160,162.5,162.5,100,105,-110,105,205,222.5,-242.5,222.5,490,11,M,SBD,Single-ply
Jared Paradis,Team Idaho,17,M-V,72.4,75,-142.5,142.5,-177.5,142.5,122.5,-137.5,-137.5,122.5,190,200,-222.5,200,465,12,M,SBD,Single-ply
Jesse Norris,Team Idaho,17,M-V,82.1,82.5,310,320,325,325,175,182.5,-185,182.5,295,305,310,310,817.5,1,M,SBD,Single-ply
Nick Ouillette,Almont,18,M-V,80.9,82.5,250,-270,-272.5,250,160,177.5,-185,177.5,250,-272.5,-272.5,250,677.5,2,M,SBD,Single-ply
David Moll,Kaukauna,18,M-V,82.5,82.5,200,220,232.5,232.5,137.5,150,-157.5,150,212.5,230,-237.5,230,612.5,3,M,SBD,Single-ply
F. Johnson,Glenn Mills,18,M-V,81.4,82.5,200,220,235,235,107.5,-122.5,130,130,195,220,237.5,237.5,602.5,4,M,SBD,Single-ply
K. Walker,Glenn Mills,18,M-V,81.2,82.5,192.5,215,225,225,97.5,105,115,115,202.5,237.5,260,260,600,5,M,SBD,Single-ply
Danny Wahl,Whitnall,17,M-V,80.1,82.5,217.5,-232.5,232.5,232.5,122.5,132.5,-137.5,132.5,210,222.5,232.5,232.5,597.5,6,M,SBD,Single-ply
Tim Coenen,Neenah,18,M-V,81.4,82.5,205,212.5,-222.5,212.5,110,117.5,125,125,210,222.5,-227.5,222.5,560,7,M,SBD,Single-ply
Luke Van Wettering,Kaukauna,16,M-V,81.5,82.5,-210,215,-230,215,102.5,110,-115,110,207.5,222.5,230,230,555,8,M,SBD,Single-ply
William Lycholas,Abington Hts,17,M-V,80.5,82.5,185,-195,-195,185,115,122.5,-130,122.5,205,210,217.5,217.5,525,9,M,SBD,Single-ply
E. Lyons,Glenn Mills,18,M-V,80,82.5,-150,-165,-165,,-97.5,-97.5,,,-197.5,,,,,DQ,M,SBD,Single-ply
Sam Schouten,Oostberg,17,M-V,83.5,90,247.5,265,275,275,142.5,-150,-150,142.5,-265,272.5,277.5,277.5,695,1,M,SBD,Single-ply
Kyle Holzem,Dells,17,M-V,86.7,90,247.5,265,277.5,277.5,145,-152.5,152.5,152.5,245,-260,-262.5,245,675,2,M,SBD,Single-ply
Nate Monteverde,Omro,16,M-V,88.8,90,195,202.5,210,210,110,115,120,120,270,280,-282.5,280,610,3,M,SBD,Single-ply
Raymond Wiltreben,Oostberg,17,M-V,89.5,90,227.5,-240,-240,227.5,102.5,115,125,125,227.5,240,242.5,242.5,595,4,M,SBD,Single-ply
J. Marquez,Glenn Mills,17,M-V,87.5,90,200,225,-247.5,225,115,127.5,147.5,147.5,192.5,-215,215,215,587.5,5,M,SBD,Single-ply
James Muldoon,Yale PS,17,M-V,87.4,90,200,-210,217.5,217.5,137.5,140,145,145,215,-222.5,-222.5,215,577.5,6,M,SBD,Single-ply
Korry Huddleston,Yorktown,19,M-V,88.4,90,215,225,-237.5,225,125,135,142.5,142.5,185,197.5,205,205,572.5,7,M,SBD,Single-ply
M. Wilson,Glenn Mills,17,M-V,85.3,90,162.5,180,192.5,192.5,102.5,112.5,117.5,117.5,205,235,250,250,560,8,M,SBD,Single-ply
Richard Pena,,16,M-V,83,90,215,-227.5,-232.5,215,137.5,142.5,-147.5,142.5,-190,190,200,200,557.5,9,M,SBD,Single-ply
Anthony Hambric #1,,16,M-V,88.4,90,202.5,215,-232.5,215,125,132.5,137.5,137.5,200,-207.5,-210,200,552.5,10,M,SBD,Single-ply
Blake D Waestman,GET,18,M-V,88.6,90,205,207.5,-227.5,207.5,112.5,130,-142.5,130,200,215,-222.5,215,552.5,11,M,SBD,Single-ply
Mitchel Sullwold,Clear Lake,18,M-V,89.5,90,195,200,205,205,-110,115,125,125,197.5,210,220,220,550,12,M,SBD,Single-ply
Tucker Munsch,AFHS,18,M-V,89.6,90,207.5,-225,-227.5,207.5,95,107.5,112.5,112.5,205,222.5,-240,222.5,542.5,13,M,SBD,Single-ply
Ryan F Murphy,Spooner HS,17,M-V,96.8,100,242.5,252.5,260,260,-150,150,-167.5,150,247.5,265,-272.5,265,675,1,M,SBD,Single-ply
Alex Hardy,Whitnall,16,M-V,97.9,100,260,-272.5,272.5,272.5,130,140,-142.5,140,222.5,237.5,247.5,247.5,660,2,M,SBD,Single-ply
Quentin Zeroth,River Falls,18,M-V,98.6,100,250,-265,-265,250,-142.5,142.5,150,150,227.5,245,-262.5,245,645,3,M,SBD,Single-ply
Gunnar Mach,Necedah,17,M-V,99.1,100,247.5,262.5,272.5,272.5,125,137.5,145,145,185,197.5,202.5,202.5,620,4,M,SBD,Single-ply
Eric Davidson,Appleton West,17,M-V,98.4,100,235,-245,-245,235,-145,-145,145,145,237.5,-255,-255,237.5,617.5,5,M,SBD,Single-ply
Justin Nawrocik,Whitnall,18,M-V,99.6,100,227.5,242.5,255,255,127.5,135,140,140,192.5,202.5,215,215,610,6,M,SBD,Single-ply
Moe Pensak,Abington Hts,19,M-V,96.4,100,205,217.5,227.5,227.5,142.5,150,-155,150,210,-220,220,220,597.5,7,M,SBD,Single-ply
Ben Montgomery,Hershey,17,M-V,98.6,100,210,227.5,240,240,-127.5,-127.5,130,130,192.5,205,-210,205,575,8,M,SBD,Single-ply
M. Libby,Glenn Mills,17,M-V,92.1,100,192.5,215,225,225,112.5,127.5,-142.5,127.5,192.5,-215,215,215,567.5,9,M,SBD,Single-ply
C. Williams,Glenn Mills,17,M-V,98.5,100,190,215,237.5,237.5,125,137.5,-155,137.5,-192.5,192.5,-250,192.5,567.5,10,M,SBD,Single-ply
Josh Wormley,Glenn Mills,17,M-V,98.6,100,190,210,-235,210,107.5,120,130,130,172.5,185,195,195,535,11,M,SBD,Single-ply
Nathan Marshall,Whitnall,17,M-V,109.6,110,300,-320,320.5,320.5,152.5,165,-170,165,247.5,262.5,-267.5,262.5,748,1,M,SBD,Single-ply
John Wulterkens,Appleton N,17,M-V,107.8,110,267.5,275,-287.5,275,140,147.5,160,160,245,250,-255,250,685,2,M,SBD,Single-ply
Jake Hardy,Whitnall,16,M-V,103,110,247.5,262.5,-270,262.5,132.5,-137.5,-137.5,132.5,222.5,237.5,242.5,242.5,637.5,3,M,SBD,Single-ply
Bill Byron,Abington Hts,18,M-V,106.2,110,192.5,210,227.5,227.5,160,172.5,-180,172.5,215,232.5,237.5,237.5,637.5,4,M,SBD,Single-ply
Louis Mascari,Hershey,17,M-V,107.3,110,212.5,227.5,242.5,242.5,137.5,147.5,155,155,210,-227.5,232.5,232.5,630,5,M,SBD,Single-ply
Patrick Kletschka,New Richmond,17,M-V,103.2,110,225,247.5,-252.5,247.5,-115,125,-137.5,125,225,245,-257.5,245,617.5,6,M,SBD,Single-ply
R. Paciocco,Glenn Mills,18,M-V,108.1,110,200,-225,225,225,112.5,130,-145,130,215,245,-277.5,245,600,7,M,SBD,Single-ply
Casey Dinubilo,Team Idaho,17,M-V,106.8,110,182.5,192.5,205,205,165,-182.5,-182.5,165,197.5,-215,-215,197.5,567.5,8,M,SBD,Single-ply
Ethan Farkas,Dowingtown,18,M-V,117.5,125,272.5,280,287.5,287.5,162.5,-170,-170,162.5,280,290,-295,290,740,1,M,SBD,Single-ply
Bryan Greene,New Richmond,17,M-V,110.1,125,-250,262.5,275,275,150,165,170,170,237.5,247.5,250,250,695,2,M,SBD,Single-ply
Mike Taylor #9,Hershey,17,M-V,116,125,235,250,267.5,267.5,-135,135,140,140,247.5,265,272.5,272.5,680,3,M,SBD,Single-ply
Matt Grutza,Dells,17,M-V,120.6,125,265,272.5,287.5,287.5,145,150,160,160,217.5,225,232.5,232.5,680,4,M,SBD,Single-ply
A. Cape,Glenn Mills,16,M-V,125,125,215,250,-265,250,125,145,157.5,157.5,202.5,235,250,250,657.5,5,M,SBD,Single-ply
Pete Seuffer,Omro,17,M-V,114.5,125,237.5,250,-255,250,-140,140,147.5,147.5,240,247.5,-267.5,247.5,645,6,M,SBD,Single-ply
M. Glover,Glenn Mills,18,M-V,110.6,125,215,250,265,265,115,122.5,127.5,127.5,215,250,-272.5,250,642.5,7,M,SBD,Single-ply
Donald Carufel,Osceola,17,M-V,119,125,225,247.5,262.5,262.5,-137.5,137.5,145,145,197.5,215,-227.5,215,622.5,8,M,SBD,Single-ply
Buck O'Flanagan,New Richmond,18,M-V,114.3,125,215,-230,232.5,232.5,135,145,-152.5,145,205,-215,-215,205,582.5,9,M,SBD,Single-ply
Aaron Marquardt,Eauclaire N,16,M-V,144.5,125+,325,-350,350,350,160,182.5,-210,182.5,210,240,255,255,787.5,1,M,SBD,Single-ply
Andy Askow,Necedah,16,M-V,130.3,125+,-267.5,275,285,285,160,175,182.5,182.5,237.5,-242.5,242.5,242.5,710,2,M,SBD,Single-ply
Kevin O Belnap,Team Idaho,18,M-V,135.1,125+,232.5,250,270,270,142.5,155,162.5,162.5,227.5,-242.5,-247.5,227.5,660,3,M,SBD,Single-ply
Andy Moe,Team Idaho,18,M-V,145.8,125+,257.5,-272.5,-272.5,257.5,117.5,132.5,-142.5,132.5,217.5,227.5,235,235,625,4,M,SBD,Single-ply
M. Pauly,Glenn Mills,16,M-V,141.1,125+,205,230,-250,230,115,122.5,-137.5,122.5,205,227.5,-240,227.5,580,5,M,SBD,Single-ply
