Division,WeightClassKg,Place,Name,Team,BodyweightKg,Best3SquatKg,Best3BenchKg,Best3DeadliftKg,TotalKg,Equipment,Event,Sex
Boys,51.71,1,Joey Longoria,Pearsall,51.26,142.88,79.38,149.69,371.95,Single-ply,SBD,M
Boys,51.71,2,Rudy Sanchez,Somerset,50.89,136.08,70.31,163.29,369.68,Single-ply,SBD,M
Boys,51.71,3,Johnny Gomez,Rocksprings,51.44,133.81,86.18,140.61,360.61,Single-ply,SBD,M
Boys,51.71,4,Edward Fonzeca,San Antonio Memorial,49.26,95.25,45.36,113.4,254.01,Single-ply,SBD,M
Boys,51.71,5,Ricardo Martinez #3,Pearsall,47.63,88.45,47.63,97.52,233.6,Single-ply,SBD,M
Boys,51.71,DQ,Kike Sanchez,Laredo Cigarroa,48.35,,,,,Single-ply,SBD,M
Boys,55.79,1,Eddie Macias,Laredo Nixon,53.34,161.03,92.99,147.42,401.43,Single-ply,SBD,M
Boys,55.79,2,Javier Cantu,San Diego,54.7,136.08,70.31,158.76,365.14,Single-ply,SBD,M
Boys,55.79,3,Virgil Luna,Crystal City,55.61,115.67,52.16,133.81,301.64,Single-ply,SBD,M
Boys,55.79,4,Orlando Mata,Crystal City,53.71,99.79,56.7,133.81,290.3,Single-ply,SBD,M
Boys,55.79,5,John Gomez,Laredo Cigarroa,54.52,88.45,58.97,106.59,254.01,Single-ply,SBD,M
Boys,59.87,1,Eli Luna,Somerset,58.06,183.7,95.25,176.9,455.86,Single-ply,SBD,M
Boys,59.87,2,JR Velasquez,Rocksprings,58.79,161.03,129.27,165.56,455.86,Single-ply,SBD,M
Boys,59.87,3,Isaiha Riojas,San Antonio Southwest,59.78,170.1,92.99,183.7,446.79,Single-ply,SBD,M
Boys,59.87,4,Kaleb Zertuche,Devine,57.52,138.35,90.72,165.56,394.63,Single-ply,SBD,M
Boys,59.87,5,Ernesto Rangel,San Antonio Southwest Legacy,59.15,136.08,86.18,149.69,371.95,Single-ply,SBD,M
Boys,59.87,6,Fabian Apaez,Somerset,59.51,142.88,81.65,113.4,337.93,Single-ply,SBD,M
Boys,59.87,7,Quen Syma,Lytle,57.61,115.67,65.77,136.08,317.51,Single-ply,SBD,M
Boys,59.87,8,Fernando Estrada,San Antonio Brooks Academy,58.88,97.52,49.9,108.86,256.28,Single-ply,SBD,M
Boys,67.13,1,Orlando Gutierrez,Crystal City,65.77,254.01,95.25,208.65,557.92,Single-ply,SBD,M
Boys,67.13,2,Roman Ornelaz,San Antonio Holy Cross,65.41,195.04,113.4,206.38,514.83,Single-ply,SBD,M
Boys,67.13,3,Julian Rico,Somerset,64.32,217.72,108.86,172.37,498.95,Single-ply,SBD,M
Boys,67.13,4,John Gamez,San Antonio Brooks Academy,66.41,183.7,102.06,181.44,467.2,Single-ply,SBD,M
Boys,67.13,5,David Ortega,Lytle,65.77,158.76,92.99,204.12,455.86,Single-ply,SBD,M
Boys,67.13,6,Eladio Arreola,Center Point,64.59,158.76,106.59,161.03,426.38,Single-ply,SBD,M
Boys,67.13,7,Gabriel Martinez,Pearsall,65.95,174.63,70.31,174.63,419.57,Single-ply,SBD,M
Boys,67.13,8,Maximus Perez,Lytle,65.14,149.69,88.45,172.37,410.5,Single-ply,SBD,M
Boys,67.13,9,John Slaughter,Bandera,65.77,154.22,95.25,158.76,408.23,Single-ply,SBD,M
Boys,67.13,10,Jose Ramirez,San Antonio Southside,61.69,154.22,70.31,158.76,383.29,Single-ply,SBD,M
Boys,67.13,11,Bernie Cruz,Laredo Nixon,66.32,131.54,74.84,167.83,374.21,Single-ply,SBD,M
Boys,67.13,12,Pablo Salazer,Laredo Cigarroa,65.86,142.88,72.57,147.42,362.87,Single-ply,SBD,M
Boys,67.13,13,Rylan Wagner,Lytle,63.96,131.54,72.57,138.35,342.46,Single-ply,SBD,M
Boys,67.13,14,Paco Rairez,Rocksprings,64.68,124.74,65.77,136.08,326.59,Single-ply,SBD,M
Boys,67.13,DQ,Ramero Rangel,Laredo Cigarroa,64.41,142.88,,,,Single-ply,SBD,M
Boys,74.84,1,Ismael Franco,Crystal City,71.4,244.94,154.22,251.74,650.91,Single-ply,SBD,M
Boys,74.84,2,Steven Ramirez,Devine,73.21,256.28,147.42,244.94,648.64,Single-ply,SBD,M
Boys,74.84,3,Gilibaldo Garcia,San Antonio Brooks Academy,73.21,235.87,136.08,247.21,619.15,Single-ply,SBD,M
Boys,74.84,4,Ethan Ozuna,Center Point,71.3,215.46,122.47,195.04,532.97,Single-ply,SBD,M
Boys,74.84,5,Lee Bazan,San Diego,73.48,215.46,111.13,201.85,528.44,Single-ply,SBD,M
Boys,74.84,6,Diego Perez #1,Rocksprings,74.39,204.12,140.61,183.7,528.44,Single-ply,SBD,M
Boys,74.84,7,Leif Griffin,San Antonio Southwest,74.75,204.12,102.06,215.46,521.63,Single-ply,SBD,M
Boys,74.84,8,Garrett Ralph,Lytle,74.75,185.97,127.01,195.04,508.02,Single-ply,SBD,M
Boys,74.84,9,Guilermo Campos,San Antonio Southwest,69.85,183.7,117.93,183.7,485.34,Single-ply,SBD,M
Boys,74.84,10,Jimmy Garza,San Antonio Memorial,71.76,174.63,106.59,181.44,462.66,Single-ply,SBD,M
Boys,74.84,11,Eden Fuentes,Pearsall,73.39,158.76,77.11,174.63,410.5,Single-ply,SBD,M
Boys,74.84,12,Jimmy Guitron,San Antonio Southwest,71.67,142.88,97.52,165.56,405.97,Single-ply,SBD,M
Boys,74.84,13,William Alexander,Lytle,71.3,117.93,74.84,142.88,335.66,Single-ply,SBD,M
Boys,74.84,14,Cayden Diaz,Lytle,68.22,122.47,61.23,147.42,331.12,Single-ply,SBD,M
Boys,82.1,1,Lucas Byrd,Devine,80.01,249.48,136.08,244.94,630.49,Single-ply,SBD,M
Boys,82.1,2,Roy DeLeon,Somerset,76.57,235.87,149.69,240.4,625.96,Single-ply,SBD,M
Boys,82.1,3,Cesar Gonzalez,Somerset,75.3,226.8,117.93,224.53,569.26,Single-ply,SBD,M
Boys,82.1,4,Nathaniel Onofre,San Antonio Holy Cross,80.38,219.99,117.93,183.7,521.63,Single-ply,SBD,M
Boys,82.1,5,Pete Garcia,San Diego,81.28,185.97,131.54,174.63,492.15,Single-ply,SBD,M
Boys,82.1,6,Daniel Jiminez Guzman,San Antonio Southside,81.28,195.04,102.06,181.44,478.54,Single-ply,SBD,M
Boys,82.1,7,Johnny Paredes,Lytle,80.01,192.78,90.72,190.51,474,Single-ply,SBD,M
Boys,82.1,8,Isaiah Forman,San Antonio Southside,81.74,174.63,113.4,183.7,471.74,Single-ply,SBD,M
Boys,82.1,9,Cesar Franco,Crystal City,75.02,183.7,92.99,190.51,467.2,Single-ply,SBD,M
Boys,82.1,10,Lupe Rodriguez #2,Devine,78.11,167.83,113.4,181.44,462.66,Single-ply,SBD,M
Boys,82.1,11,Ryan Rodriguez,Pearsall,77.47,174.63,90.72,192.78,458.13,Single-ply,SBD,M
Boys,82.1,12,Ricardo Aguilar,Pearsall,82.1,176.9,88.45,185.97,451.32,Single-ply,SBD,M
Boys,82.1,13,Matthew Villanueva,San Antonio Brooks Academy,80.74,154.22,74.84,188.24,417.3,Single-ply,SBD,M
Boys,82.1,14,Ray Leal,Pearsall,77.02,156.49,74.84,176.9,408.23,Single-ply,SBD,M
Boys,89.81,1,Joseph Bueno,Somerset,89.63,238.14,145.15,260.82,644.1,Single-ply,SBD,M
Boys,89.81,2,Joseph Perez,Lytle,82.55,256.28,136.08,235.87,628.23,Single-ply,SBD,M
Boys,89.81,3,Joseph Araujo,San Diego,85.64,231.33,151.95,217.72,601.01,Single-ply,SBD,M
Boys,89.81,4,Edward Kiersted,San Antonio Southwest,86.27,240.4,124.74,226.8,591.94,Single-ply,SBD,M
Boys,89.81,5,Michael Gonzalez,Somerset,84.37,226.8,142.88,208.65,578.33,Single-ply,SBD,M
Boys,89.81,6,Elias Torres,Somerset,85.18,215.46,142.88,197.31,555.65,Single-ply,SBD,M
Boys,89.81,7,Max Castillo,San Diego,87.45,226.8,117.93,185.97,530.7,Single-ply,SBD,M
Boys,89.81,8,Paulo Valadez,Center Point,82.55,206.38,124.74,170.1,501.22,Single-ply,SBD,M
Boys,89.81,9,Josiah Marquez,Pearsall,86.27,215.46,97.52,183.7,496.68,Single-ply,SBD,M
Boys,89.81,10,Alex Luna,Crystal City,89.36,176.9,113.4,181.44,471.74,Single-ply,SBD,M
Boys,89.81,11,Andrew Quijano,San Antonio Southside,86.64,183.7,97.52,170.1,451.32,Single-ply,SBD,M
Boys,89.81,12,Naythen Cardenas,San Antonio Southwest Legacy,86.55,140.61,120.2,167.83,428.64,Single-ply,SBD,M
Boys,89.81,13,Carlos Ramos,Laredo Cigarroa,88.18,158.76,77.11,190.51,426.38,Single-ply,SBD,M
Boys,89.81,DQ,Dakota Wofford,Devine,86.18,,,,,Single-ply,SBD,M
Boys,99.79,1,Mateo Garcia,San Antonio Memorial,97.61,297.1,127.01,265.35,689.46,Single-ply,SBD,M
Boys,99.79,2,Manuel Garcia,Somerset,91.99,292.57,138.35,231.33,662.24,Single-ply,SBD,M
Boys,99.79,3,Nick Propst,San Antonio Southwest,91.72,213.19,136.08,204.12,553.38,Single-ply,SBD,M
Boys,99.79,4,Manuel Valverde,San Antonio Memorial,95.35,224.53,127.01,201.85,553.38,Single-ply,SBD,M
Boys,99.79,5,Edward Zaragoza,San Antonio Memorial,90.72,197.31,129.27,201.85,528.44,Single-ply,SBD,M
Boys,99.79,6,Garret Carver,Devine,98.79,181.44,142.88,188.24,512.56,Single-ply,SBD,M
Boys,99.79,7,Ricardo Castaneda,Crystal City,98.88,190.51,104.33,190.51,485.34,Single-ply,SBD,M
Boys,99.79,8,Zukiay Widenor,Bandera,96.07,183.7,102.06,197.31,483.08,Single-ply,SBD,M
Boys,99.79,9,Diego Hernandez,Devine,98.16,190.51,108.86,167.83,467.2,Single-ply,SBD,M
Boys,99.79,10,Frank Alvarez,San Antonio Southwest Legacy,93.71,163.29,97.52,167.83,428.64,Single-ply,SBD,M
Boys,99.79,11,Malachi Lopez,Pearsall,92.44,129.27,90.72,127.01,347,Single-ply,SBD,M
Boys,99.79,DQ,Ethan Gonzalez #2,San Diego,98.07,226.8,,,,Single-ply,SBD,M
Boys,109.77,1,Eddie Moreno,Somerset,109.23,308.44,204.12,260.82,773.37,Single-ply,SBD,M
Boys,109.77,2,Michael Salaiz,San Diego,107.05,294.84,165.56,263.08,723.48,Single-ply,SBD,M
Boys,109.77,3,Abel Mendoza,Laredo Nixon,108.41,249.48,133.81,215.46,598.74,Single-ply,SBD,M
Boys,109.77,4,Mark Puente,Crystal City,101.79,226.8,147.42,188.24,562.45,Single-ply,SBD,M
Boys,109.77,5,Joey Murillo,San Antonio Southwest,109.32,217.72,115.67,204.12,537.51,Single-ply,SBD,M
Boys,109.77,6,Nathaniel Cavazo,San Antonio Holy Cross,106.41,217.72,117.93,188.24,523.9,Single-ply,SBD,M
Boys,109.77,7,Joe Gutierrez,Crystal City,103.24,204.12,104.33,192.78,501.22,Single-ply,SBD,M
Boys,109.77,8,Nathan Palacio,San Antonio Memorial,103.42,195.04,92.99,199.58,487.61,Single-ply,SBD,M
Boys,109.77,9,Josh Pereida,San Antonio Southwest Legacy,105.41,176.9,102.06,181.44,460.4,Single-ply,SBD,M
Boys,109.77,10,Kollin Meeks,Pearsall,104.05,183.7,92.99,174.63,451.32,Single-ply,SBD,M
Boys,124.74,1,Jason Carrillo,Rocksprings,121.56,272.16,172.37,215.46,659.98,Single-ply,SBD,M
Boys,124.74,2,Jorge Flores,San Antonio Memorial,120.47,276.69,142.88,235.87,655.44,Single-ply,SBD,M
Boys,124.74,3,Christian Arredondo,Devine,113.49,260.82,161.03,210.92,632.76,Single-ply,SBD,M
Boys,124.74,4,Reynaldo Mendoza,Crystal City,111.67,272.16,127.01,231.33,630.49,Single-ply,SBD,M
Boys,124.74,5,Francisco Uhl,San Antonio Southwest,116.21,204.12,165.56,204.12,573.79,Single-ply,SBD,M
Boys,124.74,6,Vicent Tello,San Antonio Brooks Academy,122.29,208.65,115.67,199.58,523.9,Single-ply,SBD,M
Boys,124.74,7,Fernando Martinez,San Antonio Southwest Legacy,111.86,183.7,102.06,188.24,474,Single-ply,SBD,M
Boys,124.74,8,Isiah Ibarra,San Antonio Southwest Legacy,118.66,172.37,102.06,197.31,471.74,Single-ply,SBD,M
Boys,124.74,9,Ethan Rodriguez,Pearsall,111.13,183.7,120.2,165.56,469.47,Single-ply,SBD,M
Boys,124.74,10,Michael Perez,Crystal City,112.22,192.78,106.59,156.49,455.86,Single-ply,SBD,M
Boys,124.74,11,Daniel Ornelas,San Antonio Southwest Legacy,112.04,158.76,117.93,176.9,453.59,Single-ply,SBD,M
Boys,124.74,12,Alec Alvarado,San Antonio Southwest Legacy,120.02,158.76,108.86,179.17,446.79,Single-ply,SBD,M
Boys,124.74,13,Memphis Medrano,Lytle,123.56,156.49,83.91,163.29,403.7,Single-ply,SBD,M
Boys,124.74,DQ,Marcus Luna,San Antonio Southwest,119.57,208.65,,,,Single-ply,SBD,M
Boys,124.74,DQ,Jorge Gutierrez,Laredo Cigarroa,124.19,222.26,,,,Single-ply,SBD,M
Boys,124.74+,1,Sebastian Ramirez,Somerset,132.9,249.48,147.42,210.92,607.81,Single-ply,SBD,M
Boys,124.74+,2,Isaiah Reyna,Somerset,142.88,265.35,102.06,222.26,589.67,Single-ply,SBD,M
Boys,124.74+,3,Arturo Lopez,San Antonio Southwest,131.18,215.46,136.08,199.58,551.11,Single-ply,SBD,M
Boys,124.74+,4,Joseph Anaglia,San Antonio Brooks Academy,125.46,217.72,131.54,154.22,503.49,Single-ply,SBD,M
Boys,124.74+,5,Oziel Lugo,Laredo Nixon,129,192.78,124.74,167.83,485.34,Single-ply,SBD,M
Boys,,NS,Angel Aguire,Bandera,,158.76,,,,Single-ply,SBD,M
Boys,,NS,Logan Crane,Bandera,,183.7,,,,Single-ply,SBD,M
Boys,,NS,Colton Perkins,Bandera,,158.76,,,,Single-ply,SBD,M
Boys,,NS,Ron Resendiz,San Antonio Memorial,,108.86,,,,Single-ply,SBD,M
Boys,,NS,Austin Barrera,Rocksprings,,,,,,Single-ply,SBD,M
Boys,,NS,Freddie Enriquez,Rocksprings,,,,,,Single-ply,SBD,M
Boys,,NS,Eli Amaro,San Antonio Southwest,,,,,,Single-ply,SBD,M
Boys,,NS,Phillip Herrera,San Antonio Southwest,,,,,,Single-ply,SBD,M
Boys,,NS,Roy Cantu,San Antonio Memorial,,172.37,,,,Single-ply,SBD,M
Boys,,NS,Benny Gallardo,San Antonio Memorial,,142.88,,,,Single-ply,SBD,M
Boys,,NS,Jesus Borroel,San Antonio Memorial,,154.22,,,,Single-ply,SBD,M
Boys,,NS,Neil Vallego,San Antonio Southside,,,,,,Single-ply,SBD,M
Boys,,NS,Angel Banderas,San Antonio Memorial,,163.29,,,,Single-ply,SBD,M
Boys,,NS,Fermin Cruz,San Antonio Memorial,,190.51,,,,Single-ply,SBD,M
Boys,,NS,Carlos Garcia Alanis,San Antonio Southwest Legacy,,72.57,,,,Single-ply,SBD,M
Boys,,NS,Luis Gonzalez,San Antonio Southwest Legacy,,165.56,,,,Single-ply,SBD,M
Boys,,NS,Eric Guillen,San Antonio Southwest Legacy,,115.67,,,,Single-ply,SBD,M
Boys,,NS,Lorenzo Barfield,San Antonio Southwest Legacy,,115.67,,,,Single-ply,SBD,M
Junior Varsity,55.79,1,Omar Estrada,Laredo Nixon,53.25,70.31,45.36,92.99,208.65,Single-ply,SBD,M
Junior Varsity,59.87,1,Brandon Aguilar,Somerset,59.42,142.88,83.91,147.42,374.21,Single-ply,SBD,M
Junior Varsity,59.87,2,Christopher Trevino,San Diego,57.88,127.01,58.97,138.35,324.32,Single-ply,SBD,M
Junior Varsity,67.13,1,Antonio Garcia,Somerset,63.96,192.78,102.06,204.12,498.95,Single-ply,SBD,M
Junior Varsity,67.13,2,Mario Cabrera,Somerset,66.81,206.38,92.99,195.04,494.42,Single-ply,SBD,M
Junior Varsity,67.13,3,Brian Burns,Bandera,64.23,158.76,83.91,161.03,403.7,Single-ply,SBD,M
Junior Varsity,67.13,4,Jaden Martinez,San Antonio Southwest Legacy,67.13,129.27,77.11,136.08,342.46,Single-ply,SBD,M
Junior Varsity,67.13,5,Nathaniel Cerna,San Antonio Southwest Legacy,65.59,117.93,65.77,111.13,294.84,Single-ply,SBD,M
Junior Varsity,74.84,1,Joseph Hildago,Somerset,71.67,183.7,120.2,165.56,469.47,Single-ply,SBD,M
Junior Varsity,74.84,2,Edwin Gonzalez,Laredo Nixon,74.84,183.7,97.52,185.97,467.2,Single-ply,SBD,M
Junior Varsity,74.84,3,Joseph Ibarra,Laredo Nixon,68.31,138.35,95.25,167.83,401.43,Single-ply,SBD,M
Junior Varsity,74.84,4,Nathan Delgado,Crystal City,74.48,142.88,83.91,165.56,392.36,Single-ply,SBD,M
Junior Varsity,74.84,5,R-Tavis Gonzalez,San Antonio Southwest Legacy,72.21,124.74,79.38,133.81,337.93,Single-ply,SBD,M
Junior Varsity,82.1,1,Dustyne Fritz,Bandera,76.2,136.08,77.11,174.63,387.82,Single-ply,SBD,M
Junior Varsity,82.1,2,Zack Aiyewa,San Antonio Memorial,76.43,129.27,88.45,154.22,371.95,Single-ply,SBD,M
Junior Varsity,89.81,1,Emilio Cordero,Somerset,86.18,142.88,108.86,176.9,428.64,Single-ply,SBD,M
Junior Varsity,89.81,2,Bryan Ledesma,Somerset,87.45,163.29,106.59,158.76,428.64,Single-ply,SBD,M
Junior Varsity,89.81,3,Eliza Cruz,Bandera,88.27,156.49,108.86,156.49,421.84,Single-ply,SBD,M
Junior Varsity,89.81,4,Salomon Vasquez,San Antonio Southwest Legacy,87.54,161.03,88.45,165.56,415.04,Single-ply,SBD,M
Junior Varsity,99.79,1,Homer Arredondo,Crystal City,94.89,111.13,77.11,142.88,331.12,Single-ply,SBD,M
Junior Varsity,99.79,2,Marcos Ortiz,San Antonio Memorial,91.08,106.59,83.91,124.74,315.25,Single-ply,SBD,M
Junior Varsity,99.79,DQ,Sam Godman,Bandera,90.45,151.95,90.72,,,Single-ply,SBD,M
Junior Varsity,109.77,1,Daniel Ramos,Somerset,109.32,217.72,136.08,158.76,512.56,Single-ply,SBD,M
Junior Varsity,109.77,2,Elias Rios,Hondo,109.5,206.38,113.4,190.51,510.29,Single-ply,SBD,M
Junior Varsity,124.74,1,Bobby Rocha,Crystal City,114.49,172.37,90.72,170.1,433.18,Single-ply,SBD,M
Junior Varsity,124.74,2,Jose Vasquez,San Antonio Memorial,117.39,161.03,90.72,172.37,424.11,Single-ply,SBD,M
Junior Varsity,124.74,3,Joe Oyervides,San Antonio Southwest Legacy,120.2,161.03,81.65,149.69,392.36,Single-ply,SBD,M
Junior Varsity,124.74,4,Juan Huizar,San Antonio Southwest Legacy,112.22,147.42,90.72,142.88,381.02,Single-ply,SBD,M
Junior Varsity,124.74+,1,Michael Perez,Somerset,129.27,108.86,83.91,117.93,310.71,Single-ply,SBD,M
Junior Varsity,124.74+,DQ,Ty Branch,San Antonio Southwest Legacy,131.54,111.13,,,,Single-ply,SBD,M
Junior Varsity,,NS,Paul Patina,San Antonio Southwest,,,,,,Single-ply,SBD,M
Junior Varsity,,NS,Derrick Wilson,San Antonio Southwest,,,,,,Single-ply,SBD,M
Junior Varsity,,NS,Alex Palma,San Antonio Memorial,,90.72,,,,Single-ply,SBD,M
Junior Varsity,,NS,Seth Trujillo,San Antonio Memorial,,68.04,,,,Single-ply,SBD,M
Junior Varsity,,NS,Nicholas Aponte,San Antonio Memorial,,90.72,,,,Single-ply,SBD,M
Junior Varsity,,NS,Gage Brown #2,Bandera,,83.91,,,,Single-ply,SBD,M
Junior Varsity,,NS,Arthur Jureczki,Bandera,,83.91,,,,Single-ply,SBD,M
Junior Varsity,,NS,Soloman MacNeil,Bandera,,102.06,,,,Single-ply,SBD,M
Freshmen,51.71,1,Austin Mendez,San Diego,50.53,113.4,61.23,113.4,288.03,Single-ply,SBD,M
Freshmen,55.79,1,Cristian Martinez,Hondo,55.61,140.61,68.04,140.61,349.27,Single-ply,SBD,M
Freshmen,59.87,1,Jose Hernandez #16,Laredo Nixon,57.79,120.2,70.31,136.08,326.59,Single-ply,SBD,M
Freshmen,59.87,2,Bailey Cox,Bandera,59.51,83.91,61.23,102.06,247.21,Single-ply,SBD,M
Freshmen,59.87,3,Justin Rozier,Devine,57.33,83.91,49.9,83.91,217.72,Single-ply,SBD,M
Freshmen,67.13,1,Jose Saenz,San Diego,61.69,145.15,68.04,145.15,358.34,Single-ply,SBD,M
Freshmen,67.13,2,Brandon Sturdy,Somerset,67.13,92.99,68.04,113.4,274.42,Single-ply,SBD,M
Freshmen,74.84,1,Adrian Terrazas,San Antonio Southwest,67.4,111.13,81.65,127.01,319.78,Single-ply,SBD,M
Freshmen,74.84,2,Miguel Madirgal,Laredo Nixon,67.4,102.06,52.16,156.49,310.71,Single-ply,SBD,M
Freshmen,74.84,3,Seth Ojeda,Somerset,72.57,106.59,65.77,124.74,297.1,Single-ply,SBD,M
Freshmen,74.84,4,Jacob Cantu,San Antonio Southwest,74.48,88.45,63.5,111.13,263.08,Single-ply,SBD,M
Freshmen,82.1,1,Andrew Soso,Laredo Nixon,77.93,145.15,90.72,172.37,408.23,Single-ply,SBD,M
Freshmen,82.1,2,Lauro Soto,Laredo Cigarroa,79.2,115.67,65.77,117.93,299.37,Single-ply,SBD,M
Freshmen,82.1,3,Dj Dzierzanowski,Devine,80.92,115.67,68.04,108.86,292.57,Single-ply,SBD,M
Freshmen,99.79,1,Max Marchan,Laredo Nixon,91.26,149.69,88.45,163.29,401.43,Single-ply,SBD,M
Freshmen,109.77,1,Michael Rodriguez #11,Somerset,108.86,147.42,79.38,170.1,396.89,Single-ply,SBD,M
Freshmen,124.74,1,Mark Flores,Somerset,124.74,124.74,113.4,151.95,390.09,Single-ply,SBD,M
Freshmen,124.74,2,Nicholas Aguilon,San Antonio Southwest,116.21,124.74,74.84,142.88,342.46,Single-ply,SBD,M
Freshmen,124.74,3,Zane Artz,San Antonio Southwest,114.21,113.4,52.16,108.86,274.42,Single-ply,SBD,M
Freshmen,,NS,Colby Kennedy,Bandera,,88.45,,,,Single-ply,SBD,M
Freshmen,,NS,Colt Seay,Devine,,,,,,Single-ply,SBD,M
