Division,WeightClassKg,Place,Name,Team,BodyweightKg,Best3SquatKg,Best3BenchKg,Best3DeadliftKg,TotalKg,Equipment,Event,Sex
Girls,44.23,1,Jessica Smith,Bonham,42.91,113.4,43.09,113.4,269.89,Single-ply,SBD,F
Girls,44.23,2,Laura Martinez,Denison,41.46,81.65,34.02,117.93,233.6,Single-ply,SBD,F
Girls,44.23,3,Shelby Dodson,Pottsboro,43.09,77.11,38.56,90.72,206.38,Single-ply,SBD,F
Girls,44.23,4,Courtney Stevens,Muenster,43.64,70.31,36.29,83.91,190.51,Single-ply,SBD,F
Girls,44.23,5,Ashley Fink,Little Elm,42.64,68.04,34.02,81.65,183.7,Single-ply,SBD,F
Girls,44.23,6,Lindsey Gibbs,Lindsay,44,68.04,31.75,74.84,174.63,Single-ply,SBD,F
Girls,44.23,7,MaKayla Madden,Denison,42.82,61.23,27.22,79.38,167.83,Single-ply,SBD,F
Girls,44.23,8,Breanna Ivey,Krum,44.18,47.63,27.22,65.77,140.61,Single-ply,SBD,F
Girls,47.85,1,Skye Johnson,Denison,47.63,86.18,40.82,115.67,242.67,Single-ply,SBD,F
Girls,47.85,2,Sierra Stumphh,Pottsboro,47.63,92.99,45.36,95.25,233.6,Single-ply,SBD,F
Girls,47.85,3,Jordan Miller #1,Anna,46.54,92.99,40.82,97.52,231.33,Single-ply,SBD,F
Girls,47.85,4,Maddy Marr,Pottsboro,47.54,86.18,43.09,90.72,219.99,Single-ply,SBD,F
Girls,47.85,5,Michelle Moore,Collinsville,46.54,79.38,34.02,102.06,215.46,Single-ply,SBD,F
Girls,47.85,6,Kayleigh Fikes,Krum,45.36,74.84,36.29,72.57,183.7,Single-ply,SBD,F
Girls,47.85,7,Rachael Dieter,Lindsay,46.63,54.43,29.48,56.7,140.61,Single-ply,SBD,F
Girls,47.85,8,Modesty Novin,Little Elm,46.99,,38.56,90.72,129.27,Single-ply,BD,F
Girls,47.85,DQ,Lauren Kirk,Lindsay,45.99,,,,,Single-ply,SBD,F
Girls,51.94,1,Tammy Chumley,Sadler S & S Cons,51.44,97.52,49.9,106.59,254.01,Single-ply,SBD,F
Girls,51.94,2,Katrina Ochs,Pottsboro,50.89,90.72,43.09,81.65,215.46,Single-ply,SBD,F
Girls,51.94,3,Karli Hooper,Krum,51.44,77.11,40.82,97.52,215.46,Single-ply,SBD,F
Girls,51.94,4,Bernise Aleman,Krum,51.89,74.84,34.02,102.06,210.92,Single-ply,SBD,F
Girls,51.94,5,Kaleigh Eason,Lindsay,50.35,72.57,36.29,90.72,199.58,Single-ply,SBD,F
Girls,51.94,6,Lauren Cook,Krum,49.9,61.23,31.75,86.18,179.17,Single-ply,SBD,F
Girls,51.94,7,Scout Tatum,Lindsay,48.44,68.04,31.75,77.11,176.9,Single-ply,SBD,F
Girls,51.94,8,Cortney Leonard,Gainesville,50.8,61.23,31.75,81.65,174.63,Single-ply,SBD,F
Girls,56.02,1,Townsend Jambor,Sadler S & S Cons,54.7,113.4,58.97,149.69,322.05,Single-ply,SBD,F
Girls,56.02,2,Destiny Dills,Bonham,55.34,122.47,43.09,131.54,297.1,Single-ply,SBD,F
Girls,56.02,3,Beatriz Mages,Little Elm,55.07,111.13,54.43,129.27,294.84,Single-ply,SBD,F
Girls,56.02,4,Sierra Knowles,Celina,54.79,95.25,58.97,113.4,267.62,Single-ply,SBD,F
Girls,56.02,5,Gwinivere Turley,Whitesboro,54.61,95.25,40.82,99.79,235.87,Single-ply,SBD,F
Girls,56.02,6,Karli Montgomery,Whitesboro,55.52,83.91,29.48,88.45,201.85,Single-ply,SBD,F
Girls,56.02,7,Alexis Finnigan,Little Elm,52.62,77.11,34.02,83.91,195.04,Single-ply,SBD,F
Girls,56.02,8,Paisley Colnett,Lindsay,52.16,68.04,40.82,68.04,176.9,Single-ply,SBD,F
Girls,56.02,9,Darla Gray,Pottsboro,54.7,61.23,38.56,74.84,174.63,Single-ply,SBD,F
Girls,56.02,10,Shara Chumley,Sadler S & S Cons,54.79,58.97,29.48,83.91,172.37,Single-ply,SBD,F
Girls,56.02,DQ,Stephanie Bishop,Krum,55.16,83.91,,99.79,,Single-ply,SBD,F
Girls,60.1,1,Madison Slaughter,Whitesboro,58.88,138.35,86.18,136.08,360.61,Single-ply,SBD,F
Girls,60.1,2,Blaze Fajerson,Sadler S & S Cons,58.97,108.86,47.63,113.4,269.89,Single-ply,SBD,F
Girls,60.1,3,Addison Bates,Pottsboro,58.79,102.06,52.16,111.13,265.35,Single-ply,SBD,F
Girls,60.1,4,Rebecca Eugster,Callisburg,59.42,92.99,45.36,111.13,249.48,Single-ply,SBD,F
Girls,60.1,5,Megan Espinosa,Little Elm,56.52,74.84,43.09,124.74,242.67,Single-ply,SBD,F
Girls,60.1,6,Cameron Resurreccion,Little Elm,58.6,90.72,38.56,86.18,215.46,Single-ply,SBD,F
Girls,60.1,7,Kaylee Eldredge,Callisburg,58.15,81.65,38.56,88.45,208.65,Single-ply,SBD,F
Girls,60.1,8,Shea Garner,Lindsay,59.6,68.04,43.09,77.11,188.24,Single-ply,SBD,F
Girls,60.1,9,Mariah Noggler,Lindsay,56.61,61.23,31.75,90.72,183.7,Single-ply,SBD,F
Girls,60.1,10,Kimberly Acosta,Little Elm,59.06,65.77,27.22,90.72,183.7,Single-ply,SBD,F
Girls,60.1,DQ,Rosa Rodriguez,Krum,58.97,,,,,Single-ply,SBD,F
Girls,67.36,1,Savannah Crowe,Whitesboro,63.32,129.27,63.5,142.88,335.66,Single-ply,SBD,F
Girls,67.36,2,Holly Theall,Collinsville,66.77,127.01,70.31,122.47,319.78,Single-ply,SBD,F
Girls,67.36,3,Vail Springer,Anna,65.68,117.93,65.77,111.13,294.84,Single-ply,SBD,F
Girls,67.36,4,Jaicee Morriss,Little Elm,66.68,92.99,45.36,124.74,263.08,Single-ply,SBD,F
Girls,67.36,5,Jacquelyn Bruckman,Denison,61.69,99.79,56.7,102.06,258.55,Single-ply,SBD,F
Girls,67.36,6,Keely Villa,Gainesville,67.13,95.25,45.36,115.67,256.28,Single-ply,SBD,F
Girls,67.36,7,Christine Wolf,Denison,64.41,97.52,54.43,99.79,251.74,Single-ply,SBD,F
Girls,67.36,8,Destiney Thompson,Whitesboro,62.69,90.72,43.09,106.59,240.4,Single-ply,SBD,F
Girls,67.36,9,Shelby Woods,Krum,61.33,86.18,47.63,102.06,235.87,Single-ply,SBD,F
Girls,67.36,10,Luci Robertson,Little Elm,62.05,90.72,45.36,99.79,235.87,Single-ply,SBD,F
Girls,67.36,11,Sierra Shepard,Denison,67.04,77.11,45.36,113.4,235.87,Single-ply,SBD,F
Girls,67.36,12,Sarah Dieter,Lindsay,65.05,99.79,36.29,95.25,231.33,Single-ply,SBD,F
Girls,67.36,13,Kenly Parker,Celina,62.78,83.91,45.36,86.18,215.46,Single-ply,SBD,F
Girls,67.36,14,Brandi Elmore,Blue Ridge,60.96,70.31,38.56,88.45,197.31,Single-ply,SBD,F
Girls,67.36,15,Camrie Smart,Little Elm,64.05,72.57,36.29,86.18,195.04,Single-ply,SBD,F
Girls,67.36,16,Alivia Martin,Pottsboro,60.87,61.23,29.48,83.91,174.63,Single-ply,SBD,F
Girls,67.36,DQ,Briley Fleitman,Lindsay,61.51,,,,,Single-ply,SBD,F
Girls,67.36,DQ,Tara Atkins,Lindsay,62.23,79.38,,,,Single-ply,SBD,F
Girls,75.07,1,Kaylin Miller,Whitesboro,71.85,120.2,65.77,138.35,324.32,Single-ply,SBD,F
Girls,75.07,2,Lacy Weed,Gainesville,71.94,86.18,40.82,120.2,247.21,Single-ply,SBD,F
Girls,75.07,3,Nicole Pearson,Krum,71.94,88.45,43.09,113.4,244.94,Single-ply,SBD,F
Girls,82.33,1,Danielle Gonzales,Anna,79.92,154.22,122.47,176.9,453.59,Single-ply,SBD,F
Girls,82.33,2,Macy Alexander,Sadler S & S Cons,81.92,154.22,79.38,136.08,369.68,Single-ply,SBD,F
Girls,82.33,3,Mikayla Pokorny,Whitesboro,75.3,122.47,61.23,151.95,335.66,Single-ply,SBD,F
Girls,82.33,4,Kaylen Jowitt,Whitesboro,75.75,104.33,52.16,117.93,274.42,Single-ply,SBD,F
Girls,82.33,5,Taylor Brown #3,Whitesboro,78.29,113.4,56.7,102.06,272.16,Single-ply,SBD,F
Girls,82.33,6,Christan Gage,Sadler S & S Cons,77.11,111.13,47.63,106.59,265.35,Single-ply,SBD,F
Girls,82.33,7,Destiny Crumpley,Little Elm,79.2,102.06,49.9,113.4,265.35,Single-ply,SBD,F
Girls,82.33,8,Kathryn Wimmer,Celina,81.28,90.72,36.29,74.84,201.85,Single-ply,SBD,F
Girls,90.04,1,Bailey Bridges,Denison,88.9,120.2,61.23,136.08,317.51,Single-ply,SBD,F
Girls,90.04,2,Harley Drenner,Krum,89.99,95.25,43.09,102.06,240.4,Single-ply,SBD,F
Girls,90.04,3,Melissa Ludlam,Sadler S & S Cons,86.64,115.67,,,115.67,Single-ply,S,F
Girls,100.02,1,Breann Rushing,Blue Ridge,91.44,147.42,74.84,129.27,351.53,Single-ply,SBD,F
Girls,100.02,2,Audrey Richardson,Bonham,97.79,136.08,58.97,140.61,335.66,Single-ply,SBD,F
Girls,100.02,3,Megan Doyle,Denison,96.89,99.79,47.63,131.54,278.96,Single-ply,SBD,F
Girls,100.02+,1,Paige Albert,Blue Ridge,115.3,133.81,86.18,133.81,353.8,Single-ply,SBD,F
Girls,100.02+,2,Abbey Willaims,Collinsville,114.12,158.76,,142.88,301.64,Single-ply,SD,F
Girls,100.02+,3,Macy Mercer,Gainesville,103.87,106.59,49.9,120.2,276.69,Single-ply,SBD,F
Girls,100.02+,4,Chelsea Elmore,Blue Ridge,101.24,115.67,,,115.67,Single-ply,S,F
