Division,WeightClassKg,Place,Name,Team,BodyweightKg,Best3SquatKg,Best3BenchKg,Best3DeadliftKg,TotalKg,Equipment,Event,Sex
Boys,51.71,1,Jesse Cortez,Pharr Valley View,51.07,154.22,81.65,172.37,408.23,Single-ply,SBD,M
Boys,51.71,2,Tuti Garcia,Los Fresnos,49.26,122.47,70.31,145.15,337.93,Single-ply,SBD,M
Boys,51.71,3,Brooks Guzman,Weslaco East,44.45,124.74,61.23,136.08,322.05,Single-ply,SBD,M
Boys,51.71,4,Ben Guajardo,Mission Sharyland,50.98,111.13,72.57,127.01,310.71,Single-ply,SBD,M
Boys,51.71,5,Edgar Hernandez,Brownsville Rivera,51.17,117.93,72.57,106.59,297.1,Single-ply,SBD,M
Boys,51.71,6,Carlos Jaimez,PSJA,51.71,102.06,61.23,127.01,290.3,Single-ply,SBD,M
Boys,51.71,7,Frankie Perez,Brownsville Lopez,46.18,79.38,72.57,104.33,256.28,Single-ply,SBD,M
Boys,51.71,8,Luis Ledezma,PSJA North,44.91,74.84,40.82,86.18,201.85,Single-ply,SBD,M
Boys,51.71,DQ,Rolando Gonzalez,PSJA Southwest,50.8,136.08,,,,Single-ply,SBD,M
Boys,51.71,DQ,Nathan Carrion,Weslaco,48.99,,,,,Single-ply,SBD,M
Boys,55.79,1,Luis Vasquez,Los Fresnos,55.34,147.42,92.99,183.7,424.11,Single-ply,SBD,M
Boys,55.79,2,Jose Barba,Rio Grande City,55.52,154.22,77.11,136.08,367.41,Single-ply,SBD,M
Boys,55.79,3,Ralph Zapata,Rio Hondo,54.43,142.88,83.91,136.08,362.87,Single-ply,SBD,M
Boys,55.79,4,Hugo Abarca,Lyford,55.07,117.93,65.77,136.08,319.78,Single-ply,SBD,M
Boys,55.79,5,Crisantos Casares,Brownsville Lopez,52.98,106.59,61.23,142.88,310.71,Single-ply,SBD,M
Boys,55.79,6,Eder Contreas,Hidalgo Early College,55.16,104.33,68.04,129.27,301.64,Single-ply,SBD,M
Boys,59.87,7,Rudy Garza,PSJA North,55.97,106.59,54.43,95.25,256.28,Single-ply,SBD,M
Boys,55.79,8,Danny Covarrubias,Brownsville Porter,53.07,43.09,47.63,95.25,185.97,Single-ply,SBD,M
Boys,55.79,DQ,Roman Ibragimov,Brownsville Veterans Memorial,55.43,,,,,Single-ply,SBD,M
Boys,55.79,DQ,Kevin Sierra,PSJA Southwest,51.98,,,,,Single-ply,SBD,M
Boys,59.87,1,Juan Torres,San Benito,58.88,174.63,102.06,197.31,474,Single-ply,SBD,M
Boys,59.87,2,Joshua Garcia,Weslaco,58.88,170.1,95.25,192.78,458.13,Single-ply,SBD,M
Boys,59.87,3,Jesus Garcia #1,Mission,59.87,181.44,92.99,170.1,444.52,Single-ply,SBD,M
Boys,59.87,4,Eric Gaona,PSJA Memorial,58.79,172.37,74.84,145.15,392.36,Single-ply,SBD,M
Boys,59.87,5,Heliseo Guerrero,Rio Hondo,59.42,151.95,83.91,154.22,390.09,Single-ply,SBD,M
Boys,59.87,6,Anthony Gracia,Weslaco,57.24,133.81,77.11,176.9,387.82,Single-ply,SBD,M
Boys,59.87,7,Joe Ibanez,Brownsville Pace,58.33,138.35,81.65,165.56,385.55,Single-ply,SBD,M
Boys,59.87,8,Chris Cantu,Mercedes,59.06,145.15,81.65,149.69,376.48,Single-ply,SBD,M
Boys,59.87,9,Marco Ruiz,Mission Veterans Memorial,59.42,131.54,88.45,151.95,371.95,Single-ply,SBD,M
Boys,59.87,10,Marcus Lopez,La Joya Palmview,59.15,108.86,83.91,156.49,349.27,Single-ply,SBD,M
Boys,59.87,11,Billy Guerra,La Feria,57.33,145.15,61.23,117.93,324.32,Single-ply,SBD,M
Boys,59.87,DQ,Rafael Ledezma,Brownsville Porter,59.6,,,,,Single-ply,SBD,M
Boys,59.87,DQ,George Hernandez,Santa Rosa,59.78,,,,,Single-ply,SBD,M
Boys,59.87,DQ,Tyler Gonzales,Brownsville Veterans Memorial,59.6,,,,,Single-ply,SBD,M
Boys,67.13,1,Julio Rodriguez,Raymondville,63.96,172.37,108.86,204.12,485.34,Single-ply,SBD,M
Boys,67.13,2,Kenny Atkinson,Los Fresnos,67.13,165.56,120.2,197.31,483.08,Single-ply,SBD,M
Boys,67.13,3,Lorenzo Huerta,PSJA Southwest,64.64,183.7,115.67,181.44,480.81,Single-ply,SBD,M
Boys,67.13,4,James Zaragoza,Raymondville,61.6,165.56,104.33,188.24,458.13,Single-ply,SBD,M
Boys,67.13,5,Jesse Leyva,Raymondville,66.41,165.56,102.06,183.7,451.32,Single-ply,SBD,M
Boys,67.13,6,Kevin Rocafuerte,Los Fresnos,67.13,163.29,92.99,195.04,451.32,Single-ply,SBD,M
Boys,67.13,7,Victor Acosta,Pharr Valley View,62.87,158.76,99.79,165.56,424.11,Single-ply,SBD,M
Boys,67.13,8,Lenny Villanueva,Mercedes,66.41,149.69,81.65,183.7,415.04,Single-ply,SBD,M
Boys,67.13,9,Joselito Guardado,Los Fresnos,63.78,147.42,83.91,179.17,410.5,Single-ply,SBD,M
Boys,67.13,10,David Garcia,Brownsville Veterans Memorial,63.68,142.88,97.52,163.29,403.7,Single-ply,SBD,M
Boys,67.13,11,Juan Castillo,Brownsville Lopez,66.5,149.69,99.79,136.08,385.55,Single-ply,SBD,M
Boys,67.13,12,Joey Morales,PSJA Memorial,62.78,140.61,90.72,151.95,383.29,Single-ply,SBD,M
Boys,67.13,13,Victor Rodriguez,La Joya,66.95,120.2,120.2,142.88,383.29,Single-ply,SBD,M
Boys,67.13,14,Andrew Torres,San Benito,66.68,129.27,79.38,172.37,381.02,Single-ply,SBD,M
Boys,67.13,15,Adres Trinidad,Brownsville Pace,62.96,120.2,106.59,145.15,371.95,Single-ply,SBD,M
Boys,67.13,16,Anthony Loyola,San Benito,63.5,145.15,88.45,138.35,371.95,Single-ply,SBD,M
Boys,67.13,17,Jesse Ibanez,San Benito,65.32,131.54,88.45,142.88,362.87,Single-ply,SBD,M
Boys,67.13,18,Omar Rodriguez,Brownsville Veterans Memorial,64.68,136.08,77.11,142.88,356.07,Single-ply,SBD,M
Boys,67.13,19,Alfonso Torres,Brownsville Rivera,64.86,127.01,86.18,127.01,340.19,Single-ply,SBD,M
Boys,67.13,20,Enrique Alaffa,Brownsville Veterans Memorial,64.5,108.86,79.38,138.35,326.59,Single-ply,SBD,M
Boys,67.13,21,Albert Vasquez,La Feria,65.59,120.2,65.77,120.2,306.17,Single-ply,SBD,M
Boys,67.13,22,Juan Zamora,Brownsville Porter,66.86,115.67,45.36,142.88,303.91,Single-ply,SBD,M
Boys,67.13,23,David Reynerus,Brownsville Porter,62.41,79.38,52.16,115.67,247.21,Single-ply,SBD,M
Boys,67.13,25,Jesse Camacho,San Benito,65.77,86.18,97.52,136.08,319.78,Single-ply,SBD,M
Boys,67.13,DQ,Alan Alfaro,Rio Hondo,60.6,,,,,Single-ply,SBD,M
Boys,67.13,DQ,Hernan Guerrero,Rio Hondo,62.78,,,,,Single-ply,SBD,M
Boys,67.13,DQ,Jerry Pena,Rio Grande City,66.32,188.24,92.99,,,Single-ply,SBD,M
Boys,67.13,DQ,Seth Varanjo,Santa Rosa,63.96,,,,,Single-ply,SBD,M
Boys,67.13,DQ,Chris Morales,Edcouch-Elsa,65.68,,,,,Single-ply,SBD,M
Boys,67.13,DQ,Luis Marina,Mission Sharyland,64.05,120.2,,,,Single-ply,SBD,M
Boys,74.84,1,Jerry Alaniz,La Feria,74.03,222.26,147.42,222.26,591.94,Single-ply,SBD,M
Boys,74.84,2,Franky Valle,Hidalgo Early College,74.39,208.65,113.4,201.85,523.9,Single-ply,SBD,M
Boys,74.84,3,Abel Rangel,La Feria,74.48,204.12,97.52,213.19,514.83,Single-ply,SBD,M
Boys,74.84,4,Ricardo Vela,Hidalgo Early College,74.84,167.83,122.47,210.92,501.22,Single-ply,SBD,M
Boys,74.84,5,Marco Garrate,Rio Hondo,69.22,165.56,108.86,199.58,474,Single-ply,SBD,M
Boys,74.84,6,Rueben Davila,Rio Grande City,72.57,188.24,83.91,185.97,458.13,Single-ply,SBD,M
Boys,74.84,7,Lupe Mendieta,Los Fresnos,72.94,174.63,83.91,183.7,442.25,Single-ply,SBD,M
Boys,74.84,8,Joey Fernandez,Brownsville Rivera,70.31,151.95,102.06,183.7,437.72,Single-ply,SBD,M
Boys,74.84,9,Mike Munoz,PSJA North,73.94,165.56,90.72,165.56,421.84,Single-ply,SBD,M
Boys,74.84,10,Derrik Rodriguez,Brownsville Veterans Memorial,69.58,151.95,90.72,170.1,412.77,Single-ply,SBD,M
Boys,74.84,11,Cipriano Montes,La Joya,69.58,149.69,113.4,145.15,408.23,Single-ply,SBD,M
Boys,74.84,12,Andres Vasquez,Brownsville Rivera,68.49,120.2,120.2,163.29,403.7,Single-ply,SBD,M
Boys,74.84,13,Gilberto Guajardo,Pharr Valley View,73.84,151.95,99.79,151.95,403.7,Single-ply,SBD,M
Boys,74.84,14,Jesse Navarro,PSJA,70.58,149.69,106.59,145.15,401.43,Single-ply,SBD,M
Boys,74.84,15,Pablo Proa,Hidalgo Early College,69.04,147.42,79.38,172.37,399.16,Single-ply,SBD,M
Boys,74.84,16,Isaac Vela,PSJA,70.76,136.08,102.06,156.49,394.63,Single-ply,SBD,M
Boys,74.84,17,Jonathan Sanchez,Brownsville Lopez,71.76,138.35,90.72,165.56,394.63,Single-ply,SBD,M
Boys,74.84,18,Luis Rodriguez,Brownsville Veterans Memorial,67.95,145.15,97.52,145.15,387.82,Single-ply,SBD,M
Boys,74.84,19,David Marroquin,Raymondville,68.22,142.88,83.91,158.76,385.55,Single-ply,SBD,M
Boys,74.84,20,Jesus Perez,Los Fresnos,73.84,133.81,83.91,167.83,385.55,Single-ply,SBD,M
Boys,74.84,21,Ben Parish,San Benito,69.31,127.01,102.06,154.22,383.29,Single-ply,SBD,M
Boys,74.84,22,Oscar Flores,Brownsville Pace,72.39,158.76,74.84,149.69,383.29,Single-ply,SBD,M
Boys,74.84,23,Chris Salinas,La Feria,68.49,117.93,83.91,145.15,347,Single-ply,SBD,M
Boys,74.84,24,Andrew Leija,PSJA North,73.21,117.93,90.72,138.35,347,Single-ply,SBD,M
Boys,74.84,26,Jorge Rodriguez,La Joya,68.04,113.4,68.04,124.74,306.17,Single-ply,SBD,M
Boys,74.84,27,Eddie Molina,San Benito,74.84,81.65,65.77,136.08,283.5,Single-ply,SBD,M
Boys,74.84,28,Lane Jackson,Hidalgo Early College,67.4,90.72,65.77,113.4,269.89,Single-ply,SBD,M
Boys,74.84,DQ,Austin Segura,Rio Grande City,74.57,195.04,90.72,,,Single-ply,SBD,M
Boys,74.84,DQ,Adan Cantu,Rio Grande City Grulla,74.3,,,,,Single-ply,SBD,M
Boys,74.84,DQ,Miguel Mariscal,Edcouch-Elsa,71.49,183.7,,,,Single-ply,SBD,M
Boys,74.84,DQ,Jose Morua,Brownsville Rivera,69.4,172.37,,,,Single-ply,SBD,M
Boys,74.84,DQ,Jose Martinez,Brownsville Pace,70.49,108.86,,,,Single-ply,SBD,M
Boys,74.84,DQ,Adonis Juarez,Mission,68.86,,,,,Single-ply,SBD,M
Boys,74.84,DQ,Ivan Rodriguez,Pharr Valley View,74.03,,,,,Single-ply,SBD,M
Boys,74.84,DQ,Esteban Flores,Pharr Valley View,74.57,,,,,Single-ply,SBD,M
Boys,82.1,1,Abram Guerra,Rio Grande City,81.47,308.44,170.1,265.35,743.89,Single-ply,SBD,M
Boys,82.1,2,Leonard Ramirez,Raymondville,75.39,226.8,163.29,226.8,616.89,Single-ply,SBD,M
Boys,82.1,3,David Martinez #14,PSJA Memorial,76.29,233.6,136.08,233.6,603.28,Single-ply,SBD,M
Boys,82.1,4,Erasmo Canales,Rio Grande City,81.1,215.46,165.56,215.46,596.47,Single-ply,SBD,M
Boys,82.1,5,Marco Villarreal,Mission Sharyland,81.74,204.12,151.95,217.72,573.79,Single-ply,SBD,M
Boys,82.1,6,Rick Garza,Mercedes,81.56,217.72,142.88,206.38,566.99,Single-ply,SBD,M
Boys,82.1,7,Armin Solis,Rio Grande City,80.38,229.06,136.08,192.78,557.92,Single-ply,SBD,M
Boys,82.1,8,Eduardo Estrada,La Feria,80.47,195.04,127.01,208.65,530.7,Single-ply,SBD,M
Boys,82.1,9,Rene Aguilar,Brownsville Lopez,79.02,199.58,129.27,197.31,526.17,Single-ply,SBD,M
Boys,82.1,10,Gilbert Trevino,Weslaco,79.92,206.38,106.59,197.31,510.29,Single-ply,SBD,M
Boys,89.81,11,Roger Tapia,Brownsville Veterans Memorial,82.19,195.04,124.74,183.7,503.49,Single-ply,SBD,M
Boys,82.1,12,Armando Garza,La Feria,79.02,195.04,115.67,188.24,498.95,Single-ply,SBD,M
Boys,82.1,13,Cordero Castro,Lyford,78.56,181.44,108.86,204.12,494.42,Single-ply,SBD,M
Boys,82.1,14,Travis Ramos,Lyford,78.47,188.24,117.93,181.44,487.61,Single-ply,SBD,M
Boys,82.1,15,Richard Hernandez,Edcouch-Elsa,76.57,179.17,111.13,195.04,485.34,Single-ply,SBD,M
Boys,82.1,16,Brandon Garza,Rio Grande City,81.01,183.7,111.13,190.51,485.34,Single-ply,SBD,M
Boys,82.1,17,Diego Garcia,Edcouch-Elsa,76.29,179.17,120.2,181.44,480.81,Single-ply,SBD,M
Boys,82.1,18,Isai Perez,Rio Grande City Grulla,80.83,183.7,104.33,188.24,476.27,Single-ply,SBD,M
Boys,89.81,19,Andres Lucio,Brownsville Rivera,82.28,156.49,120.2,199.58,476.27,Single-ply,SBD,M
Boys,82.1,20,Ricardo Guajardo,Raymondville,81.92,183.7,106.59,170.1,460.4,Single-ply,SBD,M
Boys,82.1,21,Tristan Escamilla,Rio Hondo,80.47,158.76,113.4,179.17,451.32,Single-ply,SBD,M
Boys,82.1,22,Christian Segovia,Mission,80.65,165.56,90.72,181.44,437.72,Single-ply,SBD,M
Boys,82.1,23,Omar Lozano,PSJA Memorial,77.11,158.76,104.33,163.29,426.38,Single-ply,SBD,M
Boys,82.1,24,Gabriel Alvarado,Brownsville Pace,79.47,158.76,102.06,165.56,426.38,Single-ply,SBD,M
Boys,82.1,25,Alex Ritta,Brownsville Porter,77.84,142.88,83.91,190.51,417.3,Single-ply,SBD,M
Boys,82.1,26,Karlo Dominguez,Brownsville Pace,78.93,145.15,108.86,149.69,403.7,Single-ply,SBD,M
Boys,82.1,27,Wally Olvarez,Santa Rosa,75.84,142.88,102.06,156.49,401.43,Single-ply,SBD,M
Boys,82.1,28,Victor Solis,Mission,77.75,156.49,83.91,154.22,394.63,Single-ply,SBD,M
Boys,82.1,29,Trey Saldana,San Benito,79.74,108.86,102.06,183.7,394.63,Single-ply,SBD,M
Boys,82.1,30,Eddie Salinas,Rio Grande City Grulla,77.2,138.35,77.11,161.03,376.48,Single-ply,SBD,M
Boys,82.1,31,Brandon Carrizales,San Benito,77.38,124.74,92.99,138.35,356.07,Single-ply,SBD,M
Boys,82.1,DQ,Jorge Sanchez,PSJA Southwest,78.38,,,,,Single-ply,SBD,M
Boys,82.1,DQ,Manny Garza,PSJA Southwest,81.47,,,,,Single-ply,SBD,M
Boys,82.1,DQ,Max Gonzalez,Weslaco,82.1,,,,,Single-ply,SBD,M
Boys,82.1,DQ,Carlos Contreras,Hidalgo Early College,76.93,,,,,Single-ply,SBD,M
Boys,82.1,DQ,Charles Ybarra,Mission,81.1,,,,,Single-ply,SBD,M
Boys,82.1,DQ,Victor Estrada,PSJA,75.21,108.86,,,,Single-ply,SBD,M
Boys,82.1,DQ,Luis Torres,Brownsville Lopez,78.02,,,,,Single-ply,SBD,M
Boys,82.1,DQ,Ramon Sauceda,La Feria,81.37,242.67,,,,Single-ply,SBD,M
Boys,89.81,1,Victor Aguilar,Mercedes,88.27,249.48,136.08,254.01,639.57,Single-ply,SBD,M
Boys,89.81,2,Alex Melendez,Pharr Valley View,85.55,231.33,136.08,233.6,601.01,Single-ply,SBD,M
Boys,89.81,3,Lee Gamez,Mercedes,88.54,215.46,138.35,233.6,587.4,Single-ply,SBD,M
Boys,89.81,4,Colt Sanchez,PSJA Memorial,89.72,208.65,131.54,235.87,576.06,Single-ply,SBD,M
Boys,89.81,5,Luis Gamez,La Joya,89.81,204.12,151.95,199.58,555.65,Single-ply,SBD,M
Boys,89.81,6,Arnulfo Marin,Pharr Valley View,89.18,226.8,113.4,213.19,553.38,Single-ply,SBD,M
Boys,89.81,7,Jonathan Soto,PSJA Southwest,88.09,226.8,124.74,183.7,535.24,Single-ply,SBD,M
Boys,89.81,8,Edgar Fernandez,Mission Sharyland,83.73,183.7,115.67,199.58,498.95,Single-ply,SBD,M
Boys,89.81,9,Michael Torres,Weslaco,87.45,192.78,108.86,188.24,489.88,Single-ply,SBD,M
Boys,89.81,10,Jesus Reyna,Weslaco,85.91,199.58,102.06,185.97,487.61,Single-ply,SBD,M
Boys,89.81,11,Alejandro Hernandez,Hidalgo Early College,88.36,170.1,115.67,201.85,487.61,Single-ply,SBD,M
Boys,89.81,12,Juan Villarreal,Hidalgo Early College,84.28,170.1,115.67,192.78,478.54,Single-ply,SBD,M
Boys,89.81,13,Rene Gonzalez,Los Fresnos,82.37,174.63,90.72,204.12,469.47,Single-ply,SBD,M
Boys,89.81,14,David Davila,Mercedes,87.09,170.1,122.47,147.42,439.98,Single-ply,SBD,M
Boys,89.81,15,Pedro Ramos,Brownsville Pace,86.64,156.49,102.06,142.88,401.43,Single-ply,SBD,M
Boys,89.81,16,Armando Montes,La Joya,86.73,133.81,111.13,136.08,381.02,Single-ply,SBD,M
Boys,89.81,DQ,Mike Rodriguez,Mission,88.45,174.63,,,,Single-ply,SBD,M
Boys,89.81,DQ,Christian Brown,Pharr Valley View,86.82,222.26,,,,Single-ply,SBD,M
Boys,89.81,DQ,Robert Trevino,Edcouch-Elsa,82.92,226.8,124.74,,,Single-ply,SBD,M
Boys,99.79,1,Ej Ruiz,PSJA North,98.25,238.14,181.44,254.01,673.58,Single-ply,SBD,M
Boys,99.79,2,Eli Esconame,Mission Sharyland,99.61,226.8,136.08,204.12,566.99,Single-ply,SBD,M
Boys,99.79,3,Daniel Cisneros,Brownsville Lopez,91.99,197.31,131.54,217.72,546.58,Single-ply,SBD,M
Boys,99.79,4,Jesse Coronado,Weslaco,93.26,210.92,138.35,195.04,544.31,Single-ply,SBD,M
Boys,99.79,5,Faustino Saldana,PSJA Southwest,93.17,226.8,113.4,190.51,530.7,Single-ply,SBD,M
Boys,99.79,6,Edgar Orteson,Brownsville Lopez,93.98,217.72,124.74,185.97,528.44,Single-ply,SBD,M
Boys,99.79,7,Joe de la Cruz,Rio Grande City Grulla,98.16,210.92,113.4,192.78,517.1,Single-ply,SBD,M
Boys,99.79,8,Adrian Flores,Mission Veterans Memorial,99.52,172.37,122.47,208.65,503.49,Single-ply,SBD,M
Boys,99.79,9,Tony Cerda,La Joya,90.54,188.24,129.27,183.7,501.22,Single-ply,SBD,M
Boys,99.79,10,Joey Salas,PSJA Southwest,97.34,181.44,131.54,185.97,498.95,Single-ply,SBD,M
Boys,99.79,11,Michael Alvarez,Brownsville Pace,95.53,204.12,102.06,183.7,489.88,Single-ply,SBD,M
Boys,99.79,12,Eddie Favata,PSJA North,98.7,181.44,133.81,172.37,487.61,Single-ply,SBD,M
Boys,99.79,13,Matthew Cortez,Mission Veterans Memorial,96.16,197.31,99.79,188.24,485.34,Single-ply,SBD,M
Boys,99.79,14,Ralph Mendoza,Mission,93.44,185.97,113.4,181.44,480.81,Single-ply,SBD,M
Boys,99.79,15,Israel Torres,La Feria,95.35,181.44,113.4,183.7,478.54,Single-ply,SBD,M
Boys,99.79,16,Fred Franco,Mission Veterans Memorial,94.35,176.9,104.33,185.97,467.2,Single-ply,SBD,M
Boys,99.79,17,Joseph Michki,Mission Sharyland,97.25,165.56,104.33,190.51,460.4,Single-ply,SBD,M
Boys,99.79,18,Pedro Gonzalez,Brownsville Veterans Memorial,92.26,170.1,102.06,183.7,455.86,Single-ply,SBD,M
Boys,99.79,19,Leroy Rodriguez,La Joya Palmview,90.45,174.63,95.25,183.7,453.59,Single-ply,SBD,M
Boys,99.79,20,Jonny Alaniz II,La Joya Palmview,95.44,167.83,117.93,167.83,453.59,Single-ply,SBD,M
Boys,99.79,21,Esteban Reyes,Weslaco,98.79,163.29,108.86,181.44,453.59,Single-ply,SBD,M
Boys,99.79,22,Steven Rodriguez,San Benito,99.79,158.76,108.86,165.56,433.18,Single-ply,SBD,M
Boys,99.79,23,Jose Costantino,Mercedes,91.44,163.29,102.06,163.29,428.64,Single-ply,SBD,M
Boys,99.79,24,James Arredondo,PSJA Memorial,97.34,174.63,97.52,140.61,412.77,Single-ply,SBD,M
Boys,99.79,25,Evan Pinon,La Joya Palmview,97.89,145.15,95.25,149.69,390.09,Single-ply,SBD,M
Boys,99.79,26,Mark Garcia,Brownsville Porter,93.98,138.35,83.91,163.29,385.55,Single-ply,SBD,M
Boys,99.79,27,James Heath,Mission Sharyland,91.26,154.22,86.18,140.61,381.02,Single-ply,SBD,M
Boys,99.79,28,Andres Enriquez,PSJA,96.62,145.15,90.72,136.08,371.95,Single-ply,SBD,M
Boys,99.79,29,Jose Martinez,Mission,98.79,131.54,77.11,142.88,351.53,Single-ply,SBD,M
Boys,99.79,DQ,Noe Alonzo,PSJA Memorial,99.25,,,,,Single-ply,SBD,M
Boys,109.77,1,Alex Valencia,Los Fresnos,105.14,244.94,165.56,231.33,641.83,Single-ply,SBD,M
Boys,109.77,2,Mike Garza,Edcouch-Elsa,104.14,263.08,142.88,233.6,639.57,Single-ply,SBD,M
Boys,109.77,3,Jacob Alaniz,Brownsville Veterans Memorial,102.42,240.4,127.01,244.94,612.35,Single-ply,SBD,M
Boys,109.77,4,Juan Gallegos,Rio Hondo,107.41,226.8,158.76,215.46,601.01,Single-ply,SBD,M
Boys,109.77,5,Michael Cervantes,Lyford,108.41,235.87,131.54,183.7,551.11,Single-ply,SBD,M
Boys,109.77,6,Rudy Zarate,Hidalgo Early College,108.23,204.12,129.27,192.78,526.17,Single-ply,SBD,M
Boys,109.77,7,Orlando Nieto,PSJA Memorial,106.59,206.38,115.67,172.37,494.42,Single-ply,SBD,M
Boys,109.77,8,Jesus Anaya,Weslaco,107.5,195.04,108.86,190.51,494.42,Single-ply,SBD,M
Boys,109.77,9,Lalo Buenrostro,San Benito,100.61,181.44,108.86,199.58,489.88,Single-ply,SBD,M
Boys,109.77,10,Jonathan Ballanos,Hidalgo Early College,100.97,181.44,108.86,192.78,483.08,Single-ply,SBD,M
Boys,109.77,11,Nazario Garza,Rio Grande City Grulla,108.59,183.7,120.2,174.63,478.54,Single-ply,SBD,M
Boys,109.77,12,Caleb Atkins,Mission Veterans Memorial,109.32,181.44,95.25,183.7,460.4,Single-ply,SBD,M
Boys,109.77,13,Juan Ramirez,PSJA,100.7,156.49,102.06,158.76,417.3,Single-ply,SBD,M
Boys,109.77,14,Jonathan Vasquez,PSJA Southwest,104.42,183.7,83.91,138.35,405.97,Single-ply,SBD,M
Boys,109.77,DQ,Armando DeLeon,PSJA,109.41,131.54,,,,Single-ply,SBD,M
Boys,109.77,DQ,Sonny Vasquez,Lyford,108.5,163.29,,,,Single-ply,SBD,M
Boys,109.77,DQ,Isaac Barrera,Mission,101.15,,,,,Single-ply,SBD,M
Boys,109.77,DQ,Christian Lopez,PSJA North,108.14,170.1,,,,Single-ply,SBD,M
Boys,124.74,1,Bobby Gonzales,Raymondville,111.58,306.17,165.56,238.14,709.87,Single-ply,SBD,M
Boys,124.74,2,Jose Rubacalva,Rio Grande City,118.84,272.16,163.29,222.26,657.71,Single-ply,SBD,M
Boys,124.74,3,Keith Mora,Mission Sharyland,124.65,294.84,127.01,208.65,630.49,Single-ply,SBD,M
Boys,124.74,4,Gabriel Rodriguez,Edcouch-Elsa,114.21,249.48,149.69,210.92,610.08,Single-ply,SBD,M
Boys,124.74,5,Alejandro Briseno,Brownsville Rivera,114.31,219.99,158.76,226.8,605.55,Single-ply,SBD,M
Boys,124.74,6,Raul de la Cruz,Mission,118.39,249.48,124.74,204.12,578.33,Single-ply,SBD,M
Boys,124.74,7,Aaron Barrera,Rio Grande City Grulla,112.22,183.7,140.61,197.31,521.63,Single-ply,SBD,M
Boys,124.74,8,Javi Lara,PSJA North,115.12,199.58,129.27,181.44,510.29,Single-ply,SBD,M
Boys,124.74,9,Rodolfo Balli,Brownsville Lopez,123.1,197.31,102.06,181.44,480.81,Single-ply,SBD,M
Boys,124.74,10,Robert Medina,Rio Grande City,116.57,192.78,97.52,183.7,474,Single-ply,SBD,M
Boys,124.74,11,David Rodriguez,PSJA Southwest,112.13,192.78,95.25,183.7,471.74,Single-ply,SBD,M
Boys,124.74,12,Rene Perez,Weslaco,118.02,183.7,113.4,167.83,464.93,Single-ply,SBD,M
Boys,124.74,13,Ricardo Ramirez,Mission,112.04,172.37,106.59,179.17,458.13,Single-ply,SBD,M
Boys,124.74,14,Josh Castillo,Brownsville Pace,113.31,158.76,113.4,163.29,435.45,Single-ply,SBD,M
Boys,124.74,15,Luis Castillo,Brownsville Pace,112.85,142.88,83.91,158.76,385.55,Single-ply,SBD,M
Boys,124.74,DQ,Ivan Villarreal,La Joya,115.67,,,,,Single-ply,SBD,M
Boys,124.74,DQ,Rick Hinojosa,Mercedes,122.29,238.14,,,,Single-ply,SBD,M
Boys,124.74,DQ,Jesse Guzman,Brownsville Veterans Memorial,111.13,197.31,,,,Single-ply,SBD,M
Boys,124.74,DQ,Andres Martinez,PSJA,113.4,192.78,131.54,,,Single-ply,SBD,M
Boys,124.74,DQ,Isaac Escobedo,PSJA Memorial,123.83,242.67,163.29,,,Single-ply,SBD,M
Boys,124.74+,1,Jose Limon,Los Fresnos,139.71,272.16,142.88,235.87,650.91,Single-ply,SBD,M
Boys,124.74+,2,John Reyes,Rio Hondo,138.89,249.48,156.49,215.46,621.42,Single-ply,SBD,M
Boys,124.74+,3,Dominic Tijerina,Raymondville,155.13,219.99,147.42,215.46,582.87,Single-ply,SBD,M
Boys,124.74+,4,Roy Rendon,Mercedes,127.91,204.12,124.74,208.65,537.51,Single-ply,SBD,M
Boys,124.74+,5,Armando Castillo,Brownsville Lopez,125.74,197.31,131.54,183.7,512.56,Single-ply,SBD,M
Boys,124.74+,6,Anthony Carillo,Brownsville Lopez,135.99,179.17,136.08,172.37,487.61,Single-ply,SBD,M
Boys,124.74+,7,Zeke Garza,La Joya,127.01,190.51,108.86,183.7,483.08,Single-ply,SBD,M
Boys,124.74+,8,Daniel Solis,La Joya,127.91,174.63,97.52,170.1,442.25,Single-ply,SBD,M
Boys,124.74+,9,Martín Muñoz,La Joya Palmview,134.17,154.22,83.91,192.78,430.91,Single-ply,SBD,M
Boys,124.74+,10,Anselmo Rodriguez,Mission,147.87,167.83,86.18,147.42,401.43,Single-ply,SBD,M
