Division,WeightClassKg,Place,Name,Team,BodyweightKg,Best3SquatKg,Best3BenchKg,Best3DeadliftKg,TotalKg,Equipment,Event,Sex
Boys,51.71,1,Clarence Smith,Abilene Cooper,50.8,133.81,74.84,149.69,358.34,Single-ply,SBD,M
Boys,51.71,2,Jaxon Sullivan,Clyde,50.98,124.74,68.04,133.81,326.59,Single-ply,SBD,M
Boys,51.71,3,Michael Ramsey,Cross Plains,48.9,120.2,61.23,131.54,312.98,Single-ply,SBD,M
Boys,51.71,4,Jaden Dement,Clyde,50.71,90.72,61.23,108.86,260.82,Single-ply,SBD,M
Boys,51.71,5,Mitul Patel,Cross Plains,46.27,86.18,56.7,102.06,244.94,Single-ply,SBD,M
Boys,51.71,6,Drew Votaw,Merkel,50.98,88.45,43.09,92.99,224.53,Single-ply,SBD,M
Boys,51.71,7,Tanner Daniel,Merkel,47.45,74.84,38.56,88.45,201.85,Single-ply,SBD,M
Boys,55.79,DQ,Pj Rodriguez,Anson,51.89,90.72,,,,Single-ply,SBD,M
Boys,55.79,1,Tristin Cauthen,Clyde,55.61,124.74,70.31,133.81,328.85,Single-ply,SBD,M
Boys,55.79,2,Jay Lomas,Sweetwater,55.79,120.2,68.04,133.81,322.05,Single-ply,SBD,M
Boys,59.87,3,Colton McWilliams,Cross Plains,55.88,122.47,52.16,147.42,322.05,Single-ply,SBD,M
Boys,55.79,4,Jesse Schubert,Dublin,54.88,104.33,47.63,99.79,251.74,Single-ply,SBD,M
Boys,59.87,1,Bryce DeVore,Hawley,59.24,181.44,83.91,167.83,433.18,Single-ply,SBD,M
Boys,67.13,2,Jonathan Seabourn,Clyde,59.96,163.29,97.52,154.22,415.04,Single-ply,SBD,M
Boys,67.13,3,Terrance Sims,Abilene Cooper,60.06,149.69,99.79,147.42,396.89,Single-ply,SBD,M
Boys,67.13,4,Kirb-Vontae Hazlett,Abilene Cooper,60.06,154.22,83.91,147.42,385.55,Single-ply,SBD,M
Boys,67.13,5,James Powell,Abilene,60.06,149.69,74.84,156.49,381.02,Single-ply,SBD,M
Boys,67.13,6,Taylor Baum,Coleman,60.06,136.08,97.52,142.88,376.48,Single-ply,SBD,M
Boys,59.87,7,Jose Morantes,Dublin,59.87,127.01,79.38,156.49,362.87,Single-ply,SBD,M
Boys,59.87,8,Zack Rosas,Sweetwater,59.78,136.08,70.31,145.15,351.53,Single-ply,SBD,M
Boys,59.87,9,Dustin Gollihar,Clyde,59.87,113.4,88.45,147.42,349.27,Single-ply,SBD,M
Boys,59.87,10,Tristen Stephenson,Cross Plains,59.69,115.67,61.23,129.27,306.17,Single-ply,SBD,M
Boys,59.87,11,Samuel Rodriguez,Rising Star,59.33,113.4,68.04,113.4,294.84,Single-ply,SBD,M
Boys,59.87,12,Brandon Kinard,Hawley,57.06,113.4,61.23,99.79,274.42,Single-ply,SBD,M
Boys,59.87,13,Justin Coleman,Coleman,57.79,104.33,61.23,104.33,269.89,Single-ply,SBD,M
Boys,74.84,1,Brett DeVore,Hawley,67.31,213.19,108.86,215.46,537.51,Single-ply,SBD,M
Boys,67.13,2,Jazper Solis,Abilene,64.86,229.06,108.86,197.31,535.24,Single-ply,SBD,M
Boys,67.13,3,Tj Bruns,Abilene Cooper,66.59,197.31,106.59,158.76,462.66,Single-ply,SBD,M
Boys,67.13,4,Jose Rangel,Roscoe,66.59,176.9,106.59,158.76,442.25,Single-ply,SBD,M
Boys,74.84,5,Kerry Sims,Abilene Cooper,67.22,163.29,97.52,170.1,430.91,Single-ply,SBD,M
Boys,74.84,6,Adrian Lopez,Sweetwater,67.22,149.69,106.59,165.56,421.84,Single-ply,SBD,M
Boys,74.84,7,Jakeb Miller,Clyde,67.31,142.88,92.99,181.44,417.3,Single-ply,SBD,M
Boys,67.13,8,Dakota Brewster,Clyde,65.32,158.76,99.79,151.95,410.5,Single-ply,SBD,M
Boys,67.13,9,Donald Baker,Sweetwater,64.59,145.15,92.99,147.42,385.55,Single-ply,SBD,M
Boys,67.13,10,Ryan Frakes,Tuscola Jim Ned,63.96,142.88,81.65,154.22,378.75,Single-ply,SBD,M
Boys,67.13,11,Chase McKissick,Tuscola Jim Ned,65.5,142.88,81.65,147.42,371.95,Single-ply,SBD,M
Boys,67.13,12,Daniel Sánchez,Rising Star,63.23,113.4,90.72,151.95,356.07,Single-ply,SBD,M
Boys,67.13,13,Colter Martin,Ranger,62.14,138.35,81.65,127.01,347,Single-ply,SBD,M
Boys,67.13,14,Jeff Reese,Tuscola Jim Ned,61.05,127.01,81.65,131.54,340.19,Single-ply,SBD,M
Boys,67.13,15,Nick Nemir,Sweetwater,61.23,127.01,79.38,108.86,315.25,Single-ply,SBD,M
Boys,67.13,16,Brooks Jones,Coleman,64.68,124.74,70.31,117.93,312.98,Single-ply,SBD,M
Boys,67.13,17,Ty Davis,Sweetwater,63.14,120.2,81.65,108.86,310.71,Single-ply,SBD,M
Boys,74.84,18,Angus Worcester,Cross Plains,67.22,117.93,52.16,133.81,303.91,Single-ply,SBD,M
Boys,74.84,19,Dakota Smith,Clyde,67.31,102.06,79.38,115.67,297.1,Single-ply,SBD,M
Boys,67.13,20,Pj Hammonds,Coleman,66.77,108.86,61.23,113.4,283.5,Single-ply,SBD,M
Boys,67.13,DQ,Michael Lanham,Coleman,66.04,117.93,,,,Single-ply,SBD,M
Boys,74.84,DQ,James Baird,Clyde,67.31,102.06,,,,Single-ply,SBD,M
Boys,67.13,DQ,Colton Hill,Rising Star,61.69,140.61,77.11,,,Single-ply,SBD,M
Boys,67.13,DQ,Chris Hanke,Anson,66.41,,,,,Single-ply,SBD,M
Boys,67.13,DQ,Landon Lescheper,Anson,66.5,158.76,,,,Single-ply,SBD,M
Boys,82.1,1,Sam Nemir,Sweetwater,74.93,208.65,120.2,199.58,528.44,Single-ply,SBD,M
Boys,74.84,2,Ian Pryor,Merkel,73.21,204.12,106.59,192.78,503.49,Single-ply,SBD,M
Boys,74.84,3,Alec Apple,Rising Star,74.48,158.76,102.06,208.65,469.47,Single-ply,SBD,M
Boys,82.1,4,Dakota Morris,Clyde,75.02,174.63,120.2,174.63,469.47,Single-ply,SBD,M
Boys,74.84,5,Kneeland Donnelly,Abilene,68.67,170.1,95.25,165.56,430.91,Single-ply,SBD,M
Boys,74.84,6,Charles McGill,Abilene,72.12,149.69,97.52,181.44,428.64,Single-ply,SBD,M
Boys,74.84,7,Aaron Cantu,Abilene Cooper,68.76,142.88,106.59,174.63,424.11,Single-ply,SBD,M
Boys,74.84,8,Victor Cruz,Abilene Cooper,74.12,147.42,90.72,167.83,405.97,Single-ply,SBD,M
Boys,74.84,9,Daniel Sotelo,Abilene,73.48,149.69,99.79,151.95,401.43,Single-ply,SBD,M
Boys,74.84,10,Dakota Bomar,Cross Plains,71.3,142.88,74.84,181.44,399.16,Single-ply,SBD,M
Boys,74.84,11,Kat Leal,Rising Star,69.31,158.76,90.72,147.42,396.89,Single-ply,SBD,M
Boys,74.84,12,Blayne Darnell,Clyde,69.04,147.42,77.11,165.56,390.09,Single-ply,SBD,M
Boys,74.84,13,Brandon Galindo,Sweetwater,68.76,142.88,90.72,154.22,387.82,Single-ply,SBD,M
Boys,74.84,14,Marcell Porter,Abilene,68.13,158.76,81.65,145.15,385.55,Single-ply,SBD,M
Boys,74.84,15,Randel Boswell,Merkel,69.85,165.56,70.31,149.69,385.55,Single-ply,SBD,M
Boys,74.84,16,Allan Wheeler,Cross Plains,72.03,158.76,83.91,142.88,385.55,Single-ply,SBD,M
Boys,82.1,17,Herik Bustamante,Rising Star,75.02,138.35,81.65,154.22,374.21,Single-ply,SBD,M
Boys,74.84,18,Brad Deel,Clyde,73.12,124.74,92.99,124.74,342.46,Single-ply,SBD,M
Boys,74.84,19,Aric Ramzanali,Hawley,73.21,124.74,81.65,136.08,342.46,Single-ply,SBD,M
Boys,74.84,20,Rudy Rodriguez,Dublin,70.67,111.13,72.57,142.88,326.59,Single-ply,SBD,M
Boys,74.84,21,Chico Ramos,Anson,74.66,124.74,77.11,124.74,326.59,Single-ply,SBD,M
Boys,74.84,22,Michael Lozano,Anson,73.84,133.81,65.77,115.67,315.25,Single-ply,SBD,M
Boys,82.1,DQ,Cole Dement,Ranger,75.02,129.27,,,,Single-ply,SBD,M
Boys,82.1,1,Brad Wills,Clyde,81.47,238.14,154.22,226.8,619.15,Single-ply,SBD,M
Boys,82.1,2,Alex Garcia #1,Sweetwater,79.83,181.44,97.52,219.99,498.95,Single-ply,SBD,M
Boys,82.1,3,Carl Pendergrast,Rising Star,78.93,204.12,97.52,192.78,494.42,Single-ply,SBD,M
Boys,82.1,4,Landon Jones,Roscoe,80.1,185.97,102.06,190.51,478.54,Single-ply,SBD,M
Boys,82.1,5,Kenneth Lewis,Abilene Cooper,79.11,185.97,106.59,181.44,474,Single-ply,SBD,M
Boys,82.1,6,Sheldon Libey,Cross Plains,79.92,174.63,102.06,188.24,464.93,Single-ply,SBD,M
Boys,82.1,7,Skyler O'Donald,Clyde,78.47,147.42,124.74,188.24,460.4,Single-ply,SBD,M
Boys,82.1,8,Cody Buczyna,Merkel,78.38,192.78,92.99,170.1,455.86,Single-ply,SBD,M
Boys,82.1,9,Kylon Davis,Hamlin,78.29,170.1,106.59,174.63,451.32,Single-ply,SBD,M
Boys,82.1,10,Kullen Strohl,Clyde,79.83,165.56,97.52,188.24,451.32,Single-ply,SBD,M
Boys,82.1,11,Brandon Black,Clyde,79.92,142.88,102.06,181.44,426.38,Single-ply,SBD,M
Boys,82.1,12,Jeff Early,Clyde,79.83,145.15,102.06,156.49,403.7,Single-ply,SBD,M
Boys,82.1,13,Blake Hammonds,Coleman,77.38,154.22,92.99,154.22,401.43,Single-ply,SBD,M
Boys,82.1,14,Jacob Reicheniker,Tuscola Jim Ned,79.02,136.08,97.52,167.83,401.43,Single-ply,SBD,M
Boys,82.1,15,Zach Hedfelt,Cross Plains,80.47,142.88,92.99,165.56,401.43,Single-ply,SBD,M
Boys,82.1,16,Aberiel Martinez,Abilene,76.84,147.42,90.72,145.15,383.29,Single-ply,SBD,M
Boys,82.1,17,Gabriel Dixon,Abilene,79.02,136.08,86.18,158.76,381.02,Single-ply,SBD,M
Boys,82.1,18,Steven Le,Sweetwater,80.1,129.27,79.38,145.15,353.8,Single-ply,SBD,M
Boys,82.1,19,Damian Hatcher,Dublin,77.11,115.67,97.52,131.54,344.73,Single-ply,SBD,M
Boys,82.1,20,Cade Dement,Ranger,81.92,136.08,83.91,104.33,324.32,Single-ply,SBD,M
Boys,82.1,21,Mason Coldrion,Sweetwater,75.57,113.4,68.04,127.01,308.44,Single-ply,SBD,M
Boys,82.1,DQ,Damien Pattenaude,Ranger,75.84,90.72,,,,Single-ply,SBD,M
Boys,82.1,DQ,Levi Irby,Hawley,81.1,181.44,,,,Single-ply,SBD,M
Boys,82.1,DQ,Seth Thompson,Clyde,76.2,117.93,,,,Single-ply,SBD,M
Boys,89.81,1,Taylor Bailey,Abilene Cooper,86.45,213.19,133.81,197.31,544.31,Single-ply,SBD,M
Boys,99.79,2,Tanner Fannin,Clyde,89.99,192.78,106.59,215.46,514.83,Single-ply,SBD,M
Boys,89.81,3,Steven Lugo,Abilene Cooper,89.54,192.78,113.4,185.97,492.15,Single-ply,SBD,M
Boys,89.81,4,Jacob Lopez,Clyde,88.72,188.24,115.67,183.7,487.61,Single-ply,SBD,M
Boys,89.81,5,Caleb Miller,Clyde,82.55,181.44,122.47,174.63,478.54,Single-ply,SBD,M
Boys,89.81,6,Josh Klingel,Hawley,88.18,213.19,99.79,165.56,478.54,Single-ply,SBD,M
Boys,89.81,7,Angel Barrios,Coleman,86.64,181.44,133.81,158.76,474,Single-ply,SBD,M
Boys,89.81,8,Taz Sims,Abilene,84.19,195.04,104.33,165.56,464.93,Single-ply,SBD,M
Boys,89.81,9,Anthony McLendon,Abilene,88.09,190.51,104.33,163.29,458.13,Single-ply,SBD,M
Boys,89.81,10,Kyle Lambert,Sweetwater,84.28,158.76,115.67,174.63,449.06,Single-ply,SBD,M
Boys,89.81,11,Austin Sellers,Hawley,85,165.56,102.06,181.44,449.06,Single-ply,SBD,M
Boys,89.81,12,Hunter Patterson,Clyde,87.54,161.03,111.13,174.63,446.79,Single-ply,SBD,M
Boys,89.81,13,Zac Toomer,Abilene Cooper,85.09,136.08,115.67,181.44,433.18,Single-ply,SBD,M
Boys,89.81,14,Alex Toomer,Abilene Cooper,84.64,154.22,102.06,170.1,426.38,Single-ply,SBD,M
Boys,89.81,15,Joseph Haddad,Clyde,87.09,151.95,92.99,181.44,426.38,Single-ply,SBD,M
Boys,89.81,16,Jason Gann,Tuscola Jim Ned,88.18,163.29,95.25,163.29,421.84,Single-ply,SBD,M
Boys,89.81,17,Tyler Cagle,Abilene,83.46,170.1,97.52,142.88,410.5,Single-ply,SBD,M
Boys,89.81,18,Russell Holland,Clyde,86.64,161.03,104.33,142.88,408.23,Single-ply,SBD,M
Boys,89.81,19,Tyler Lineweaver,Abilene,86.18,158.76,79.38,154.22,392.36,Single-ply,SBD,M
Boys,89.81,20,Daniel Rodriguez #5,Dublin,88.09,140.61,97.52,151.95,390.09,Single-ply,SBD,M
Boys,89.81,21,Ryan Childress,Abilene,83.01,147.42,83.91,154.22,385.55,Single-ply,SBD,M
Boys,89.81,22,Peter Zeller,Abilene,86.18,142.88,83.91,154.22,381.02,Single-ply,SBD,M
Boys,89.81,23,Austin McLeod,Abilene,87.09,113.4,83.91,181.44,378.75,Single-ply,SBD,M
Boys,89.81,24,Greg Davis,Abilene,85.64,136.08,86.18,142.88,365.14,Single-ply,SBD,M
Boys,99.79,1,Garrison Railsback,Abilene Cooper,99.61,213.19,124.74,226.8,564.72,Single-ply,SBD,M
Boys,99.79,2,Zack Martinez,Tuscola Jim Ned,97.43,226.8,133.81,192.78,553.38,Single-ply,SBD,M
Boys,99.79,3,Austin Thomas,Cross Plains,97.89,229.06,122.47,201.85,553.38,Single-ply,SBD,M
Boys,99.79,4,Rene Aleman,Dublin,96.8,188.24,142.88,192.78,523.9,Single-ply,SBD,M
Boys,99.79,5,Jordan Stokes,Clyde,97.52,190.51,111.13,204.12,505.76,Single-ply,SBD,M
Boys,99.79,6,Chad Easley,Clyde,94.89,185.97,133.81,179.17,498.95,Single-ply,SBD,M
Boys,99.79,7,David Salazar,Abilene Cooper,99.7,181.44,115.67,199.58,496.68,Single-ply,SBD,M
Boys,99.79,8,Brady Odom,Abilene,93.08,185.97,102.06,204.12,492.15,Single-ply,SBD,M
Boys,99.79,9,Shelton Zarate,Coleman,94.98,185.97,115.67,181.44,483.08,Single-ply,SBD,M
Boys,99.79,10,Max Saxon,Clyde,99.43,163.29,111.13,192.78,467.2,Single-ply,SBD,M
Boys,99.79,11,Kendall Rea,Sweetwater,96.16,167.83,108.86,170.1,446.79,Single-ply,SBD,M
Boys,99.79,12,Preston Posuk,Cross Plains,93.35,161.03,79.38,199.58,439.98,Single-ply,SBD,M
Boys,99.79,13,Josh Helzer,Hawley,91.81,151.95,83.91,165.56,401.43,Single-ply,SBD,M
Boys,99.79,14,Michael Woods,Merkel,94.8,161.03,81.65,158.76,401.43,Single-ply,SBD,M
Boys,99.79,15,Oscar Valdez,Clyde,92.26,127.01,74.84,136.08,337.93,Single-ply,SBD,M
Boys,99.79,16,Hunter Fannin,Clyde,98.34,97.52,74.84,127.01,299.37,Single-ply,SBD,M
Boys,99.79,17,Tanner Brown,Abilene Cooper,90.54,102.06,74.84,117.93,294.84,Single-ply,SBD,M
Boys,99.79,DQ,Cory Burns,Sweetwater,93.26,176.9,124.74,,,Single-ply,SBD,M
Boys,109.77,1,Rhett Lawrence,Clyde,107.23,238.14,172.37,215.46,625.96,Single-ply,SBD,M
Boys,109.77,2,Joe Dillard,Abilene Cooper,107.59,226.8,149.69,235.87,612.35,Single-ply,SBD,M
Boys,109.77,3,Jose Escamilla,Abilene Cooper,107.18,226.8,129.27,215.46,571.53,Single-ply,SBD,M
Boys,109.77,4,Corey Hatcher,Roscoe,102.87,217.72,115.67,226.8,560.19,Single-ply,SBD,M
Boys,109.77,5,Chantz Anderson,Abilene,100.43,195.04,122.47,174.63,492.15,Single-ply,SBD,M
Boys,109.77,6,Hunter Johnson,Sweetwater,106.32,172.37,108.86,185.97,467.2,Single-ply,SBD,M
Boys,109.77,7,Brady Tompkins,Abilene,102.97,142.88,108.86,167.83,419.57,Single-ply,SBD,M
Boys,109.77,8,Gatlin Baker,Coleman,104.6,124.74,92.99,151.95,369.68,Single-ply,SBD,M
Boys,109.77,9,Tyler Landeros,Clyde,107.5,142.88,83.91,129.27,356.07,Single-ply,SBD,M
Boys,109.77,10,Danato Gaxiola,Sweetwater,107.95,122.47,72.57,142.88,337.93,Single-ply,SBD,M
Boys,109.77,11,Andrew Davis,Sweetwater,101.51,115.67,77.11,129.27,322.05,Single-ply,SBD,M
Boys,124.74,1,Ed Aguado,Anson,114.76,217.72,122.47,204.12,544.31,Single-ply,SBD,M
Boys,124.74,2,Victor Cruz-Bocanegra,Abilene,123.92,206.38,133.81,204.12,544.31,Single-ply,SBD,M
Boys,124.74,3,Jansen Fox,Rising Star,123.92,215.46,122.47,199.58,537.51,Single-ply,SBD,M
Boys,124.74,4,Malcom Jackson,Sweetwater,120.2,181.44,129.27,172.37,483.08,Single-ply,SBD,M
Boys,124.74,5,Kj McFadden,Merkel,110.95,188.24,97.52,185.97,471.74,Single-ply,SBD,M
Boys,124.74,6,Elijah Elizando,Ranger,116.21,151.95,97.52,158.76,408.23,Single-ply,SBD,M
Boys,124.74,DQ,Jose Garcia,Sweetwater,112.67,204.12,142.88,,,Single-ply,SBD,M
Boys,124.74+,1,Huelon Martinez,Abilene,130,226.8,113.4,183.7,523.9,Single-ply,SBD,M
Boys,124.74+,2,Riley Owens,Abilene Cooper,137.89,206.38,111.13,181.44,498.95,Single-ply,SBD,M
Boys,124.74+,3,Brex Burris,Abilene Cooper,134.44,192.78,111.13,181.44,485.34,Single-ply,SBD,M
Boys,124.74+,DQ,Anthony Evans,Abilene Cooper,131.81,254.01,,,,Single-ply,SBD,M
Boys,124.74+,DQ,Brayden Newcomb,Hawley,126.73,,,,,Single-ply,SBD,M
