Place,Name,Sex,Event,Division,WeightClassKg,Equipment,BirthYear,State,BodyweightKg,Squat1Kg,Squat2Kg,Squat3Kg,Best3SquatKg,Bench1Kg,Bench2Kg,Bench3Kg,Best3BenchKg,Deadlift1Kg,Deadlift2Kg,Deadlift3Kg,Best3DeadliftKg,TotalKg
1,Amber Gomez,F,B,FR-O,72,Raw,1978,TX,66.7,,,,,62.5,-67.5,67.5,67.5,,,,,67.5
1,Rene Alvidrez,M,B,MR-O,93,Raw,1986,TX,88.9,,,,,130,-137.5,-137.5,130,,,,,130
2,Steven Hale,M,B,MR-O,93,Raw,1992,TX,87.6,,,,,115,,,115,,,,,115
1,Michael Flores,M,B,MR-O,120,Raw,1994,TX,111.9,,,,,152.5,165,-177.5,165,,,,,165
1,Ty Denges,M,B,MR-Y2,59,Raw,2006,TX,55.1,,,,,27.5,-30,-30,27.5,,,,,27.5
1,Emilia Kobina,F,D,FR-O,63,Raw,1985,TX,61.42,,,,,,,,,172.5,177.5,-180,177.5,177.5
1,Amber Gomez,F,D,FR-O,72,Raw,1978,TX,66.7,,,,,,,,,-145,150,-160,150,150
1,Rene Alvidrez,M,D,MR-O,93,Raw,1986,TX,88.9,,,,,,,,,250,-272.5,-272.5,250,250
DQ,Brandee Bratton,F,SBD,F-M1a,52,Single-ply,1973,TX,50.95,-90,90,-95,90,-57.5,-57.5,-57.5,,102.5,107.5,-112.5,107.5,
1,Tressa Story,F,SBD,F-M3a,72,Single-ply,1955,TX,68.4,57.5,60,65,65,-37.5,37.5,-40,37.5,80,87.5,95,95,197.5
1,Claudia Shelton,F,SBD,FR-M1a,72,Raw,1977,TX,70.21,85,95,-100,95,52.5,57.5,-60,57.5,105,115,120,120,272.5
1,M. Elizabeth Westerman,F,SBD,FR-M1b,72,Raw,1968,TX,70.19,-87.5,-100,100,100,52.5,-57.5,-57.5,52.5,102.5,107.5,117.5,117.5,270
1,Laurie Murphy,F,SBD,FR-M2a,72,Raw,1966,TX,68.62,102.5,107.5,-112.5,107.5,62.5,67.5,-72.5,67.5,105,112.5,120,120,295
1,Ronnica Flores,F,SBD,FR-O,52,Raw,1990,TX,51.52,107.5,110,-112.5,110,50,-55,-55,50,122.5,130,-137.5,130,290
2,Jennyfer Miron,F,SBD,FR-O,52,Raw,1995,TX,51.91,97.5,105,-112.5,105,52.5,-57.5,-57.5,52.5,127.5,-137.5,-137.5,127.5,285
1,Sylvia Rowland,F,SBD,FR-O,57,Raw,1986,TX,55.3,80,90,-95,90,52.5,57.5,-60,57.5,112.5,125,135,135,282.5
DQ,Claudia Diaz,F,SBD,FR-O,57,Raw,1985,TX,55.26,-92.5,-97.5,-100,,52.5,55,57.5,57.5,112.5,117.5,122.5,122.5,
1,Emilia Kobina,F,SBD,FR-O,63,Raw,1985,TX,61.42,117.5,122.5,-125,122.5,62.5,65,67.5,67.5,172.5,177.5,-180,177.5,367.5
2,Laura McGuill,F,SBD,FR-O,63,Raw,1991,TX,60.79,120,130,135,135,60,65,67.5,67.5,130,142.5,155,155,357.5
3,Brittany Duran,F,SBD,FR-O,63,Raw,1990,TX,62.87,127.5,-130,-130,127.5,57.5,60,-62.5,60,127.5,130,-137.5,130,317.5
4,Paige Bayer,F,SBD,FR-O,63,Raw,1992,TX,61.89,92.5,100,105,105,57.5,-60,-60,57.5,107.5,115,122.5,122.5,285
DQ,Shelby Davee,F,SBD,FR-O,63,Raw,1994,TX,61.16,-85,-85,95,95,-45,-50,-50,,115,122.5,-125,122.5,
1,Amber Gomez,F,SBD,FR-O,72,Raw,1978,TX,66.7,-102.5,102.5,110,110,62.5,-67.5,67.5,67.5,-145,150,-160,150,327.5
2,Alice Hardin,F,SBD,FR-O,72,Raw,1992,TX,69.94,102.5,107.5,112.5,112.5,57.5,62.5,65,65,127.5,135,140,140,317.5
3,M. Elizabeth Westerman,F,SBD,FR-O,72,Raw,1968,TX,70.19,-87.5,-100,100,100,52.5,-57.5,-57.5,52.5,102.5,107.5,117.5,117.5,270
4,Jessica Harsch,F,SBD,FR-O,72,Raw,1994,TX,72,-92.5,92.5,95,95,47.5,52.5,-57.5,52.5,105,110,115,115,262.5
5,Gabriella Coloyan,F,SBD,FR-O,72,Raw,1990,TX,71.54,90,97.5,100,100,55,-60,-60,55,80,90,97.5,97.5,252.5
1,Danielle Wayman,F,SBD,FR-O,84,Raw,1988,TX,83.34,115,127.5,-132.5,127.5,82.5,-87.5,-87.5,82.5,162.5,-172.5,172.5,172.5,382.5
2,Cynthia Corralez,F,SBD,FR-O,84,Raw,1985,TX,78.42,110,115,-127.5,115,-52.5,57.5,-60,57.5,160,167.5,175,175,347.5
3,Mikayla Hines,F,SBD,FR-O,84,Raw,1992,TX,82.5,112.5,117.5,-120,117.5,50,52.5,55,55,130,135,140,140,312.5
4,Isabel Norton-Lago,F,SBD,FR-O,84,Raw,1982,FL,73.8,95,100,105,105,-57.5,-57.5,57.5,57.5,115,125,132.5,132.5,295
1,Chanson Hayes,F,SBD,FR-O,84+,Raw,1986,TX,105.75,122.5,135,140,140,72.5,80,-90,80,137.5,150,160,160,380
2,Stephanie Davidson,F,SBD,FR-O,84+,Raw,1985,TX,105.18,135,142.5,150,150,55,62.5,65,65,142.5,152.5,157.5,157.5,372.5
3,Robyn Swift,F,SBD,FR-O,84+,Raw,1980,TX,101.03,132.5,-140,142.5,142.5,55,60,65,65,160,-162.5,-162.5,160,367.5
4,Kasey Kotara,F,SBD,FR-O,84+,Raw,1988,TX,134.12,75,80,85,85,57.5,-65,65,65,132.5,140,-147.5,140,290
1,Maya Kirl,F,SBD,FR-T2,57,Raw,2000,TX,55.6,60,62.5,67.5,67.5,42.5,47.5,50,50,70,80,85,85,202.5
1,Alexis Rodriguez #2,F,SBD,FR-T2,84,Raw,1999,TX,77.78,77.5,82.5,-87.5,82.5,35,40,42.5,42.5,112.5,120,127.5,127.5,252.5
1,Kaylie Perez,F,SBD,FR-T2,84+,Raw,1999,TX,104.47,132.5,137.5,145,145,62.5,67.5,70,70,140,150,-157.5,150,365
1,Celeste Godinez,F,SBD,FR-Y1,30,Raw,2008,TX,29.55,32.5,37.5,42.5,42.5,20,25,-27.5,25,30,42.5,50,50,117.5
1,Brianna Temby,F,SBD,FR-T2,72,Raw,2000,TX,66.43,65,70,-80,70,42.5,-45,-45,42.5,102.5,107.5,110,110,222.5
1,Clarissa Garcia,F,SBD,F-T3,47,Single-ply,1998,TX,46.27,80,85,95,95,45,50,-55,50,97.5,102.5,107.5,107.5,252.5
1,Jacob de la Paz,M,SBD,M-Jr,74,Single-ply,1996,TX,72,60,,,60,137.5,145,-147.5,145,-250,250,-260,250,455
DQ,Carlos Nunez Jr,M,SBD,M-O,93,Single-ply,1984,TX,91.4,-142.5,-147.5,-147.5,,110,-112.5,112.5,112.5,180,-185,-185,180,
1,JC Wright,M,SBD,M-O,105,Single-ply,1986,TX,103.5,317.5,332.5,-340,332.5,-200,200,205,205,302.5,312.5,320,320,857.5
1,Justin Hinh,M,SBD,MR-Jr,66,Raw,1995,TX,64.1,155,-177.5,-177.5,155,85,-95,-95,85,165,192.5,-205,192.5,432.5
1,Alex Danh,M,SBD,MR-Jr,74,Raw,1994,TX,72.7,165,167.5,170,170,87.5,95,-105,95,217.5,227.5,-240,227.5,492.5
1,Hunter LeGrange,M,SBD,MR-Jr,83,Raw,1995,TX,77.4,172.5,-185,192.5,192.5,-107.5,115,122.5,122.5,227.5,245,260,260,575
1,Quinton Maynor,M,SBD,MR-Jr,93,Raw,1997,TX,91.7,207.5,217.5,-225,217.5,-120,-120,125,125,247.5,257.5,-265,257.5,600
2,Andrew Berry,M,SBD,MR-Jr,93,Raw,1995,TX,91.8,170,185,192.5,192.5,110,115,122.5,122.5,215,230,240,240,555
3,Chase Rau,M,SBD,MR-Jr,93,Raw,1994,TX,84.5,167.5,177.5,192.5,192.5,120,127.5,130,130,205,215,227.5,227.5,550
1,Chris Marcom,M,SBD,MR-Jr,105,Raw,1997,TX,94.6,215,,,215,-137.5,-150,150,150,265,277.5,-285,277.5,642.5
2,Raphel Watson,M,SBD,MR-Jr,105,Raw,1997,TX,103.9,-207.5,-215,215,215,150,165,-172.5,165,207.5,222.5,-237.5,222.5,602.5
3,Brandon Morales,M,SBD,MR-Jr,105,Raw,1995,TX,94.1,-192.5,-205,205,205,130,-140,-140,130,240,250,-257.5,250,585
1,Jeremiah Mowdy,M,SBD,MR-Jr,120,Raw,1994,TX,119.8,250,267.5,275,275,-175,175,-182.5,175,265,280,287.5,287.5,737.5
1,Michael McQueen,M,SBD,MR-M1b,93,Raw,1971,TX,92.4,-207.5,207.5,-217.5,207.5,150,-162.5,-162.5,150,-220,220,,220,577.5
1,Joseph Songco,M,SBD,MR-O,66,Raw,1991,TX,63.1,62.5,-77.5,-82.5,62.5,62.5,-77.5,77.5,77.5,110,122.5,-137.5,122.5,262.5
DQ,Amish Menon,M,SBD,MR-O,66,Raw,1993,TX,62.2,125,130,132.5,132.5,-92.5,-92.5,-92.5,,185,190,195,195,
1,John Zavala,M,SBD,MR-O,74,Raw,1987,TX,69.4,157.5,162.5,177.5,177.5,125,135,-145,135,195,215,-235,215,527.5
2,Luis Bosch,M,SBD,MR-O,74,Raw,1990,TX,70.3,170,-180,-180,170,117.5,127.5,130,130,192.5,205,-212.5,205,505
3,Kevin Kusumoto,M,SBD,MR-O,74,Raw,1989,TX,73.6,155,165,-175,165,110,120,125,125,190,200,210,210,500
4,Alex Tran,M,SBD,MR-O,74,Raw,1992,TX,72.3,150,-160,-160,150,100,110,115,115,165,180,190,190,455
5,Sean Torres,M,SBD,MR-O,74,Raw,1992,TX,71.2,125,130,137.5,137.5,-92.5,92.5,105,105,150,157.5,165,165,407.5
1,Max Eremin,M,SBD,MR-O,83,Raw,1982,TX,81.1,195,205,212.5,212.5,107.5,-115,120,120,210,220,227.5,227.5,560
2,Eduardo Pereyra,M,SBD,MR-O,83,Raw,1992,TX,82.6,182.5,-185,190,190,105,110,-115,110,240,-247.5,-250,240,540
3,Yanni Desai,M,SBD,MR-O,83,Raw,1994,TX,76.9,150,160,177.5,177.5,95,-100,-105,95,190,200,210,210,482.5
4,Ian Harris,M,SBD,MR-O,83,Raw,1993,NC,81.4,165,170,-175,170,107.5,112.5,115,115,165,170,177.5,177.5,462.5
5,Stephen Cangemi,M,SBD,MR-O,83,Raw,1980,TX,81.8,147.5,-150,-150,147.5,132.5,-140,-145,132.5,-167.5,167.5,170,170,450
6,Hector Rodriguez,M,SBD,MR-O,83,Raw,1985,TX,76.5,135,142.5,155,155,92.5,100,105,105,150,165,177.5,177.5,437.5
1,Austin Baraki,M,SBD,MR-O,93,Raw,1989,TX,90.9,250,265,-272.5,265,145,155,162.5,162.5,270,290,300,300,727.5
2,Keith Fisher,M,SBD,MR-O,93,Raw,1988,TX,91.1,222.5,-227.5,,222.5,147.5,155,162.5,162.5,242.5,247.5,250,250,635
3,Jared Hidalgo,M,SBD,MR-O,93,Raw,1982,TX,89.9,215,225,230,230,150,160,-165,160,232.5,237.5,-242.5,237.5,627.5
4,Joel Botello,M,SBD,MR-O,93,Raw,1984,TX,89.1,-215,220,-230,220,142.5,145,-150,145,230,240,-250,240,605
5,Quinton Maynor,M,SBD,MR-O,93,Raw,1997,TX,91.7,207.5,217.5,-225,217.5,-120,-120,125,125,247.5,257.5,-265,257.5,600
6,Rene Alvidrez,M,SBD,MR-O,93,Raw,1986,TX,88.9,210,-220,-220,210,130,-137.5,-137.5,130,250,-272.5,-272.5,250,590
7,Alexis Garcia #8,M,SBD,MR-O,93,Raw,1994,TX,84.3,185,190,197.5,197.5,120,130,-142.5,130,212.5,230,-237.5,230,557.5
8,Andrew Berry,M,SBD,MR-O,93,Raw,1995,TX,91.8,170,185,192.5,192.5,110,115,122.5,122.5,215,230,240,240,555
9,John Kornbacher,M,SBD,MR-O,93,Raw,1985,TX,92.1,175,185,192.5,192.5,-120,120,-125,120,185,192.5,207.5,207.5,520
10,Salvador Solis III,M,SBD,MR-O,93,Raw,1987,TX,92.6,167.5,-177.5,177.5,177.5,105,110,115,115,185,195,210,210,502.5
11,Joshua Woodall,M,SBD,MR-O,93,Raw,1988,TX,91.5,130,135,140,140,112.5,117.5,122.5,122.5,172.5,182.5,-185,182.5,445
12,Kyle Lovell,M,SBD,MR-O,93,Raw,1997,TX,92.8,-125,125,-142.5,125,92.5,97.5,102.5,102.5,142.5,165,-185,165,392.5
1,Christavo Washington,M,SBD,MR-O,105,Raw,1991,TX,99,-225,227.5,247.5,247.5,142.5,152.5,160,160,240,255,275,275,682.5
2,Chris Marcom,M,SBD,MR-O,105,Raw,1997,TX,94.6,-215,-215,215,215,-137.5,-150,150,150,265,277.5,-285,277.5,642.5
3,Shawn Jawaid,M,SBD,MR-O,105,Raw,1994,TX,102.2,187.5,202.5,215,215,135,150,-160,150,242.5,260,272.5,272.5,637.5
4,Murray Mclellan,M,SBD,MR-O,105,Raw,1992,TX,100.5,222.5,230,240,240,-130,137.5,147.5,147.5,225,232.5,247.5,247.5,635
5,Raphel Watson,M,SBD,MR-O,105,Raw,1997,TX,103.9,-207.5,-215,215,215,150,165,-172.5,165,207.5,222.5,-237.5,222.5,602.5
6,Rhode Rodriguez,M,SBD,MR-O,105,Raw,1987,TX,104.3,210,-225,-230,210,137.5,142.5,147.5,147.5,230,245,-257.5,245,602.5
7,Michael Green,M,SBD,MR-O,105,Raw,1986,TX,102.4,180,190,-195,190,140,142.5,-147.5,142.5,255,-265,-265,255,587.5
8,Jesse Elizardo,M,SBD,MR-O,105,Raw,1986,TX,104.2,-147.5,147.5,162.5,162.5,102.5,-110,110,110,150,160,165,165,437.5
1,Jeremiah Mowdy,M,SBD,MR-O,120,Raw,1994,TX,119.8,250,267.5,275,275,-175,175,-182.5,175,265,280,287.5,287.5,737.5
2,DeAndrae Kirtz,M,SBD,MR-O,120,Raw,1992,TX,118.8,-250,250,-265,250,185,195,-202.5,195,262.5,275,287.5,287.5,732.5
3,Jason Garcia,M,SBD,MR-O,120,Raw,1979,TX,118.8,175,192.5,200,200,170,180,-192.5,180,205,220,230,230,610
4,Brandon Byrd #1,M,SBD,MR-O,120,Raw,1985,TX,118.7,140,-157.5,-157.5,140,105,-110,-110,105,185,195,210,210,455
1,Gilberto Neira Jr,M,SBD,MR-O,120+,Raw,1982,TX,125.1,225,-235,240,240,-135,135,145,145,222.5,235,245,245,630
2,Fausto Guerrero,M,SB,MR-O,120+,Raw,1986,TX,134.2,-170,170,-180,170,140,150,160,160,,,,,330
1,Evan Orlandi,M,SBD,MR-TJ,83,Raw,1999,TX,78.5,135,142.5,150,150,-77.5,85,92.5,92.5,142.5,150,-162.5,150,392.5
1,Mitchell Rees,M,SBD,MR-T2,93,Raw,1999,TX,87.2,-245,-250,250,250,120,132.5,137.5,137.5,240,-255,-255,240,627.5
2,Mark Vavra,M,SBD,MR-T2,93,Raw,2000,TX,91.3,175,-187.5,195,195,120,130,137.5,137.5,185,192.5,200,200,532.5
1,Abraham Ramirez #2,M,SBD,MR-T3,74,Raw,1997,TX,73.4,-207.5,-207.5,207.5,207.5,145,-157.5,,145,-227.5,227.5,235,235,587.5
1,Javier Macias,M,SBD,MR-T3,83,Raw,1998,TX,78,157.5,165,167.5,167.5,92.5,102.5,105,105,160,172.5,177.5,177.5,450
1,Logan Edwards,M,SBD,MR-T3,105,Raw,1997,TX,95.4,165,175,185,185,105,110,-117.5,110,195,197.5,200,200,495
1,Austen Flores,M,SBD,MR-T3,120,Raw,1999,TX,109.7,187.5,200,207.5,207.5,120,127.5,-130,127.5,250,270,275,275,610
1,Matthew Longoria,M,SBD,M-T2,59,Single-ply,2000,TX,58.3,-175,-175,175,175,135,145,-147.5,145,175,185,192.5,192.5,512.5
1,Emilia Kobina,F,BD,FR-O,63,Raw,1985,TX,61.42,,,,,62.5,65,67.5,67.5,172.5,177.5,-180,177.5,245
1,Sandra Sebastian,F,BD,FR-O,72,Raw,1986,TX,70.67,,,,,80,-85,-85,80,172.5,182.5,-192.5,182.5,262.5
2,Amber Gomez,F,BD,FR-O,72,Raw,1978,TX,66.7,,,,,62.5,-67.5,67.5,67.5,-145,150,-160,150,217.5
1,Rene Alvidrez,M,BD,MR-O,93,Raw,1986,TX,88.9,,,,,130,-137.5,-137.5,130,250,-272.5,-272.5,250,380
1,Valente Inniss-Thompson,M,BD,MR-O,120,Raw,1985,TX,117.9,,,,,197.5,205,-210,205,225,237.5,-242.5,237.5,442.5
