Division,WeightClassKg,Place,Name,Team,BodyweightKg,Best3SquatKg,Best3BenchKg,Best3DeadliftKg,TotalKg,Equipment,Event,Sex
Boys,51.71,1,Jaime Rios,Big Lake Reagan County,49.9,108.86,68.04,131.54,308.44,Single-ply,SBD,M
Boys,51.71,2,Andrick Ramirez,Fort Stockton,49.44,104.33,63.5,102.06,269.89,Single-ply,SBD,M
Boys,51.71,DQ,Alex Lujan,Fort Stockton,51.71,92.99,,,,Single-ply,SBD,M
Boys,55.79,1,Raul Rey,Big Lake Reagan County,54.98,161.03,79.38,181.44,421.84,Single-ply,SBD,M
Boys,55.79,2,Tony Ortiz,Big Lake Reagan County,55.79,131.54,83.91,149.69,365.14,Single-ply,SBD,M
Boys,55.79,3,Zaniel Florez,Kermit,54.07,117.93,70.31,136.08,324.32,Single-ply,SBD,M
Boys,55.79,4,Kendrick Porras,Fort Stockton,53.89,111.13,45.36,131.54,288.03,Single-ply,SBD,M
Boys,59.87,1,Sergio Gonzalez,Big Lake Reagan County,58.74,122.47,63.5,133.81,319.78,Single-ply,SBD,M
Boys,59.87,DQ,Bryan Marquez,Andrews,58.6,61.23,,,,Single-ply,SBD,M
Boys,67.13,1,Juan Salgado,Fort Stockton,65.54,161.03,117.93,158.76,437.72,Single-ply,SBD,M
Boys,67.13,2,Adan Gonzales,McCamey,62.51,113.4,68.04,106.59,288.03,Single-ply,SBD,M
Boys,67.13,3,Xavier Urias,McCamey,61.6,104.33,68.04,104.33,276.69,Single-ply,SBD,M
Boys,67.13,4,Franklin Price,Kermit,66.22,90.72,65.77,95.25,251.74,Single-ply,SBD,M
Boys,67.13,5,Travis Handley,Andrews,66.95,74.84,68.04,104.33,247.21,Single-ply,SBD,M
Boys,67.13,6,Sawyer Jackson,Alpine,63.96,56.7,58.97,88.45,204.12,Single-ply,SBD,M
Boys,74.84,1,David Guerrero,Big Lake Reagan County,67.49,174.63,86.18,145.15,405.97,Single-ply,SBD,M
Boys,74.84,2,Gabriel Mendoza,Kermit,73.48,147.42,83.91,163.29,394.63,Single-ply,SBD,M
Boys,74.84,3,Jalen Ybarra,Crane,72.35,138.35,83.91,167.83,390.09,Single-ply,SBD,M
Boys,74.84,4,Jacob Guy,Andrews,72.21,83.91,43.09,83.91,210.92,Single-ply,SBD,M
Boys,82.1,1,Matthew Everett,Fort Stockton,77.2,210.92,106.59,210.92,528.44,Single-ply,SBD,M
Boys,82.1,2,Juan Saucedo,Big Lake Reagan County,82.1,145.15,106.59,158.76,410.5,Single-ply,SBD,M
Boys,82.1,3,Caden Johnson,McCamey,78.65,136.08,92.99,154.22,383.29,Single-ply,SBD,M
Boys,82.1,4,Hernan Hernandez,Kermit,75.52,138.35,92.99,147.42,378.75,Single-ply,SBD,M
Boys,82.1,5,Juan Hinojos,Andrews,80.29,127.01,79.38,151.95,358.34,Single-ply,SBD,M
Boys,82.1,6,Steven Avila,Andrews,80.38,115.67,92.99,124.74,333.39,Single-ply,SBD,M
Boys,82.1,7,Jesus Lara,Kermit,78.47,117.93,79.38,124.74,322.05,Single-ply,SBD,M
Boys,82.1,8,Nathan Flora,Andrews,78.93,102.06,68.04,129.27,299.37,Single-ply,SBD,M
Boys,82.1,9,Ivan Salinas,Wink,79.83,124.74,61.23,102.06,288.03,Single-ply,SBD,M
Boys,82.1,10,Rigo Molina,McCamey,79.38,108.86,49.9,106.59,265.35,Single-ply,SBD,M
Boys,82.1,11,Marco Martínez,Alpine,78.47,65.77,40.82,102.06,208.65,Single-ply,SBD,M
Boys,89.81,1,Nico Ortiz,Big Lake Reagan County,89.81,217.72,129.27,185.97,532.97,Single-ply,SBD,M
Boys,89.81,2,Ernesto Ornelas,Monahans,83.19,183.7,129.27,190.51,503.49,Single-ply,SBD,M
Boys,89.81,3,Issahia Valenzuela,Big Lake Reagan County,83.69,185.97,95.25,185.97,467.2,Single-ply,SBD,M
Boys,89.81,4,Andre Burling,Alpine,88.81,158.76,99.79,201.85,460.4,Single-ply,SBD,M
Boys,89.81,5,Axel Nuno,Crane,82.55,163.29,108.86,147.42,419.57,Single-ply,SBD,M
Boys,89.81,6,Alan Rodriguez,Andrews,87.91,151.95,102.06,165.56,419.57,Single-ply,SBD,M
Boys,89.81,7,Mikial Burralo,Kermit,88.68,147.42,97.52,163.29,408.23,Single-ply,SBD,M
Boys,89.81,8,Gustavo Marin,Fort Stockton,88.99,147.42,97.52,147.42,392.36,Single-ply,SBD,M
Boys,89.81,9,Sylis Vidana,Monahans,85.91,129.27,77.11,145.15,351.53,Single-ply,SBD,M
Boys,89.81,10,Alexandro Mucharraz,Alpine,87.09,136.08,81.65,129.27,347,Single-ply,SBD,M
Boys,89.81,11,Ryan Gooch,Alpine,89.81,113.4,63.5,136.08,312.98,Single-ply,SBD,M
Boys,89.81,12,Edgar Cabellero,Monahans,87.18,108.86,65.77,131.54,306.17,Single-ply,SBD,M
Boys,89.81,13,Oscar Cornero,Andrews,82.55,79.38,45.36,113.4,238.14,Single-ply,SBD,M
Boys,89.81,14,Javier Hernandez,Iraan,88.63,136.08,,,136.08,Single-ply,S,M
Boys,89.81,DQ,Samuel Clendenen,Crane,86.64,,,,,Single-ply,SBD,M
Boys,89.81,DQ,Ashton Vega,Alpine,83.91,,,,,Single-ply,SBD,M
Boys,89.81,DQ,Kodee Warrner,Big Lake Reagan County,86.18,,,,,Single-ply,SBD,M
Boys,99.79,1,Hayden Pipkin,Monahans,97.89,215.46,145.15,199.58,560.19,Single-ply,SBD,M
Boys,99.79,2,Donnie De La Cruz,Fort Stockton,98.66,188.24,104.33,172.37,464.93,Single-ply,SBD,M
Boys,99.79,3,Max Zuniga,Crane,98.7,183.7,97.52,183.7,464.93,Single-ply,SBD,M
Boys,99.79,4,Josue Vasquez,Kermit,94.35,185.97,113.4,161.03,460.4,Single-ply,SBD,M
Boys,99.79,5,Paul Walker #2,Crane,94.8,167.83,97.52,156.49,421.84,Single-ply,SBD,M
Boys,99.79,6,Angelo Lopez,Kermit,99.7,158.76,88.45,147.42,394.63,Single-ply,SBD,M
Boys,99.79,7,Jose Jimenez,Andrews,98.61,129.27,88.45,158.76,376.48,Single-ply,SBD,M
Boys,99.79,8,Mack Payne,Wink,91.85,136.08,72.57,136.08,344.73,Single-ply,SBD,M
Boys,99.79,9,Ethan Purcell,Wink,94.35,136.08,83.91,124.74,344.73,Single-ply,SBD,M
Boys,99.79,10,Candelario Saldana,McCamey,92.71,97.52,49.9,111.13,258.55,Single-ply,SBD,M
Boys,99.79,DQ,Clarence Farrow,Kermit,98.52,124.74,,,,Single-ply,SBD,M
Boys,109.77,1,Matthew Underwood,Wink,108.64,226.8,102.06,158.76,487.61,Single-ply,SBD,M
Boys,109.77,2,Andrew Castro,Fort Stockton,109.41,179.17,97.52,151.95,428.64,Single-ply,SBD,M
Boys,109.77,3,Devon Butler,Crane,107.5,149.69,122.47,149.69,421.84,Single-ply,SBD,M
Boys,109.77,4,Juan Pulido,Crane,102.87,161.03,74.84,174.63,410.5,Single-ply,SBD,M
Boys,109.77,5,Justin Glass,Big Lake Reagan County,108.18,156.49,92.99,149.69,399.16,Single-ply,SBD,M
Boys,109.77,6,Alejandro Valenzuela,Alpine,106.5,140.61,74.84,140.61,356.07,Single-ply,SBD,M
Boys,109.77,DQ,Cade Bayer,Fort Stockton,109.32,142.88,,,,Single-ply,SBD,M
Boys,109.77,DQ,Jayson Pagan,McCamey,109.77,,,,,Single-ply,SBD,M
Boys,124.74,1,Tristan Ortiz,Big Lake Reagan County,113.85,301.64,154.22,244.94,700.8,Single-ply,SBD,M
Boys,124.74,2,Darius Pando,Kermit,112.49,204.12,97.52,204.12,505.76,Single-ply,SBD,M
Boys,124.74,3,Raziel Burralo,Kermit,121.65,185.97,136.08,183.7,505.76,Single-ply,SBD,M
Boys,124.74,4,Isaiah Garcia,McCamey,113.04,147.42,70.31,142.88,360.61,Single-ply,SBD,M
Boys,124.74,DQ,Gerry Salazar,McCamey,110.68,,,,,Single-ply,SBD,M
Boys,124.74,DQ,Kyle Coffee,Monahans,123.29,113.4,74.84,,,Single-ply,SBD,M
Boys,124.74+,1,Ralph Navarette,Crane,164.74,226.8,124.74,229.06,580.6,Single-ply,SBD,M
Boys,124.74+,2,Alexis Rosas,Crane,128.28,219.99,154.22,204.12,578.33,Single-ply,SBD,M
Boys,124.74+,3,Jonathan Gomez #1,Fort Stockton,139.25,183.7,92.99,176.9,453.59,Single-ply,SBD,M
