Name,WeightClassKg,Division,AgeRange,Sex,BodyweightKg,Age,Squat1Kg,Squat2Kg,Squat3Kg,Best3SquatKg,Squat4Kg,Bench1Kg,Bench2Kg,Bench3Kg,Best3BenchKg,Bench4Kg,Deadlift1Kg,Deadlift2Kg,Deadlift3Kg,Best3DeadliftKg,Deadlift4Kg,TotalKg,Event,Equipment,Place
Courtney Lesson,56,F_TEM_2_AAPF,16-17,F,54.88,,,,,112.5,,,,,55,57.5,,,,122.5,123.5,290,SBD,Multi-ply,1
Margaret Kirkland,52,F_SEM_AAPF,33-39,F,,,,,,143,,,,,75,,,,,142.5,,360.5,SBD,Multi-ply,1
Deborah Montgomery,67.5,F_SEM_AAPF,33-39,F,,,,,,120,,,,,72.5,,,,,142.5,,335,SBD,Multi-ply,1
Margaret Kirkland,52,F_OEM_AAPF,,F,,,,,,143,,,,,75,,,,,142.5,,360.5,SBD,Multi-ply,1
Sonji Baldwin,67.5,F_OEM_AAPF,,F,,,,,,157.5,,,,,105,,,,,162.5,,425,SBD,Multi-ply,1
Deborah Montgomery,67.5,F_OEM_AAPF,,F,,,,,,120,,,,,72.5,,,,,142.5,,335,SBD,Multi-ply,2
Brooke Fineis,75,F_OEM_AAPF,,F,,,160,175,185,185,190,85,92.5,97.5,97.5,,132.5,145,150,150,-157.5,432.5,SBD,Multi-ply,1
Pascale Lercangee,82.5,F_OEM_AAPF,,F,,,,,,102.5,,,,,,,,,,,,,SBD,Multi-ply,DQ
Melissa Aguirre,82.5,F_OEM_AAPF,,F,,,,,,65,,,,,40,,,,,95,,200,SBD,Multi-ply,1
Pat Casper,56,F_MEM_X_AAPF,40-999,F,,,,,,112.5,,,,,67.5,,,,,125,,305,SBD,Multi-ply,1
Nathan Smith #11,52,M_TEM_1_AAPF,13-15,M,47.17,14,,,,65,,,,,32.5,,,,,77.5,,175,SBD,Multi-ply,1
Daiel Van Huse,60,M_TEM_1_AAPF,13-15,M,,,,,,102.5,,,,,67.5,,,,,120,,290,SBD,Multi-ply,1
Zach Zenzen,82.5,M_TEM_1_AAPF,13-15,M,,,,,,190,,,,,107.5,-108,,,,185,,482.5,SBD,Multi-ply,1
Casey Frizzel,82.5,M_TEM_1_AAPF,13-15,M,,,,,,182.5,,,,,105,-108,,,,182.5,,470,SBD,Multi-ply,2
Eric Stone,82.5,M_TEM_3_AAPF,18-19,M,,,,,,225,,,,,135,,,,,205,,565,SBD,Multi-ply,1
Paul Allen,100,M_TEM_2_AAPF,16-17,M,,16,,,,227.5,,,,,112.5,,,,,215,,555,SBD,Multi-ply,1
Luke Bevill,82.5,M_JEM_AAPF,20-23,M,,,,,,215,,,,,145,,,,,192.5,,552.5,SBD,Multi-ply,1
Donald Beasock,82.5,M_JEM_AAPF,20-23,M,,,,,,212.5,,,,,122.5,,,,,195,,530,SBD,Multi-ply,2
Alex Escobar,90,M_JEM_AAPF,20-23,M,,,,,,230,,,,,115,,,,,,,,SBD,Multi-ply,DQ
Nathan Dutile,125,M_JEM_AAPF,20-23,M,,20,,,,262.5,,,,,195,,,,,272.5,,730,SBD,Multi-ply,1
Robert Leoni,56,M_OEM_AAPF,,M,,,,,,112.5,,,,,55,,,,,122.5,,290,SBD,Multi-ply,1
T. Frieght,67.5,M_OEM_AAPF,,M,,,,,,142.5,,,,,87.5,,,,,152.5,,382.5,SBD,Multi-ply,1
Joe Espy,75,M_OEM_AAPF,,M,,29,,,,220,,,,,142.5,,,,,205,,567.5,SBD,Multi-ply,1
Scott Sheppard,82.5,M_OEM_AAPF,,M,,,,,,212.5,,,,,157.5,,,,,225,,595,SBD,Multi-ply,1
Joey Keith,82.5,M_OEM_AAPF,,M,,,,,,210,,,,,112.5,,,,,210,,532.5,SBD,Multi-ply,2
Joseph Aguirre,82.5,M_OEM_AAPF,,M,,,,,,115,,,,,80,,,,,160,,355,SBD,Multi-ply,3
Chip Holston,90,M_OEM_AAPF,,M,,,,,,280,,,,,190,,,,,265,,735,SBD,Multi-ply,1
Bryan Ottey,90,M_OEM_AAPF,,M,,,,,,202.5,,,,,147.5,,,,,230,,580,SBD,Multi-ply,2
Michael Szudarek,100,M_OEM_AAPF,,M,,,,,,322.5,,,,,157.5,,,,,282.5,,762.5,SBD,Multi-ply,1
Dick Zenzen,100,M_OEM_AAPF,,M,,,,,,262.5,,,,,147.5,,,,,227.5,,637.5,SBD,Multi-ply,2
Andrew Connors,110,M_OEM_AAPF,,M,,,,,,300,,,,,237.5,,,,,287.5,,825,SBD,Multi-ply,1
Roland Ingrisano,110,M_OEM_AAPF,,M,,,,,,245,,,,,132.5,,,,,242.5,,620,SBD,Multi-ply,2
Dave Holm,110,M_OEM_AAPF,,M,,,,,,192.5,,,,,142.5,,,,,245,,580,SBD,Multi-ply,3
Tim Lie,125,M_OEM_AAPF,,M,,,,,,295,,,,,210,,,,,250,,755,SBD,Multi-ply,1
David Vonton,125,M_OEM_AAPF,,M,,,,,,290,,,,,185,,,,,255,,730,SBD,Multi-ply,2
Pat Schaub,125,M_OEM_AAPF,,M,,,,,,237.5,,,,,182.5,,,,,250,,670,SBD,Multi-ply,3
Scott Edmiston,140,M_OEM_AAPF,,M,,,,,,350,,,,,205,,,,,290,,845,SBD,Multi-ply,1
Robert Johnson,140,M_OEM_AAPF,,M,,,,,,307.5,,,,,222.5,,,,,242.5,,772.5,SBD,Multi-ply,2
Vae Mafuli,140+,M_OEM_AAPF,,M,,,,,,320,,,,,185,,,,,272.5,,777.5,SBD,Multi-ply,1
Dyke Naughton,75,M_SEM_AAPF,33-39,M,,,,,,232.5,,,,,171.5,,,,,192.5,,596.5,SBD,Multi-ply,1
Adam Yezer,75,M_SEM_AAPF,33-39,M,,,,,,242.5,,,,,137.5,,,,,205,,585,SBD,Multi-ply,2
Bryan Ottey,90,M_SEM_AAPF,33-39,M,,,,,,202.5,,,,,142.5,,,,,240,,585,SBD,Multi-ply,1
B. Davis,90,M_SEM_AAPF,33-39,M,,,,,,155,,,,,102.5,,,,,160,,417.5,SBD,Multi-ply,2
Mike Wlosinski,125,M_SEM_AAPF,33-39,M,,,,,,332.5,,,,,207.5,,,,,305,,845,SBD,Multi-ply,1
Tom Sunshine,67.5,M_MEM_1_AAPF,40-44,M,,42,,,,160,,,,,117.5,,,,,180,,457.5,SBD,Multi-ply,1
Thomas Feight,67.5,M_MEM_4_AAPF,55-59,M,,55,,,,142.5,,,,,87.5,,,,,152.5,,382.5,SBD,Multi-ply,1
Fred Glass,67.5,M_MEM_6_AAPF,65-69,M,,65,155,175,,175,,,,,67.5,,,,,192.5,,435,SBD,Multi-ply,1
Richard Flores #1,75,M_MEM_5_AAPF,60-64,M,,64,,,,232.5,,,,,120,,,,,242.5,,595,SBD,Multi-ply,1
John Upton,75,M_MEM_8_AAPF,75-79,M,,79,,,,102.5,,,,,102.5,,,,,132.5,,337.5,SBD,Multi-ply,1
Jeff Mumaw,82.5,M_MEM_1_AAPF,40-44,M,,,,,,235,,,,,130,,,,,255,,620,SBD,Multi-ply,1
Keith Penny,82.5,M_MEM_1_AAPF,40-44,M,,,,,,217.5,,,,,125,,,,,275.5,,618,SBD,Multi-ply,2
Joey Keith,82.5,M_MEM_1_AAPF,40-44,M,,,,,,210,,,,,112.5,,,,,210,,532.5,SBD,Multi-ply,3
Michael Larsen,82.5,M_MEM_1_AAPF,40-44,M,,,,,,197.5,,,,,87.5,,,,,192.5,,477.5,SBD,Multi-ply,4
Les Cramer,82.5,M_MEM_5_AAPF,60-64,M,,,187.5,199.5,206,206,,,127.5,,127.5,,172.5,-190.5,-190.5,172.5,,506,SBD,Multi-ply,1
Gary Clayman,90,M_MEM_1_AAPF,40-44,M,,,,,,257.5,,,,,192.5,,,,,265,,715,SBD,Multi-ply,1
Eric Sapienza,90,M_MEM_3_AAPF,50-54,M,,,,,,185,,,,,132.5,,,,,185,,502.5,SBD,Multi-ply,1
Roy Barnes,90,M_MEM_4_AAPF,55-59,M,,,-247.5,-247.5,247.5,247.5,,,,,145,,,,,175,,567.5,SBD,Multi-ply,1
Burt Rosenfield,90,M_MEM_7_AAPF,70-74,M,,70,,,,150,,,,,130,,,,,182.5,,462.5,SBD,Multi-ply,1
Robert Darosh,100,M_MEM_1_AAPF,40-44,M,,40,,,,210,,,,,157.5,,,,,192.5,,560,SBD,Multi-ply,1
Larry Gnat,100,M_MEM_2_AAPF,45-49,M,,,,,,267.5,,,,,185,,,,,215,,667.5,SBD,Multi-ply,1
Dick Zenzen,100,M_MEM_2_AAPF,45-49,M,,,,,,262.5,,,,,147.5,,,,,227.5,,637.5,SBD,Multi-ply,2
W. Cooper,100,M_MEM_2_AAPF,45-49,M,,,,,,230,,,,,150,,,,,230,,610,SBD,Multi-ply,3
Barry Sheppard,110,M_MEM_1_AAPF,40-44,M,,,,,,277.5,,,,,205,,,,,250,,732.5,SBD,Multi-ply,1
Tom Roman,125,M_MEM_2_AAPF,45-49,M,,,,,,245,,,,,160,,,,,240,,645,SBD,Multi-ply,1
Howard Miller,125,M_MEM_2_AAPF,45-49,M,,,,,,192.5,,,,,150,,,,,227.5,,570,SBD,Multi-ply,2
Fred Rucker,140,M_MEM_1_AAPF,40-44,M,,,,,,235,,,,,180,,,,,240,,655,SBD,Multi-ply,1
Charles Clonce,140,M_MEM_4_AAPF,55-59,M,,,,,,262.5,,,,,165,,,,,250,,677.5,SBD,Multi-ply,1
Angelia Aguirre,44,F_TEM_1_AAPF,13-15,F,24.95,,,,,,,,,,25,,,,,,,25,B,Multi-ply,1
S. Reese,56,F_OEM_AAPF,,F,,,,,,,,,,,67.5,,,,,,,67.5,B,Multi-ply,1
Margaret Clonce,90+,F_MEM_4_AAPF,55-59,F,,,,,,,,,,,70,,,,,,,70,B,Multi-ply,1
John Upton,75,M_MEM_7_AAPF,70-74,M,,,,,,,,,,,102.5,,,,,,,102.5,B,Multi-ply,1
Adam Yezer,75,M_SEM_AAPF,33-39,M,,,,,,,,,,,137.5,,,,,,,137.5,B,Multi-ply,1
Les Cramer,75,M_MEM_5_AAPF,60-64,M,,,,,,,,,,,127.5,,,,,,,127.5,B,Multi-ply,1
Norman Gorman,82.5,M_OEM_AAPF,,M,,,,,,,,,,,185,,,,,,,185,B,Multi-ply,1
B. Davis,90,M_SEM_AAPF,33-39,M,,,,,,,,,,,155,,,,,,,155,B,Multi-ply,1
Gary Benford,90,M_MEM_2_AAPF,45-49,M,,,,,,,,,,,202.5,,,,,,,202.5,B,Multi-ply,1
Robert Darosh,100,M_MEM_1_AAPF,40-44,M,,,,,,,,,,,157.5,,,,,,,157.5,B,Multi-ply,1
Mike Frizzell,110,M_MEM_1_AAPF,40-44,M,,,,,,,,,,,210,,,,,,,210,B,Multi-ply,1
Andrew Connors,110,M_OEM_AAPF,,M,,,,,,,,,,,237.5,,,,,,,237.5,B,Multi-ply,1
Robert Eickstaedt,125,M_MEM_1_AAPF,40-44,M,,,,,,,,,,,205,,,,,,,205,B,Multi-ply,1
Z. Aguirre,75,M_YEM_AAPF,11-12,M,,,,,,,,,,,,,,,,80,,80,D,Multi-ply,1
Steve Bevill,110,M_MEM_1_AAPF,40-44,M,,,,,,,,,,,,,,,,200,,200,D,Multi-ply,1
