Name,Age,BodyweightKg,WeightClassKg,Squat1Kg,Squat2Kg,Squat3Kg,Best3SquatKg,Bench1Kg,Bench2Kg,Bench3Kg,Best3BenchKg,Deadlift1Kg,Deadlift2Kg,Deadlift3Kg,Best3DeadliftKg,TotalKg,Team,Sex,Division,Event,Equipment,Place
Stephanie Hostetler,16,42.6,44,57.5,-62.5,62.5,62.5,27.5,32.5,-42.5,32.5,65,72.5,-90,72.5,167.5,Slidell,F,F-JV,SBD,Single-ply,1
Alexa Schillinger,15,47.1,48,117.5,-125,-125,117.5,-52.5,52.5,57.5,57.5,122.5,135,-142.5,135,310,Phillips,F,F-JV,SBD,Single-ply,1
Sommer Binash,16,47.9,48,117.5,-125,127.5,127.5,50,57.5,-60,57.5,120,122.5,-132.5,122.5,307.5,So Milwauke,F,F-JV,SBD,Single-ply,2
Breanna Barnes,16,46,48,67.5,-80,80,80,32.5,35,37.5,37.5,87.5,100,-110,100,217.5,ASH,F,F-JV,SBD,Single-ply,3
Roxanne Shankster,15,50.9,52,102.5,105,117.5,117.5,47.5,52.5,-57.5,52.5,102.5,-107.5,112.5,112.5,282.5,Morenci,F,F-JV,SBD,Single-ply,1
Brandy Taylor,15,51.1,52,100,110,-115,110,52.5,-57.5,57.5,57.5,90,105,110,110,277.5,Bellevue East,F,F-JV,SBD,Single-ply,2
Amanda Kolen,15,50.4,52,107.5,-115,-115,107.5,50,-62.5,-62.5,50,92.5,105,-120,105,262.5,Columbia,F,F-JV,SBD,Single-ply,3
Jenna Britzke,15,49.1,52,-90,-90,90,90,47.5,-55,55,55,97.5,107.5,-117.5,107.5,252.5,Neenah HS,F,F-JV,SBD,Single-ply,4
Jerissa Rice,15,51.7,52,-60,72.5,-82.5,72.5,-40,42.5,-47.5,42.5,85,92.5,95,95,210,Happy Valley,F,F-JV,SBD,Single-ply,5
Erin Stroud,15,51.4,52,72.5,-87.5,-87.5,72.5,30,35,37.5,37.5,82.5,92.5,97.5,97.5,207.5,ASH,F,F-JV,SBD,Single-ply,6
Raven Hardy,16,50.8,52,60,65,67.5,67.5,32.5,35,-37.5,35,-75,75,-82.5,75,177.5,Clarinda Ac,F,F-JV,SBD,Single-ply,7
Laura Vosters,15,55,56,92.5,-97.5,-100,92.5,45,52.5,60,60,97.5,107.5,-112.5,107.5,260,KauKauna,F,F-JV,SBD,Single-ply,1
Shannon Kane,15,55.95,56,70,77.5,-85,77.5,45,-52.5,-52.5,45,-87.5,100,105,105,227.5,Chenango Valley,F,F-JV,SBD,Single-ply,2
Eryn Moon,14,59.2,60,95,105,-110,105,57.5,62.5,65,65,112.5,125,132.5,132.5,302.5,Phillips,F,F-JV,SBD,Single-ply,1
Tailor Castillo,15,58.4,60,105,107.5,-110,107.5,50,62.5,-65,62.5,100,112.5,125,125,295,Neenah HS,F,F-JV,SBD,Single-ply,2
Heather Desoto,16,59.6,60,87.5,-97.5,97.5,97.5,47.5,52.5,-57.5,52.5,95,110,-117.5,110,260,ASH,F,F-JV,SBD,Single-ply,3
Shakia Marshall,16,57.8,60,82.5,90,-92.5,90,45,52.5,55,55,92.5,100,112.5,112.5,257.5,Clarinda Ac,F,F-JV,SBD,Single-ply,4
Anna Jones,16,59.6,60,62.5,72.5,-82.5,72.5,37.5,45,47.5,47.5,77.5,85,90,90,210,Slidell,F,F-JV,SBD,Single-ply,5
Kristin Muse,14,58.4,60,65,72.5,-82.5,72.5,32.5,-40,40,40,82.5,92.5,-105,92.5,205,ASH,F,F-JV,SBD,Single-ply,6
Kaitlyn Roberts,16,65,67.5,115,120,132.5,132.5,50,52.5,55,55,125,140,147.5,147.5,335,Abington Height,F,F-JV,SBD,Single-ply,1
Leanne Rominske,16,60.4,67.5,107.5,117.5,120,120,57.5,62.5,65,65,120,132.5,137.5,137.5,322.5,Phillips,F,F-JV,SBD,Single-ply,2
Paris Piotter,14,61,67.5,85,97.5,105,105,-37.5,37.5,-47.5,37.5,92.5,115,130,130,272.5,ASH,F,F-JV,SBD,Single-ply,3
Marissa Jones,16,66.6,67.5,92.5,105,-107.5,105,37.5,42.5,45,45,92.5,105,110,110,260,Ridgeview,F,F-JV,SBD,Single-ply,4
Cheri Clayton,15,62.5,67.5,-77.5,77.5,87.5,87.5,40,-45,45,45,85,105,120,120,252.5,ASH,F,F-JV,SBD,Single-ply,5
Hannah Whatley,15,63.2,67.5,80,-90,-95,80,35,40,45,45,100,107.5,115,115,240,Natch Cent,F,F-JV,SBD,Single-ply,6
Courtney Parker,15,63.5,67.5,80,-82.5,82.5,82.5,35,40,-47.5,40,87.5,100,110,110,232.5,Slidell,F,F-JV,SBD,Single-ply,7
Jasmine Williams,15,74.9,75,-70,72.5,77.5,77.5,45,-47.5,-47.5,45,-82.5,82.5,97.5,97.5,220,Clarinda Ac,F,F-JV,SBD,Single-ply,5
Dannielle Wagner,15,72.9,75,115,120,122.5,122.5,52.5,60,-62.5,60,107.5,117.5,122.5,122.5,305,Necedah,F,F-JV,SBD,Single-ply,1
Mary Hooper,14,74.8,75,82.5,92.5,105,105,47.5,52.5,-57.5,52.5,122.5,132.5,145,145,302.5,Natch Cent,F,F-JV,SBD,Single-ply,2
Taylor Jensen,15,72.3,75,87.5,92.5,100,100,60,65,-67.5,65,115,127.5,-132.5,127.5,292.5,Bellevue East,F,F-JV,SBD,Single-ply,3
Breona Green,16,69.8,75,87.5,-97.5,97.5,97.5,42.5,45,-47.5,45,107.5,115,122.5,122.5,265,Natch Cent,F,F-JV,SBD,Single-ply,4
Kenzi Hower,15,81.1,82.5,-127.5,130,147.5,147.5,42.5,-52.5,52.5,52.5,110,120,125,125,325,Columbia,F,F-JV,SBD,Single-ply,1
Stacie Pomrening,14,75.9,82.5,-105,105,120,120,57.5,65,-70,65,112.5,127.5,-140,127.5,312.5,Neenah,F,F-JV,SBD,Single-ply,2
Erin Spicer,16,79.5,82.5,-90,-92.5,92.5,92.5,45,52.5,55,55,-125,125,-137.5,125,272.5,Bellevue East,F,F-JV,SBD,Single-ply,3
Nicole Kuennan,16,80,82.5,80,87.5,-97.5,87.5,50,55,-62.5,55,112.5,120,127.5,127.5,270,Clarinda Ac,F,F-JV,SBD,Single-ply,4
Shea Leger,13,80.6,82.5,92.5,100,115,115,40,-47.5,-52.5,40,105,-115,-115,105,260,Runnels,F,F-JV,SBD,Single-ply,5
Alexandria Robbins,16,81.5,82.5,-92.5,-92.5,102.5,102.5,40,45,50,50,105,-127.5,-127.5,105,257.5,Ridgeview,F,F-JV,SBD,Single-ply,6
Antoinette Harris,14,125.9,90+,92.5,107.5,120,120,60,70,72.5,72.5,110,125,135,135,327.5,ASH,F,F-JV,SBD,Single-ply,1
Brittany Grant,15,114.9,90+,92.5,105,122.5,122.5,52.5,-57.5,-57.5,52.5,120,-130,-155,120,295,Clarinda Ac,F,F-JV,SBD,Single-ply,2
Stephanie Seebruch,16,43.7,44,100,105,-107.5,105,45,-52.5,-52.5,45,107.5,120,127.5,127.5,277.5,Necedah,F,F-V,SBD,Single-ply,1
Kati Durham,13,43.9,44,102.5,-110,-110,102.5,45,52.5,-57.5,52.5,90,105,-117.5,105,260,Calhoun HS,F,F-V,SBD,Single-ply,2
Monica Johnston,15,43.6,44,82.5,85,87.5,87.5,40,42.5,-47.5,42.5,97.5,102.5,107.5,107.5,237.5,Necedah,F,F-V,SBD,Single-ply,3
Megan Blalock,17,42.6,44,67.5,77.5,-87.5,77.5,40,47.5,-50,47.5,100,-110,-112.5,100,225,Pineville,F,F-V,SBD,Single-ply,4
Laura McGuill,16,43.2,44,82.5,-87.5,-87.5,82.5,32.5,-35,35,35,92.5,102.5,-107.5,102.5,220,Refugio,F,F-V,SBD,Single-ply,5
Christin Richmond,16,39.9,44,-77.5,77.5,85,85,30,-35,-35,30,82.5,92.5,-100,92.5,207.5,ASH,F,F-V,SBD,Single-ply,6
Kendra Miller,14,47.5,48,127.5,137.5,-147.5,137.5,62.5,67.5,70,70,127.5,135,140,140,347.5,Plainwell,F,F-V,SBD,Single-ply,1
Jayna VanderVoort,17,47.5,48,117.5,-125,-125,117.5,55,60,-62.5,60,122.5,-130,-130,122.5,300,Seymour,F,F-V,SBD,Single-ply,2
Kayla Paff,18,47.9,48,-90,90,-100,90,47.5,52.5,57.5,57.5,97.5,102.5,112.5,112.5,260,Plainwell,F,F-V,SBD,Single-ply,3
Hannah Stavinoha,18,46.4,48,85,-92.5,97.5,97.5,47.5,52.5,-57.5,52.5,92.5,97.5,107.5,107.5,257.5,Columbus,F,F-V,SBD,Single-ply,4
Jamae Pennings,17,47.3,48,-97.5,97.5,-107.5,97.5,32.5,-52.5,-52.5,32.5,110,117.5,-130,117.5,247.5,Neenah,F,F-V,SBD,Single-ply,5
Aurora Bonnell,18,46.9,48,72.5,85,-90,85,30,35,37.5,37.5,82.5,95,105,105,227.5,Ridgeview,F,F-V,SBD,Single-ply,6
Megan Preston,16,47.5,48,67.5,75,82.5,82.5,-40,40,-47.5,40,90,100,105,105,227.5,Plainwell,F,F-V,SBD,Single-ply,7
Lauren Ralston,16,46.8,48,65,72.5,-82.5,72.5,35,37.5,40,40,95,100,107.5,107.5,220,Natch Cent,F,F-V,SBD,Single-ply,8
Kristi Riley,16,51.8,52,117.5,132.5,137.5,137.5,55,60,65,65,-130,130,140,140,342.5,ASH,F,F-V,SBD,Single-ply,1
Megan Williams,18,50.6,52,-125,-125,125,125,62.5,67.5,70,70,120,127.5,-137.5,127.5,322.5,Seymour,F,F-V,SBD,Single-ply,2
Sara Beeke,18,51.7,52,105,-112.5,115,115,62.5,65,-67.5,65,110,122.5,-137.5,122.5,302.5,Plainwell,F,F-V,SBD,Single-ply,3
Kaelsey Pryor,18,50.1,52,-102.5,102.5,-110,102.5,50,-52.5,52.5,52.5,117.5,125,-130,125,280,Abington Heights,F,F-V,SBD,Single-ply,4
Melissa Werner,18,49.3,52,97.5,-105,107.5,107.5,50,55,57.5,57.5,92.5,97.5,102.5,102.5,267.5,Boone Central,F,F-V,SBD,Single-ply,5
Lupe Florez,18,51.7,52,102.5,-112.5,-112.5,102.5,45,-57.5,-57.5,45,105,115,-122.5,115,262.5,Neenah,F,F-V,SBD,Single-ply,6
Charlie Lauer,15,48.1,52,-102.5,102.5,-112.5,102.5,35,,,35,100,110,-112.5,110,247.5,Neenah,F,F-V,SBD,Single-ply,7
Ashley Cook,17,50.1,52,65,-75,80,80,45,50,52.5,52.5,80,87.5,-92.5,87.5,220,Clarinda Ac,F,F-V,SBD,Single-ply,8
Jessica Nelson,18,51.4,52,75,80,-85,80,37.5,42.5,45,45,82.5,87.5,92.5,92.5,217.5,Bellevue East,F,F-V,SBD,Single-ply,9
Nicole Humm,17,50.8,52,65,75,-82.5,75,37.5,-42.5,-42.5,37.5,85,92.5,-105,92.5,205,Bellevue East,F,F-V,SBD,Single-ply,10
Katie Van Dusen,18,55.7,56,147.5,160,162.5,162.5,80,87.5,92.5,92.5,147.5,160,-165,160,415,Neenah,F,F-V,SBD,Single-ply,1
Kim Douglas,16,52.7,56,120,130,137.5,137.5,72.5,77.5,80,80,125,132.5,137.5,137.5,355,Plainwell,F,F-V,SBD,Single-ply,2
Elizabeth Houle,17,55.9,56,125,132.5,-137.5,132.5,-52.5,52.5,60,60,140,147.5,-165,147.5,340,Neenah,F,F-V,SBD,Single-ply,3
Chantel Perry,17,54.9,56,110,120,-130,120,55,60,-62.5,60,132.5,-145,145,145,325,Memorial,F,F-V,SBD,Single-ply,4
Vanessa Baldwin,16,53.4,56,120,122.5,125,125,55,57.5,62.5,62.5,117.5,122.5,130,130,317.5,Necedah,F,F-V,SBD,Single-ply,5
Jennifer Gaona,15,54.9,56,-115,-115,115,115,45,-52.5,-52.5,45,110,120,-122.5,120,280,Calhoun HS,F,F-V,SBD,Single-ply,6
Kelly Heim,16,55.6,56,102.5,112.5,117.5,117.5,45,50,-55,50,107.5,-120,-127.5,107.5,275,Baton Rouge,F,F-V,SBD,Single-ply,7
Nichole Cowling,17,55.2,56,97.5,105,-110,105,52.5,-57.5,-57.5,52.5,100,110,-117.5,110,267.5,Neenah,F,F-V,SBD,Single-ply,8
Mary Wedner,17,53.9,56,92.5,-102.5,-102.5,92.5,47.5,-52.5,-52.5,47.5,120,-125,125,125,265,Bellevue East,F,F-V,SBD,Single-ply,9
Courtney Sklar,18,55.5,56,90,100,-110,100,40,-47.5,47.5,47.5,105,117.5,-127.5,117.5,265,Rice Cons,F,F-V,SBD,Single-ply,10
Rachal Roberts,17,54.4,56,-95,95,-105,95,52.5,60,-67.5,60,-105,105,-137.5,105,260,ASH,F,F-V,SBD,Single-ply,11
Renee Kutchera,18,58.8,60,130,140,147.5,147.5,72.5,-80,-80,72.5,142.5,155,162.5,162.5,382.5,Lincoln Manitowoc,F,F-V,SBD,Single-ply,1
Suzanne Salinas,18,57.1,60,142.5,-150,150,150,72.5,75,-80,75,137.5,150,-162.5,150,375,Calhoun,F,F-V,SBD,Single-ply,2
Caitlyn Miller,16,59.7,60,130,142.5,155,155,65,70,-72.5,70,140,150,-160,150,375,Plainwell,F,F-V,SBD,Single-ply,3
Markita Cyriaque,19,59.7,60,127.5,-142.5,-142.5,127.5,62.5,65,-67.5,65,155,165,-172.5,165,357.5,Natch Cent,F,F-V,SBD,Single-ply,4
Michelle Youngblood,18,57,60,-125,-125,125,125,72.5,-77.5,-77.5,72.5,115,122.5,-127.5,122.5,320,Calhoun,F,F-V,SBD,Single-ply,5
Rebecca Manske,17,58.6,60,130,-140,-140,130,55,-60,60,60,127.5,-135,-135,127.5,317.5,Neenah,F,F-V,SBD,Single-ply,6
Samantha Villaweal,18,58.8,60,112.5,-130,-130,112.5,-55,60,-65,60,130,142.5,-152.5,142.5,315,Weslaco,F,F-V,SBD,Single-ply,7
Paige Chauvin,17,56.9,60,105,112.5,122.5,122.5,60,-67.5,70,70,112.5,-122.5,-130,112.5,305,Lutcher,F,F-V,SBD,Single-ply,8
Telleha Cihantek,17,59.5,60,102.5,107.5,-117.5,107.5,47.5,52.5,57.5,57.5,112.5,120,-125,120,285,Necedah,F,F-V,SBD,Single-ply,9
Lindsey Watson,17,56.3,60,92.5,-102.5,-102.5,92.5,42.5,-52.5,52.5,52.5,92.5,100,-110,100,245,Bellevue East,F,F-V,SBD,Single-ply,10
Jennifer Younts,17,56.4,60,87.5,-100,-100,87.5,42.5,52.5,-57.5,52.5,85,92.5,-110,92.5,232.5,Columbia,F,F-V,SBD,Single-ply,11
Lauren Harrison,17,57.6,60,87.5,-95,-97.5,87.5,42.5,47.5,50,50,92.5,-112.5,-112.5,92.5,230,Ridgeview,F,F-V,SBD,Single-ply,12
Desire Marin,16,66.7,67.5,-175,175,-187.5,175,87.5,97.5,102.5,102.5,157.5,170,175,175,452.5,Calhoun,F,F-V,SBD,Single-ply,1
Lena Watson,18,66.2,67.5,160,-175,175,175,75,85,92.5,92.5,-155,155,180,180,447.5,Ellender,F,F-V,SBD,Single-ply,2
Stephanie King,17,65.1,67.5,-160,-160,160,160,75,82.5,-85,82.5,145,160,170,170,412.5,Hidalgo,F,F-V,SBD,Single-ply,3
Erika Murphy,16,62.9,67.5,122.5,140,160,160,57.5,62.5,-65,62.5,170,-187.5,187.5,187.5,410,Memorial,F,F-V,SBD,Single-ply,4
Jordan Stupechy,17,64.9,67.5,132.5,140,-147.5,140,-70,70,75,75,135,145,-152.5,145,360,Neenah,F,F-V,SBD,Single-ply,5
Elissa Parker,18,66.3,67.5,125,130,-137.5,130,62.5,67.5,72.5,72.5,125,132.5,137.5,137.5,340,Necedah,F,F-V,SBD,Single-ply,6
Brittany Oswald,17,65.4,67.5,115,122.5,-127.5,122.5,57.5,60,62.5,62.5,105,115,130,130,315,Natch Cent,F,F-V,SBD,Single-ply,7
Jasmine Littles,16,63.4,67.5,105,110,117.5,117.5,45,-50,50,50,112.5,120,127.5,127.5,295,Memorial,F,F-V,SBD,Single-ply,8
Samantha White,16,63.5,67.5,112.5,-120,125,125,42.5,50,55,55,112.5,-122.5,-127.5,112.5,292.5,Holmen,F,F-V,SBD,Single-ply,9
Jessica Hodison,16,65.5,67.5,110,-117.5,-117.5,110,62.5,65,67.5,67.5,-102.5,-102.5,102.5,102.5,280,Plainwell,F,F-V,SBD,Single-ply,10
Alyssa Miner,17,64.2,67.5,100,-110,-112.5,100,52.5,57.5,62.5,62.5,105,-112.5,112.5,112.5,275,Plainwell,F,F-V,SBD,Single-ply,11
Amy Mizell,18,66.3,67.5,87.5,95,97.5,97.5,42.5,50,52.5,52.5,92.5,117.5,-125,117.5,267.5,Ridgeview,F,F-V,SBD,Single-ply,12
Brittany Booze,17,63.9,67.5,-85,90,97.5,97.5,42.5,-50,-50,42.5,102.5,-112.5,120,120,260,Pineville,F,F-V,SBD,Single-ply,13
Nicole Rachal,17,70.5,75,130,137.5,-140,137.5,60,65,-67.5,65,160,170,175,175,377.5,,F,F-V,SBD,Single-ply,1
Jamontane Terry,16,73.6,75,150,-165,-165,150,60,65,-67.5,65,135,147.5,160,160,375,,F,F-V,SBD,Single-ply,2
Amanda Ruiz,16,70.5,75,-147.5,147.5,160,160,-75,75,-82.5,75,130,137.5,-140,137.5,372.5,,F,F-V,SBD,Single-ply,3
Leah Harvey,16,74,75,145,-155,-155,145,62.5,67.5,-72.5,67.5,147.5,157.5,160,160,372.5,,F,F-V,SBD,Single-ply,4
Stacy Bolwerk,18,68.1,75,145,-155,155,155,65,75,-82.5,75,125,137.5,-145,137.5,367.5,,F,F-V,SBD,Single-ply,5
Brittany Gamble,15,68.5,75,147.5,155,-162.5,155,65,-72.5,72.5,72.5,140,-150,-155,140,367.5,,F,F-V,SBD,Single-ply,6
Anna Sharpless,16,72.7,75,152.5,-160,-162.5,152.5,45,60,-65,60,145,155,-162.5,155,367.5,,F,F-V,SBD,Single-ply,7
Cassie DelosSantos,16,73.5,75,137.5,145,-147.5,145,57.5,-62.5,62.5,62.5,150,-157.5,-160,150,357.5,,F,F-V,SBD,Single-ply,8
Breoshne Wyatt,16,73.4,75,117.5,140,-147.5,140,60,65,-70,65,125,135,142.5,142.5,347.5,,F,F-V,SBD,Single-ply,9
Kamie Bluell,15,71,75,142.5,-150,-150,142.5,50,55,-60,55,140,147.5,-155,147.5,345,,F,F-V,SBD,Single-ply,10
Jade Hrabak,17,73.4,75,137.5,-145,-145,137.5,65,70,72.5,72.5,125,-137.5,-137.5,125,335,,F,F-V,SBD,Single-ply,11
Anna Jamrozek,18,69.9,75,117.5,130,-140,130,65,-72.5,-72.5,65,115,127.5,-140,127.5,322.5,,F,F-V,SBD,Single-ply,12
Katie Deville,16,71.6,75,110,117.5,125,125,-55,55,-65,55,125,-140,140,140,320,,F,F-V,SBD,Single-ply,13
Shontil Estes,17,74,75,105,115,-125,115,57.5,65,-70,65,112.5,122.5,-135,122.5,302.5,,F,F-V,SBD,Single-ply,14
Yolanda Bolen,18,71.7,75,85,95,105,105,55,-62.5,62.5,62.5,102.5,112.5,120,120,287.5,,F,F-V,SBD,Single-ply,15
Jessica Williams,17,73.6,75,92.5,-105,105,105,50,-55,-55,50,110,-122.5,-122.5,110,265,,F,F-V,SBD,Single-ply,16
Ashleigh Kellis-Carr,18,81.7,82.5,160,177.5,182.5,182.5,77.5,82.5,92.5,92.5,162.5,170,-177.5,170,445,Memorial,F,F-V,SBD,Single-ply,1
Brandi Decker,15,75.5,82.5,152.5,160,-180,160,62.5,67.5,72.5,72.5,147.5,160,170,170,402.5,Necedah,F,F-V,SBD,Single-ply,2
Amanda Moe,16,79.2,82.5,137.5,152.5,157.5,157.5,-60,72.5,-77.5,72.5,137.5,152.5,160,160,390,Columbia,F,F-V,SBD,Single-ply,3
Gracie Martinez,17,76.6,82.5,160,-167.5,-167.5,160,70,75,77.5,77.5,150,-155,-155,150,387.5,Edna HS,F,F-V,SBD,Single-ply,4
Kristen Smith,17,79.7,82.5,-135,135,-142.5,135,55,60,-65,60,150,-165,-165,150,345,ASH,F,F-V,SBD,Single-ply,5
Melissa Scott,17,82,82.5,115,120,-127.5,120,62.5,70,-75,70,120,130,-137.5,130,320,Pineville,F,F-V,SBD,Single-ply,6
Maya Lewis,16,80.7,82.5,92.5,107.5,-120,107.5,45,50,-55,50,120,-130,-130,120,277.5,ASH,F,F-V,SBD,Single-ply,7
Ashley Kueffer,17,89,90,160,170,-177.5,170,117.5,125.5,132.5,132.5,-147.5,147.5,-152.5,147.5,450,Bellevue East,F,F-V,SBD,Single-ply,1
Samantha Robillard,16,88.7,90,165,175,-182.5,175,85,-92.5,92.5,92.5,147.5,160,-182.5,160,427.5,Brusley,F,F-V,SBD,Single-ply,2
Lisa Knaack,17,88.1,90,140,150,-160,150,60,67.5,-77.5,67.5,140,150,160,160,377.5,Winneconne,F,F-V,SBD,Single-ply,3
Savannah Padierna,19,86.7,90,117.5,132.5,-137.5,132.5,70,72.5,75,75,132.5,140,147.5,147.5,355,Memorial,F,F-V,SBD,Single-ply,4
Sarah-Jayne Lamb,14,87.2,90,127.5,137.5,-150,137.5,60,-65,65,65,-125,125,-130,125,327.5,F. Powers Cath,F,F-V,SBD,Single-ply,5
Antoineka Norman,17,86.7,90,-117.5,117.5,-130,117.5,60,62.5,67.5,67.5,120,127.5,137.5,137.5,322.5,Memorial,F,F-V,SBD,Single-ply,6
Lana Allen,19,132.5,90+,182.5,202.5,-212.5,202.5,125,135,-140.5,135,152.5,165,-180,165,502.5,Bargan,F,F-V,SBD,Single-ply,1
Crystal Castello,16,122.6,90+,175,187.5,192.5,192.5,-90,90,-95,90,172.5,182.5,-190,182.5,465,Neehah,F,F-V,SBD,Single-ply,2
Angelnette Lee,18,117.2,90+,162.5,177.5,190,190,75,80,-85,80,162.5,-177.5,-177.5,162.5,432.5,ASH,F,F-V,SBD,Single-ply,3
Melissa Rivera,16,95.3,90+,-175,175,192.5,192.5,70,-75,75,75,-150,150,157.5,157.5,425,Calhoun,F,F-V,SBD,Single-ply,4
Paige Barnett,17,123.6,90+,140,150,-167.5,150,82.5,92.5,-95,92.5,172.5,-187.5,-187.5,172.5,415,Memorial,F,F-V,SBD,Single-ply,5
Hannah Gaylor,18,99,90+,160,-165,-167.5,160,75,82.5,-87.5,82.5,160,-172.5,-172.5,160,402.5,Bonham,F,F-V,SBD,Single-ply,6
Claire Seeke,15,97.1,90+,147.5,-157.5,162.5,162.5,60,70,-80,70,140,150,-157.5,150,382.5,Neehah,F,F-V,SBD,Single-ply,7
Audree Clark,17,97.8,90+,-127.5,-127.5,127.5,127.5,77.5,-87.5,87.5,87.5,120,135,140,140,355,Memorial,F,F-V,SBD,Single-ply,8
Mallory Davis,16,119.8,90+,-125,125,137.5,137.5,62.5,67.5,-75,67.5,132.5,140,-150,140,345,ASH,F,F-V,SBD,Single-ply,9
Charlene Green,18,103.2,90+,107.5,-117.5,-117.5,107.5,65,-70,70,70,130,132.5,-140,132.5,310,Natch Cent,F,F-V,SBD,Single-ply,10
Erika Landry,17,153.2,90+,92.5,100,107.5,107.5,62.5,67.5,-75,67.5,-112.5,120,-132.5,120,295,Skyview,F,F-V,SBD,Single-ply,11
Ashley Donlin,17,94.3,90+,-95,-95,95,95,47.5,-52.5,52.5,52.5,115,122.5,127.5,127.5,275,Plainwell,F,F-V,SBD,Single-ply,12
Paris Andrews,15,48.3,52,117.5,-132.5,132.5,132.5,70,77.5,-85,77.5,132.5,-142.5,-142.5,132.5,342.5,Slidell,M,M-JV,SBD,Single-ply,1
Garth Sullivan,15,51.3,52,110,120,-137.5,120,72.5,80,85,85,112.5,127.5,137.5,137.5,342.5,Tallulah Ac,M,M-JV,SBD,Single-ply,2
Trenard Powell,14,52,52,122.5,-142.5,-147.5,122.5,62.5,70,-75,70,130,140,-145,140,332.5,Woodward Ac,M,M-JV,SBD,Single-ply,3
John Veith,15,51.3,52,-110,115,-125,115,65,-72.5,-72.5,65,135,145,-155,145,325,Woodward Ac,M,M-JV,SBD,Single-ply,4
Justin Blalock,14,48.1,52,97.5,105,-112.5,105,50,52.5,-55,52.5,105,120,-135,120,277.5,Pineville,M,M-JV,SBD,Single-ply,5
Zach Mach,15,56,56,127.5,137.5,147.5,147.5,62.5,67.5,70,70,145,-150,150,150,367.5,Necedah,M,M-JV,SBD,Single-ply,1
Naji Shorter,14,55.9,56,112.5,-125,-127.5,112.5,72.5,80,-87.5,80,140,152.5,155,155,347.5,Woodward Ac,M,M-JV,SBD,Single-ply,2
Jimmy Fairchild,15,55.4,56,-120,120,-122.5,120,-75,75,-77.5,75,130,137.5,147.5,147.5,342.5,Cros Les,M,M-JV,SBD,Single-ply,3
Ben Schuller,15,55.7,56,120,125,-130,125,67.5,-70,-70,67.5,-130,130,135,135,327.5,Novvel Cath,M,M-JV,SBD,Single-ply,4
Pedro Olmes,15,53.5,56,110,-122.5,-122.5,110,62.5,70,-75,70,132.5,142.5,-147.5,142.5,322.5,Woodward AC,M,M-JV,SBD,Single-ply,5
Devin Roblyer,15,56,56,97.5,107.5,112.5,112.5,-55,55,65,65,125,137.5,-147.5,137.5,315,Plainwell,M,M-JV,SBD,Single-ply,6
Idris Young,16,59.9,60,-140,-150,150,150,97.5,-105,105,105,152.5,165,-167.5,165,420,Clarinda Ac,M,M-JV,SBD,Single-ply,1
Jordan Foy,14,58.8,60,-130,-130,132.5,132.5,65,75,80,80,167.5,180,185,185,397.5,Woodward Ac,M,M-JV,SBD,Single-ply,2
Justin Runde,15,59,60,-130,130,140,140,60,65,70,70,165,177.5,187.5,187.5,397.5,KauKauna,M,M-JV,SBD,Single-ply,3
Riley Dohr,15,59.7,60,-140,140,-150,140,62.5,82.5,-90,82.5,147.5,157.5,-167.5,157.5,380,Neenah HS,M,M-JV,SBD,Single-ply,4
Tyler Hunt,15,59.8,60,140,145,147.5,147.5,57.5,62.5,-67.5,62.5,142.5,150,-155,150,360,Neenah HS,M,M-JV,SBD,Single-ply,5
Benjamin Presley,15,56.9,60,117.5,130,135,135,72.5,87.5,90,90,117.5,132.5,-145,132.5,357.5,Walker,M,M-JV,SBD,Single-ply,6
Todd McCauley,15,58.2,60,115,127.5,-135,127.5,67.5,75,-82.5,75,140,152.5,-175,152.5,355,Ash,M,M-JV,SBD,Single-ply,7
Nathan Arceneaux,15,59.6,60,115,125,-135,125,70,77.5,-82.5,77.5,137.5,150,-162.5,150,352.5,Pearl River,M,M-JV,SBD,Single-ply,8
Justin Agar,15,59.4,60,-115,127.5,-137.5,127.5,65,72.5,77.5,77.5,127.5,145,-147.5,145,350,Slidell,M,M-JV,SBD,Single-ply,9
Brandon Finney,15,59.3,60,117.5,132.5,137.5,137.5,65,72.5,-77.5,72.5,135,-145,-150,135,345,Woodward Ac,M,M-JV,SBD,Single-ply,10
Ryan LaVoy,16,66.6,67.5,167.5,172.5,-175,172.5,77.5,90,100,100,170,182.5,190,190,462.5,Necedah,M,M-JV,SBD,Single-ply,1
Chris Brown,18,66.9,67.5,132.5,140,-160,140,110,117.5,-122.5,117.5,162.5,172.5,192.5,192.5,450,ASH,M,M-JV,SBD,Single-ply,2
John Fowler,16,66.7,67.5,-135,145,-152.5,145,90,-100,100,100,167.5,177.5,182.5,182.5,427.5,Woodward AC,M,M-JV,SBD,Single-ply,3
Kyle Malone,16,63.4,67.5,137.5,147.5,160,160,65,72.5,82.5,82.5,142.5,152.5,180,180,422.5,ASH,M,M-JV,SBD,Single-ply,4
Brad Bahr,16,66,67.5,-142.5,142.5,-155,142.5,-82.5,-85,87.5,87.5,172.5,182.5,192.5,192.5,422.5,Neenah,M,M-JV,SBD,Single-ply,5
Cody Sikes,17,67.1,67.5,137.5,150,160,160,92.5,97.5,102.5,102.5,137.5,155,-170,155,417.5,Tioga,M,M-JV,SBD,Single-ply,6
Max Barren,15,65.5,67.5,-137.5,-142.5,142.5,142.5,-92.5,97.5,-107.5,97.5,147.5,162.5,170,170,410,Bonner Springs,M,M-JV,SBD,Single-ply,7
Nick Stover,16,66,67.5,145,-150,-150,145,85,-90,-90,85,157.5,-165,170,170,400,Mountain Home,M,M-JV,SBD,Single-ply,8
Jimmy Federico,15,65.7,67.5,-132.5,132.5,-147.5,132.5,77.5,-87.5,-87.5,77.5,155,165,-175,165,375,Woodward AC,M,M-JV,SBD,Single-ply,9
Brandon Cowher,15,66.8,67.5,110,120,-130,120,80,85,-92.5,85,140,150,-160,150,355,ASH,M,M-JV,SBD,Single-ply,10
Kyle Zuleger,16,69.9,75,172.5,185,192.5,192.5,110,115,117.5,117.5,172.5,197.5,210,210,520,Appleton East,M,M-JV,SBD,Single-ply,1
Kasey Rolow,15,72.1,75,142.5,157.5,-165,157.5,100,110,115,115,172.5,182.5,187.5,187.5,460,Woodward AC,M,M-JV,SBD,Single-ply,2
Tanner Suanda,15,73.9,75,145,162.5,-165,162.5,-92.5,97.5,-110,97.5,152.5,165,175,175,435,Woodward AC,M,M-JV,SBD,Single-ply,3
Clay Littlefield,16,73.5,75,145,-150,-150,145,85,-92.5,92.5,92.5,165,175,182.5,182.5,420,Nampa ID,M,M-JV,SBD,Single-ply,4
Gary Robinson,15,74.3,75,-132.5,132.5,147.5,147.5,80,90,-97.5,90,160,175,-185,175,412.5,Woodward AC,M,M-JV,SBD,Single-ply,5
Casey Green,15,74.7,75,115,130,140,140,70,80,-87.5,80,147.5,170,177.5,177.5,397.5,Happey Valley,M,M-JV,SBD,Single-ply,6
Jertemy Vincent,16,70.4,75,102.5,,,102.5,92.5,97.5,-105,97.5,160,170,180,180,380,Walker,M,M-JV,SBD,Single-ply,7
Levi Hoffman,15,81.2,82.5,-197.5,197.5,-207.5,197.5,135,-142.5,-142.5,135,210,217.5,225,225,557.5,Morenci,M,M-JV,SBD,Single-ply,1
Sagan Harris,15,78.6,82.5,155,172.5,182.5,182.5,95,-105,107.5,107.5,180,195,197.5,197.5,487.5,Woodward AC,M,M-JV,SBD,Single-ply,2
Julian Turner,15,77.9,82.5,155,165,-177.5,165,110,120,-127.5,120,157.5,172.5,190,190,475,Clarinda AC,M,M-JV,SBD,Single-ply,3
Skyler Briceo,16,78.5,82.5,-172.5,-172.5,172.5,172.5,97.5,110,-112.5,110,175,185,-187.5,185,467.5,KauKauna,M,M-JV,SBD,Single-ply,4
Robert Garrett,15,80.6,82.5,155,-170,-170,155,-97.5,97.5,-107.5,97.5,180,-192.5,195,195,447.5,Woodward AC,M,M-JV,SBD,Single-ply,5
Taylor Yost,16,82.9,90,155,180,-195,180,115,125,-135,125,175,200,205,205,510,,M,M-JV,SBD,Single-ply,1
Aaron Winkle,16,89.35,90,182.5,-197.5,-197.5,182.5,92.5,102.5,-107.5,102.5,182.5,200,-207.5,200,485,Ridgeview,M,M-JV,SBD,Single-ply,2
Tanner Stimpsom,15,88.65,90,170,182.5,-192.5,182.5,-102.5,-102.5,102.5,102.5,175,190,-205,190,475,Skyview,M,M-JV,SBD,Single-ply,3
Demarais Young,15,87.95,90,137.5,-150,165,165,100,105,-117.5,105,185,200,-220,200,470,Clarinda Ac,M,M-JV,SBD,Single-ply,4
Cooper Eyre,16,87.4,90,152.5,-165,-165,152.5,75,85,-95,85,147.5,160,-172.5,160,397.5,ASH,M,M-JV,SBD,Single-ply,5
Logan Buch,15,93.95,100,230,-247.5,-247.5,230,-142.5,142.5,152.5,152.5,215,-255,-262.5,215,597.5,Lake Co,M,M-JV,SBD,Single-ply,1
Morris Smith,16,99.2,100,200,215,222.5,222.5,117.5,127.5,-140,127.5,185,200,-227.5,200,550,Slidell,M,M-JV,SBD,Single-ply,2
David Cooley,16,92.9,100,142.5,-155,155,155,105,110,115,115,160,182.5,200,200,470,ASH,M,M-JV,SBD,Single-ply,3
Demorious Grundy,15,92.65,100,160,172.5,-182.5,172.5,-80,80,-92.5,80,172.5,190,-205,190,442.5,Clarinda Ac,M,M-JV,SBD,Single-ply,4
Buster Carter,16,93.35,100,150,-172.5,172.5,172.5,102.5,-110,-110,102.5,142.5,165,-177.5,165,440,ASH,M,M-JV,SBD,Single-ply,5
Darren Markle,16,100.65,110,227.5,235,-245,235,145,150,-157.5,150,227.5,-235,235,235,620,Mt. View,M,M-JV,SBD,Single-ply,1
Tanner Pray,16,105.25,110,205,-225,225,225,142.5,167.5,172.5,172.5,210,220,-235,220,617.5,MT. Morris,M,M-JV,SBD,Single-ply,2
Matt Raila,15,108.85,110,175,185,-195,185,100,112.5,117.5,117.5,180,190,197.5,197.5,500,ASH,M,M-JV,SBD,Single-ply,3
Austin Shields,16,107.8,110,145,170,182.5,182.5,97.5,102.5,-110,102.5,-155,155,-182.5,155,440,Plainwell,M,M-JV,SBD,Single-ply,4
Emilio Jacintho,15,115.55,125,-180,180,-220,180,137.5,150,-160,150,172.5,185,192.5,192.5,522.5,Tewksbury,M,M-JV,SBD,Single-ply,1
Garrett Horn,15,111.75,125,160,-180,-180,160,82.5,-92.5,92.5,92.5,150,165,-195,165,417.5,ASH,M,M-JV,SBD,Single-ply,2
Luis Guerrrero,18,51.3,52,162.5,-175,-175,162.5,102.5,105,107.5,107.5,165,172.5,-185,172.5,442.5,Calhoun HS,M,M-V,SBD,Single-ply,1
Craig Paulbicki,18,51.1,52,152.5,162.5,-165,162.5,-85,85,-92.5,85,157.5,167.5,-195,167.5,415,Brusly,M,M-V,SBD,Single-ply,2
Phillip Rotar,16,51.3,52,142.5,155,-165,155,92.5,-97.5,-97.5,92.5,145,162.5,165,165,412.5,Lincoln HS,M,M-V,SBD,Single-ply,3
Eric Fuller,17,50.9,52,120,137.5,145,145,77.5,-92.5,-92.5,77.5,160,170,-180,170,392.5,Atherton HS,M,M-V,SBD,Single-ply,4
John Bridges,17,50.8,52,142.5,-157.5,157.5,157.5,62.5,72.5,-77.5,72.5,150,-160,160,160,390,Baton Rouge,M,M-V,SBD,Single-ply,5
Caleb Messimer,15,50.8,52,-135,-140,140,140,90,97.5,-102.5,97.5,135,147.5,-152.5,147.5,385,Weatherford HS,M,M-V,SBD,Single-ply,6
James Leblanc,17,52,52,125,140,-147.5,140,70,85,92.5,92.5,125,137.5,-150,137.5,370,Ellender,M,M-V,SBD,Single-ply,7
Lance Carter,18,48.9,52,125,135,-140,135,62.5,67.5,72.5,72.5,140,150,-165,150,357.5,ASH,M,M-V,SBD,Single-ply,8
Stephen Kapala,18,51.2,52,102.5,112.5,-120,112.5,72.5,80,-85,80,150,160,-167.5,160,352.5,F.Powers Cath,M,M-V,SBD,Single-ply,9
Wayne Jones,16,51.2,52,110,120,-132.5,120,62.5,72.5,-77.5,72.5,130,-142.5,150,150,342.5,Glen Mills AC,M,M-V,SBD,Single-ply,10
James Wilson #18,15,50.9,52,107.5,-122.5,122.5,122.5,62.5,72.5,-75,72.5,130,142.5,-152.5,142.5,337.5,Glen Mills AC,M,M-V,SBD,Single-ply,11
DeMario Nealy,16,51.9,52,-110,110,122.5,122.5,50,57.5,-62.5,57.5,130,140,-147.5,140,320,F.Powers Cath,M,M-V,SBD,Single-ply,12
Caleb Tourres,17,44.1,52,117.5,127.5,137.5,137.5,72.5,82.5,-92.5,82.5,-72.5,72.5,-85,72.5,292.5,Rummel HS,M,M-V,SBD,Single-ply,13
Dylan Welch,16,51.6,52,102.5,107.5,-120,107.5,-47.5,57.5,-62.5,57.5,127.5,-137.5,-137.5,127.5,292.5,Brusly,M,M-V,SBD,Single-ply,14
Ian Larson,16,51.2,52,62.5,-97.5,-97.5,62.5,-57.5,57.5,-62.5,57.5,127.5,-137.5,-137.5,127.5,247.5,Brusly,M,M-V,SBD,Single-ply,15
Nathan Rodriguez,18,55.5,56,-190,190,-197.5,190,105,-110,110,110,160,165,-170,165,465,Calhoun HS,M,M-V,SBD,Single-ply,1
Kevin Miller,17,55.5,56,140,162.5,-167.5,162.5,90,105,-107.5,105,162.5,175,-200,175,442.5,Glen Mills AC,M,M-V,SBD,Single-ply,2
Aalin Rivers,15,55.9,56,-142.5,-145.5,167.5,167.5,70,80,87.5,87.5,142.5,167.5,180,180,435,Glen Mills AC,M,M-V,SBD,Single-ply,3
Billy Naquin,18,52.1,56,125,137.5,150,150,62.5,67.5,72.5,72.5,162.5,175,190,190,412.5,Ellender,M,M-V,SBD,Single-ply,4
Sidney Aulds,16,55.6,56,132.5,142.5,150,150,92.5,-102.5,-102.5,92.5,155,-170,-175,155,397.5,West Monroe,M,M-V,SBD,Single-ply,5
Brad Bonvillian,16,55.2,56,137.5,-147.5,157.5,157.5,62.5,67.5,72.5,72.5,137.5,150,162.5,162.5,392.5,Ellender,M,M-V,SBD,Single-ply,6
John Mount,17,55.7,56,115,-120,,115,77.5,87.5,-92.5,87.5,175,185,-192.5,185,387.5,Paxton,M,M-V,SBD,Single-ply,7
Devin Vernor,17,55.2,56,117.5,-137.5,137.5,137.5,72.5,-85,-85,72.5,152.5,160,170,170,380,Walker HS,M,M-V,SBD,Single-ply,8
Preston Phillips,18,55.7,56,-112.5,112.5,-117.5,112.5,70,-77.5,-77.5,70,142.5,150,-157.5,150,332.5,Bellevue East,M,M-V,SBD,Single-ply,9
Nelson Boutte,18,59.2,60,217.5,-232.5,-240,217.5,110,117.5,-122.5,117.5,210,-225,-225,210,545,Catholic NI,M,M-V,SBD,Single-ply,1
Des Rius Edwards,17,59.5,60,142.5,165,-177.5,165,92.5,-107.5,-107.5,92.5,205,227.5,-240,227.5,485,Glen Mills AC,M,M-V,SBD,Single-ply,2
Robert Castillo,18,60,60,162.5,170,175,175,97.5,-100,-100,97.5,185,197.5,-205,197.5,470,Neenah HS,M,M-V,SBD,Single-ply,3
Corey Taylor,17,60,60,157.5,167.5,175,175,102.5,110,-115,110,160,-172.5,175,175,460,Bellevue East,M,M-V,SBD,Single-ply,4
Nick Stevenson,16,59.9,60,175,-182.5,-182.5,175,92.5,102.5,-105,102.5,160,172.5,-182.5,172.5,450,MT. View,M,M-V,SBD,Single-ply,5
Darrius Bruce,17,59.2,60,140,160,172.5,172.5,82.5,-95,-95,82.5,190,-212.5,-222.5,190,445,Glen Mills AC,M,M-V,SBD,Single-ply,6
Bobby Salm,16,59.5,60,155,-160,-160,155,65,-80,-80,65,170,-177.5,-180,170,390,Neenah HS,M,M-V,SBD,Single-ply,7
John Wray,18,60,60,125,135,-137.5,135,-82.5,95,-100,95,137.5,150,-155,150,380,Paxton,M,M-V,SBD,Single-ply,8
Zach Wood,16,59.9,60,125,-135,145,145,67.5,-75,-75,67.5,135,-142.5,-145,135,347.5,Plainwell,M,M-V,SBD,Single-ply,9
Brandon Hare,17,67.5,67.5,227.5,-237.5,,227.5,117.5,122.5,130,130,-200,200,-205,200,557.5,Calhoun,M,M-V,SBD,Single-ply,1
William Bates,18,64.9,67.5,190,205,-212.5,205,97.5,102.5,110,110,197.5,207.5,-220,207.5,522.5,Runnells,M,M-V,SBD,Single-ply,2
Kyle Spiekerman,18,65.8,67.5,165,172.5,190,190,87.5,95,100,100,185,205,217.5,217.5,507.5,Plainwell,M,M-V,SBD,Single-ply,3
Seth Winchel,17,65.9,67.5,190,200,-207.5,200,107.5,117.5,-122.5,117.5,-187.5,187.5,-205,187.5,505,Hillsboro,M,M-V,SBD,Single-ply,4
Nick Newsome,17,66.5,67.5,177.5,-195,200,200,105,-115,-115,105,187.5,200,-220,200,505,Natch Cent,M,M-V,SBD,Single-ply,5
Kelby Allen,17,64.6,67.5,175,-187.5,187.5,187.5,105,-110,-110,105,177.5,185,190,190,482.5,Morenci,M,M-V,SBD,Single-ply,6
Sharif Durant,16,66.8,67.5,160,-187.5,-187.5,160,97.5,-107.5,107.5,107.5,190,210,215,215,482.5,Glen Mills AC,M,M-V,SBD,Single-ply,7
Kipp Hinz,17,67.2,67.5,172.5,-182.5,-182.5,172.5,90,-95,95,95,-215,215,-222.5,215,482.5,Osceola,M,M-V,SBD,Single-ply,8
Emmitt Fairconeture,18,66.7,67.5,-170,170,-192.5,170,110,122.5,-130,122.5,180,-200,-200,180,472.5,Glen Mills AC,M,M-V,SBD,Single-ply,9
Mark Hollingsworth,17,67.5,67.5,160,167.5,-172.5,167.5,-97.5,110,120,120,170,177.5,180,180,467.5,Happey Valley,M,M-V,SBD,Single-ply,10
Tony Rodgers,18,67.5,67.5,-175,175,-185,175,122.5,130,-135,130,160,-170,-170,160,465,Riverdale,M,M-V,SBD,Single-ply,11
Nick Lockhart,17,66.3,67.5,-172.5,172.5,-185,172.5,90,97.5,-105,97.5,175,192.5,-197.5,192.5,462.5,Xavier,M,M-V,SBD,Single-ply,12
Ben Stacker,17,67.1,67.5,177.5,185,-192.5,185,72.5,77.5,-82.5,77.5,180,190,-207.5,190,452.5,Neenah HS,M,M-V,SBD,Single-ply,13
Jonathan Lang,15,67,67.5,-182.5,182.5,-197.5,182.5,82.5,-115,-115,82.5,172.5,182.5,-192.5,182.5,447.5,Neenah HS,M,M-V,SBD,Single-ply,14
Benjamin Cockerham,17,65.9,67.5,140,152.5,-170,152.5,92.5,-105,105,105,165,180,-187.5,180,437.5,Walker,M,M-V,SBD,Single-ply,15
Phil Eggert,18,66.8,67.5,145,160,-170,160,97.5,-105,-105,97.5,-150,150,-170,150,407.5,Atherton,M,M-V,SBD,Single-ply,16
Anthony Raker,17,67.3,67.5,-182.5,187.5,200,200,97.5,-105,105,105,-192.5,-207.5,-207.5,,,Paxton,M,M-V,SBD,Single-ply,DQ
Andre Murria,17,74.7,75,-232.5,232.5,-242.5,232.5,132.5,137.5,142.5,142.5,235,250,-262.5,250,625,Bonham HS,M,M-V,SBD,Single-ply,1
Grant Kuehnel,18,72.8,75,-215,-215,215,215,-120,122.5,127.5,127.5,222.5,-232.5,-232.5,222.5,565,Seymour,M,M-V,SBD,Single-ply,2
Matt Winchester,17,73.9,75,200,217.5,-230,217.5,110,125,-130,125,217.5,-220,-220,217.5,560,Slidell,M,M-V,SBD,Single-ply,3
Robert Wood,18,74,75,185,-205,205,205,105,-120,-120,105,180,205,225,225,535,Glen Mills Ac,M,M-V,SBD,Single-ply,4
Dontay Edwards,16,74.6,75,182.5,202.5,-212.5,202.5,-107.5,115,122.5,122.5,182.5,205,-215,205,530,Glen Mills Ac,M,M-V,SBD,Single-ply,5
Joseph Vaughn,15,73,75,180,190,195,195,-105,105,-112.5,105,202.5,210,217.5,217.5,517.5,Calhoun,M,M-V,SBD,Single-ply,6
Logan Buchfield,19,74.3,75,180,197.5,207.5,207.5,87.5,97.5,-105,97.5,190,212.5,-225,212.5,517.5,Happy Valley,M,M-V,SBD,Single-ply,7
Robby Kenechedr,16,75,75,162.5,172.5,182.5,182.5,107.5,115,-122.5,115,200,212.5,220,220,517.5,Seymour,M,M-V,SBD,Single-ply,8
Jonathan Thomas,16,73.9,75,-182.5,182.5,-217.5,182.5,90,95,-110,95,200,215,232.5,232.5,510,ASH,M,M-V,SBD,Single-ply,9
Trent Thomas,18,69.5,75,160,167.5,180,180,-115,127.5,-132.5,127.5,-182.5,190,200,200,507.5,Owasso,M,M-V,SBD,Single-ply,10
Lucas Schmidt,16,72.9,75,190,197.5,-207.5,197.5,82.5,-102.5,102.5,102.5,192.5,202.5,-210,202.5,502.5,Neenah,M,M-V,SBD,Single-ply,11
Matt Embury,18,73.9,75,-165,165,-182.5,165,110,-120,-120,110,205,-222.5,-222.5,205,480,Atherton HS,M,M-V,SBD,Single-ply,12
Josh Siverson,16,73.5,75,-172.5,-172.5,172.5,172.5,92.5,97.5,100,100,180,187.5,192.5,192.5,465,Columbia,M,M-V,SBD,Single-ply,13
Ryan Thomas,18,72.7,75,150,-160,167.5,167.5,102.5,-115,-115,102.5,167.5,182.5,187.5,187.5,457.5,Bellevue East,M,M-V,SBD,Single-ply,14
Ian White,19,74.5,75,135,-160,160,160,-125,130,-137.5,130,165,-182.5,-195,165,455,Clarinda Ac,M,M-V,SBD,Single-ply,15
Raymore West,17,81,82.5,220,-245,245,245,102.5,115,125,125,250,272.5,282.5,282.5,652.5,Glen Mills AC,M,M-V,SBD,Single-ply,1
Patrick Eason,16,80.5,82.5,210,222.5,230,230,122.5,130,137.5,137.5,210,227.5,237.5,237.5,605,Natch Cent,M,M-V,SBD,Single-ply,2
Robert Black,17,80.3,82.5,-217.5,217.5,-250,217.5,117.5,-132.5,132.5,132.5,-207.5,207.5,245,245,595,Glen Mills AC,M,M-V,SBD,Single-ply,3
Ralph Briseno,16,80.3,82.5,-220,220,227.5,227.5,125,140,142.5,142.5,-207.5,207.5,222.5,222.5,592.5,Calhoun,M,M-V,SBD,Single-ply,4
Torrey Dallas,18,81.1,82.5,212.5,-227.5,-240,212.5,150,-165,-165,150,-212.5,212.5,,212.5,575,Salmen,M,M-V,SBD,Single-ply,5
Thomas Zintsmaster,17,80.4,82.5,185,-195,195,195,140,145,-150,145,207.5,215,-222.5,215,555,F.Powers Cath,M,M-V,SBD,Single-ply,6
Charlie Corner,17,81.1,82.5,-192.5,207.5,-220,207.5,137.5,-150,-150,137.5,182.5,200,210,210,555,David Crodatt,M,M-V,SBD,Single-ply,7
Jamal Younger,17,80.6,82.5,-192.5,192.5,-225,192.5,102.5,-115,115,115,207.5,237.5,-250,237.5,545,Glen Mills AC,M,M-V,SBD,Single-ply,8
Steve Ramsey,17,80.2,82.5,-202.5,205,212.5,212.5,95,-110,-112.5,95,200,210,217.5,217.5,525,Neenah HS,M,M-V,SBD,Single-ply,9
Zach Newmeyer,17,81.4,82.5,160,175,-185,175,110,117.5,120,120,190,-205,205,205,500,Plainwell,M,M-V,SBD,Single-ply,10
Joey Viscaya,18,79,82.5,160,170,-182.5,170,102.5,107.5,-117.5,107.5,160,192.5,,192.5,470,Bellevue East,M,M-V,SBD,Single-ply,11
Matt Knox,17,81.7,82.5,172.5,-190,,172.5,95,105,-115,105,167.5,185,-197.5,185,462.5,Clarinda AC,M,M-V,SBD,Single-ply,12
Jeremy Ogden,16,79.9,82.5,170,-185,-185,170,95,102.5,-105,102.5,182.5,-197.5,-197.5,182.5,455,Ridgeview,M,M-V,SBD,Single-ply,13
Joe Gardner,17,81.2,82.5,152.5,170,-182.5,170,97.5,-107.5,-117.5,97.5,170,-185,-192.5,170,437.5,Clarinda AC,M,M-V,SBD,Single-ply,14
Duwan Piotter,16,82.5,82.5,-130,130,-145,130,100,110,-117.5,110,165,182.5,-200,182.5,422.5,ASH,M,M-V,SBD,Single-ply,15
Jake Reidel,17,88.8,90,-235,235,245,245,145,155,160,160,245,260,-270,260,665,South Milwauke,M,M-V,SBD,Single-ply,1
Cardarius Murphy,17,89.7,90,232.5,240,252.5,252.5,122.5,132.5,137.5,137.5,232.5,-247.5,257.5,257.5,647.5,Natch Cent,M,M-V,SBD,Single-ply,2
Martel Gibson,17,88.5,90,227.5,-250,250,250,125,135,-140,135,237.5,260,-280,260,645,Glen Mills AC,M,M-V,SBD,Single-ply,3
Blake Weller,17,87.4,90,-227.5,227.5,,227.5,155,-165,-165,155,230,247.5,-255,247.5,630,Slidell,M,M-V,SBD,Single-ply,4
Chris Pursell,19,85.1,90,-247.5,-247.5,247.5,247.5,-105,110,125,125,240,250,-265,250,622.5,Pearl River,M,M-V,SBD,Single-ply,5
Brian Smothers,18,88.9,90,215,240,257.5,257.5,112.5,127.5,140,140,200,225,-250,225,622.5,Glen Mills AC,M,M-V,SBD,Single-ply,6
Tim Parker #3,17,87.3,90,-220,230,237.5,237.5,127.5,-135,135,135,-212.5,-220,225,225,597.5,Hershey,M,M-V,SBD,Single-ply,7
Cameryn Miller,18,88.6,90,210,-230,-230,210,120,-127.5,-127.5,120,-232.5,232.5,252.5,252.5,582.5,Bernardo,M,M-V,SBD,Single-ply,8
Joseph Riley,17,87,90,-200,-200,200,200,115,120,135,135,200,-220,-220,200,535,Plainwell,M,M-V,SBD,Single-ply,9
Tyler Morris,17,86.1,90,175,187.5,192.5,192.5,97.5,-102.5,-102.5,97.5,200,215,227.5,227.5,517.5,Natch Cent,M,M-V,SBD,Single-ply,10
Jordan HochStein,18,88,90,145,-160,160,160,97.5,110,-117.5,110,182.5,-190,-200,182.5,452.5,Woodward AC,M,M-V,SBD,Single-ply,11
Cameron Williams #11,16,97.9,100,-247.5,247.5,280,280,120,137.5,145,145,202.5,230,-240,230,655,Glen Mills AC,M,M-V,SBD,Single-ply,1
Austin Stubbs,18,95.2,100,215,227.5,232.5,232.5,160,170,180,180,195,210,227.5,227.5,640,Slidell,M,M-V,SBD,Single-ply,2
Brian Doxtator,17,98.3,100,240,-257.5,257.5,257.5,107.5,115,-120,115,242.5,260,-270,260,632.5,Seymour,M,M-V,SBD,Single-ply,3
Bryan King,16,98,100,232.5,245,-252.5,245,145,177.5,180,180,205,-217.5,-217.5,205,630,Calhoun,M,M-V,SBD,Single-ply,4
Guadelupe Briseno,16,98.8,100,-252.5,257.5,262.5,262.5,122.5,127.5,-132.5,127.5,220,237.5,-242.5,237.5,627.5,Calhoun,M,M-V,SBD,Single-ply,5
Cody Williams,18,98.9,100,210,-240,-245,210,155,-162.5,-162.5,155,260,-270,-272.5,260,625,Somerville,M,M-V,SBD,Single-ply,6
Scott Edwards,18,99.8,100,-205,205,217.5,217.5,155,-165,165,165,232.5,-247.5,-247.5,232.5,615,Goodrich,M,M-V,SBD,Single-ply,7
Blake Foret,18,100,100,220,235,-250,235,145,155,-175,155,215,-230,-230,215,605,Dutch Town,M,M-V,SBD,Single-ply,8
Quintin Meyer,15,99.4,100,222.5,235,240,240,97.5,102.5,-135,102.5,230,237.5,242.5,242.5,585,Neenah HS,M,M-V,SBD,Single-ply,9
Joshua Deltaan,17,98.5,100,190,-210,210,210,122.5,140,145,145,197.5,222.5,227.5,227.5,582.5,Plainwell,M,M-V,SBD,Single-ply,10
James Simon,16,93.5,100,177.5,190,205,205,102.5,112.5,117.5,117.5,185,200,-225,200,522.5,ASH,M,M-V,SBD,Single-ply,11
Richard Huffman,18,99.7,100,157.5,175,190,190,120,-132.5,-132.5,120,-190,-205,205,205,515,Woodward AC,M,M-V,SBD,Single-ply,12
Donnie Snyder,18,98.1,100,190,-195,195,195,-125,125,-135,125,185,190,-200,190,510,Abington Height,M,M-V,SBD,Single-ply,13
Scott Sivard,17,95.6,100,172.5,-192.5,-192.5,172.5,120,-127.5,-127.5,120,192.5,210,-225,210,502.5,Bellevue East,M,M-V,SBD,Single-ply,14
Taylor Johnson #7,17,108.8,110,222.5,-252.5,252.5,252.5,132.5,147.5,155,155,207.5,232.5,-237.5,232.5,640,Glen Mills AC,M,M-V,SBD,Single-ply,1
Alan Easton,18,108.6,110,235,-247.5,-247.5,235,170,-180,-180,170,-217.5,-227.5,227.5,227.5,632.5,Goodrich,M,M-V,SBD,Single-ply,2
Travis Nichols,16,106.7,110,235,245,-255,245,127.5,135,-142.5,135,230,237.5,245,245,625,Episcopal,M,M-V,SBD,Single-ply,3
Juan Torres,16,103,110,227.5,-245,-245,227.5,127.5,137.5,145,145,-207.5,230,245,245,617.5,Glen Mills AC,M,M-V,SBD,Single-ply,4
Zachariah Cook,17,107.2,110,222.5,230,245,245,120,127.5,-142.5,127.5,-225,232.5,245,245,617.5,Necedah,M,M-V,SBD,Single-ply,5
Alondre Lindsey,18,106.6,110,-202.5,202.5,230,230,120,137.5,142.5,142.5,205,232.5,242.5,242.5,615,Glen Mills AC,M,M-V,SBD,Single-ply,6
Jake Roberts #4,17,106.4,110,225,-235,-235,225,137.5,-142.5,-142.5,137.5,235,-242.5,-255,235,597.5,Abington Height,M,M-V,SBD,Single-ply,7
Dale Bishop,18,108.6,110,-210,210,-225,210,-165,165,-182.5,165,-197.5,197.5,215,215,590,Appleton East,M,M-V,SBD,Single-ply,8
John Ross,16,107,110,-227.5,-247.5,247.5,247.5,125,-137.5,-145,125,205,215,-227.5,215,587.5,Pearl River,M,M-V,SBD,Single-ply,9
Zack Collins,16,101.4,110,-192.5,192.5,215,215,102.5,115,120,120,207.5,232.5,-242.5,232.5,567.5,Glen Mills AC,M,M-V,SBD,Single-ply,10
John Sweeter,16,105.4,110,200,212.5,-227.5,212.5,112.5,-120,122.5,122.5,182.5,200,210,210,545,Plainwell,M,M-V,SBD,Single-ply,11
Alex Summers,16,107.7,110,-177.5,177.5,197.5,197.5,110,-120,120,120,197.5,210,217.5,217.5,535,F.Powers Cath,M,M-V,SBD,Single-ply,12
Matt Miedrich,17,107.8,110,-177.5,177.5,192.5,192.5,115,122.5,125,125,202.5,-212.5,-212.5,202.5,520,Hershey,M,M-V,SBD,Single-ply,13
Dustin Hippansteel,18,100.9,110,-175,175,-185,175,127.5,137.5,-147.5,137.5,195,-220,-240,195,507.5,Atherton HS,M,M-V,SBD,Single-ply,14
Joshua Newman,16,105.9,110,170,-180,-180,170,-132.5,132.5,142.5,142.5,192.5,-217.5,,192.5,505,Refugio,M,M-V,SBD,Single-ply,15
Kevin McCusker,17,118.5,125,-262.5,262.5,275,275,105,125,-132.5,125,245,257.5,267.5,267.5,667.5,Osceola,M,M-V,SBD,Single-ply,1
Anthony Lepri,17,124.9,125,262.5,275,280,280,145,-152.5,152.5,152.5,225,-232.5,235,235,667.5,Abington Height,M,M-V,SBD,Single-ply,2
Phillip Finley,17,113.5,125,-272.5,272.5,-300,272.5,125,137.5,147.5,147.5,207.5,230,-255,230,650,Glen Mills AC,M,M-V,SBD,Single-ply,3
Steven Bonar,17,122.5,125,237.5,240,-252.5,240,137.5,147.5,-155,147.5,185,195,-202.5,195,582.5,F.Powers Cath,M,M-V,SBD,Single-ply,4
Alex Cano,16,122.2,125,235,245,,245,-122.5,122.5,-127.5,122.5,185,195,200,200,567.5,Calhoun,M,M-V,SBD,Single-ply,5
Matt Zielsdorf,17,123.3,125,195,-220,-227.5,195,132.5,-137.5,137.5,137.5,185,-227.5,,185,517.5,Ridgeview,M,M-V,SBD,Single-ply,6
Maurice Gooden,17,145.2,125+,245,-275,275,275,167.5,185,195,195,240,272.5,297.5,297.5,767.5,Glen Mills AC,M,M-V,SBD,Single-ply,1
Eric Allen,17,135.8,125+,227.5,240,250,250,-145,155,162.5,162.5,235,242.5,250,250,662.5,Markesan,M,M-V,SBD,Single-ply,2
Hector Martinez,18,126,125+,222.5,235,252.5,252.5,-137.5,137.5,147.5,147.5,222.5,235,-255,235,635,Memorial,M,M-V,SBD,Single-ply,3
Travis van Note,17,152,125+,227.5,-245,-245,227.5,137.5,-155,-155,137.5,227.5,245,-250,245,610,Ridgeview,M,M-V,SBD,Single-ply,4
Eric Kern,18,125.9,125+,185,-272.5,-280,185,160,170,-177.5,170,192.5,-227.5,,192.5,547.5,Ridgeview,M,M-V,SBD,Single-ply,5
