Place,Name,BirthYear,Country,BodyweightKg,Squat1Kg,Squat2Kg,Squat3Kg,Best3SquatKg,Bench1Kg,Bench2Kg,Bench3Kg,Best3BenchKg,Deadlift1Kg,Deadlift2Kg,Deadlift3Kg,Best3DeadliftKg,TotalKg,WeightClassKg,Division,Event,Sex,Equipment
1,Eric Kupperstein,1966,USA,58.96,205,-225,230,230.0,115,122.5,127.5,127.5,227.5,245.5,255.0,255.0,612.5,59,Masters 1,SBD,M,Single-ply
1,Dominic Cadden,1970,Australia,65.52,217.5,-227.5,227.5,227.5,-165,-165,165,165.0,220,227.5,-230,227.5,620,66,Masters 1,SBD,M,Single-ply
2,Jacob Carrasco-Gonsales,1966,Peru,65.84,210,220,225,225.0,-140,140,145,145.0,220,235,-237.5,235.0,605,66,Masters 1,SBD,M,Single-ply
3,Nobuaki Fujiwara,1969,Japan,65.52,225,-240,240,240.0,145,-150,-152.5,145.0,200,215,-222.5,215.0,600,66,Masters 1,SBD,M,Single-ply
4,Karel Ruso,1965,Czechia,65.56,240,257.5,-265.5,257.5,95,100,102.5,102.5,210,235,-242.5,235.0,595,66,Masters 1,SBD,M,Single-ply
5,Oscar Mejía,1964,Mexico,65.02,205,-212.5,-215,205.0,120,-122.5,-122.5,120.0,-220,220,-227.5,220.0,545,66,Masters 1,SBD,M,Single-ply
DQ,Lewis Noppers,1970,Canada,65.78,-215,-220,-220,,-142.5,142.5,147.5,147.5,230,250,-255,250.0,,66,Masters 1,SBD,M,Single-ply
1,Tom Kean,1972,Canada,73.8,260,270,275,275.0,185,-190,190,190.0,265,272.5,-277.5,272.5,737.5,74,Masters 1,SBD,M,Single-ply
2,Nobuyuki Hamada,1969,Japan,73.64,272.5,-285,285,285.0,180,190,195,195.0,220,235,-247.5,235.0,715,74,Masters 1,SBD,M,Single-ply
3,Sami Siltala,1972,Finland,73.58,-235,235,245,245.0,150,157.5,160,160.0,222.5,245,-260,245.0,650,74,Masters 1,SBD,M,Single-ply
4,Steven Juraszek,1970,USA,73.46,150,160,-167.5,160.0,140,-145,145,145.0,162.5,-172.5,-172.5,162.5,467.5,74,Masters 1,SBD,M,Single-ply
DQ,Vincent Halbot,1969,France,72.78,-220,-230,-230,,175,-185,-185,175.0,220,-235,,220.0,,74,Masters 1,SBD,M,Single-ply
DQ,Sean Muir,1970,Australia,73.8,230,-242.5,245,245.0,-157.5,-157.5,-157.5,,245,-257.5,260,260.0,,74,Masters 1,SBD,M,Single-ply
1,Jeff Becker,1963,Canada,82.68,280,287.5,292.5,292.5,182.5,187.5,-192.5,187.5,280,290,297.5,297.5,777.5,83,Masters 1,SBD,M,Single-ply
2,David Decouleur,1972,France,81.8,260,-275,280,280.0,160,175,185,185.0,260,-275,-280,260.0,725,83,Masters 1,SBD,M,Single-ply
3,Hoi Leung,1969,Canada,82.92,240,250,260,260.0,165,170,-172.5,170.0,260,270,-275,270.0,700,83,Masters 1,SBD,M,Single-ply
4,Kouichi Fujiwara,1964,Japan,79.12,-230,230,240,240.0,155,160,165,165.0,235,245,-250,245.0,650,83,Masters 1,SBD,M,Single-ply
5,Mitsuhisa Ogawa,1971,Japan,82.16,227.5,-237.5,237.5,237.5,-172.5,-172.5,175,175.0,210,-225,225,225.0,637.5,83,Masters 1,SBD,M,Single-ply
6,Ronald Legarreta,1966,USA,79.92,-210,210,222.5,222.5,150,157.5,-160,157.5,215,232.5,240,240.0,620,83,Masters 1,SBD,M,Single-ply
7,Rami Huovinen,1964,Finland,82.62,230,-240,-242.5,230.0,-135,135,140,140.0,227.5,235,245,245.0,615,83,Masters 1,SBD,M,Single-ply
8,Bruno Hemonic,1967,France,80.58,190,205,217.5,217.5,-140,140,-150,140.0,220,230,235,235.0,592.5,83,Masters 1,SBD,M,Single-ply
1,Dave Walters,1971,Canada,90.76,-290,290,-300,290.0,247.5,255,-260,255.0,265,275,-280,275.0,820,93,Masters 1,SBD,M,Single-ply
2,Mario Schnurr,1966,Germany,92.4,302.5,315,-322.5,315.0,185,192.5,197.5,197.5,-300,300,-310,300.0,812.5,93,Masters 1,SBD,M,Single-ply
3,Pete Grohoski,1970,USA,92.8,245,252.5,-257.5,252.5,240,245,252.5,252.5,222.5,232.5,242.5,242.5,747.5,93,Masters 1,SBD,M,Single-ply
4,Henry Gerard,1964,USA,89.42,282.5,290,-295,290.0,-200,200,-205,200.0,240,-250,-257.5,240.0,730,93,Masters 1,SBD,M,Single-ply
5,Petteri Hakkarainen,1967,Finland,92.34,245,255,-262.5,255.0,-185,185,190,190.0,245,252.5,-277.5,252.5,697.5,93,Masters 1,SBD,M,Single-ply
6,Julian Perry,1966,New Zealand,92.78,215,230,240,240.0,130,137.5,-140,137.5,220,240,-255,240.0,617.5,93,Masters 1,SBD,M,Single-ply
DQ,Seppo Norpila,1963,Finland,92.88,-215,-220,-225,,-192.5,192.5,-207.5,192.5,230,240,-255,240.0,,93,Masters 1,SBD,M,Single-ply
1,Kenneth Gack,1970,USA,104.6,300,-310,310,310.0,220,232.5,242.5,242.5,260,275,-287.5,275.0,827.5,105,Masters 1,SBD,M,Single-ply
2,Joe Oliveira,1969,Canada,103.64,300,310,-315,310.0,202.5,207.5,212.5,212.5,267.5,275,285,285.0,807.5,105,Masters 1,SBD,M,Single-ply
3,Antonio González,1971,Puerto Rico,99.74,305,-315,-317.5,305.0,190,197.5,200,200.0,267.5,275,-287.5,275.0,780,105,Masters 1,SBD,M,Single-ply
4,Thomas Ziegler,1967,Germany,102.8,-230,230,-250,230.0,180,190,-200,190.0,237.5,247.5,255,255.0,675,105,Masters 1,SBD,M,Single-ply
1,Michael Kalter,1972,Netherlands,114.5,285,305,320,320.0,200,210,,210.0,290,302.5,315,315.0,845,120,Masters 1,SBD,M,Single-ply
2,Sheldon Duncan,1969,Canada,110.96,270,282.5,290,290.0,212.5,220,227.5,227.5,292.5,302.5,-327.5,302.5,820,120,Masters 1,SBD,M,Single-ply
3,Steve Lousich,1965,New Zealand,119.54,265,285,-292.5,285.0,230,237.5,-242.5,237.5,210,230,240,240.0,762.5,120,Masters 1,SBD,M,Single-ply
1,Andre Gholson,1971,USA,132.14,355,370,,370.0,247.5,-267.5,-267.5,247.5,282.5,295,300,300.0,917.5,120+,Masters 1,SBD,M,Single-ply
2,Patrick Anderson,1971,USA,137.86,327.5,355,367.5,367.5,247.5,-262.5,262.5,262.5,265,-280,285,285.0,915,120+,Masters 1,SBD,M,Single-ply
3,Jaroslav Šoukal,1972,Czechia,148.3,270,290,302.5,302.5,267.5,277.5,282.5,282.5,245,260,275,275.0,860,120+,Masters 1,SBD,M,Single-ply
4,Wim Wamsteeker,1969,Netherlands,133.86,330,-345,-345,330.0,155,-180,-180,155.0,-270,270,-275,270.0,755,120+,Masters 1,SBD,M,Single-ply
5,Peter McGill,1963,Canada,131.26,257.5,-275,275,275.0,197.5,202.5,215,215.0,185,200,-210,200.0,690,120+,Masters 1,SBD,M,Single-ply
1,Cruz Rodríguez,1959,Puerto Rico,65.54,202.5,212.5,-222.5,212.5,137.5,145,-150,145.0,190,200,-205,200.0,557.5,66,Masters 2,SBD,M,Single-ply
2,Rick Esposito,1958,USA,64.84,175,182.5,187.5,187.5,120,125,-127.5,125.0,212.5,220,225,225.0,537.5,66,Masters 2,SBD,M,Single-ply
3,Patrick Blard,1954,France,65.62,167.5,172.5,182.5,182.5,100,107.5,110,110.0,185,195,202.5,202.5,495,66,Masters 2,SBD,M,Single-ply
1,Winston Stoby,1959,Guyana,72.86,242.5,247.5,255,255.0,130,137.5,140,140.0,262.5,272.5,-277.5,272.5,667.5,74,Masters 2,SBD,M,Single-ply
2,Koichi Taniguchi,1960,Japan,73.64,-210,210,-220,210.0,155,162.5,-170,162.5,220,230,242.5,242.5,615,74,Masters 2,SBD,M,Single-ply
3,Mark Sigala,1961,USA,73.46,205,215,-227.5,215.0,142.5,147.5,-152.5,147.5,242.5,247.5,-252.5,247.5,610,74,Masters 2,SBD,M,Single-ply
4,Allen Ottolangui,1960,UK,73.7,225,-230,-230,225.0,130,-135,-135,130.0,215,-230,,215.0,570,74,Masters 2,SBD,M,Single-ply
5,Akinori Yasukura,1958,Japan,73.64,195,-205,-210,195.0,135,140,-145,140.0,185,195,-205,195.0,530,74,Masters 2,SBD,M,Single-ply
6,Didier Rey,1958,France,73.5,150,-162.5,162.5,162.5,125,-130,,125.0,215,-232.5,-232.5,215.0,502.5,74,Masters 2,SBD,M,Single-ply
1,Ron Garofalo,1961,USA,82.4,262.5,280,290,290.0,-172.5,172.5,175,175.0,267.5,297.5,307.5,307.5,772.5,83,Masters 2,SBD,M,Single-ply
2,Daniel Austin #1,1958,USA,81.44,285,305.0,317.5,317.5,145,-152.5,,145.0,277.5,-295,305.0,305.0,767.5,83,Masters 2,SBD,M,Single-ply
3,James Abraham,1961,Canada,82.46,200,210,-217.5,210.0,142.5,147.5,152.5,152.5,220,240,-252.5,240.0,602.5,83,Masters 2,SBD,M,Single-ply
4,Jorma Roininen,1958,Finland,82.08,185,195,-202.5,195.0,130,140,145,145.0,210,-225,-225,210.0,550,83,Masters 2,SBD,M,Single-ply
DQ,Régis Gautier,1956,France,81.06,200,-207.5,-210,200.0,-147.5,-147.5,-147.5,,240,250,252.5,252.5,,83,Masters 2,SBD,M,Single-ply
1,Kazunori Sato,1961,Japan,90.84,235,247.5,255,255.0,220,233.0,235.0,235.0,230,245,255,255.0,745,93,Masters 2,SBD,M,Single-ply
2,Erik Rasmussen,1962,Denmark,87.32,260,272.5,280,280.0,165,175,182.5,182.5,225,235,245,245.0,707.5,93,Masters 2,SBD,M,Single-ply
3,Michal Sekot,1961,Czechia,91.76,245,255,262.5,262.5,177.5,-182.5,182.5,182.5,230,242.5,-255,242.5,687.5,93,Masters 2,SBD,M,Single-ply
4,Brent Steinbach,1960,USA,91.14,232.5,240,245,245.0,170,177.5,-185,177.5,230,240,247.5,247.5,670,93,Masters 2,SBD,M,Single-ply
5,Stephen King,1962,New Zealand,85.06,225,245,260,260.0,122.5,130,135,135.0,210,230,-242.5,230.0,625,93,Masters 2,SBD,M,Single-ply
6,John Fraser,1956,Canada,86.5,215,-220,-220,215.0,150,155,-160,155.0,220,-230,232.5,232.5,602.5,93,Masters 2,SBD,M,Single-ply
7,Antero Juntunen,1954,Finland,84.82,195,205,212.5,212.5,105,110,-115,110.0,230,245,255,255.0,577.5,93,Masters 2,SBD,M,Single-ply
1,Tavita Lipine,1956,Samoa,103.72,320,330,-341,330.0,185,-195,-200,185.0,290,300,305,305.0,820,105,Masters 2,SBD,M,Single-ply
2,Gary Pamplin,1957,USA,104.24,-295,295,320,320.0,227.5,240.0,-250,240.0,235,247.5,-260,247.5,807.5,105,Masters 2,SBD,M,Single-ply
3,Edward Anderson,1961,New Zealand,104.46,-245,245,265,265.0,155,170,-187.5,170.0,225,-237.5,-237.5,225.0,660,105,Masters 2,SBD,M,Single-ply
1,Ron Strong,1958,Canada,119.22,285,295,300,300.0,190,200,-207.5,200.0,300,312.5,320,320.0,820,120,Masters 2,SBD,M,Single-ply
2,David Gonzales,1961,USA,119.78,305,315,-320,315.0,215,220,222.5,222.5,275,282.5,-287.5,282.5,820,120,Masters 2,SBD,M,Single-ply
3,Harri Hagfors,1961,Finland,105.16,-235,235,260,260.0,185,197.5,202.5,202.5,245,275,282.5,282.5,745,120,Masters 2,SBD,M,Single-ply
1,Daniel Gaudreau,1960,USA,153.22,-330,-330,330,330.0,272.5,281.0,-301,281.0,272.5,-310,-310,272.5,883.5,120+,Masters 2,SBD,M,Single-ply
2,Hugo Velásquez,1959,Costa Rica,123.62,140,170,-202.5,170.0,160,182.5,195,195.0,140,170,,170.0,535,120+,Masters 2,SBD,M,Single-ply
1,Shinjun Oshiro,1943,Japan,56.98,162.5,-170,-170,162.5,97.5,105,107.5,107.5,162.5,-170,172.5,172.5,442.5,59,Masters 3,SBD,M,Single-ply
2,Alex Galant,1947,USA,58.4,142.5,147.5,152.5,152.5,-67.5,67.5,-70,67.5,130,142.5,145,145.0,365,59,Masters 3,SBD,M,Single-ply
DQ,Shintaro Uchiyama,1947,Japan,58.58,-155,155,-167.5,155.0,-100,-100,-100,,160,167.5,175,175.0,,59,Masters 3,SBD,M,Single-ply
1,Hidetoshi Marumoto,1947,Japan,63.96,-200,200,210.0,210.0,90,105,115,115.0,-170,170,-192.5,170.0,495,66,Masters 3,SBD,M,Single-ply
2,Max Bristow,1944,Australia,65.2,150,-160,160,160.0,60,67.5,70,70.0,215,230,235.5,235.5,465.5,66,Masters 3,SBD,M,Single-ply
DQ,Jeffrey Jacobs,1947,USA,65.32,-177.5,-177.5,-177.5,,102.5,107.5,-112.5,107.5,192.5,-217.5,-222.5,192.5,,66,Masters 3,SBD,M,Single-ply
1,Mark Cucinella,1950,USA,73.3,192.5,205,-215,205.0,132.5,137.5,142.5,142.5,197.5,205,210,210.0,557.5,74,Masters 3,SBD,M,Single-ply
2,Horst Echtner,1952,Germany,72.14,190,-200,200,200.0,120,127.5,-132.5,127.5,200,212.5,225,225.0,552.5,74,Masters 3,SBD,M,Single-ply
3,Heino Maiste,1949,Estonia,73.7,-175,180,195,195.0,105,115,-120,115.0,210,225,-232.5,225.0,535,74,Masters 3,SBD,M,Single-ply
DQ,Glyn Moore,1951,Canada,73.9,-215,-215,-215,,,,,,,,,,,74,Masters 3,SBD,M,Single-ply
1,Ron Delaney,1951,Canada,82.34,220,-227.5,230,230.0,137.5,142.5,-145,142.5,255,265,-270,265.0,637.5,83,Masters 3,SBD,M,Single-ply
2,Janos Fabri,1945,Hungary,79.92,210,-220,220,220.0,130,135,137.5,137.5,260,-275,-275,260.0,617.5,83,Masters 3,SBD,M,Single-ply
3,Gregory Kleyn,1951,USA,81.82,200,212.5,220,220.0,115,125,132.5,132.5,235,247.5,-262.5,247.5,600,83,Masters 3,SBD,M,Single-ply
4,Günter Lüdecke,1948,Germany,82.42,-200,200,-215,200.0,140,145,-147.5,145.0,205,215,-222.5,215.0,560,83,Masters 3,SBD,M,Single-ply
5,Michel Dudziak,1948,France,81.82,170,180,185,185.0,105,112.5,-120,112.5,215,225,232.5,232.5,530,83,Masters 3,SBD,M,Single-ply
6,Jean-François Vinot,1951,France,78.5,-180,-180,180,180.0,100,107.5,115,115.0,220,-240,-240,220.0,515,83,Masters 3,SBD,M,Single-ply
7,Nairanjan Singh,1945,Guyana,82.94,-132.5,147.5,-150,147.5,112.5,117.5,-120,117.5,170,182.5,185,185.0,450,83,Masters 3,SBD,M,Single-ply
8,Heikki Malkavaara,1945,Finland,81.54,-140,140,-150,140.0,90,100,-105,100.0,150,160,170,170.0,410,83,Masters 3,SBD,M,Single-ply
DQ,Toshio Kitano,1946,Japan,82.3,210,230,-250,230.0,-150,-150,-150,,225,-237.5,-250,225.0,,83,Masters 3,SBD,M,Single-ply
1,Christian Delpieu,1951,France,90.46,220,230,240,240.0,137.5,142.5,-145,142.5,220,235,-240,235.0,617.5,93,Masters 3,SBD,M,Single-ply
2,Kari Mattila,1945,Sweden,92.14,195,205,210,210.0,-130,130,-137.5,130.0,-235,235,242.5,242.5,582.5,93,Masters 3,SBD,M,Single-ply
3,Roberto Carvalho,1945,Brazil,86.3,220,235,-250,235.0,-122.5,130,140,140.0,180,200,205,205.0,580,93,Masters 3,SBD,M,Single-ply
4,Fred Rice,1944,USA,90.84,192.5,207.5,212.5,212.5,95,100,105,105.0,235,247.5,-250,247.5,565,93,Masters 3,SBD,M,Single-ply
5,Miroslav Koprnicky,1951,Canada,91.4,180,192.5,-202.5,192.5,142.5,150,152.5,152.5,190,205,215,215.0,560,93,Masters 3,SBD,M,Single-ply
DQ,Lutz Schuricht,1951,Germany,88.48,230,-240,240,240.0,-175,,,,225,232.5,237.5,237.5,,93,Masters 3,SBD,M,Single-ply
1,Ralph Brown,1951,USA,104.64,250,267.5,272.5,272.5,142.5,-182.5,182.5,182.5,227.5,240,-247.5,240.0,695,105,Masters 3,SBD,M,Single-ply
2,Jean-Paul Belmas,1949,France,100.98,220,230,237.5,237.5,-115,115,-122.5,115.0,220,240,245,245.0,597.5,105,Masters 3,SBD,M,Single-ply
DQ,Gordon Chenkie,1952,Canada,93.56,-200,200,217.5,217.5,-150,-150,-150,,200,212.5,-220,212.5,,105,Masters 3,SBD,M,Single-ply
DQ,Mihkel Laurits,1944,Estonia,98.14,-217.5,-217.5,-217.5,,140,-147.5,-147.5,140.0,205,215,-220,215.0,,105,Masters 3,SBD,M,Single-ply
1,Ab Wolders,1951,Netherlands,116.32,240,260,270,270.0,170,180,185,185.0,245,255,262.5,262.5,717.5,120,Masters 3,SBD,M,Single-ply
2,Bill Sindelar,1951,USA,114.84,245,260,265,265.0,-187.5,187.5,195,195.0,235,245,255,255.0,715,120,Masters 3,SBD,M,Single-ply
3,Josef Duna,1950,Czechia,109.06,160,175,190,190.0,175,180,187.5,187.5,170,185,195,195.0,572.5,120,Masters 3,SBD,M,Single-ply
1,Steven Green,1951,USA,146.56,-275,275,-290,275.0,220.0,230.0,235.0,235.0,-250,250,265,265.0,775.0,120+,Masters 3,SBD,M,Single-ply
2,Hans Ring,1945,Sweden,124.84,-220,-220,220,220.0,160,175,190,190.0,230,-250,-250,230.0,640,120+,Masters 3,SBD,M,Single-ply
1,Bent Hansen,1941,Denmark,58.66,-115,-117.5,117.5,117.5,75,80,82.5,82.5,145,-163,-163,145.0,345,59,Masters 4,SBD,M,Single-ply
2,Kim-Won Pok,1940,Hong Kong,52.36,110,115,-122.5,115.0,67.5,-72.5,72.5,72.5,130,135,-142.5,135.0,322.5,59,Masters 4,SBD,M,Single-ply
1,Bruce Park,1937,New Zealand,64.8,125,130,-140,130.0,80,85,-90,85.0,165,177.5,185.0,185.0,400,66,Masters 4,SBD,M,Single-ply
1,Mitsuru Osawa,1941,Japan,73.78,-180,190,-205,190.0,115,120,-122.5,120.0,170,180,-190,180.0,490,74,Masters 4,SBD,M,Single-ply
1,Peter Fiore,1940,Australia,80.52,180,200,210.0,210.0,100,-120,120,120.0,200,210.0,-220,210.0,540.0,83,Masters 4,SBD,M,Single-ply
2,Martin Daniel,1940,USA,79.72,182.5,-197.5,-197.5,182.5,102.5,115,-125,115.0,182.5,207.5,-220,207.5,505,83,Masters 4,SBD,M,Single-ply
DQ,Clarry Parsons,1941,New Zealand,80.24,160,-170,170,170.0,80,85,-90,85.0,-170,-170,-170,,,83,Masters 4,SBD,M,Single-ply
1,Jack Taylor #1,1941,Canada,90.92,-150,150,165,165.0,110,120,125,125.0,175,185,190,190.0,480,93,Masters 4,SBD,M,Single-ply
2,Tom O'Keefe,1935,USA,88.4,125,137.5,145,145.0,102.5,-105,105,105.0,145,150,157.5,157.5,407.5,93,Masters 4,SBD,M,Single-ply
DQ,Raymond Curtis,1932,USA,89,-102.5,-102.5,-107.5,,100,-105,-105,100.0,140,150,-155,150.0,,93,Masters 4,SBD,M,Single-ply
1,Bill Helmich,1942,USA,103.54,-190,190,205,205.0,145,155,-165,155.0,240,-252.5,252.5,252.5,612.5,105,Masters 4,SBD,M,Single-ply
1,Robert Grisham,1939,USA,115.4,172.5,180,190,190.0,-92.5,-95,95,95.0,170,180,-185,180.0,465,120,Masters 4,SBD,M,Single-ply
2,Raimo Sandelin,1940,Finland,117.74,-130,130,,130.0,-135,-135,135,135.0,140,150,160,160.0,425,120,Masters 4,SBD,M,Single-ply
1,Nathalie Feraud,1967,France,45.46,117.5,-122.5,125,125.0,75,82.5,-85,82.5,120,130,140,140.0,347.5,47,Masters 1,SBD,F,Single-ply
2,Catrin Resch,1965,Germany,45,110,120,-127.5,120.0,75,80,-82.5,80.0,115,120,-130,120.0,320,47,Masters 1,SBD,F,Single-ply
3,Tania Pitt-Guthrie,1971,New Zealand,46.12,107.5,112.5,-117.5,112.5,60,62.5,-65,62.5,107.5,112.5,-122.5,112.5,287.5,47,Masters 1,SBD,F,Single-ply
1,Suzanne Hartwig-Gary,1968,USA,51.16,155,165,175.0,175.0,87.5,92.5,97.5,97.5,150,160,170,170.0,442.5,52,Masters 1,SBD,F,Single-ply
2,Eva Buxbom,1969,Denmark,51.92,135,142.5,-145,142.5,70,-75,-75,70.0,145,155,-162.5,155.0,367.5,52,Masters 1,SBD,F,Single-ply
3,Shoko Tanaka,1964,Japan,51.84,125,135,140,140.0,67.5,75,77.5,77.5,125,-135,-135,125.0,342.5,52,Masters 1,SBD,F,Single-ply
DQ,Lee-Anne Dwarte,1966,Australia,51.06,-130,-130,-130,,60,65,70,70.0,-150,150,-160,150.0,,52,Masters 1,SBD,F,Single-ply
1,Teale Adelmann,1971,USA,55.54,132.5,-142.5,-142.5,132.5,120,-125,125,125.0,172.5,182.5,-190,182.5,440,57,Masters 1,SBD,F,Single-ply
2,Akane Isoda,1970,Japan,56.36,115,120,125,125.0,85,90,-95,90.0,120,125,130,130.0,345,57,Masters 1,SBD,F,Single-ply
1,Isabelle Iliev,1967,France,62.32,140,150,-160,150.0,110,115,-122.5,115.0,150,165,-170,165.0,430,63,Masters 1,SBD,F,Single-ply
DQ,Jennifer Rey-Gaudreau,1971,USA,61.44,-165,-170,170,170.0,92.5,97.5,100,100.0,-160,-160,-165,,,63,Masters 1,SBD,F,Single-ply
1,Priscilla Ribic,1972,USA,71.32,200,210,,210.0,120,130,135,135.0,210,225.0,-240.5,225.0,570.0,72,Masters 1,SBD,F,Single-ply
2,Carmen Sjardijn,1969,Netherlands,70.94,160,-170,-170,160.0,-102.5,102.5,107.5,107.5,-150,162.5,-172.5,162.5,430,72,Masters 1,SBD,F,Single-ply
3,Sybille Hampel,1967,Germany,71.22,150,162.5,172.5,172.5,77.5,-80,80,80.0,142.5,152.5,-165,152.5,405,72,Masters 1,SBD,F,Single-ply
4,Serena Perry,1965,New Zealand,70.34,132.5,140,147.5,147.5,90,95,-100,95.0,132.5,145,150,150.0,392.5,72,Masters 1,SBD,F,Single-ply
1,Cydney Smith,1971,USA,78.72,177.5,185,-192.5,185.0,125,132.5,137.5,137.5,-175,175,190,190.0,512.5,84,Masters 1,SBD,F,Single-ply
2,Sebrina Davis,1970,USA,77.54,182.5,-190,-195,182.5,92.5,105,-110,105.0,200,-212.5,,200.0,487.5,84,Masters 1,SBD,F,Single-ply
1,Laura Styrlund,1964,USA,85.22,155,165,172.5,172.5,107.5,117.5,127.5,127.5,170,180,185,185.0,485,84+,Masters 1,SBD,F,Single-ply
2,Midori Kato,1971,Japan,88.74,185,200,-205,200.0,95,100,-105,100.0,160,170,-175,170.0,470,84+,Masters 1,SBD,F,Single-ply
3,Mimi McRae,1970,Canada,95.9,152.5,160,-167.5,160.0,-70,75,85,85.0,152.5,162.5,170,170.0,415,84+,Masters 1,SBD,F,Single-ply
1,Pranee Pascoe,1958,Australia,46.6,-112.5,112.5,120,120.0,62.5,67.5,70,70.0,130,135,-140,135.0,325,47,Masters 2,SBD,F,Single-ply
2,Kimberly Ryman,1962,USA,46.4,92.5,100,-102.5,100.0,47.5,52.5,55,55.0,115,125,-130,125.0,280,47,Masters 2,SBD,F,Single-ply
DQ,Mary Macken,1961,Australia,46.9,-150.5,-150.5,-150.5,,62.5,65,67.5,67.5,160,-167.5,-167.5,160.0,,47,Masters 2,SBD,F,Single-ply
1,Jenny Hunter,1958,UK,53.76,115,125,130,130.0,75,80,85,85.0,150,160,162.5,162.5,377.5,57,Masters 2,SBD,F,Single-ply
2,Lynne Homan,1962,USA,56.02,100,110,117.5,117.5,75,80,-85,80.0,127.5,140,145,145.0,342.5,57,Masters 2,SBD,F,Single-ply
3,Helen Allen,1961,Australia,56.34,107.5,117.5,-122.5,117.5,65,-70,-70,65.0,145,152.5,-162.5,152.5,335,57,Masters 2,SBD,F,Single-ply
4,Monica Sobotka,1958,USA,56.12,100,-107.5,112.5,112.5,70,-75,-75,70.0,132.5,-142.5,142.5,142.5,325,57,Masters 2,SBD,F,Single-ply
1,Jeannette Gevers,1962,Australia,62.24,145,152.5,-160,152.5,87.5,-95,-95,87.5,145,152.5,-160,152.5,392.5,63,Masters 2,SBD,F,Single-ply
2,Wing-Yuk Ip,1961,Hong Kong,60.14,-115,115,,115.0,72.5,-77.5,,72.5,112.5,127.5,-137.5,127.5,315,63,Masters 2,SBD,F,Single-ply
3,Anne Kemmerer,1953,USA,60.68,92.5,102.5,-110,102.5,60,-65,-65,60.0,127.5,137.5,142.5,142.5,305,63,Masters 2,SBD,F,Single-ply
1,Donna Marts,1960,USA,71.1,155,-162.5,-162.5,155.0,-107.5,107.5,-112.5,107.5,155,165,-170,165.0,427.5,72,Masters 2,SBD,F,Single-ply
2,Donna Bryant,1959,USA,70.52,160,-170,-170,160.0,87.5,90,-92.5,90.0,160,170,-177.5,170.0,420,72,Masters 2,SBD,F,Single-ply
1,Hana Takáčová,1954,Czechia,83.08,130,140,-145,140.0,130,137.5,140,140.0,130,140,150,150.0,430,84,Masters 2,SBD,F,Single-ply
1,Shirley Cole,1953,USA,97.66,-167.5,167.5,170,170.0,85,-95,95,95.0,167.5,170,180,180.0,445,84+,Masters 2,SBD,F,Single-ply
1,Susan Elwyn,1947,USA,47,75,100,-105,100.0,42.5,47.5,-50,47.5,92.5,102.5,107.5,107.5,255,47,Masters 3,SBD,F,Single-ply
1,Denise Johnson,1947,USA,49.72,-40,40,45,45.0,30,32.5,35,35.0,72.5,82.5,85,85.0,165,52,Masters 3,SBD,F,Single-ply
1,Janet Warne,1952,Canada,55.86,110,115,120,120.0,62.5,67.5,-70,67.5,110,115,120,120.0,307.5,57,Masters 3,SBD,F,Single-ply
DQ,Hatsuko Kimura,1951,Japan,53.28,-130,-135,-140,,55,70,,70.0,150,170,-180,170.0,,57,Masters 3,SBD,F,Single-ply
1,Hisako Hayashi,1951,Japan,57.42,115,125,-130,125.0,62.5,75,-80,75.0,120,130,-132.5,130.0,330,63,Masters 3,SBD,F,Single-ply
2,Carol Brady,1950,Canada,62.32,95,102.5,110,110.0,62.5,-67.5,67.5,67.5,90,97.5,105,105.0,282.5,63,Masters 3,SBD,F,Single-ply
3,Sylvia Clarkson,1946,New Zealand,60.5,105,110,-115,110.0,-50,50,-52.5,50.0,110,-120,120,120.0,280,63,Masters 3,SBD,F,Single-ply
1,Bebe Burns,1942,USA,49.4,30,40,45,45.0,35,40,45,45.0,60,65,67.5,67.5,157.5,52,Masters 4,SBD,F,Single-ply
