Division,WeightClassKg,Place,Name,Team,BodyweightKg,Best3SquatKg,Best3BenchKg,Best3DeadliftKg,TotalKg,Equipment,Event,Sex
Girls,44.23,1,Jackie Garcia,Zapata,43.27,106.59,52.16,120.2,278.96,Single-ply,SBD,F
Girls,44.23,2,Briana Gonzalez,Bruni,43.27,81.65,38.56,86.18,206.38,Single-ply,SBD,F
Girls,44.23,3,Merisa Maldonado,Uvalde,39.55,72.57,24.95,74.84,172.37,Single-ply,SBD,F
Girls,47.85,1,Alexis Soto,Bruni,46.54,102.06,61.23,108.86,272.16,Single-ply,SBD,F
Girls,47.85,2,Kristen Alaniz,Alice,45.72,97.52,54.43,97.52,249.48,Single-ply,SBD,F
Girls,47.85,3,Joeli Castillo,Zapata,47.63,88.45,52.16,106.59,247.21,Single-ply,SBD,F
Girls,47.85,4,Casey Castillo #2,Bruni,47.17,90.72,45.36,90.72,226.8,Single-ply,SBD,F
Girls,47.85,5,Daniela Vela,Zapata,45.72,83.91,40.82,95.25,219.99,Single-ply,SBD,F
Girls,47.85,6,Jasmin Galvan,Laredo Cigarroa,44.91,58.97,34.02,74.84,167.83,Single-ply,SBD,F
Girls,51.94,1,Brianna Gonzalez,Zapata,51.35,136.08,58.97,136.08,331.12,Single-ply,SBD,F
Girls,51.94,2,Alexandra García,Zapata,50.53,115.67,63.5,127.01,306.17,Single-ply,SBD,F
Girls,51.94,3,Tina Morales,Bruni,50.26,106.59,49.9,120.2,276.69,Single-ply,SBD,F
Girls,51.94,4,Lizbeth Camarillo,Laredo United South,51.17,108.86,56.7,108.86,274.42,Single-ply,SBD,F
Girls,51.94,5,Amanda Perez,Laredo Nixon,51.07,92.99,54.43,120.2,267.62,Single-ply,SBD,F
Girls,51.94,6,Deanna Solis,Laredo United South,51.53,102.06,43.09,104.33,249.48,Single-ply,SBD,F
Girls,51.94,7,Janell Carrizales,Carrizo Springs,48.72,88.45,52.16,106.59,247.21,Single-ply,SBD,F
Girls,51.94,8,Abby Saenz,Bruni,51.89,92.99,49.9,99.79,242.67,Single-ply,SBD,F
Girls,51.94,9,Emily Benavides,Laredo United South,51.44,104.33,40.82,90.72,235.87,Single-ply,SBD,F
Girls,51.94,10,Cierra Alonzo,Uvalde,50.8,56.7,29.48,83.91,170.1,Single-ply,SBD,F
Girls,51.94,DQ,Emily Godina,Laredo Martin,51.71,61.23,29.48,,,Single-ply,SBD,F
Girls,56.02,1,Alana Montes,Zapata,54.43,138.35,72.57,133.81,344.73,Single-ply,SBD,F
Girls,56.02,2,Cecily Gonzalez,Alice,54.43,136.08,52.16,117.93,306.17,Single-ply,SBD,F
Girls,56.02,3,Bailey Hunter,Bruni,54.98,102.06,54.43,138.35,294.84,Single-ply,SBD,F
Girls,56.02,4,Crystal Navarro,Zapata,54.98,115.67,58.97,115.67,290.3,Single-ply,SBD,F
Girls,56.02,5,Lily Cantu,Zapata,55.16,117.93,49.9,122.47,290.3,Single-ply,SBD,F
Girls,56.02,6,Clari Villarreal,Zapata,54.79,111.13,49.9,127.01,288.03,Single-ply,SBD,F
Girls,56.02,7,Ashley Gutierrez,Laredo United South,54.52,115.67,52.16,102.06,269.89,Single-ply,SBD,F
Girls,56.02,8,Nati Castaneda,Zapata,52.25,102.06,52.16,113.4,267.62,Single-ply,SBD,F
Girls,56.02,9,Bianca Alvarez,Alice,55.7,117.93,36.29,113.4,267.62,Single-ply,SBD,F
Girls,56.02,10,Tiffany Landeros,Laredo United South,54.16,106.59,47.63,102.06,256.28,Single-ply,SBD,F
Girls,56.02,11,Alexis Trevino,Laredo Nixon,53.89,88.45,40.82,97.52,226.8,Single-ply,SBD,F
Girls,56.02,12,Terry Pedraza,Laredo Martin,55.25,90.72,38.56,97.52,226.8,Single-ply,SBD,F
Girls,56.02,13,Cassandra Flores,Laredo Nixon,54.7,81.65,36.29,95.25,213.19,Single-ply,SBD,F
Girls,56.02,14,Angelica Melecio,Laredo Johnson,55.25,83.91,34.02,86.18,204.12,Single-ply,SBD,F
Girls,56.02,15,Kayla Callahan,Laredo Cigarroa,55.97,70.31,43.09,77.11,190.51,Single-ply,SBD,F
Girls,56.02,16,Rosa Mata,Laredo Cigarroa,55.43,56.7,31.75,86.18,174.63,Single-ply,SBD,F
Girls,60.1,1,Monique Hurtado,Zapata,59.06,117.93,47.63,136.08,301.64,Single-ply,SBD,F
Girls,60.1,2,Veronica Rodriguez,Laredo Nixon,57.15,120.2,47.63,124.74,292.57,Single-ply,SBD,F
Girls,60.1,3,Larissa Ramos,Bruni,56.79,106.59,54.43,115.67,276.69,Single-ply,SBD,F
Girls,60.1,4,Cindy Castillo,Laredo Nixon,58.06,102.06,49.9,108.86,260.82,Single-ply,SBD,F
Girls,60.1,5,Vanessa Guerra,Zapata,59.87,102.06,47.63,111.13,260.82,Single-ply,SBD,F
Girls,60.1,6,Victoria Garcia,Alice,60.1,108.86,45.36,102.06,256.28,Single-ply,SBD,F
Girls,60.1,7,Darian Torres #1,Carrizo Springs,58.69,81.65,40.82,95.25,217.72,Single-ply,SBD,F
Girls,60.1,8,Alyssa Garza,Laredo Johnson,59.96,83.91,38.56,90.72,213.19,Single-ply,SBD,F
Girls,60.1,9,Alexis Felan,Uvalde,57.42,56.7,24.95,83.91,165.56,Single-ply,SBD,F
Girls,60.1,10,Danica Cardenas,Uvalde,59.69,115.67,,,115.67,Single-ply,S,F
Girls,60.1,DQ,Shelby Moreland,Uvalde,56.79,77.11,29.48,,,Single-ply,SBD,F
Girls,60.1,DQ,Perla Reyna,Laredo Martin,58.42,97.52,,,,Single-ply,SBD,F
Girls,67.36,1,Delaney Cooper,Zapata,63.05,149.69,70.31,142.88,362.87,Single-ply,SBD,F
Girls,67.36,2,Amber Almeida,Laredo Nixon,62.32,127.01,54.43,147.42,328.85,Single-ply,SBD,F
Girls,67.36,3,Delilah Hernandez,Carrizo Springs,63.14,86.18,52.16,127.01,265.35,Single-ply,SBD,F
Girls,67.36,4,Katie Martinez,Uvalde,64.5,108.86,45.36,111.13,265.35,Single-ply,SBD,F
Girls,67.36,5,Christa Iglesias,Laredo United South,64.68,111.13,43.09,108.86,263.08,Single-ply,SBD,F
Girls,67.36,6,Desiree Morgan,Bruni,67.13,111.13,47.63,99.79,258.55,Single-ply,SBD,F
Girls,67.36,7,Ashley DeAnda,Laredo Martin,64.05,104.33,38.56,113.4,256.28,Single-ply,SBD,F
Girls,67.36,8,Patricia Martinez,Carrizo Springs,63.23,77.11,38.56,90.72,206.38,Single-ply,SBD,F
Girls,67.36,9,Amy Rodriguez,Laredo United,62.69,74.84,40.82,86.18,201.85,Single-ply,SBD,F
Girls,67.36,10,Lizzy Alejandro,Carrizo Springs,66.95,65.77,36.29,88.45,190.51,Single-ply,SBD,F
Girls,67.36,11,Maya Ruiz,Laredo United South,66.68,56.7,24.95,81.65,163.29,Single-ply,SBD,F
Girls,67.36,DQ,Marianela Pena,Laredo United,64.86,61.23,,,,Single-ply,SBD,F
Girls,67.36,DQ,Crystal Carillo,Laredo Cigarroa,65.77,77.11,,,,Single-ply,SBD,F
Girls,75.07,1,Aileen Campos,Zapata,69.4,140.61,72.57,136.08,349.27,Single-ply,SBD,F
Girls,75.07,2,Amanda Guerra,Bruni,73.66,136.08,61.23,140.61,337.93,Single-ply,SBD,F
Girls,75.07,3,Secilia Mata,Zapata,73.3,145.15,63.5,127.01,335.66,Single-ply,SBD,F
Girls,75.07,4,Zena Esquivel,Carrizo Springs,71.94,115.67,72.57,136.08,324.32,Single-ply,SBD,F
Girls,75.07,5,Trisha Garcia,Zapata,70.94,117.93,63.5,124.74,306.17,Single-ply,SBD,F
Girls,75.07,6,Leslie Suarez,Laredo Nixon,67.49,92.99,43.09,120.2,256.28,Single-ply,SBD,F
Girls,75.07,7,Denise Alvarez,Laredo Nixon,67.59,81.65,45.36,117.93,244.94,Single-ply,SBD,F
Girls,75.07,8,Karina Garza,Laredo United South,73.03,79.38,45.36,102.06,226.8,Single-ply,SBD,F
Girls,75.07,9,Monica Molina,Laredo United South,71.76,83.91,45.36,92.99,222.26,Single-ply,SBD,F
Girls,75.07,10,Sarah Hagy,Laredo United,69.85,77.11,43.09,99.79,219.99,Single-ply,SBD,F
Girls,75.07,11,Samantha Lara,Laredo Johnson,73.94,95.25,29.48,90.72,215.46,Single-ply,SBD,F
Girls,75.07,12,Roxy Flores,Laredo Johnson,71.76,79.38,29.48,79.38,188.24,Single-ply,SBD,F
Girls,75.07,DQ,Chloe Zapata,Alice,70.58,120.2,,,,Single-ply,SBD,F
Girls,75.07,DQ,Ariana Ruiz,Uvalde,69.85,63.5,,,,Single-ply,SBD,F
Girls,82.33,1,Amanda Esquivel,Zapata,78.83,151.95,86.18,158.76,396.89,Single-ply,SBD,F
Girls,82.33,2,Caryna Flores,Bruni,80.29,145.15,90.72,136.08,371.95,Single-ply,SBD,F
Girls,82.33,3,Allison Macias,Alice,75.75,147.42,70.31,131.54,349.27,Single-ply,SBD,F
Girls,82.33,4,Samantha Lira,Bruni,80.65,120.2,58.97,113.4,292.57,Single-ply,SBD,F
Girls,82.33,5,Daniella Kent,Carrizo Springs,77.29,115.67,56.7,117.93,290.3,Single-ply,SBD,F
Girls,82.33,6,Edy Garza,Alice,79.56,124.74,54.43,102.06,281.23,Single-ply,SBD,F
Girls,82.33,7,Arazu Lopez,Laredo United South,79.56,102.06,43.09,108.86,254.01,Single-ply,SBD,F
Girls,82.33,8,Erika Moya,Laredo Cigarroa,75.48,79.38,34.02,86.18,199.58,Single-ply,SBD,F
Girls,90.04,1,Nadia Gomez,Uvalde,89.09,154.22,63.5,129.27,347,Single-ply,SBD,F
Girls,90.04,2,Abigail Chapa,Bruni,85.91,129.27,56.7,149.69,335.66,Single-ply,SBD,F
Girls,90.04,3,Ida DeLeon,Laredo Nixon,85.91,108.86,38.56,113.4,260.82,Single-ply,SBD,F
Girls,90.04,4,Alejandra Herrera,Laredo Nixon,89.54,65.77,36.29,83.91,185.97,Single-ply,SBD,F
Girls,100.02,1,Gaby Reyes,Zapata,99.97,131.54,77.11,147.42,356.07,Single-ply,SBD,F
Girls,100.02,2,Valerie Moncivais,Laredo Cigarroa,91.63,120.2,63.5,129.27,312.98,Single-ply,SBD,F
Girls,100.02,3,Bernadet Davila,Laredo Martin,99.79,124.74,56.7,124.74,306.17,Single-ply,SBD,F
Girls,100.02,4,Julie Carmona,Carrizo Springs,95.35,86.18,54.43,90.72,231.33,Single-ply,SBD,F
Girls,100.02,5,Estrella De Luna,Uvalde,99.7,72.57,47.63,88.45,208.65,Single-ply,SBD,F
Girls,100.02,DQ,Alexis Garza,Uvalde,97.43,102.06,,,,Single-ply,SBD,F
Girls,100.02+,1,Karina Davalos,Laredo Nixon,106.87,140.61,68.04,154.22,362.87,Single-ply,SBD,F
Girls,100.02+,2,Idalis Ramirez,Laredo Johnson,106.23,142.88,61.23,142.88,347,Single-ply,SBD,F
Girls,100.02+,3,Valerie Leal,Laredo Cigarroa,114.67,122.47,49.9,102.06,274.42,Single-ply,SBD,F
Girls,100.02+,4,Bryanna Davila,Uvalde,120.38,61.23,47.63,127.01,235.87,Single-ply,SBD,F
Girls,,NS,Erika Rodriguez,Alice,,,,,,Single-ply,SBD,F
Girls,,NS,Bailey Moore,Alice,,,,,,Single-ply,SBD,F
Girls,,NS,Lauren Barrios,Alice,,,,,,Single-ply,SBD,F
