Division,WeightClassKg,Place,Name,Team,BodyweightKg,Best3SquatKg,Best3BenchKg,Best3DeadliftKg,TotalKg,Equipment,Event,Sex
Boys,51.71,1,Joseph Kelley,Cleveland,50.62,111.13,61.23,117.93,290.3,Single-ply,SBD,M
Boys,55.79,2,Layton Fitch,Coldspring-Oakhurst,51.85,113.4,61.23,113.4,288.03,Single-ply,SBD,M
Boys,55.79,1,Kz Smith,Coldspring-Oakhurst,52.16,129.27,61.23,142.88,333.39,Single-ply,SBD,M
Boys,55.79,2,Austin Williams,Cleveland Tarkington,52.44,129.27,74.84,120.2,324.32,Single-ply,SBD,M
Boys,55.79,3,Cody Strokos,New Caney,54.7,113.4,63.5,129.27,306.17,Single-ply,SBD,M
Boys,67.13,1,Dre Cooper,Coldspring-Oakhurst,59.96,142.88,79.38,151.95,374.21,Single-ply,SBD,M
Boys,59.87,2,Tyler Squier,Cleveland Tarkington,57.61,124.74,81.65,111.13,317.51,Single-ply,SBD,M
Boys,59.87,3,Amos Herrera,Cleveland,58.06,111.13,65.77,127.01,303.91,Single-ply,SBD,M
Boys,59.87,4,Elijah Vick,Coldspring-Oakhurst,59.6,92.99,61.23,111.13,265.35,Single-ply,SBD,M
Boys,59.87,5,Garyn Fontenot,New Caney,58.24,90.72,63.5,104.33,258.55,Single-ply,SBD,M
Boys,59.87,6,Prosperity Gomez,Coldspring-Oakhurst,57.24,92.99,61.23,117.93,272.16,Single-ply,SBD,M
Boys,67.13,1,Jacob Allemon,Livingston,66.5,142.88,83.91,165.56,392.36,Single-ply,SBD,M
Boys,67.13,2,Thomas Mayon,New Caney,65.32,136.08,79.38,167.83,383.29,Single-ply,SBD,M
Boys,67.13,3,Ben Dittman,New Caney,65.59,149.69,86.18,145.15,381.02,Single-ply,SBD,M
Boys,74.84,4,Ivan Espinoza,Cleveland,67.31,138.35,81.65,142.88,362.87,Single-ply,SBD,M
Boys,67.13,5,Skylar Mallard,Coldspring-Oakhurst,64.46,129.27,65.77,165.56,360.61,Single-ply,SBD,M
Boys,67.13,6,Mario Gonzalez,Cleveland,66.77,131.54,54.43,147.42,333.39,Single-ply,SBD,M
Boys,67.13,7,Troy Burns,Cleveland Tarkington,67.04,102.06,54.43,106.59,263.08,Single-ply,SBD,M
Boys,67.13,DQ,Nick Ellisor,Coldspring-Oakhurst,66.68,83.91,,,,Single-ply,SBD,M
Boys,67.13,DQ,Eric Stanfield,Livingston,65.05,190.51,102.06,158.76,,Single-ply,SBD,M
Boys,67.13,DQ,JaMadison Cross,Coldspring-Oakhurst,64.95,127.01,,,,Single-ply,SBD,M
Boys,74.84,1,Josh Cearley,Livingston,71.03,156.49,106.59,147.42,410.5,Single-ply,SBD,M
Boys,74.84,2,Hernan Diaz,Cleveland,72.85,154.22,92.99,151.95,399.16,Single-ply,SBD,M
Boys,74.84,3,Tyler Graham,Cleveland,70.49,136.08,86.18,133.81,356.07,Single-ply,SBD,M
Boys,74.84,4,Andrew Harrison,Coldspring-Oakhurst,74.71,142.88,70.31,142.88,356.07,Single-ply,SBD,M
Boys,74.84,5,Angel Huerta,New Caney,69.85,113.4,77.11,138.35,328.85,Single-ply,SBD,M
Boys,74.84,6,Tristan Ham,Coldspring-Oakhurst,69.13,92.99,61.23,106.59,260.82,Single-ply,SBD,M
Boys,82.1,1,Tre Cooper,Coldspring-Oakhurst,79.47,215.46,129.27,215.46,560.19,Single-ply,SBD,M
Boys,82.1,2,Logan Ohm,Livingston,80.56,183.7,106.59,226.8,517.1,Single-ply,SBD,M
Boys,82.1,3,Xavier Hutchinson,Livingston,79.65,185.97,124.74,183.7,494.42,Single-ply,SBD,M
Boys,82.1,4,Joseph Dittman,New Caney,75.11,183.7,117.93,174.63,476.27,Single-ply,SBD,M
Boys,82.1,5,Michael Vucinocial,New Caney,80.1,183.7,92.99,181.44,458.13,Single-ply,SBD,M
Boys,82.1,6,Kendall Roberts,Coldspring-Oakhurst,81.69,154.22,97.52,188.24,439.98,Single-ply,SBD,M
Boys,82.1,7,Cody Young,New Caney,76.75,174.63,86.18,174.63,435.45,Single-ply,SBD,M
Boys,82.1,8,Caleb Harrison,Coldspring-Oakhurst,78.2,161.03,88.45,170.1,419.57,Single-ply,SBD,M
Boys,82.1,9,Waylon Bogany,Cleveland,77.02,142.88,81.65,181.44,405.97,Single-ply,SBD,M
Boys,82.1,10,Nick Janczak,Cleveland Tarkington,78.02,147.42,83.91,170.1,401.43,Single-ply,SBD,M
Boys,82.1,11,Rai Duenas,Coldspring-Oakhurst,77.11,142.88,79.38,154.22,376.48,Single-ply,SBD,M
Boys,82.1,12,Sherrod Jackson,Coldspring-Oakhurst,80.38,113.4,77.11,142.88,333.39,Single-ply,SBD,M
Boys,89.81,1,Gage Dryden,Cleveland Tarkington,88.18,181.44,127.01,215.46,523.9,Single-ply,SBD,M
Boys,89.81,2,Anderson Adams,Coldspring-Oakhurst,88.31,192.78,120.2,190.51,503.49,Single-ply,SBD,M
Boys,89.81,3,Jose Ranger,New Caney,84.64,199.58,106.59,183.7,489.88,Single-ply,SBD,M
Boys,89.81,4,Tyler Barlow,Coldspring-Oakhurst,85.87,174.63,102.06,206.38,483.08,Single-ply,SBD,M
Boys,89.81,5,Cody Kendal,Cleveland,84.64,113.4,99.79,165.56,378.75,Single-ply,SBD,M
Boys,89.81,6,Robert Hoeffs,Coldspring-Oakhurst,88.5,102.06,61.23,142.88,306.17,Single-ply,SBD,M
Boys,89.81,DQ,Joseph Edwards,New Caney,83.01,167.83,,,,Single-ply,SBD,M
Boys,99.79,1,Dillon Dowdell,Cleveland Tarkington,97.98,208.65,104.33,197.31,510.29,Single-ply,SBD,M
Boys,99.79,2,Dylan McAdams,Livingston,92.99,190.51,124.74,190.51,505.76,Single-ply,SBD,M
Boys,99.79,3,Clay McGuire,New Caney,90.36,183.7,108.86,185.97,478.54,Single-ply,SBD,M
Boys,99.79,4,Tyler Jarboe,Cleveland Tarkington,98.97,174.63,102.06,188.24,464.93,Single-ply,SBD,M
Boys,99.79,5,Dawson Kier,Coldspring-Oakhurst,92.99,117.93,70.31,151.95,340.19,Single-ply,SBD,M
Boys,99.79,6,Corey Uhl,Cleveland,91.17,120.2,83.91,131.54,335.66,Single-ply,SBD,M
Boys,109.77,1,Brady Barbay,Coldspring-Oakhurst,108.86,201.85,106.59,204.12,512.56,Single-ply,SBD,M
Boys,109.77,2,Kyle Dorman,Livingston,107.05,183.7,129.27,181.44,494.42,Single-ply,SBD,M
Boys,109.77,3,Agustin Martinez,New Caney,100.43,170.1,108.86,179.17,458.13,Single-ply,SBD,M
Boys,109.77,4,Josh Dumatrait,Coldspring-Oakhurst,109.63,170.1,106.59,181.44,458.13,Single-ply,SBD,M
Boys,109.77,5,Mitchel Tullos,Cleveland Tarkington,100.15,113.4,97.52,156.49,367.41,Single-ply,SBD,M
Boys,109.77,DQ,Jacob Vasquez,Cleveland,103.6,165.56,,,,Single-ply,SBD,M
Boys,109.77,DQ,Byrne Baggett,Coldspring-Oakhurst,105.23,,,,,Single-ply,SBD,M
Boys,124.74,1,Greg Dunham,Coldspring-Oakhurst,121.34,249.48,138.35,210.92,598.74,Single-ply,SBD,M
Boys,124.74,2,Jonathan Swint,Coldspring-Oakhurst,117.57,210.92,140.61,215.46,566.99,Single-ply,SBD,M
Boys,124.74,3,Von Cross,Coldspring-Oakhurst,114.17,213.19,127.01,208.65,548.85,Single-ply,SBD,M
Boys,124.74,4,Jordan Johnson #4,Livingston,113.49,183.7,136.08,167.83,487.61,Single-ply,SBD,M
Boys,124.74,5,Jacolby Broussard,Cleveland,114.12,188.24,90.72,156.49,435.45,Single-ply,SBD,M
Boys,124.74,6,Dennis Barnes,Coldspring-Oakhurst,116.12,129.27,92.99,120.2,342.46,Single-ply,SBD,M
Boys,124.74+,1,Nolan Walker,Coldspring-Oakhurst,125.01,249.48,147.42,238.14,635.03,Single-ply,SBD,M
Boys,124.74+,2,Blayne Orn,Coldspring-Oakhurst,125.01,111.13,79.38,124.74,315.25,Single-ply,SBD,M
