Division,WeightClassKg,Place,Name,Team,BodyweightKg,Best3SquatKg,Best3BenchKg,Best3DeadliftKg,TotalKg,Equipment,Event,Sex
Boys,51.71,1,Angel Jaramillo,Van Alstyne,51.44,161.03,90.72,161.03,412.77,Single-ply,SBD,M
Boys,51.71,2,Justin Keeton,Anna,46.27,83.91,40.82,83.91,208.65,Single-ply,SBD,M
Boys,51.71,3,Austin Caldwell,Callisburg,51.17,63.5,38.56,83.91,185.97,Single-ply,SBD,M
Boys,51.71,4,Cj McKinzie,Whitesboro,45.09,70.31,36.29,77.11,183.7,Single-ply,SBD,M
Boys,51.71,5,Justin Bilbrey,Howe,51.71,36.29,40.82,49.9,127.01,Single-ply,SBD,M
Boys,51.71,DQ,Zach Ramirez,Decatur,51.07,104.33,,120.2,,Single-ply,SBD,M
Boys,51.71,DQ,Nolan Newville,Decatur,51.07,127.01,83.91,,,Single-ply,SBD,M
Boys,55.79,DQ,Romario Hernandez,Krum,51.8,,,74.84,,Single-ply,SBD,M
Boys,51.71,DQ,Noah White,Tom Bean,51.26,,,95.25,,Single-ply,SBD,M
Boys,55.79,1,Dillan Brown,Decatur,53.61,165.56,88.45,172.37,426.38,Single-ply,SBD,M
Boys,55.79,2,Taylor Nowlin,Leonard,52.71,167.83,88.45,145.15,401.43,Single-ply,SBD,M
Boys,55.79,3,Bryant Smith,Bonham,53.43,133.81,81.65,174.63,390.09,Single-ply,SBD,M
Boys,55.79,4,Ruben Vargas,Princeton,52.44,131.54,70.31,142.88,344.73,Single-ply,SBD,M
Boys,55.79,5,Ethan Brooks,Bonham,54.79,124.74,63.5,149.69,337.93,Single-ply,SBD,M
Boys,55.79,6,Jake Anderson,Sadler S & S Cons,54.34,92.99,65.77,115.67,274.42,Single-ply,SBD,M
Boys,55.79,7,Hunter Glatt,Bells,54.7,83.91,47.63,81.65,213.19,Single-ply,SBD,M
Boys,67.13,1,Jeremy Croney,Sadler S & S Cons,60.1,165.56,88.45,172.37,426.38,Single-ply,SBD,M
Boys,59.87,2,Vincent Torrefranco,Sadler S & S Cons,59.42,161.03,72.57,174.63,408.23,Single-ply,SBD,M
Boys,59.87,3,Jordan Smith #7,Bonham,59.51,142.88,72.57,181.44,396.89,Single-ply,SBD,M
Boys,59.87,4,Caleb Crimm,Van Alstyne,57.24,120.2,63.5,129.27,312.98,Single-ply,SBD,M
Boys,59.87,5,Charlie Radford,Aubrey,58.51,104.33,65.77,136.08,306.17,Single-ply,SBD,M
Boys,59.87,6,Greg Mayo,Electra,57.42,108.86,61.23,129.27,299.37,Single-ply,SBD,M
Boys,67.13,7,Wes Howell,Electra,60.06,90.72,65.77,120.2,276.69,Single-ply,SBD,M
Boys,59.87,8,Austin Parsonage,McKinney North,59.24,97.52,58.97,115.67,272.16,Single-ply,SBD,M
Boys,59.87,9,Tyler Breihan,Pottsboro,57.06,113.4,61.23,90.72,265.35,Single-ply,SBD,M
Boys,59.87,10,Aaron Parsonage,McKinney North,59.78,102.06,,131.54,233.6,Single-ply,SD,M
Boys,59.87,11,Scott Jones,Princeton,57.52,,61.23,124.74,185.97,Single-ply,BD,M
Boys,59.87,DQ,Jeremy Brennan,Van Alstyne,57.24,,,,,Single-ply,BD,M
Boys,67.13,1,Eymarth Rodriques,Aubrey,65.41,181.44,104.33,204.12,489.88,Single-ply,SBD,M
Boys,67.13,2,Jerrid Caffey,Whitesboro,63.96,208.65,120.2,158.76,487.61,Single-ply,SBD,M
Boys,67.13,3,Blaine Dunlap,Bonham,66.41,176.9,81.65,204.12,462.66,Single-ply,SBD,M
Boys,74.84,4,Sebastein Spencer,Anna,67.31,174.63,95.25,167.83,437.72,Single-ply,SBD,M
Boys,67.13,5,Garrett Syfert,Pottsboro,64.68,170.1,86.18,172.37,428.64,Single-ply,SBD,M
Boys,67.13,6,Landon Page,Leonard,66.95,167.83,92.99,165.56,426.38,Single-ply,SBD,M
Boys,67.13,7,Mitchell Erp,Aubrey,66.22,149.69,95.25,142.88,387.82,Single-ply,SBD,M
Boys,67.13,8,Josh Maynor,Pottsboro,64.41,158.76,72.57,138.35,369.68,Single-ply,SBD,M
Boys,74.84,9,Tony Ramirez,Aubrey,67.31,129.27,77.11,154.22,360.61,Single-ply,SBD,M
Boys,67.13,10,Justin Ramirez,Gainesville,60.87,120.2,70.31,154.22,344.73,Single-ply,SBD,M
Boys,67.13,11,Tony Solis,Krum,63.05,127.01,72.57,140.61,340.19,Single-ply,SBD,M
Boys,67.13,12,Juan Castaneda,Princeton,62.32,117.93,72.57,142.88,333.39,Single-ply,SBD,M
Boys,67.13,13,Tyler Rains,Van Alstyne,66.32,120.2,88.45,124.74,333.39,Single-ply,SBD,M
Boys,67.13,14,Nick Mackenrodt,Decatur,62.78,122.47,72.57,136.08,331.12,Single-ply,SBD,M
Boys,67.13,15,Dylan Foreman,Callisburg,60.96,115.67,77.11,136.08,328.85,Single-ply,SBD,M
Boys,67.13,16,Cory Saunders,McKinney North,62.96,113.4,65.77,140.61,319.78,Single-ply,SBD,M
Boys,67.13,17,Calob Gann,Howe,65.41,115.67,61.23,117.93,294.84,Single-ply,SBD,M
Boys,67.13,18,Blaze Lynn,Electra,66.68,95.25,70.31,127.01,292.57,Single-ply,SBD,M
Boys,67.13,19,Alex Lowery,Bells,64.23,104.33,65.77,117.93,288.03,Single-ply,SBD,M
Boys,67.13,20,Jake Sparks,Whitesboro,65.86,102.06,68.04,108.86,278.96,Single-ply,SBD,M
Boys,67.13,21,Jonathan Farrington,McKinney North,64.14,117.93,,140.61,258.55,Single-ply,SD,M
Boys,67.13,22,Jacob Blagburn,Blue Ridge,60.51,70.31,52.16,102.06,224.53,Single-ply,SBD,M
Boys,67.13,23,Mason Mackay,Princeton,65.59,188.24,,,188.24,Single-ply,S,M
Boys,67.13,24,Rusty Burris,Princeton,62.05,174.63,,,174.63,Single-ply,S,M
Boys,67.13,25,Jack Ratton,Krum,63.59,77.11,,95.25,172.37,Single-ply,SD,M
Boys,67.13,26,Jacob Olivares,Krum,65.68,113.4,,,113.4,Single-ply,S,M
Boys,74.84,1,Seth Wolfe,Callisburg,73.03,204.12,113.4,226.8,544.31,Single-ply,SBD,M
Boys,74.84,2,Kenyon Morgan,Gainesville,73.21,208.65,113.4,217.72,539.77,Single-ply,SBD,M
Boys,74.84,3,Chris Rich,Bonham,73.94,174.63,122.47,208.65,505.76,Single-ply,SBD,M
Boys,74.84,4,Brandon Jones,Decatur,69.76,176.9,90.72,210.92,478.54,Single-ply,SBD,M
Boys,74.84,5,Tim Abbott,Bonham,72.85,188.24,97.52,192.78,478.54,Single-ply,SBD,M
Boys,82.1,6,Dru Hull,Sadler S & S Cons,75.02,181.44,111.13,174.63,467.2,Single-ply,SBD,M
Boys,74.84,7,Alex Rositas,Aubrey,73.57,183.7,115.67,165.56,464.93,Single-ply,SBD,M
Boys,74.84,8,Dustin Williams,Anna,73.12,167.83,113.4,172.37,453.59,Single-ply,SBD,M
Boys,74.84,9,Bobby Byrd,Decatur,73.66,188.24,104.33,161.03,453.59,Single-ply,SBD,M
Boys,74.84,10,Dexter Loza,Aubrey,73.03,163.29,117.93,165.56,446.79,Single-ply,SBD,M
Boys,74.84,11,Halston Delgado,Decatur,67.68,161.03,97.52,174.63,433.18,Single-ply,SBD,M
Boys,74.84,12,Jordan Barnes #2,Van Alstyne,71.12,174.63,83.91,156.49,415.04,Single-ply,SBD,M
Boys,74.84,13,Jamie Deleon,Electra,74.84,156.49,95.25,154.22,405.97,Single-ply,SBD,M
Boys,74.84,14,James Jackson,Callisburg,68.76,136.08,99.79,167.83,403.7,Single-ply,SBD,M
Boys,74.84,15,Justin Jones,Princeton,69.94,147.42,86.18,147.42,381.02,Single-ply,SBD,M
Boys,74.84,16,Brian Stocker,McKinney North,72.85,142.88,83.91,154.22,381.02,Single-ply,SBD,M
Boys,74.84,17,Jordan Weaver #3,Callisburg,68.86,129.27,81.65,151.95,362.87,Single-ply,SBD,M
Boys,74.84,18,Tyler Horne,Valley View,68.31,127.01,86.18,136.08,349.27,Single-ply,SBD,M
Boys,74.84,19,Blake Vest,Krum,69.13,124.74,77.11,136.08,337.93,Single-ply,SBD,M
Boys,74.84,20,Dakota Buie,Sadler S & S Cons,73.39,113.4,70.31,124.74,308.44,Single-ply,SBD,M
Boys,74.84,21,Josh Reeves,Krum,74.84,117.93,54.43,127.01,299.37,Single-ply,SBD,M
Boys,74.84,22,Mika Taylor,Princeton,68.95,129.27,,147.42,276.69,Single-ply,SD,M
Boys,82.1,1,Tevin Daniels,Leonard,78.65,208.65,131.54,199.58,539.77,Single-ply,SBD,M
Boys,82.1,2,Brandon Love,Pottsboro,81.01,188.24,97.52,179.17,464.93,Single-ply,SBD,M
Boys,82.1,3,Alex Lovelady,Pottsboro,81.19,176.9,88.45,165.56,430.91,Single-ply,SBD,M
Boys,82.1,4,John Norrell,Anna,77.29,163.29,90.72,174.63,428.64,Single-ply,SBD,M
Boys,82.1,5,Chance Bratcher,Sadler S & S Cons,81.47,161.03,102.06,151.95,415.04,Single-ply,SBD,M
Boys,82.1,6,Alex Cole,Van Alstyne,79.29,151.95,92.99,165.56,410.5,Single-ply,SBD,M
Boys,82.1,7,Harrison Flinn,Pottsboro,78.11,154.22,90.72,156.49,401.43,Single-ply,SBD,M
Boys,82.1,8,Cody Morrison,Callisburg,79.11,136.08,95.25,163.29,394.63,Single-ply,SBD,M
Boys,89.81,9,Adahm Neal,Bells,82.28,156.49,83.91,136.08,376.48,Single-ply,SBD,M
Boys,82.1,10,Kamm Coker,Prosper,80.92,138.35,88.45,136.08,362.87,Single-ply,SBD,M
Boys,82.1,11,Jeffrey McClinton,Callisburg,77.56,124.74,74.84,142.88,342.46,Single-ply,SBD,M
Boys,82.1,12,Chris Head,Bells,75.75,113.4,68.04,124.74,306.17,Single-ply,SBD,M
Boys,82.1,13,Jd Patterson,Howe,75.3,,56.7,104.33,161.03,Single-ply,BD,M
Boys,89.81,1,Jeremy Smith #4,Bonham,83.28,204.12,111.13,229.06,544.31,Single-ply,SBD,M
Boys,89.81,2,Justin Griffin,Aubrey,84.55,199.58,136.08,208.65,544.31,Single-ply,SBD,M
Boys,89.81,3,T R Hodnett,Leonard,87.91,197.31,129.27,208.65,535.24,Single-ply,SBD,M
Boys,89.81,4,Casey Davis,Howe,83.55,179.17,117.93,204.12,501.22,Single-ply,SBD,M
Boys,89.81,5,Devin Smith,McKinney North,88.63,165.56,122.47,199.58,487.61,Single-ply,SBD,M
Boys,89.81,6,Kolby Grace,Bonham,89.09,181.44,120.2,179.17,480.81,Single-ply,SBD,M
Boys,89.81,7,Grant McLean,Bells,87.54,170.1,90.72,170.1,430.91,Single-ply,SBD,M
Boys,89.81,8,Logan Moore,Prosper,87.18,147.42,106.59,165.56,419.57,Single-ply,SBD,M
Boys,89.81,9,Adam Boles,Bells,84.1,142.88,83.91,145.15,371.95,Single-ply,SBD,M
Boys,89.81,10,Billy Doyle,Pottsboro,88.9,145.15,74.84,145.15,365.14,Single-ply,SBD,M
Boys,89.81,11,Bryant Smith,Sadler S & S Cons,82.74,124.74,74.84,158.76,358.34,Single-ply,SBD,M
Boys,89.81,12,Richard Ramos,Prosper,89.63,136.08,88.45,127.01,351.53,Single-ply,SBD,M
Boys,89.81,13,Kevin Salas,Prosper,83.91,102.06,106.59,133.81,342.46,Single-ply,SBD,M
Boys,89.81,14,Brandon Behrends,Prosper,83.01,122.47,83.91,129.27,335.66,Single-ply,SBD,M
Boys,89.81,15,Aj Ramsey,Bells,88.63,113.4,77.11,136.08,326.59,Single-ply,SBD,M
Boys,89.81,16,Wade Wilson,Krum,87.27,88.45,,129.27,217.72,Single-ply,SD,M
Boys,89.81,17,Aaron Gilmore,Krum,85.64,95.25,,117.93,213.19,Single-ply,SD,M
Boys,99.79,1,Ruben Murillo,Princeton,99.7,265.35,165.56,204.12,635.03,Single-ply,SBD,M
Boys,99.79,2,Arron Butner,Bonham,98.79,244.94,111.13,233.6,589.67,Single-ply,SBD,M
Boys,99.79,3,Eduardo Webber,Howe,93.26,224.53,133.81,204.12,562.45,Single-ply,SBD,M
Boys,99.79,4,Mark Eastin,Leonard,95.89,199.58,111.13,183.7,494.42,Single-ply,SBD,M
Boys,99.79,5,Brad Shatto,Sadler S & S Cons,99.52,192.78,120.2,181.44,494.42,Single-ply,SBD,M
Boys,99.79,6,Jurgen Deraj,Decatur,99.16,174.63,138.35,151.95,464.93,Single-ply,SBD,M
Boys,99.79,7,Scott Blair,Anna,94.89,174.63,88.45,197.31,460.4,Single-ply,SBD,M
Boys,99.79,8,Matt Robbins,Aubrey,90.36,170.1,102.06,167.83,439.98,Single-ply,SBD,M
Boys,99.79,9,Zach Crisp,Bells,96.34,163.29,108.86,136.08,408.23,Single-ply,SBD,M
Boys,99.79,10,Wesley Ritchson,Tom Bean,93.08,147.42,90.72,156.49,394.63,Single-ply,SBD,M
Boys,99.79,11,Zack Hunkapillar,Pottsboro,99.06,158.76,77.11,154.22,390.09,Single-ply,SBD,M
Boys,99.79,12,Hunter Conley,Pottsboro,99.06,158.76,83.91,147.42,390.09,Single-ply,SBD,M
Boys,99.79,13,Robert Miller,Anna,90.63,142.88,72.57,149.69,365.14,Single-ply,SBD,M
Boys,99.79,14,Fritz Hull,Prosper,94.8,133.81,92.99,138.35,365.14,Single-ply,SBD,M
Boys,99.79,15,John Miller,Aubrey,99.06,122.47,88.45,154.22,365.14,Single-ply,SBD,M
Boys,99.79,16,Steven Martinez,Krum,94.53,117.93,79.38,156.49,353.8,Single-ply,SBD,M
Boys,99.79,17,Chase Hallford,Blue Ridge,91.08,102.06,61.23,115.67,278.96,Single-ply,SBD,M
Boys,99.79,18,Adam Vess,Tom Bean,94.21,,88.45,183.7,272.16,Single-ply,BD,M
Boys,99.79,19,Richard Olalde,Prosper,97.07,,83.91,133.81,217.72,Single-ply,BD,M
Boys,99.79,20,Shane Tilden,Krum,98.52,,79.38,133.81,213.19,Single-ply,BD,M
Boys,109.77,1,Jeffrey Williamson,Bonham,108.82,260.82,127.01,204.12,591.94,Single-ply,SBD,M
Boys,109.77,2,Nathan Nutt,Princeton,106.82,195.04,145.15,208.65,548.85,Single-ply,SBD,M
Boys,109.77,3,Tj King,Bonham,103.69,208.65,117.93,208.65,535.24,Single-ply,SBD,M
Boys,109.77,4,Abel Palma,McKinney North,107.14,192.78,99.79,206.38,498.95,Single-ply,SBD,M
Boys,109.77,5,Kaleb Montes,Decatur,103.33,197.31,124.74,167.83,489.88,Single-ply,SBD,M
Boys,109.77,6,Jeremy Adams #3,Decatur,103.78,167.83,95.25,181.44,444.52,Single-ply,SBD,M
Boys,109.77,7,Brandon Ramsey,McKinney North,102.78,151.95,90.72,170.1,412.77,Single-ply,SBD,M
Boys,109.77,8,Larry Chumley,Sadler S & S Cons,104.96,129.27,83.91,165.56,378.75,Single-ply,SBD,M
Boys,109.77,9,Conner Croxville,Prosper,102.24,156.49,92.99,122.47,371.95,Single-ply,SBD,M
Boys,109.77,10,Logan Smithson,Callisburg,100.7,136.08,88.45,140.61,365.14,Single-ply,SBD,M
Boys,109.77,11,Rodie Shafer,Electra,103.96,136.08,70.31,149.69,356.07,Single-ply,SBD,M
Boys,109.77,12,Ahmon Mayes,Prosper,104.33,111.13,83.91,136.08,331.12,Single-ply,SBD,M
Boys,109.77,13,Nathan Silva,Krum,108.5,124.74,65.77,129.27,319.78,Single-ply,SBD,M
Boys,109.77,DQ,Paul Pearce,Valley View,101.33,142.88,,158.76,,Single-ply,SBD,M
Boys,109.77,DQ,Alex Mayes,Van Alstyne,107.77,154.22,,149.69,,Single-ply,SBD,M
Boys,109.77,DQ,Hayden Terry,Valley View,106.23,181.44,,170.1,,Single-ply,SBD,M
Boys,124.74,1,Jakob Riley,Leonard,122.47,283.5,147.42,226.8,657.71,Single-ply,SBD,M
Boys,124.74,2,Joe Merino,Anna,123.2,240.4,127.01,210.92,578.33,Single-ply,SBD,M
Boys,124.74,3,Marquel Sheppard,McKinney North,121.65,238.14,136.08,197.31,571.53,Single-ply,SBD,M
Boys,124.74,4,Tanner Pelham,Anna,116.03,190.51,133.81,226.8,551.11,Single-ply,SBD,M
Boys,124.74,5,Dillon Archer,Bells,122.02,204.12,117.93,219.99,542.04,Single-ply,SBD,M
Boys,124.74,6,Miguel Garcia,Blue Ridge,121.56,204.12,102.06,233.6,539.77,Single-ply,SBD,M
Boys,124.74,7,Richard Pickett,Princeton,110.99,206.38,120.2,204.12,530.7,Single-ply,SBD,M
Boys,124.74,8,Randel Furey,Sadler S & S Cons,120.02,181.44,102.06,204.12,487.61,Single-ply,SBD,M
Boys,124.74,9,Austin Pruitt,Valley View,116.75,204.12,102.06,179.17,485.34,Single-ply,SBD,M
Boys,124.74,10,Trevor Melugin,Prosper,113.85,183.7,129.27,170.1,483.08,Single-ply,SBD,M
Boys,124.74,11,Jacob Barton,Callisburg,124.74,181.44,108.86,190.51,480.81,Single-ply,SBD,M
Boys,124.74,12,Brice Goracke,Bells,113.9,183.7,102.06,181.44,467.2,Single-ply,SBD,M
Boys,124.74,13,Tyler Edwards,Pottsboro,114.89,170.1,88.45,136.08,394.63,Single-ply,SBD,M
Boys,124.74,14,Hawley Keegan,Anna,110.22,165.56,72.57,151.95,390.09,Single-ply,SBD,M
Boys,124.74,DQ,Justin Bableras,Anna,115.62,142.88,81.65,,,Single-ply,SBD,M
Boys,124.74+,1,Sam Whisenhunt,Leonard,127.01,254.01,149.69,226.8,630.49,Single-ply,SBD,M
Boys,124.74+,2,Shane Jones,Van Alstyne,126.19,256.28,136.08,226.8,619.15,Single-ply,SBD,M
Boys,124.74+,3,Darian Gipson-Jackson,Anna,138.98,238.14,149.69,231.33,619.15,Single-ply,SBD,M
Boys,124.74+,4,Zach Thrash,Van Alstyne,146.06,224.53,163.29,195.04,582.87,Single-ply,SBD,M
Boys,124.74+,5,Dylan Simpson,Bells,127.01,229.06,120.2,201.85,551.11,Single-ply,SBD,M
