Division,WeightClassKg,Place,Name,Team,BodyweightKg,Best3SquatKg,Best3BenchKg,Best3DeadliftKg,TotalKg,Equipment,Event,Sex
Boys,51.71,1,Juan Duran,Lubbock Cooper,48.63,102.06,70.31,136.08,308.44,Single-ply,SBD,M
Boys,55.79,2,Landon Nail,Lubbock Cooper,51.8,97.52,61.23,129.27,288.03,Single-ply,SBD,M
Boys,51.71,3,Israel Hernandez,Lubbock Cooper,46.49,90.72,56.7,117.93,265.35,Single-ply,SBD,M
Boys,51.71,4,Craig Mendez,Tahoka,49.99,102.06,58.97,104.33,265.35,Single-ply,SBD,M
Boys,51.71,5,Derek Tovar,Sudan,48.99,83.91,58.97,108.86,251.74,Single-ply,SBD,M
Boys,51.71,DQ,Alex Urbano,Meadow,47.72,,56.7,120.2,,Single-ply,SBD,M
Boys,55.79,1,Arturo Rodriguez,Meadow,54.43,129.27,70.31,138.35,337.93,Single-ply,SBD,M
Boys,55.79,2,Adrian Perez,Meadow,55.79,108.86,68.04,131.54,308.44,Single-ply,SBD,M
Boys,59.87,3,Angel Rodríguez #6,Meadow,56.02,97.52,65.77,124.74,288.03,Single-ply,SBD,M
Boys,55.79,4,Gage Rigdon,Meadow,52.39,92.99,52.16,113.4,258.55,Single-ply,SBD,M
Boys,59.87,5,Teaguen Nolte,Sudan,56.02,81.65,52.16,102.06,235.87,Single-ply,SBD,M
Boys,55.79,6,Mathew Morado,Meadow,55.75,74.84,47.63,99.79,222.26,Single-ply,SBD,M
Boys,55.79,DQ,Omar Vasquez,Sudan,54.66,92.99,,,,Single-ply,SBD,M
Boys,59.87,1,Adam Martin,Sudan,59.74,167.83,92.99,185.97,446.79,Single-ply,SBD,M
Boys,59.87,2,JD Rojas,Lubbock Roosevelt,57.61,149.69,99.79,172.37,421.84,Single-ply,SBD,M
Boys,67.13,3,Jeremy Reeves,Lubbock Cooper,60.1,129.27,90.72,158.76,378.75,Single-ply,SBD,M
Boys,67.13,4,Johnny Hernandez,Sundown,60.1,117.93,83.91,149.69,351.53,Single-ply,SBD,M
Boys,59.87,5,Justin Rodriguez,Lubbock Cooper,59.65,92.99,63.5,136.08,292.57,Single-ply,SBD,M
Boys,59.87,DQ,Blake Allen,Lubbock Roosevelt,59.01,,72.57,127.01,,Single-ply,SBD,M
Boys,59.87,DQ,Gavon Gardner,Meadow,56.25,,79.38,147.42,,Single-ply,SBD,M
Boys,74.84,1,Joseph Hernandez,Sundown,67.22,149.69,108.86,172.37,430.91,Single-ply,SBD,M
Boys,74.84,2,Alex Rodriguez #7,Sudan,67.36,111.13,74.84,138.35,324.32,Single-ply,SBD,M
Boys,67.13,3,Cameron McQueen,Meadow,66.45,115.67,65.77,120.2,301.64,Single-ply,SBD,M
Boys,67.13,4,Marco Godinez,Sudan,60.78,99.79,58.97,122.47,281.23,Single-ply,SBD,M
Boys,67.13,5,Joey Pena,Brownfield,60.87,95.25,61.23,115.67,272.16,Single-ply,SBD,M
Boys,67.13,6,Cayden Melton,Meadow,61.01,65.77,36.29,92.99,195.04,Single-ply,SBD,M
Boys,67.13,DQ,Ryan Punchard,Lubbock Cooper,65.32,113.4,83.91,,,Single-ply,SBD,M
Boys,74.84,1,Ricky Mendez,Lubbock Cooper,74.62,167.83,117.93,199.58,485.34,Single-ply,SBD,M
Boys,74.84,2,Jon Chavez,Sundown,72.21,188.24,97.52,197.31,483.08,Single-ply,SBD,M
Boys,74.84,3,Bj Trevino,Lubbock Cooper,73.48,181.44,97.52,181.44,460.4,Single-ply,SBD,M
Boys,74.84,4,Ethan Mullins,Meadow,68.95,154.22,83.91,174.63,412.77,Single-ply,SBD,M
Boys,74.84,5,Xavier Baker,Sudan,70.08,142.88,90.72,179.17,412.77,Single-ply,SBD,M
Boys,74.84,6,Brandon Morris,Lubbock Cooper,70.53,158.76,99.79,154.22,412.77,Single-ply,SBD,M
Boys,74.84,7,Tycer Farmer,Lubbock Cooper,69.94,147.42,106.59,136.08,390.09,Single-ply,SBD,M
Boys,74.84,8,Daniel Aleman,Tahoka,72.12,138.35,79.38,129.27,347,Single-ply,SBD,M
Boys,74.84,9,Caleb Hurst,Lubbock Cooper,68.04,111.13,92.99,133.81,337.93,Single-ply,SBD,M
Boys,82.1,10,Preston Bradley,Sudan,75.07,113.4,77.11,142.88,333.39,Single-ply,SBD,M
Boys,74.84,11,Nathan Little,Brownfield,72.57,97.52,72.57,136.08,306.17,Single-ply,SBD,M
Boys,74.84,12,Michael Flores,Brownfield,73.57,99.79,68.04,136.08,303.91,Single-ply,SBD,M
Boys,74.84,13,Carlos Pina,Lubbock Cooper,69.85,120.2,74.84,99.79,294.84,Single-ply,SBD,M
Boys,82.1,1,Sito Torres,Meadow,81.42,206.38,111.13,174.63,492.15,Single-ply,SBD,M
Boys,82.1,2,Steven Sanchez,Meadow,79.47,147.42,102.06,172.37,421.84,Single-ply,SBD,M
Boys,82.1,3,Ladd Wilkes,Sundown,81.74,147.42,104.33,163.29,415.04,Single-ply,SBD,M
Boys,82.1,4,Brody Schleeter,Lubbock Cooper,76.34,147.42,92.99,158.76,399.16,Single-ply,SBD,M
Boys,82.1,5,Bradley Bandy,Brownfield,78.02,127.01,90.72,181.44,399.16,Single-ply,SBD,M
Boys,82.1,6,Christian Silva,Lubbock Roosevelt,78.79,147.42,102.06,136.08,385.55,Single-ply,SBD,M
Boys,82.1,7,Abraham Tijerina,Brownfield,79.7,92.99,92.99,99.79,285.76,Single-ply,SBD,M
Boys,82.1,DQ,Nathan Besler,Brownfield,78.47,138.35,,161.03,,Single-ply,SBD,M
Boys,89.81,1,Xavier Garza,Sundown,86.86,185.97,115.67,188.24,489.88,Single-ply,SBD,M
Boys,89.81,2,Mikkel Garza,Tahoka,88.31,181.44,102.06,192.78,476.27,Single-ply,SBD,M
Boys,89.81,3,Isaia Montgomery,Lubbock Roosevelt,84.37,149.69,97.52,170.1,417.3,Single-ply,SBD,M
Boys,89.81,4,Reis Smith,Sundown,86.09,120.2,104.33,172.37,396.89,Single-ply,SBD,M
Boys,89.81,5,Christian Martha,Sudan,84.14,122.47,90.72,158.76,371.95,Single-ply,SBD,M
Boys,89.81,6,Dilyn Castle,Lubbock Roosevelt,85.59,136.08,99.79,,235.87,Single-ply,SB,M
Boys,99.79,1,Roland Zamora,Meadow,93.58,226.8,129.27,224.53,580.6,Single-ply,SBD,M
Boys,99.79,2,Caelan Decker,Tahoka,94.57,185.97,136.08,172.37,494.42,Single-ply,SBD,M
Boys,99.79,3,Dimitri Gomez,Lubbock Roosevelt,98.88,145.15,122.47,172.37,439.98,Single-ply,SBD,M
Boys,99.79,4,Roy Rodriguez,Sundown,92.53,117.93,104.33,167.83,390.09,Single-ply,SBD,M
Boys,99.79,5,Zach Weller,Lubbock Roosevelt,98.43,124.74,83.91,142.88,351.53,Single-ply,SBD,M
Boys,99.79,6,Seth Cruz,Brownfield,94.89,117.93,83.91,102.06,303.91,Single-ply,SBD,M
Boys,109.77,1,Sebastian Lopez,Lubbock Cooper,103.74,172.37,142.88,204.12,519.36,Single-ply,SBD,M
Boys,109.77,2,Justin Chavez,Sundown,107.95,195.04,122.47,174.63,492.15,Single-ply,SBD,M
Boys,109.77,3,Isaac Ramirez,Lubbock Roosevelt,103.06,192.78,115.67,181.44,489.88,Single-ply,SBD,M
Boys,109.77,4,Andrew Waters,Lubbock Roosevelt,101.83,158.76,124.74,181.44,464.93,Single-ply,SBD,M
Boys,109.77,5,Roman Alvarado,Brownfield,109.32,185.97,113.4,158.76,458.13,Single-ply,SBD,M
Boys,109.77,6,Jet Grant,Sundown,108.64,163.29,111.13,174.63,449.06,Single-ply,SBD,M
Boys,109.77,7,Bryce Thompson,Lubbock Cooper,100.47,170.1,86.18,158.76,415.04,Single-ply,SBD,M
Boys,124.74,1,Jeremiah DeLeon,Tahoka,110.45,244.94,167.83,190.51,603.28,Single-ply,SBD,M
Boys,124.74,2,Jackson Stevens,Lubbock Cooper,111.13,185.97,127.01,165.56,478.54,Single-ply,SBD,M
Boys,124.74,3,Jericho Garcia,Brownfield,113.62,97.52,81.65,136.08,315.25,Single-ply,SBD,M
Boys,124.74+,1,Joseph Villarreal,Lubbock Roosevelt,139.71,235.87,136.08,204.12,576.06,Single-ply,SBD,M
Boys,124.74+,2,Jonathan Aguilar,Lubbock Roosevelt,127.23,215.46,131.54,183.7,530.7,Single-ply,SBD,M
Boys,124.74+,3,Tony Garcia,Tahoka,146.06,181.44,88.45,174.63,444.52,Single-ply,SBD,M
