Division,WeightClassKg,Place,Name,Team,BodyweightKg,Best3SquatKg,Best3BenchKg,Best3DeadliftKg,TotalKg,Equipment,Event,Sex
Boys,55.79,1,Misael Marquez,Brownsville Pace,55.52,183.7,111.13,165.56,460.4,Single-ply,SBD,M
Boys,59.87,1,Felix Rizo,Brownsville Pace,59.83,199.58,117.93,174.63,492.15,Single-ply,SBD,M
Boys,59.87,2,Adrian Torres,Rio Hondo,59.87,158.76,124.74,170.1,453.59,Single-ply,SBD,M
Boys,59.87,3,Zeke Rocha,Rio Hondo,59.87,151.95,97.52,151.95,401.43,Single-ply,SBD,M
Boys,59.87,4,Eli Ramirez,Port Isabel,59.69,158.76,83.91,154.22,396.89,Single-ply,SBD,M
Boys,59.87,5,Kevin Rodriguez,Brownsville Hanna,59.24,102.06,49.9,115.67,267.62,Single-ply,SBD,M
Boys,59.87,6,Christian Medina,Brownsville Hanna,57.15,97.52,45.36,120.2,263.08,Single-ply,SBD,M
Boys,67.13,1,Rudy Garcia,Brownsville Hanna,65.63,185.97,111.13,192.78,489.88,Single-ply,SBD,M
Boys,67.13,2,Isaac Rodriguez,Rio Hondo,62.96,183.7,92.99,190.51,467.2,Single-ply,SBD,M
Boys,67.13,3,Jose Salinas,Brownsville Pace,66.95,183.7,92.99,188.24,464.93,Single-ply,SBD,M
Boys,67.13,4,Christopher Gauna,Rio Hondo,65,142.88,104.33,158.76,405.97,Single-ply,SBD,M
Boys,67.13,5,Victor Rangel,Brownsville Hanna,66.59,111.13,52.16,120.2,283.5,Single-ply,SBD,M
Boys,74.84,1,Brian Chavez,Port Isabel,72.67,192.78,113.4,199.58,505.76,Single-ply,SBD,M
Boys,74.84,2,Juan Gallegos,Brownsville Pace,70.26,192.78,115.67,188.24,496.68,Single-ply,SBD,M
Boys,74.84,3,Joey Gonzalez,Brownsville Hanna,72.85,161.03,88.45,174.63,424.11,Single-ply,SBD,M
Boys,74.84,4,Christopher Espinoza,Brownsville Pace,73.12,136.08,90.72,136.08,362.87,Single-ply,SBD,M
Boys,74.84,DQ,Zachery Williams,Brownsville Hanna,73.98,115.67,,,,Single-ply,SBD,M
Boys,82.1,1,Jesus Guatzozon,Port Isabel,79.06,206.38,124.74,213.19,544.31,Single-ply,SBD,M
Boys,82.1,2,Adrian Diaz,Brownsville Hanna,82.1,210.92,111.13,206.38,528.44,Single-ply,SBD,M
Boys,82.1,3,Wise-Herring Dagan,Port Isabel,79.29,195.04,115.67,208.65,519.36,Single-ply,SBD,M
Boys,82.1,4,Vicente Herrera,Brownsville Hanna,77.97,133.81,81.65,133.81,349.27,Single-ply,SBD,M
Boys,89.81,1,David Cardenas,Brownsville Pace,89.81,260.82,133.81,249.48,644.1,Single-ply,SBD,M
Boys,89.81,2,Justin Flores,Rio Hondo,89.81,249.48,149.69,204.12,603.28,Single-ply,SBD,M
Boys,89.81,3,Jose Ramirez,Brownsville Hanna,89.81,235.87,147.42,215.46,598.74,Single-ply,SBD,M
Boys,89.81,4,Jonas Garza,Brownsville Pace,86.18,210.92,124.74,226.8,562.45,Single-ply,SBD,M
Boys,89.81,5,Sebstian Diaz,Brownsville Hanna,87.82,210.92,124.74,204.12,539.77,Single-ply,SBD,M
Boys,89.81,6,Anthony Martinez,Rio Hondo,89.81,183.7,111.13,151.95,446.79,Single-ply,SBD,M
Boys,89.81,7,Andre Lozano,Brownsville Hanna,85.64,158.76,90.72,163.29,412.77,Single-ply,SBD,M
Boys,89.81,8,Francisco Escobar,Brownsville Hanna,88.9,170.1,74.84,149.69,394.63,Single-ply,SBD,M
Boys,99.79,1,Eli Acuna,Brownsville Pace,98.43,226.8,158.76,229.06,614.62,Single-ply,SBD,M
Boys,99.79,2,Ruben Balboa,Brownsville Pace,95.98,240.4,138.35,208.65,587.4,Single-ply,SBD,M
Boys,99.79,3,Adrian Loyde,Brownsville Hanna,93.85,224.53,124.74,192.78,542.04,Single-ply,SBD,M
Boys,99.79,4,Jose Rocha,Port Isabel,93.49,151.95,102.06,167.83,421.84,Single-ply,SBD,M
Boys,109.77,1,Lupe Garcia,Rio Hondo,109.77,226.8,111.13,235.87,573.79,Single-ply,SBD,M
Boys,109.77,2,Jonathan De Los Reyes,Brownsville Hanna,107.86,192.78,106.59,188.24,487.61,Single-ply,SBD,M
Boys,109.77,3,Luis Suarez,Port Isabel,109.77,199.58,99.79,183.7,483.08,Single-ply,SBD,M
Boys,109.77,4,Christopher Atkinson,Rio Hondo,109.77,195.04,102.06,174.63,471.74,Single-ply,SBD,M
Boys,109.77,5,Luis Mortera,Port Isabel,101.24,165.56,113.4,156.49,435.45,Single-ply,SBD,M
Boys,124.74,1,Austin Sulewski,Brownsville Pace,124.1,294.84,190.51,224.53,709.87,Single-ply,SBD,M
Boys,124.74,2,Christian Castro,Brownsville Pace,124.6,294.84,149.69,258.55,703.07,Single-ply,SBD,M
Boys,124.74,3,Rogelio Perez,Rio Hondo,113.58,294.84,163.29,233.6,691.73,Single-ply,SBD,M
Boys,124.74,4,Julio Hernandez,Brownsville Pace,123.65,274.42,142.88,235.87,653.17,Single-ply,SBD,M
Boys,124.74,5,Ian Torres,Port Isabel,113.85,231.33,156.49,226.8,614.62,Single-ply,SBD,M
Boys,124.74,6,Alex Rivera #3,Brownsville Pace,121.11,263.08,131.54,188.24,582.87,Single-ply,SBD,M
Boys,124.74,7,Justin Delgado,Brownsville Pace,121.47,145.15,72.57,142.88,360.61,Single-ply,SBD,M
Boys,124.74+,1,Andres Alaniz,Rio Hondo,125.19,272.16,174.63,244.94,691.73,Single-ply,SBD,M
Boys,124.74+,2,Benjamin Flores,Rio Hondo,125.01,233.6,129.27,204.12,566.99,Single-ply,SBD,M
