Division,WeightClassKg,Place,Name,Team,BodyweightKg,Best3SquatKg,Best3BenchKg,Best3DeadliftKg,TotalKg,Equipment,Event,Sex,BirthDate
Girls,44.23,1,Kaitlynn Gonzalez,Robstown,43.73,129.27,79.38,149.69,358.34,Single-ply,SBD,F,
Girls,44.23,2,Destiny Perez,Rio Grande City Grulla,43.32,113.4,56.7,120.2,290.3,Single-ply,SBD,F,
Girls,44.23,3,Alexa Prado,Hidalgo Early College,42.77,102.06,52.16,102.06,256.28,Single-ply,SBD,F,
Girls,44.23,4,Madelyn Rendon,Kingsville King,43.41,106.59,40.82,108.86,256.28,Single-ply,SBD,F,
Girls,44.23,5,Lauren Sandoval,Kingsville King,43.95,106.59,38.56,104.33,249.48,Single-ply,SBD,F,
Girls,44.23,6,Michelle Paredes,Carrizo Springs,43.82,90.72,47.63,92.99,231.33,Single-ply,SBD,F,
Girls,44.23,7,Deandra Avalos,Geronimo Navarro,40.73,86.18,52.16,86.18,224.53,Single-ply,SBD,F,
Girls,44.23,8,Alicia Rios,Crystal City,41.23,90.72,43.09,90.72,224.53,Single-ply,SBD,F,
Girls,44.23,9,Navaeh Moreno,Rio Hondo,41.91,83.91,34.02,95.25,213.19,Single-ply,SBD,F,
Girls,44.23,10,Nayeli Everett,Kingsville King,43.64,79.38,36.29,97.52,213.19,Single-ply,SBD,F,
Girls,44.23,11,Alyssa Rios,Corpus Christi West Oso,42.91,70.31,29.48,92.99,192.78,Single-ply,SBD,F,
Girls,47.85,1,Misty Garza,Rio Hondo,47.45,133.81,72.57,142.88,349.27,Single-ply,SBD,F,
Girls,47.85,2,Ananda Lopez,Robstown,46.81,131.54,72.57,124.74,328.85,Single-ply,SBD,F,
Girls,47.85,3,Alamar Garcia,Pearsall,46.9,127.01,65.77,127.01,319.78,Single-ply,SBD,F,
Girls,47.85,4,Aaliyah Terrazas,Devine,45.81,127.01,63.5,124.74,315.25,Single-ply,SBD,F,
Girls,47.85,5,Ana Granados,Crystal City,47.13,115.67,65.77,120.2,301.64,Single-ply,SBD,F,
Girls,47.85,6,Arsci Lopez,Devine,47.36,113.4,58.97,122.47,294.84,Single-ply,SBD,F,
Girls,47.85,7,Devany Reyna,Pearsall,46.08,113.4,56.7,120.2,290.3,Single-ply,SBD,F,
Girls,47.85,8,Leandra Gandara,Pearsall,46.72,108.86,56.7,117.93,283.5,Single-ply,SBD,F,
Girls,47.85,9,Catalyna Mata,San Antonio Brooks Academy,47.67,102.06,61.23,120.2,283.5,Single-ply,SBD,F,
Girls,47.85,10,Lori Mendez,Carrizo Springs,45.86,90.72,52.16,108.86,251.74,Single-ply,SBD,F,
Girls,47.85,11,Gabby Riojas,Carrizo Springs,44.77,97.52,36.29,111.13,244.94,Single-ply,SBD,F,
Girls,47.85,12,Jazlyn Trevino,Poteet,46.99,108.86,43.09,92.99,244.94,Single-ply,SBD,F,
Girls,47.85,13,Alyson Lombrana,Crystal City,46.95,95.25,49.9,95.25,240.4,Single-ply,SBD,F,
Girls,47.85,DQ,Johnelli Gutierrez,Crystal City,46.95,104.33,,,,Single-ply,SBD,F,
Girls,47.85,DQ,Charley Moreno,Rio Hondo,46.9,,,,,Single-ply,SBD,F,
Girls,51.94,1,Angela Esparza,Robstown,51.44,174.63,88.45,145.15,408.23,Single-ply,SBD,F,
Girls,51.94,2,Viviana Lopez,Port Isabel,51.26,151.95,63.5,145.15,360.61,Single-ply,SBD,F,
Girls,51.94,3,Alisha Flores,Beeville Jones,49.71,124.74,92.99,124.74,342.46,Single-ply,SBD,F,
Girls,51.94,4,Paloma Murillo,Rio Hondo,50.62,140.61,74.84,124.74,340.19,Single-ply,SBD,F,
Girls,51.94,5,Hannah Saegert,Rockport-Fulton,51.35,136.08,52.16,136.08,324.32,Single-ply,SBD,F,
Girls,51.94,6,Virginia Gallegos,Carrizo Springs,51.12,122.47,49.9,133.81,306.17,Single-ply,SBD,F,
Girls,51.94,7,Abby Saegert,Rockport-Fulton,51.71,136.08,56.7,113.4,306.17,Single-ply,SBD,F,
Girls,51.94,8,Ivanna Olivarez,Crystal City,50.21,138.35,54.43,102.06,294.84,Single-ply,SBD,F,
Girls,51.94,9,Jackie Perez,Port Isabel,51.17,113.4,54.43,115.67,283.5,Single-ply,SBD,F,
Girls,51.94,10,Clarissa Rivera,La Feria,50.94,104.33,54.43,117.93,276.69,Single-ply,SBD,F,
Girls,51.94,11,Alina Estrada,Crystal City,51.03,104.33,54.43,117.93,276.69,Single-ply,SBD,F,
Girls,51.94,12,Veronica Martinez,Crystal City,47.94,92.99,54.43,102.06,249.48,Single-ply,SBD,F,
Girls,56.02,1,Caitlin Watson,Bandera,52.98,149.69,95.25,131.54,376.48,Single-ply,SBD,F,
Girls,56.02,2,Iliana Cortinas,Robstown,53.43,138.35,74.84,142.88,356.07,Single-ply,SBD,F,
Girls,56.02,3,Kim Salinas,Bandera,52.48,145.15,54.43,142.88,342.46,Single-ply,SBD,F,
Girls,56.02,4,Gabby Moncada,Crystal City,53.57,145.15,68.04,129.27,342.46,Single-ply,SBD,F,
Girls,56.02,5,Linzee Garza,Robstown,53.89,131.54,65.77,145.15,342.46,Single-ply,SBD,F,
Girls,56.02,6,Aurianna Rich,Pleasanton,52.8,117.93,77.11,138.35,333.39,Single-ply,SBD,F,
Girls,56.02,7,Abigail Castellanos,Rio Hondo,53.75,136.08,61.23,117.93,315.25,Single-ply,SBD,F,
Girls,56.02,8,Jozannah Rodriguez,Robstown,54.34,111.13,79.38,113.4,303.91,Single-ply,SBD,F,
Girls,56.02,9,Kaylee Longoria,Carrizo Springs,54.57,120.2,61.23,122.47,303.91,Single-ply,SBD,F,
Girls,56.02,10,Hannah VanBlarcum,Orange Grove,54.79,111.13,43.09,136.08,290.3,Single-ply,SBD,F,
Girls,56.02,11,Halle Lanham,Geronimo Navarro,54.34,99.79,58.97,115.67,274.42,Single-ply,SBD,F,
Girls,56.02,12,Galilea Rodriguez,La Feria,53.84,108.86,56.7,97.52,263.08,Single-ply,SBD,F,
Girls,56.02,DQ,Kayla de la Fuente,La Feria,54.57,124.74,65.77,,,Single-ply,SBD,F,
Girls,60.1,1,Samantha Pacheco,Robstown,59.06,129.27,86.18,149.69,365.14,Single-ply,SBD,F,
Girls,60.1,2,Penelope Garcia,Bandera,59.15,129.27,79.38,147.42,356.07,Single-ply,SBD,F,
Girls,60.1,3,Ja'Keia Williams,La Grange,58.47,140.61,79.38,131.54,351.53,Single-ply,SBD,F,
Girls,60.1,4,Rosie Martinez,Crystal City,59.28,136.08,63.5,124.74,324.32,Single-ply,SBD,F,
Girls,60.1,5,Precious Garza,Corpus Christi West Oso,58.42,124.74,54.43,124.74,303.91,Single-ply,SBD,F,
Girls,60.1,6,LaShandra Hallett,Kingsville King,59.56,106.59,54.43,140.61,301.64,Single-ply,SBD,F,
Girls,60.1,7,Elizabeth Gonzales,Cuero,58.92,115.67,54.43,124.74,294.84,Single-ply,SBD,F,
Girls,60.1,8,Erica Santee,Pleasanton,60.01,104.33,61.23,115.67,281.23,Single-ply,SBD,F,
Girls,60.1,DQ,Ashley Cuellar,Zapata,59.74,136.08,,,,Single-ply,SBD,F,
Girls,60.1,DQ,Sadie Lopez,Corpus Christi West Oso,59.51,129.27,61.23,,,Single-ply,SBD,F,
Girls,60.1,DQ,Madalyn Armendariz,Crystal City,58.83,122.47,,,,Single-ply,SBD,F,
Girls,67.36,1,Amidy Moreno,Beeville Jones,64.59,183.7,102.06,170.1,455.86,Single-ply,SBD,F,
Girls,67.36,2,Yaritza Mar,Hidalgo Early College,65.63,165.56,95.25,149.69,410.5,Single-ply,SBD,F,
Girls,67.36,3,Destiny Villegas,Beeville Jones,64.36,138.35,92.99,145.15,376.48,Single-ply,SBD,F,
Girls,67.36,4,Kylee Hensley,Bandera,65.63,172.37,77.11,124.74,374.21,Single-ply,SBD,F,
Girls,67.36,5,Brooke Carle,Geronimo Navarro,64.36,138.35,83.91,147.42,369.68,Single-ply,SBD,F,
Girls,67.36,6,Miranda Ovalle,Pleasanton,65.27,145.15,70.31,154.22,369.68,Single-ply,SBD,F,
Girls,67.36,7,Jamie Casas,Robstown,65.86,158.76,79.38,127.01,365.14,Single-ply,SBD,F,
Girls,67.36,8,Valeria Ramirez,Rockport-Fulton,64.77,151.95,65.77,145.15,362.87,Single-ply,SBD,F,
Girls,67.36,9,Madison Barton,Victoria St. Joseph,66.32,151.95,68.04,142.88,362.87,Single-ply,SBD,F,
Girls,67.36,10,Madelyn Galvan,Port Isabel,66.9,147.42,70.31,138.35,356.07,Single-ply,SBD,F,
Girls,67.36,11,Ashley Gosch,Geronimo Navarro,62.87,147.42,68.04,136.08,351.53,Single-ply,SBD,F,
Girls,67.36,12,Desori Garcia,Zapata,64.91,145.15,81.65,122.47,349.27,Single-ply,SBD,F,
Girls,67.36,13,Alyssa Lombrana,Crystal City,65.91,129.27,72.57,138.35,340.19,Single-ply,SBD,F,
Girls,67.36,14,Yocelin Chavez,Hidalgo Early College,64.82,127.01,58.97,136.08,322.05,Single-ply,SBD,F,
Girls,75.07,1,Mitzi de la Cruz,Robstown,73.21,183.7,102.06,170.1,455.86,Single-ply,SBD,F,
Girls,75.07,2,Desiree Gonzales,Beeville Jones,74.34,197.31,92.99,165.56,455.86,Single-ply,SBD,F,
Girls,75.07,3,Jackee Corrigan,Beeville Jones,72.21,165.56,92.99,147.42,405.97,Single-ply,SBD,F,
Girls,75.07,4,Kayla DeLeon,Geronimo Navarro,72.98,154.22,95.25,138.35,387.82,Single-ply,SBD,F,
Girls,75.07,5,Leandra Moreno,Ingleside,72.8,145.15,79.38,161.03,385.55,Single-ply,SBD,F,
Girls,75.07,6,Anna Freeman,Bandera,69.26,149.69,90.72,140.61,381.02,Single-ply,SBD,F,
Girls,75.07,7,Samantha Sullivan,Corpus Christi John Paul II High School,68.31,154.22,61.23,158.76,374.21,Single-ply,SBD,F,
Girls,75.07,8,Kaitlin Menchaca,Geronimo Navarro,68.58,142.88,92.99,138.35,374.21,Single-ply,SBD,F,
Girls,75.07,9,Lizette Zuniga,Rio Hondo,69.99,142.88,86.18,145.15,374.21,Single-ply,SBD,F,
Girls,75.07,10,Elizabeth Camacho,Hondo,71.85,151.95,72.57,149.69,374.21,Single-ply,SBD,F,
Girls,75.07,11,Victoria Alejandra,La Feria,73.53,174.63,63.5,136.08,374.21,Single-ply,SBD,F,
Girls,75.07,12,Haley Hernandez,Rio Hondo,73.89,156.49,70.31,147.42,374.21,Single-ply,SBD,F,
Girls,75.07,13,Lyna Castorena,Crystal City,71.49,151.95,70.31,131.54,353.8,Single-ply,SBD,F,
Girls,75.07,14,Maddison Longoria,Victoria St. Joseph,73.48,131.54,79.38,136.08,347,Single-ply,SBD,F,
Girls,82.33,1,Giana Rios,Crystal City,77.52,183.7,83.91,156.49,424.11,Single-ply,SBD,F,
Girls,82.33,2,Gabriella Alejandre,La Feria,78.93,174.63,68.04,151.95,394.63,Single-ply,SBD,F,
Girls,82.33,3,Mikaitlyn Anderson,Beeville Jones,80.6,165.56,83.91,138.35,387.82,Single-ply,SBD,F,
Girls,82.33,4,Sofia Aguilar,Pleasanton,76.25,158.76,70.31,140.61,369.68,Single-ply,SBD,F,
Girls,82.33,5,Graycee Gonzales,Gonzales,80.56,156.49,70.31,136.08,362.87,Single-ply,SBD,F,
Girls,82.33,6,Violette Bazan,Rio Grande City Grulla,75.11,142.88,54.43,145.15,342.46,Single-ply,SBD,F,
Girls,82.33,7,Gabby Gonzales,Victoria St. Joseph,79.11,138.35,72.57,131.54,342.46,Single-ply,SBD,F,
Girls,82.33,8,Alexis Cumberland,Pleasanton,75.11,124.74,77.11,138.35,340.19,Single-ply,SBD,F,
Girls,82.33,9,Julie Torres,Rio Hondo,78.2,120.2,77.11,142.88,340.19,Single-ply,SBD,F,
Girls,82.33,10,Sydney Frausto,La Feria,76.11,136.08,68.04,129.27,333.39,Single-ply,SBD,F,
Girls,82.33,11,Marisela Lopez,Crystal City,80.92,124.74,68.04,136.08,328.85,Single-ply,SBD,F,
Girls,82.33,12,Angelina Lopez,La Feria,82.28,138.35,74.84,113.4,326.59,Single-ply,SBD,F,
Girls,82.33,13,Angelina Alvizo,Hondo,81.92,147.42,52.16,124.74,324.32,Single-ply,SBD,F,
Girls,82.33,14,Samantha Rodriguez,Zapata,76.11,136.08,58.97,117.93,312.98,Single-ply,SBD,F,
Girls,90.04,1,Maria Rodriguez,Crystal City,84.91,229.06,136.08,185.97,551.11,Single-ply,SBD,F,
Girls,90.04,2,Alyssa Ramirez,La Feria,84.32,215.46,95.25,201.85,512.56,Single-ply,SBD,F,
Girls,90.04,3,Cristina Cortez,Hidalgo Early College,84.01,190.51,90.72,183.7,464.93,Single-ply,SBD,F,
Girls,90.04,4,Emily Ortiz,Orange Grove,90.04,172.37,97.52,147.42,417.3,Single-ply,SBD,F,
Girls,90.04,5,Clarissa Vargas,Orange Grove,88.72,172.37,81.65,158.76,412.77,Single-ply,SBD,F,
Girls,90.04,6,Alizah Rodriguez,Crystal City,84.37,181.44,81.65,147.42,410.5,Single-ply,SBD,F,
Girls,90.04,7,Sela Villanueva,San Antonio Brooks Academy,86.91,174.63,56.7,176.9,408.23,Single-ply,SBD,F,
Girls,90.04,8,Katherine Fairly,Victoria St. Joseph,83.1,156.49,65.77,174.63,396.89,Single-ply,SBD,F,
Girls,90.04,9,Alyssa Alva,Pearsall,88.5,142.88,111.13,142.88,396.89,Single-ply,SBD,F,
Girls,90.04,10,Rosita Robles,Zapata,86.95,154.22,72.57,136.08,362.87,Single-ply,SBD,F,
Girls,90.04,11,Lauryn Robledo,Geronimo Navarro,87.36,129.27,81.65,129.27,340.19,Single-ply,SBD,F,
Girls,90.04,12,Lauren Gale,Cuero,86.86,142.88,68.04,127.01,337.93,Single-ply,SBD,F,
Girls,90.04,DQ,Alex Soto #1,Crystal City,88.72,185.97,,,,Single-ply,SBD,F,
Girls,100.02,1,Britney Ibarra,Hidalgo Early College,94.53,188.24,88.45,172.37,449.06,Single-ply,SBD,F,
Girls,100.02,2,Maddie Stevens,La Grange,96.66,181.44,90.72,170.1,442.25,Single-ply,SBD,F,
Girls,100.02,3,Marlayna Garcia,Zapata,94.94,154.22,97.52,179.17,430.91,Single-ply,SBD,F,
Girls,100.02,4,Felicity Diaz,Devine,98.79,172.37,95.25,161.03,428.64,Single-ply,SBD,F,
Girls,100.02,5,Khali Key,Devine,93.08,158.76,95.25,167.83,421.84,Single-ply,SBD,F,
Girls,100.02,6,Brittany Briseno,Pearsall,90.58,161.03,86.18,161.03,408.23,Single-ply,SBD,F,
Girls,100.02,7,Karina Medina,Rio Hondo,97.79,167.83,81.65,158.76,408.23,Single-ply,SBD,F,
Girls,100.02,8,Brittany Auzston,Beeville Jones,90.67,138.35,77.11,140.61,356.07,Single-ply,SBD,F,
Girls,100.02,9,Trinity Aguero,Gonzales,95.53,142.88,65.77,142.88,351.53,Single-ply,SBD,F,
Girls,100.02,10,April Puente,Port Isabel,91.9,151.95,68.04,127.01,347,Single-ply,SBD,F,
Girls,100.02,11,Miricle Glover,Cuero,92.58,122.47,70.31,145.15,337.93,Single-ply,SBD,F,
Girls,100.02,12,Michelle Sanchez,Zapata,91.85,136.08,68.04,108.86,312.98,Single-ply,SBD,F,
Girls,100.02,13,Kylie Rodriguez,Devine,90.54,136.08,61.23,99.79,297.1,Single-ply,SBD,F,
Girls,117.71,1,Bethanie Rodriguez,Crystal City,105.46,238.14,142.88,165.56,546.58,Single-ply,SBD,F,
Girls,117.71,2,Kaci Rael,Victoria St. Joseph,103.6,181.44,97.52,167.83,446.79,Single-ply,SBD,F,
Girls,117.71,3,Jocelyn Benavides,Rio Grande City Grulla,113.4,206.38,81.65,158.76,446.79,Single-ply,SBD,F,
Girls,117.71,4,Daveah Martinez,Corpus Christi West Oso,102.97,190.51,86.18,149.69,426.38,Single-ply,SBD,F,
Girls,117.71,5,Jalyssa Garcia,Poteet,116.03,167.83,113.4,138.35,419.57,Single-ply,SBD,F,
Girls,117.71,6,Gillian Estala,Devine,101.15,172.37,90.72,142.88,405.97,Single-ply,SBD,F,
Girls,117.71,7,Desiree Martinez,Raymondville,107.64,174.63,70.31,133.81,378.75,Single-ply,SBD,F,
Girls,117.71,8,Makaila Mills,Rockport-Fulton,107.09,149.69,68.04,140.61,358.34,Single-ply,SBD,F,
Girls,117.71,9,Cora King,Victoria St. Joseph,101.33,108.86,56.7,165.56,331.12,Single-ply,SBD,F,
Girls,117.71,10,Azeneth Ibarra,Hidalgo Early College,100.79,124.74,52.16,124.74,301.64,Single-ply,SBD,F,
Girls,117.71,DQ,Bennett Welch,Victoria St. Joseph,104.87,,,,,Single-ply,SBD,F,
Girls,117.71,DQ,Cerina Smith,Carrizo Springs,110.68,,,,,Single-ply,SBD,F,
Girls,117.71,DQ,Samantha Salazar,Pleasanton,104.05,102.06,,,,Single-ply,SBD,F,
Girls,117.71+,1,Sydney Clack,Gonzales,125.19,158.76,86.18,147.42,392.36,Single-ply,SBD,F,
Girls,117.71+,2,Kianna Tamariz,Kingsville King,118.3,120.2,83.91,136.08,340.19,Single-ply,SBD,F,
Girls,117.71+,3,Clarissa Ramirez,Crystal City,126.51,124.74,81.65,124.74,331.12,Single-ply,SBD,F,
