Division,WeightClassKg,Place,Name,Team,BodyweightKg,Best3SquatKg,Best3BenchKg,Best3DeadliftKg,TotalKg,Equipment,Event,Sex
Boys,55.79,1,Jd Nino,West,51.8,138.35,72.57,124.74,335.66,Single-ply,SBD,M
Boys,51.71,2,Dane Rodriguez,Chilton,51.62,113.4,63.5,117.93,294.84,Single-ply,SBD,M
Boys,51.71,3,Jesse Berry #1,Crawford,46.18,108.86,56.7,113.4,278.96,Single-ply,SBD,M
Boys,51.71,4,Pablo Aviles,West,46.36,99.79,58.97,102.06,260.82,Single-ply,SBD,M
Boys,51.71,5,Joey Leavelle,Robinson,51.62,97.52,47.63,104.33,249.48,Single-ply,SBD,M
Boys,51.71,6,Md Tucker,Axtell,50.17,90.72,49.9,104.33,244.94,Single-ply,SBD,M
Boys,51.71,7,DeVante Graves,Chilton,47.17,79.38,47.63,90.72,217.72,Single-ply,SBD,M
Boys,51.71,8,Travis Lacina,Crawford,41.37,81.65,43.09,88.45,213.19,Single-ply,SBD,M
Boys,51.71,9,Curtis Evans,Riesel,46.36,90.72,38.56,81.65,210.92,Single-ply,SBD,M
Boys,51.71,10,Lucas Price,Moody,41.91,65.77,29.48,77.11,172.37,Single-ply,SBD,M
Boys,51.71,DQ,Chris Fehlman,McGregor,47.36,,56.7,120.2,,Single-ply,SBD,M
Boys,55.79,1,Ryan Linkous,Axtell,55.7,170.1,88.45,163.29,421.84,Single-ply,SBD,M
Boys,55.79,2,Tommy Alford,West,55.7,154.22,83.91,149.69,387.82,Single-ply,SBD,M
Boys,55.79,3,Manny Aerola,Maypearl,55.7,138.35,83.91,138.35,360.61,Single-ply,SBD,M
Boys,55.79,4,Steven Foster,Riesel,54.43,108.86,56.7,106.59,272.16,Single-ply,SBD,M
Boys,55.79,DQ,Aron Fraire,Salado,55.61,127.01,,,,Single-ply,SBD,M
Boys,59.87,1,Pedro Lozano,Bosqueville,58.51,208.65,106.59,195.04,510.29,Single-ply,SBD,M
Boys,59.87,2,Jesus Jaimes,Riesel,59.51,176.9,95.25,181.44,453.59,Single-ply,SBD,M
Boys,59.87,3,Rey Castro,Waco Reicher Catholic,58.42,145.15,83.91,158.76,387.82,Single-ply,SBD,M
Boys,59.87,4,Tyler Kaminski,Riesel,59.33,147.42,90.72,136.08,374.21,Single-ply,SBD,M
Boys,59.87,5,Carlos Ortiz,Salado,59.24,142.88,77.11,145.15,365.14,Single-ply,SBD,M
Boys,59.87,6,Lenny Rodriguez,West,59.87,142.88,68.04,145.15,356.07,Single-ply,SBD,M
Boys,59.87,7,Marcus Mendoza,Salado,57.7,133.81,86.18,133.81,353.8,Single-ply,SBD,M
Boys,67.13,8,Brock Hyland,Crawford,59.96,127.01,74.84,122.47,324.32,Single-ply,SBD,M
Boys,59.87,9,Brazos Sepert,Maypearl,58.69,117.93,68.04,129.27,315.25,Single-ply,SBD,M
Boys,59.87,10,Jt Hollister,Axtell,56.79,92.99,54.43,108.86,256.28,Single-ply,SBD,M
Boys,67.13,DQ,Michael Painter,Riesel,60.06,90.72,54.43,113.4,,Single-ply,SBD,M
Boys,59.87,DQ,Taylor Veselka,Waco Reicher Catholic,56.43,,,,,Single-ply,SBD,M
Boys,67.13,1,Omar Garza,Robinson,65.05,190.51,108.86,183.7,483.08,Single-ply,SBD,M
Boys,67.13,2,Stephen Mitchell,Robinson,64.5,167.83,92.99,170.1,430.91,Single-ply,SBD,M
Boys,74.84,3,Blake Lehew,Maypearl,67.22,158.76,113.4,158.76,430.91,Single-ply,SBD,M
Boys,67.13,4,Alex Shedd,Riesel,65.95,149.69,97.52,181.44,428.64,Single-ply,SBD,M
Boys,67.13,5,Cruz Dominguez,Chilton,61.78,161.03,97.52,158.76,417.3,Single-ply,SBD,M
Boys,74.84,6,Weldon Bleything,Crawford,67.31,147.42,72.57,151.95,371.95,Single-ply,SBD,M
Boys,67.13,7,Michael Fitzhugh,Waco Reicher Catholic,62.96,136.08,79.38,149.69,365.14,Single-ply,SBD,M
Boys,67.13,8,Brady Baker,Riesel,62.51,136.08,65.77,136.08,337.93,Single-ply,SBD,M
Boys,67.13,9,Jason Brock,Crawford,62.41,122.47,77.11,136.08,335.66,Single-ply,SBD,M
Boys,67.13,10,Robert Woods,Bosqueville,66.77,124.74,70.31,127.01,322.05,Single-ply,SBD,M
Boys,67.13,11,Alex O'Neal,Waco Reicher Catholic,65.95,108.86,68.04,127.01,303.91,Single-ply,SBD,M
Boys,67.13,12,Isaac Flores,Robinson,63.96,97.52,68.04,108.86,274.42,Single-ply,SBD,M
Boys,67.13,13,Valentino White,Chilton,61.78,79.38,65.77,79.38,224.53,Single-ply,SBD,M
Boys,67.13,DQ,Darion Holloway,Riesel,64.5,83.91,54.43,92.99,,Single-ply,SBD,M
Boys,74.84,1,Trent Stiles,Riesel,74.39,244.94,181.44,213.19,639.57,Single-ply,SBD,M
Boys,74.84,2,Dustin Dorris,Crawford,69.49,254.01,113.4,197.31,564.72,Single-ply,SBD,M
Boys,74.84,3,Corey Schroeder,Riesel,70.4,199.58,88.45,158.76,446.79,Single-ply,SBD,M
Boys,74.84,4,Brandon Bordovski,Axtell,69.13,147.42,99.79,183.7,430.91,Single-ply,SBD,M
Boys,74.84,5,Jonathan Moore,Crawford,70.03,151.95,95.25,147.42,394.63,Single-ply,SBD,M
Boys,74.84,6,Andrew Kaluza,Waco Reicher Catholic,74.84,149.69,81.65,161.03,392.36,Single-ply,SBD,M
Boys,74.84,7,Joey Krolczyk,Axtell,71.4,136.08,99.79,151.95,387.82,Single-ply,SBD,M
Boys,74.84,8,J Pat Martin,Axtell,72.76,158.76,86.18,142.88,387.82,Single-ply,SBD,M
Boys,74.84,9,Garrett Alders,Axtell,72.76,145.15,86.18,154.22,385.55,Single-ply,SBD,M
Boys,74.84,10,Kyle Dean,Moody,72.48,138.35,83.91,158.76,381.02,Single-ply,SBD,M
Boys,74.84,11,Cole Goodrum,Salado,74.57,142.88,86.18,145.15,374.21,Single-ply,SBD,M
Boys,74.84,12,Jeremy Tanner,Riesel,68.67,140.61,74.84,156.49,371.95,Single-ply,SBD,M
Boys,74.84,13,Michael Jackson,Riesel,74.57,136.08,74.84,147.42,358.34,Single-ply,SBD,M
Boys,74.84,14,Bill Roe,Robinson,71.03,131.54,88.45,133.81,353.8,Single-ply,SBD,M
Boys,74.84,15,Jacois Guilbault,Waco Reicher Catholic,68.04,117.93,77.11,149.69,344.73,Single-ply,SBD,M
Boys,74.84,16,Scott Holliday,Normangee,69.4,122.47,74.84,136.08,333.39,Single-ply,SBD,M
Boys,74.84,17,Logan Donaldson,Robinson,74.84,117.93,81.65,131.54,331.12,Single-ply,SBD,M
Boys,74.84,18,Josh Woodruff,Salado,68.22,115.67,72.57,140.61,328.85,Single-ply,SBD,M
Boys,74.84,19,Logan Womat,Riesel,72.39,124.74,70.31,124.74,319.78,Single-ply,SBD,M
Boys,74.84,20,Ryan Elko,Normangee,73.75,108.86,63.5,124.74,297.1,Single-ply,SBD,M
Boys,74.84,DQ,Cooper Crum,Riesel,74.75,113.4,54.43,122.47,,Single-ply,SBD,M
Boys,74.84,DQ,Will McClary,Normangee,70.49,138.35,88.45,,,Single-ply,SBD,M
Boys,74.84,DQ,Todd Bailey,Salado,71.3,108.86,,,,Single-ply,SBD,M
Boys,74.84,DQ,Kelly Jimenez,Salado,69.13,136.08,,129.27,,Single-ply,SBD,M
Boys,82.1,1,Luc Leal,Maypearl,80.1,183.7,120.2,195.04,498.95,Single-ply,SBD,M
Boys,82.1,2,Jared McNamara,Moody,81.65,179.17,104.33,188.24,471.74,Single-ply,SBD,M
Boys,82.1,3,Aaron Hernandez,Troy,81.83,163.29,111.13,188.24,462.66,Single-ply,SBD,M
Boys,82.1,4,Chris Olsen,Crawford,78.38,161.03,102.06,190.51,453.59,Single-ply,SBD,M
Boys,82.1,5,Chris Kunkel,West,76.93,170.1,92.99,181.44,444.52,Single-ply,SBD,M
Boys,82.1,6,Alex Shaw,Dawson,76.11,154.22,99.79,181.44,435.45,Single-ply,SBD,M
Boys,82.1,7,John Pegues,Salado,80.38,163.29,99.79,167.83,430.91,Single-ply,SBD,M
Boys,82.1,8,Andrew Drennan,Waco Reicher Catholic,78.11,154.22,102.06,167.83,424.11,Single-ply,SBD,M
Boys,82.1,9,Joseph Simpson,Maypearl,80.92,158.76,90.72,172.37,421.84,Single-ply,SBD,M
Boys,82.1,10,Bodazyhpa Farmer,Troy,75.93,158.76,104.33,149.69,412.77,Single-ply,SBD,M
Boys,82.1,11,Stetson Jaske,Moody,78.29,142.88,97.52,163.29,403.7,Single-ply,SBD,M
Boys,82.1,12,John Almanza,Bosqueville,80.47,154.22,77.11,142.88,374.21,Single-ply,SBD,M
Boys,82.1,13,Alan Hoeft,Riesel,75.84,129.27,83.91,149.69,362.87,Single-ply,SBD,M
Boys,82.1,14,Aaron Towns,Riesel,75.93,136.08,70.31,136.08,342.46,Single-ply,SBD,M
Boys,89.81,DQ,Casey Baugh,West,82.19,,,,,Single-ply,SBD,M
Boys,82.1,DQ,Julian Young,McGregor,81.56,,124.74,197.31,,Single-ply,SBD,M
Boys,89.81,1,Ali Cervantez,Riesel,84.28,219.99,129.27,222.26,571.53,Single-ply,SBD,M
Boys,89.81,2,Tyler Fadal,Riesel,88.27,204.12,140.61,197.31,542.04,Single-ply,SBD,M
Boys,89.81,3,Chris Krolczyk,Axtell,89.27,185.97,129.27,208.65,523.9,Single-ply,SBD,M
Boys,89.81,4,Michael Sellers,Salado,88.54,192.78,131.54,185.97,510.29,Single-ply,SBD,M
Boys,89.81,5,Broc Clay,Mart,86.64,192.78,111.13,199.58,503.49,Single-ply,SBD,M
Boys,89.81,6,Josh Ashlock,Maypearl,89.63,185.97,104.33,208.65,498.95,Single-ply,SBD,M
Boys,89.81,7,Cedric Carter,Chilton,87.36,188.24,104.33,181.44,474,Single-ply,SBD,M
Boys,89.81,8,Ben Chavez,Chilton,84.19,179.17,99.79,176.9,455.86,Single-ply,SBD,M
Boys,89.81,9,Gage Seiler,Chilton,87.36,190.51,102.06,158.76,451.32,Single-ply,SBD,M
Boys,89.81,10,Dustin Shilling,McGregor,87.54,154.22,90.72,188.24,433.18,Single-ply,SBD,M
Boys,89.81,11,Brandon Castillo,West,84.37,163.29,86.18,174.63,424.11,Single-ply,SBD,M
Boys,89.81,12,Joe Reddick,Riesel,87.82,172.37,81.65,158.76,412.77,Single-ply,SBD,M
Boys,89.81,13,Brandon Luna,Troy,88.18,145.15,106.59,158.76,410.5,Single-ply,SBD,M
Boys,89.81,14,Brady Wilkins,Riesel,85.82,147.42,92.99,147.42,387.82,Single-ply,SBD,M
Boys,89.81,15,Colton Villarreal,Dawson,85.18,127.01,74.84,167.83,369.68,Single-ply,SBD,M
Boys,89.81,DQ,Cyle Hickey,Crawford,87.91,154.22,72.57,181.44,,Single-ply,SBD,M
Boys,99.79,1,Josh Montgomery,Bosqueville,98.97,294.84,140.61,249.48,684.92,Single-ply,SBD,M
Boys,99.79,2,Brett Blackburn,McGregor,96.98,249.48,147.42,249.48,646.37,Single-ply,SBD,M
Boys,99.79,3,Andrew Taylor,Troy,93.35,199.58,154.22,235.87,589.67,Single-ply,SBD,M
Boys,99.79,4,Jacob McNamara,Moody,97.7,254.01,129.27,192.78,576.06,Single-ply,SBD,M
Boys,99.79,5,Greg Ormiston,Maypearl,99.25,226.8,113.4,226.8,566.99,Single-ply,SBD,M
Boys,109.77,6,Dylan Alligood,West,99.97,226.8,117.93,217.72,562.45,Single-ply,SBD,M
Boys,99.79,7,Brandon Bobo,Chilton,92.99,215.46,131.54,197.31,544.31,Single-ply,SBD,M
Boys,99.79,8,Justin Stocks,Robinson,94.62,195.04,124.74,192.78,512.56,Single-ply,SBD,M
Boys,99.79,9,Ethan Eastwood,Maypearl,91.35,183.7,113.4,195.04,492.15,Single-ply,SBD,M
Boys,99.79,10,Jonathan Hefelfinger,Riesel,98.52,190.51,102.06,170.1,462.66,Single-ply,SBD,M
Boys,99.79,11,Ben Rhodes,Robinson,97.61,176.9,95.25,181.44,453.59,Single-ply,SBD,M
Boys,99.79,12,Kris Brooks,Axtell,97.61,156.49,99.79,190.51,446.79,Single-ply,SBD,M
Boys,99.79,13,Andrew Hill,McGregor,91.26,174.63,104.33,165.56,444.52,Single-ply,SBD,M
Boys,99.79,14,Josh Dragoo,Troy,91.9,154.22,83.91,142.88,381.02,Single-ply,SBD,M
Boys,99.79,15,Scott Tucker,McGregor,95.25,151.95,90.72,127.01,369.68,Single-ply,SBD,M
Boys,99.79,16,Weston Adams,Riesel,93.62,127.01,70.31,151.95,349.27,Single-ply,SBD,M
Boys,99.79,DQ,Bryce Bobo,Chilton,94.17,,,,,Single-ply,SBD,M
Boys,109.77,1,Garlin Gonzales,Waco Reicher Catholic,106.23,263.08,163.29,272.16,698.53,Single-ply,SBD,M
Boys,109.77,2,Casey Stripling,Riesel,109.23,244.94,138.35,226.8,610.08,Single-ply,SBD,M
Boys,109.77,3,Tony Craigo,Normangee,109.13,197.31,117.93,201.85,517.1,Single-ply,SBD,M
Boys,109.77,4,Darius Marton,Axtell,100.88,204.12,106.59,181.44,492.15,Single-ply,SBD,M
Boys,109.77,5,Bobby Golding,Salado,101.15,174.63,111.13,174.63,460.4,Single-ply,SBD,M
Boys,109.77,6,Omar Cardoso,Waco Reicher Catholic,106.14,181.44,92.99,179.17,453.59,Single-ply,SBD,M
Boys,109.77,7,David Zettler,Waco Reicher Catholic,109.5,174.63,102.06,170.1,446.79,Single-ply,SBD,M
Boys,109.77,8,Jon Pineda,Troy,105.32,136.08,90.72,147.42,374.21,Single-ply,SBD,M
Boys,109.77,9,Kenneth Crocker,Axtell,104.42,99.79,45.36,104.33,249.48,Single-ply,SBD,M
Boys,109.77,DQ,Trey Watkins,Normangee,103.33,183.7,108.86,,,Single-ply,SBD,M
Boys,109.77,DQ,Jacob Westerfield,Crawford,103.51,170.1,,149.69,,Single-ply,SBD,M
Boys,124.74,1,Ethan Langdale,Riesel,119.39,272.16,181.44,242.67,696.26,Single-ply,SBD,M
Boys,124.74,2,Tyler Klander,West,113.85,294.84,142.88,242.67,680.39,Single-ply,SBD,M
Boys,124.74,3,Isaiah Ross,Troy,119.39,254.01,142.88,249.48,646.37,Single-ply,SBD,M
Boys,124.74,4,Brandon Heller,Salado,115.76,226.8,124.74,215.46,566.99,Single-ply,SBD,M
Boys,124.74,5,Joseph Holder,West,113.85,226.8,127.01,197.31,551.11,Single-ply,SBD,M
Boys,124.74,6,Shurdon Simpson,Chilton,113.58,226.8,136.08,181.44,544.31,Single-ply,SBD,M
Boys,124.74,7,Andy McNew,Robinson,116.94,183.7,106.59,158.76,449.06,Single-ply,SBD,M
Boys,124.74,8,Jason Bobo,Chilton,115.67,174.63,92.99,136.08,403.7,Single-ply,SBD,M
Boys,124.74,9,Wesley Hargrove,Moody,116.85,113.4,86.18,154.22,353.8,Single-ply,SBD,M
Boys,124.74,10,Michael Stevenson,Bosqueville,115.12,124.74,68.04,145.15,337.93,Single-ply,SBD,M
Boys,124.74+,1,Lance Adkins,West,139.98,249.48,145.15,240.4,635.03,Single-ply,SBD,M
Boys,124.74+,2,Shane Murphy,Robinson,145.33,231.33,138.35,181.44,551.11,Single-ply,SBD,M
Boys,124.74+,3,Scott York,Robinson,129.27,199.58,151.95,190.51,542.04,Single-ply,SBD,M
Boys,124.74+,4,Ryan Bobo,Chilton,143.79,181.44,124.74,158.76,464.93,Single-ply,SBD,M
