Name,BirthYear,WeightClassKg,BodyweightKg,State,Best3SquatKg,Best3BenchKg,Best3DeadliftKg,TotalKg,Place,Sex,Event,Equipment,Division
Ervin Gainer Sr,1966,52,51.7,IN,177.5,117.5,202.5,497.5,1,M,SBD,Single-ply,M-O
David Osborn #2,1964,52,50.5,IN,147.5,97.5,147.5,392.5,2,M,SBD,Single-ply,M-O
Steve Snyder #1,1962,52,51.8,PA,,,,,DQ,M,SBD,Single-ply,M-O
Wil Taylor,1969,56,54.7,CO,190,117.5,207.5,515,1,M,SBD,Single-ply,M-O
Al DiDonato,1969,56,55.9,NJ,162.5,105,200,467.5,2,M,SBD,Single-ply,M-O
James Sutherland,1963,56,55.5,FL,,,,,DQ,M,SBD,Single-ply,M-O
Tim Taylor #1,1966,60,59.1,AZ,207.5,145,252.5,605,1,M,SBD,Single-ply,M-O
Hennis Washington,1970,60,59.5,FL,220,145,220,585,2,M,SBD,Single-ply,M-O
Randy Somma,1971,60,59.5,CT,172.5,125,172.5,470,3,M,SBD,Single-ply,M-O
Lamar Gant,1957,60,59.8,CO,,,,,DQ,M,SBD,Single-ply,M-O
Wade Hooper,1971,67.5,67.1,LA,285,180,242.5,707.5,1,M,SBD,Single-ply,M-O
Lloyd Weinstein,1959,67.5,67.2,CT,245,142.5,267.5,655,2,M,SBD,Single-ply,M-O
Greg Page,1963,67.5,67,OH,237.5,140,265,642.5,3,M,SBD,Single-ply,M-O
Keith Scisney,1965,67.5,67.5,CO,245,147.5,230,622.5,4,M,SBD,Single-ply,M-O
Robert Wood,1973,67.5,66.3,LA,232.5,147.5,240,620,5,M,SBD,Single-ply,M-O
Nando Corpuz,1968,67.5,67.11,HI,220,170,220,610,6,M,SBD,Single-ply,M-O
Greg Simmons #2,1965,67.5,67.3,IN,217.5,140,237.5,595,7,M,SBD,Single-ply,M-O
David Bracken,1964,67.5,67.3,NM,207.5,132.5,232.5,572.5,8,M,SBD,Single-ply,M-O
Casey Brown,1963,67.5,67.1,CO,205,132.5,232.5,570,9,M,SBD,Single-ply,M-O
Chris Hughes #1,1968,67.5,66.8,CO,212.5,132.5,220,565,10,M,SBD,Single-ply,M-O
Mark Sigala,1961,67.5,67.2,CO,217.5,,,,DQ,M,SBD,Single-ply,M-O
Raynard Taylor,1964,67.5,67.33,OH,,,,,DQ,M,SBD,Single-ply,M-O
Daniel Austin #1,1958,75,74.9,OK,302.5,162.5,307.5,772.5,1,M,SBD,Single-ply,M-O
James Benemerito,1969,75,74.2,NJ,255,175,292.5,722.5,2,M,SBD,Single-ply,M-O
Anthony Thomas,1965,75,74.4,SC,265,187.5,247.5,700,3,M,SBD,Single-ply,M-O
Ron Garofalo,,75,74.7,CO,260,155,285,700,4,M,SBD,Single-ply,M-O
Pat Beaumaster,1962,75,74.6,MN,275,170,245,690,5,M,SBD,Single-ply,M-O
Gary Blevins,1966,75,74.4,VA,240,130,290,660,6,M,SBD,Single-ply,M-O
Mark Schultenover,1961,75,74.1,MN,242.5,157.5,250,650,7,M,SBD,Single-ply,M-O
Matthew Berry,1973,75,72.6,IL,227.5,152.5,,,DQ,M,SBD,Single-ply,M-O
Michael Macri,1969,75,74.1,NY,260,140,,,DQ,M,SBD,Single-ply,M-O
David Ricks,1959,82.5,82.1,SC,307.5,207.5,317.5,832.5,1,M,SBD,Single-ply,M-O
Robert Wagner,1964,82.5,82.4,PA,327.5,182.5,287.5,797.5,2,M,SBD,Single-ply,M-O
Laddie Gibson,1965,82.5,80.7,NY,272.5,210,287.5,770,3,M,SBD,Single-ply,M-O
Quincy Guzman,1964,82.5,80.7,HI,292.5,165,260,717.5,4,M,SBD,Single-ply,M-O
Swindell Autry,1962,82.5,81.8,TX,290,147.5,280,717.5,5,M,SBD,Single-ply,M-O
Gerald Crump,1966,82.5,81.7,LA,255,182.5,245,682.5,6,M,SBD,Single-ply,M-O
Nate Waag,1971,82.5,80.9,CO,257.5,177.5,242.5,677.5,7,M,SBD,Single-ply,M-O
Chris Turner #2,1973,82.5,81.5,CA,,,,,DQ,M,SBD,Single-ply,M-O
Ray Benemerito,1967,90,89,NJ,317.5,210,327.5,855,1,M,SBD,Single-ply,M-O
Joe McCauliffe,1965,90,89.3,NJ,327.5,217.5,277.5,822.5,2,M,SBD,Single-ply,M-O
Tony Stevens #2,1965,90,90,DE,262.5,227.5,282.5,772.5,3,M,SBD,Single-ply,M-O
Rico Impastato,1970,90,89.7,LA,282.5,185,267.5,735,4,M,SBD,Single-ply,M-O
Doug Currence,1959,90,89.3,WV,260,170,295,725,5,M,SBD,Single-ply,M-O
Craig Safran,1964,90,89.3,NJ,250,152.5,317.5,720,6,M,SBD,Single-ply,M-O
Chuck Fabrizio,1964,90,89.1,CT,217.5,157.5,285,660,7,M,SBD,Single-ply,M-O
Jerry Halverson,1967,90,89.5,WI,240,147.5,232.5,620,8,M,SBD,Single-ply,M-O
Anthony Harris #1,1964,100,99.4,HI,350,192.5,347.5,890,1,M,SBD,Single-ply,M-O
Jim Morton,1967,100,99.45,DE,337.5,220,332.5,890,2,M,SBD,Single-ply,M-O
Bill Windschief,1973,100,99.5,TX,310,220,327.5,857.5,3,M,SBD,Single-ply,M-O
Scott Zwaanstra,1962,100,99.4,CO,307.5,207.5,315,830,4,M,SBD,Single-ply,M-O
Pat Hall #1,1965,100,99.8,ND,295,215,317.5,827.5,5,M,SBD,Single-ply,M-O
Phil Leader,1967,100,99.1,LA,322.5,212.5,282.5,817.5,6,M,SBD,Single-ply,M-O
Shawn Cain,1957,100,99.5,WI,287.5,192.5,335,815,7,M,SBD,Single-ply,M-O
Keith Scruggs,1969,100,97.7,TX,300,177.5,312.5,790,8,M,SBD,Single-ply,M-O
Steve Pincock,1963,100,99.3,UT,325,162.5,300,787.5,9,M,SBD,Single-ply,M-O
Scott Waits,1965,100,98.8,NV,310,192.5,280,782.5,10,M,SBD,Single-ply,M-O
Jason Burnell,1965,100,97,CA,310,175,292.5,777.5,11,M,SBD,Single-ply,M-O
Scott Roberts,1958,100,99.3,CO,307.5,187.5,280,775,12,M,SBD,Single-ply,M-O
Brian Whitman,1971,100,94.3,NC,277.5,182.5,300,760,13,M,SBD,Single-ply,M-O
Patrick Johnson,1971,100,99.5,PA,295,205,260,760,14,M,SBD,Single-ply,M-O
Rick Vittum,1972,100,96.4,MA,270,180,297.5,747.5,15,M,SBD,Single-ply,M-O
Frank Arcamone,1969,100,98.2,CT,287.5,187.5,257.5,732.5,16,M,SBD,Single-ply,M-O
Manfred McGee-Bay,1958,100,92.9,AR,272.5,150,287.5,710,17,M,SBD,Single-ply,M-O
Henry Gerard,1964,100,99.2,VA,,,,,DQ,M,SBD,Single-ply,M-O
Jeff Douglas #1,1963,110,109.1,LA,375,225,317.5,917.5,1,M,SBD,Single-ply,M-O
Willie Croner,1963,110,109.5,PA,357.5,225,307.5,890,2,M,SBD,Single-ply,M-O
Dave Gonzales,1961,110,108.9,CO,325,215,297.5,837.5,3,M,SBD,Single-ply,M-O
Kevin Stewart #1,1962,110,108.3,TX,300,235,295,830,4,M,SBD,Single-ply,M-O
Mike Siegler,1968,110,104.1,MN,285,227.5,305,817.5,5,M,SBD,Single-ply,M-O
Earnest Todd,1972,110,103.6,LA,287.5,215,305,807.5,6,M,SBD,Single-ply,M-O
Sean McDaniel,1966,110,108.8,MT,300,212.5,282.5,795,7,M,SBD,Single-ply,M-O
Mitch Edelstein,1962,110,105.7,MN,280,200,310,790,8,M,SBD,Single-ply,M-O
Dave Villeneuve,1967,110,109.5,VT,300,197.5,280,777.5,9,M,SBD,Single-ply,M-O
Pat Anderson,1971,110,109.2,GA,280,185,272.5,737.5,10,M,SBD,Single-ply,M-O
Phil Andrews,1955,110,108.4,CA,65,65,225,355,11,M,SBD,Single-ply,M-O
James Cahill,1973,110,100.7,MN,285,,,,DQ,M,SBD,Single-ply,M-O
Kenneth Howard,1965,110,108.2,NY,332.5,175,,,DQ,M,SBD,Single-ply,M-O
Mark Schellen,1961,110,109.1,NE,,,,,DQ,M,SBD,Single-ply,M-O
Rick Ford,1959,110,109.2,GA,337.5,,,,DQ,M,SBD,Single-ply,M-O
Tony Leiato,1965,125,123,HI,370,265,327.5,962.5,1,M,SBD,Single-ply,M-O
Pat McGettigan,1970,125,123.8,WI,325,207.5,350,882.5,2,M,SBD,Single-ply,M-O
Nick Best,1968,125,123.2,CA,325,235,320,880,3,M,SBD,Single-ply,M-O
Collin Rhodes #1,1967,125,122.7,TX,302.5,237.5,325,865,4,M,SBD,Single-ply,M-O
Jeff Markoff,1969,125,124.2,WA,330,235,300,865,5,M,SBD,Single-ply,M-O
Mike Anderson,1967,125,123.9,GA,355,200,307.5,862.5,6,M,SBD,Single-ply,M-O
Paul Fletcher,1962,125,124.7,LA,330,210,312.5,852.5,7,M,SBD,Single-ply,M-O
Cary Callahan,1964,125,124.8,GA,320,232.5,297.5,850,8,M,SBD,Single-ply,M-O
Grant Higa,1970,125,117.8,OR,352.5,200,295,847.5,9,M,SBD,Single-ply,M-O
Karl Gillingham,1965,125,121.5,MN,290,217.5,335,842.5,10,M,SBD,Single-ply,M-O
Dale Hjelseth,1964,125,117.4,SD,282.5,227.5,327.5,837.5,11,M,SBD,Single-ply,M-O
Kevin Westerhold,1974,125,124.9,CO,302.5,210,322.5,835,12,M,SBD,Single-ply,M-O
Mike Kautz,1962,125,123.6,CA,312.5,195,312.5,820,13,M,SBD,Single-ply,M-O
Michael Ringer,1962,125,124.5,TX,307.5,167.5,315,790,14,M,SBD,Single-ply,M-O
Michael Hartle,1967,125,122.1,IN,295,202.5,272.5,770,15,M,SBD,Single-ply,M-O
Brent Holmes,1972,125,124.5,VA,305,200,265,770,16,M,SBD,Single-ply,M-O
Calvin Thompson,1961,125,122,TX,287.5,200,272.5,760,17,M,SBD,Single-ply,M-O
Chris Doyle,1968,125,124.4,UT,287.5,185,280,752.5,18,M,SBD,Single-ply,M-O
Vince Lombardi,1964,125,124.2,CO,295,202.5,240,737.5,19,M,SBD,Single-ply,M-O
CJ Batten,1943,125,124.8,MI,125,222.5,125,472.5,20,M,SBD,Single-ply,M-O
Ron Howell,1967,125,115.5,GA,,192.5,,,DQ,M,SBD,Single-ply,M-O
Matthew Clark,1966,125,117.6,NJ,,,,,DQ,M,SBD,Single-ply,M-O
Chris Carlin,1973,125,120.3,MT,,,,,DQ,M,SBD,Single-ply,M-O
Misi Inoke,1960,125,121.4,UT,342.5,,,,DQ,M,SBD,Single-ply,M-O
Knut Ortiz,1966,125,121.9,WY,295,,,,DQ,M,SBD,Single-ply,M-O
Brad Gillingham,,125+,145.2,MN,372.5,262.5,365,1000,1,M,SBD,Single-ply,M-O
John Binkowski,1968,125+,168.4,NV,397.5,255,345,997.5,2,M,SBD,Single-ply,M-O
Sean Culnan,1967,125+,149.2,NY,357.5,247.5,342.5,947.5,3,M,SBD,Single-ply,M-O
Jeremy Haller,1972,125+,128.3,NC,325,210,330,865,4,M,SBD,Single-ply,M-O
Tom Stout,1959,125+,141.7,KS,320,220,302.5,842.5,5,M,SBD,Single-ply,M-O
Mike Cochran,1960,125+,143.6,NY,377.5,,,,DQ,M,SBD,Single-ply,M-O
Daniel Gaudreau,1960,125+,147.7,CO,,,,,DQ,M,SBD,Single-ply,M-O
Bob Burcham,1960,125+,168.8,CO,,,,,DQ,M,SBD,Single-ply,M-O
