Place,Name,Division,Equipment,Event,BirthDate,BirthYear,Age,Sex,BodyweightKg,WeightClassKg,Squat1Kg,Squat2Kg,Squat3Kg,Best3SquatKg,Bench1Kg,Bench2Kg,Bench3Kg,Best3BenchKg,Deadlift1Kg,Deadlift2Kg,Deadlift3Kg,Best3DeadliftKg,TotalKg
1,Lisa Guillerm,Sub-Juniors,Raw,SBD,,2001,17,F,49.35,52,72.5,77.5,80,80,35,37.5,-40,37.5,80,85,-87.5,85,202.5
1,Clervie Paugam,Sub-Juniors,Raw,SBD,,2001,17,F,52.8,57,65,-70,70,70,37.5,40,-42.5,40,90,100,-105,100,210
2,Malvina Martin,Sub-Juniors,Raw,SBD,,2001,17,F,55.65,57,75,77.5,-80,77.5,42.5,-45,-45,42.5,80,85,-87.5,85,205
1,Joséphine Loeby,Sub-Juniors,Raw,SBD,,2001,17,F,57.8,63,77.5,82.5,-85,82.5,40,-42.5,-42.5,40,95,-100,-100,95,217.5
DQ,Jade Kersaudy,Juniors,Raw,SBD,,2000,18,F,79.55,84,-105,-105,,,,,,,,,,,
DQ,Paul Adrien Pichon,Sub-Juniors,Raw,SBD,,2003,15,M,100,105,-140,140,145,145,-80,80,-82.5,80,-170,-170,,,
DQ,Samuel Levrat,Juniors,Raw,SBD,,2000,18,M,65.7,66,135,145,152.5,152.5,85,95,97.5,97.5,-170,-170,-170,,
1,Pablo Wako Pollianis,Masters 1,Raw,SBD,,1978,40,M,103.3,105,150,160,170,170,145,150,-152.5,150,220,-235,,220,540
1,Bertrand Kersaudy,Masters 1,Raw,SBD,,1971,47,M,109,120,205,210,-220,210,120,125,127.5,127.5,220,230,-235,230,567.5
