Division,WeightClassKg,Place,Name,Team,BodyweightKg,Best3SquatKg,Best3BenchKg,Best3DeadliftKg,TotalKg,Equipment,Event,Sex
Boys,51.71,1,Viator Gomez,Mertzon Irion County,49.35,115.67,56.7,113.4,285.76,Single-ply,SBD,M
Boys,51.71,2,Adan Silvas,McCamey,50.89,92.99,52.16,115.67,260.82,Single-ply,SBD,M
Boys,67.13,1,Austin Martinez,Mertzon Irion County,60.06,179.17,108.86,181.44,469.47,Single-ply,SBD,M
Boys,59.87,2,Michael Vargas,Ozona,59.24,170.1,86.18,172.37,428.64,Single-ply,SBD,M
Boys,59.87,3,Jesse Ramirez,San Angelo Lake View,56.25,138.35,81.65,158.76,378.75,Single-ply,SBD,M
Boys,67.13,4,Chris Cantu,Ozona,60.06,136.08,72.57,167.83,376.48,Single-ply,SBD,M
Boys,59.87,5,Danny Muro,San Angelo Lake View,57.88,79.38,56.7,117.93,254.01,Single-ply,SBD,M
Boys,67.13,6,Leighton Delgado,San Angelo Lake View,60.06,70.31,54.43,102.06,226.8,Single-ply,SBD,M
Boys,67.13,1,John Hernandez,San Angelo Lake View,66.86,163.29,97.52,188.24,449.06,Single-ply,SBD,M
Boys,67.13,2,Luis Rangel,Ballinger,66.59,156.49,92.99,174.63,424.11,Single-ply,SBD,M
Boys,67.13,3,Ryan Kennedy #1,Ozona,63.14,158.76,77.11,156.49,392.36,Single-ply,SBD,M
Boys,67.13,4,Victor Muro,San Angelo Lake View,64.86,136.08,90.72,161.03,387.82,Single-ply,SBD,M
Boys,67.13,5,Joaquin Prieto,San Angelo Central,61.87,158.76,95.25,131.54,385.55,Single-ply,SBD,M
Boys,67.13,6,Edson Dehoyos,San Angelo Central,64.41,147.42,83.91,145.15,376.48,Single-ply,SBD,M
Boys,74.84,7,Caleb Drake,San Angelo Lake View,67.22,138.35,79.38,158.76,376.48,Single-ply,SBD,M
Boys,74.84,8,Cody Ortiz,Big Lake Reagan County,67.31,158.76,81.65,136.08,376.48,Single-ply,SBD,M
Boys,74.84,9,Deyton Riddle,San Angelo Lake View,67.31,133.81,83.91,156.49,374.21,Single-ply,SBD,M
Boys,67.13,10,Saul Vargas,Ozona,61.05,129.27,77.11,147.42,353.8,Single-ply,SBD,M
Boys,67.13,11,Juan Luna,San Angelo Lake View,64.86,124.74,61.23,149.69,335.66,Single-ply,SBD,M
Boys,67.13,12,Anthony Chappa,San Angelo Lake View,64.05,120.2,72.57,138.35,331.12,Single-ply,SBD,M
Boys,67.13,13,Taylor House,San Angelo Lake View,62.05,111.13,77.11,131.54,319.78,Single-ply,SBD,M
Boys,67.13,14,Jeremy Whitcomb,Mertzon Irion County,66.86,108.86,58.97,113.4,281.23,Single-ply,SBD,M
Boys,74.84,1,David Pineda,McCamey,73.94,201.85,122.47,174.63,498.95,Single-ply,SBD,M
Boys,74.84,2,Devon Hoelscher,Ballinger,74.57,174.63,104.33,158.76,437.72,Single-ply,SBD,M
Boys,74.84,3,Ben Bowman,San Angelo Central,73.94,158.76,90.72,158.76,408.23,Single-ply,SBD,M
Boys,74.84,4,Eli Peterson,San Angelo Lake View,69.49,147.42,83.91,154.22,385.55,Single-ply,SBD,M
Boys,74.84,DQ,Joaquin Rivero,San Angelo Central,74.39,167.83,,,,Single-ply,SBD,M
Boys,74.84,DQ,Trenton Gardner,Big Lake Reagan County,74.84,,,,,Single-ply,SBD,M
Boys,82.1,1,Jesse Daniels,Ballinger,79.83,201.85,129.27,215.46,546.58,Single-ply,SBD,M
Boys,82.1,2,Jj Casarez,McCamey,78.29,176.9,115.67,190.51,483.08,Single-ply,SBD,M
Boys,82.1,3,Daniel Lombrana,Ozona,81.37,154.22,81.65,133.81,369.68,Single-ply,SBD,M
Boys,82.1,DQ,Josh Neri,Mertzon Irion County,77.02,147.42,,,,Single-ply,SBD,M
Boys,82.1,DQ,Fernando Saucedo,Big Lake Reagan County,75.52,174.63,,,,Single-ply,SBD,M
Boys,82.1,DQ,Mauricio Valdez,San Angelo Lake View,75.75,151.95,,,,Single-ply,SBD,M
Boys,89.81,1,Carlos Gomez,Iraan,84.1,165.56,102.06,167.83,435.45,Single-ply,SBD,M
Boys,89.81,2,Brandon Dominguez,Ozona,84.28,176.9,90.72,165.56,433.18,Single-ply,SBD,M
Boys,89.81,DQ,Auggie Woodruff,Ballinger,89.09,210.92,,,,Single-ply,SBD,M
Boys,89.81,DQ,Taylor Hunt #1,San Angelo Central,87.82,170.1,,,,Single-ply,SBD,M
Boys,109.77,1,Aaron Allen #2,San Angelo Lake View,99.97,242.67,127.01,256.28,625.96,Single-ply,SBD,M
Boys,99.79,2,Matt Garcia,Mertzon Irion County,92.08,192.78,127.01,181.44,501.22,Single-ply,SBD,M
Boys,99.79,3,Hazael Damian,Ozona,96.34,179.17,92.99,183.7,455.86,Single-ply,SBD,M
Boys,99.79,4,Jacob Nino,San Angelo Central,98.88,156.49,127.01,163.29,446.79,Single-ply,SBD,M
Boys,99.79,5,Rigo Rodriguez,Ozona,94.89,167.83,81.65,170.1,419.57,Single-ply,SBD,M
Boys,99.79,6,Aj Ramos,Ozona,93.44,136.08,58.97,124.74,319.78,Single-ply,SBD,M
Boys,99.79,7,Emilio Mendez,Ozona,90.72,115.67,68.04,120.2,303.91,Single-ply,SBD,M
Boys,99.79,DQ,Eric Thomas,Ballinger,90.26,195.04,111.13,,,Single-ply,SBD,M
Boys,109.77,1,Riley Woodruff,Ballinger,106.32,240.4,108.86,222.26,571.53,Single-ply,SBD,M
Boys,109.77,2,Jose Gallegos,Ballinger,100.43,201.85,117.93,208.65,528.44,Single-ply,SBD,M
Boys,109.77,3,Sterling Strickland,San Angelo Central,106.05,204.12,136.08,185.97,526.17,Single-ply,SBD,M
Boys,109.77,4,Michael Ybarra,Ozona,106.78,147.42,97.52,154.22,399.16,Single-ply,SBD,M
Boys,109.77,DQ,Joseph Brooks,San Angelo Central,107.95,158.76,,,,Single-ply,SBD,M
Boys,124.74,1,Steven Manahan,McCamey,122.47,233.6,136.08,204.12,573.79,Single-ply,SBD,M
Boys,124.74,2,Angel Aguilera,Big Lake Reagan County,113.85,238.14,113.4,215.46,566.99,Single-ply,SBD,M
Boys,124.74,3,Christian Delgado,San Angelo Lake View,122.92,183.7,115.67,170.1,469.47,Single-ply,SBD,M
Boys,124.74+,1,Bowdy Thompson,San Angelo Lake View,161.48,258.55,158.76,226.8,644.1,Single-ply,SBD,M
Boys,124.74+,2,Hayden Vinson,San Angelo Central,133.9,226.8,111.13,226.8,564.72,Single-ply,SBD,M
Boys,124.74+,3,Damien Venegas,McCamey,134.26,206.38,117.93,170.1,494.42,Single-ply,SBD,M
Boys,124.74+,4,Dj Schlather,San Angelo Lake View,135.53,181.44,108.86,165.56,455.86,Single-ply,SBD,M
