Division,WeightClassKg,Place,Name,Team,BodyweightKg,Best3SquatKg,Best3BenchKg,Best3DeadliftKg,TotalKg,Equipment,Event,Sex
Freshmen,55.79,1,Brandon Hawkins,Three Rivers,55.52,113.4,54.43,124.74,292.57,Single-ply,SBD,M
Freshmen,55.79,2,Pedro Rodriguez,Goliad,55.79,90.72,58.97,113.4,263.08,Single-ply,SBD,M
Freshmen,55.79,3,Ruben Lopez,Orange Grove,52.71,83.91,54.43,102.06,240.4,Single-ply,SBD,M
Freshmen,55.79,4,Dalton Parker,Goliad,54.25,63.5,56.7,92.99,213.19,Single-ply,SBD,M
Freshmen,67.13,1,Rico Rodriguez,San Diego,60.06,120.2,86.18,154.22,360.61,Single-ply,SBD,M
Freshmen,59.87,2,Albert Salinas,Bishop,59.24,124.74,63.5,124.74,312.98,Single-ply,SBD,M
Freshmen,59.87,3,Hector Carrillo,Corpus Christi West Oso,59.42,113.4,61.23,129.27,303.91,Single-ply,SBD,M
Freshmen,59.87,4,Rayce Gatlin,Orange Grove,59.15,95.25,61.23,113.4,269.89,Single-ply,SBD,M
Freshmen,59.87,5,Dillon Herschap,Orange Grove,58.33,97.52,56.7,102.06,256.28,Single-ply,SBD,M
Freshmen,67.13,1,Toby Yungman,Pleasanton,65.05,151.95,74.84,154.22,381.02,Single-ply,SBD,M
Freshmen,67.13,2,Cody Salinas,Riviera Kaufer,62.23,102.06,61.23,138.35,301.64,Single-ply,SBD,M
Freshmen,67.13,3,Patrick Jarrett,Three Rivers,63.64,111.13,43.09,117.93,272.16,Single-ply,SBD,M
Freshmen,67.13,4,Sergio Sosa,Pleasanton,64.14,113.4,45.36,108.86,267.62,Single-ply,SBD,M
Freshmen,67.13,5,Tyler Pastrano,San Diego,61.96,97.52,63.5,102.06,263.08,Single-ply,SBD,M
Freshmen,67.13,6,Tyler Scott,Goliad,62.6,68.04,61.23,102.06,231.33,Single-ply,SBD,M
Freshmen,74.84,1,Rene Perez,San Diego,73.57,161.03,83.91,147.42,392.36,Single-ply,SBD,M
Freshmen,74.84,2,Taylor Shearer,Pleasanton,68.49,136.08,70.31,149.69,356.07,Single-ply,SBD,M
Freshmen,74.84,3,Ricky de la Paz,San Diego,72.12,102.06,72.57,124.74,299.37,Single-ply,SBD,M
Freshmen,82.1,1,Joe Castillo,Corpus Christi West Oso,80.38,161.03,72.57,142.88,376.48,Single-ply,SBD,M
Freshmen,82.1,2,Marco Soliz,Orange Grove,80.83,149.69,72.57,142.88,365.14,Single-ply,SBD,M
Freshmen,89.81,3,Garrett Holliss,Pleasanton,82.28,124.74,74.84,147.42,347,Single-ply,SBD,M
Freshmen,82.1,4,Austin Block,Karnes City,81.83,127.01,68.04,124.74,319.78,Single-ply,SBD,M
Freshmen,82.1,5,Weston Block,Karnes City,79.2,117.93,77.11,122.47,317.51,Single-ply,SBD,M
Freshmen,82.1,6,Cody Hererra,Orange Grove,81.74,124.74,74.84,106.59,306.17,Single-ply,SBD,M
Freshmen,82.1,7,Justin Gonzales,Freer,75.48,117.93,63.5,120.2,301.64,Single-ply,SBD,M
Freshmen,82.1,8,Matthew Cantu,San Diego,77.66,90.72,54.43,90.72,235.87,Single-ply,SBD,M
Freshmen,89.81,1,Luis Lopez #3,San Diego,86.73,226.8,124.74,170.1,521.63,Single-ply,SBD,M
Freshmen,89.81,2,Tony Ledesma,Riviera Kaufer,87.54,129.27,83.91,167.83,381.02,Single-ply,SBD,M
Freshmen,89.81,3,Brad Reilly,Pleasanton,89.81,154.22,68.04,158.76,381.02,Single-ply,SBD,M
Freshmen,89.81,4,Jeremy Pena,Goliad,84.01,133.81,79.38,142.88,356.07,Single-ply,SBD,M
Freshmen,109.77,1,Zac Garcia,Pleasanton,99.97,204.12,102.06,158.76,464.93,Single-ply,SBD,M
Freshmen,99.79,2,Kevin Leal,Freer,91.9,161.03,83.91,163.29,408.23,Single-ply,SBD,M
Freshmen,99.79,3,Sammie Simmons,Three Rivers,99.61,111.13,97.52,170.1,378.75,Single-ply,SBD,M
Freshmen,99.79,4,Marcus Hinojosa,Bishop,91.26,136.08,65.77,142.88,344.73,Single-ply,SBD,M
Freshmen,99.79,5,Jacob Longoria,Riviera Kaufer,96.34,120.2,79.38,142.88,342.46,Single-ply,SBD,M
Freshmen,109.77,1,Joey Villesca,Orange Grove,105.41,149.69,72.57,154.22,376.48,Single-ply,SBD,M
Freshmen,109.77,2,Lucas Janysek,Karnes City,107.5,127.01,79.38,154.22,360.61,Single-ply,SBD,M
Freshmen,109.77,3,Frank Hernandez,Pleasanton,101.79,138.35,70.31,149.69,358.34,Single-ply,SBD,M
Freshmen,109.77,4,Matthew Moya,Corpus Christi West Oso,103.6,104.33,63.5,151.95,319.78,Single-ply,SBD,M
Freshmen,124.74,1,Antonio Galvan,Aransas Pass,111.13,210.92,97.52,165.56,474,Single-ply,SBD,M
Freshmen,124.74,2,Bryan Jackson,Dilley,120.84,142.88,63.5,142.88,349.27,Single-ply,SBD,M
Freshmen,124.74,3,Dillon Garcia,Orange Grove,112.31,83.91,56.7,77.11,217.72,Single-ply,SBD,M
Freshmen,124.74+,1,Zack Pawelek,Karnes City,143.24,195.04,102.06,192.78,489.88,Single-ply,SBD,M
Varsity,51.71,1,Bruizer Del Bosque,Bishop,46.27,120.2,74.84,138.35,333.39,Single-ply,SBD,M
Varsity,51.71,2,Christian Obregon,Dilley,49.99,117.93,70.31,102.06,290.3,Single-ply,SBD,M
Varsity,51.71,3,Dylan Torres,Runge,50.44,92.99,58.97,113.4,265.35,Single-ply,SBD,M
Varsity,55.79,1,Travis Charles,Bishop,55.43,161.03,77.11,170.1,408.23,Single-ply,SBD,M
Varsity,55.79,2,Justin Breland,Banquete,55.52,136.08,97.52,172.37,405.97,Single-ply,SBD,M
Varsity,59.87,3,Cole Jackson,San Antonio Southside,56.02,138.35,74.84,145.15,358.34,Single-ply,SBD,M
Varsity,55.79,4,Donovan Wilson,Aransas Pass,53.61,136.08,70.31,120.2,326.59,Single-ply,SBD,M
Varsity,59.87,1,Caleb Gale,Somerset,58.79,154.22,79.38,181.44,415.04,Single-ply,SBD,M
Varsity,59.87,2,Marquis Barrolle,Ingleside,57.88,147.42,102.06,161.03,410.5,Single-ply,SBD,M
Varsity,59.87,3,Richard Brown,Orange Grove,59.33,149.69,79.38,165.56,394.63,Single-ply,SBD,M
Varsity,67.13,4,Ray Valdez,Orange Grove,59.96,142.88,77.11,165.56,385.55,Single-ply,SBD,M
Varsity,59.87,5,Dean Boniface,Goliad,59.33,131.54,83.91,167.83,383.29,Single-ply,SBD,M
Varsity,59.87,6,Joe Boone,Goliad,59.06,120.2,72.57,149.69,342.46,Single-ply,SBD,M
Varsity,59.87,7,Myles Parker,Goliad,59.33,97.52,74.84,133.81,306.17,Single-ply,SBD,M
Varsity,67.13,1,Andrew Harris,San Antonio Southside,66.86,204.12,90.72,197.31,492.15,Single-ply,SBD,M
Varsity,74.84,2,Ozzie Verela,Somerset,67.31,188.24,97.52,185.97,471.74,Single-ply,SBD,M
Varsity,67.13,3,Jonathan Ibarra,Somerset,61.14,165.56,83.91,181.44,430.91,Single-ply,SBD,M
Varsity,67.13,4,Aaron Lopez,Jourdanton,64.86,158.76,90.72,163.29,412.77,Single-ply,SBD,M
Varsity,67.13,5,Jay Trevino,Banquete,64.68,140.61,99.79,158.76,399.16,Single-ply,SBD,M
Varsity,67.13,6,Arnold Bueno,Banquete,60.96,117.93,74.84,122.47,315.25,Single-ply,SBD,M
Varsity,67.13,7,Patrick Jones,Runge,64.05,90.72,68.04,145.15,303.91,Single-ply,SBD,M
Varsity,67.13,8,Vincent Valdez,Aransas Pass,66.13,88.45,52.16,102.06,242.67,Single-ply,SBD,M
Varsity,74.84,1,Ryan Rodriguez,Odem,74.3,210.92,145.15,219.99,576.06,Single-ply,SBD,M
Varsity,74.84,2,Nocky Garza,Bishop,73.94,219.99,129.27,195.04,544.31,Single-ply,SBD,M
Varsity,74.84,3,Del Ryan Alvarez,Somerset,72.76,204.12,113.4,195.04,512.56,Single-ply,SBD,M
Varsity,74.84,4,Thomas Garcia,Dilley,72.94,172.37,111.13,199.58,483.08,Single-ply,SBD,M
Varsity,74.84,5,Andrew Martinez,Somerset,70.08,149.69,113.4,183.7,446.79,Single-ply,SBD,M
Varsity,74.84,6,Eddie Flores,Dilley,70.49,170.1,99.79,165.56,435.45,Single-ply,SBD,M
Varsity,74.84,7,Levi House,Jourdanton,71.76,174.63,88.45,172.37,435.45,Single-ply,SBD,M
Varsity,74.84,8,Jp Escobar,Bishop,71.49,154.22,106.59,167.83,428.64,Single-ply,SBD,M
Varsity,74.84,9,Tyler Wright,Orange Grove,70.58,149.69,83.91,188.24,421.84,Single-ply,SBD,M
Varsity,74.84,10,David Perez,Bishop,72.85,142.88,92.99,147.42,383.29,Single-ply,SBD,M
Varsity,74.84,11,Robert Moctezuma,San Diego,73.12,151.95,77.11,151.95,381.02,Single-ply,SBD,M
Varsity,74.84,12,Mason Garcilazo,Aransas Pass,67.86,133.81,70.31,129.27,333.39,Single-ply,SBD,M
Varsity,82.1,1,Raydell Perez,Ingleside,80.29,215.46,167.83,242.67,625.96,Single-ply,SBD,M
Varsity,82.1,2,Dwight Taylor,Somerset,80.1,183.7,102.06,217.72,503.49,Single-ply,SBD,M
Varsity,82.1,3,Kirk Salinas,Banquete,81.01,176.9,122.47,183.7,483.08,Single-ply,SBD,M
Varsity,82.1,4,John Wirt,Goliad,81.56,163.29,92.99,192.78,449.06,Single-ply,SBD,M
Varsity,82.1,5,Ramsey Rivera,Corpus Christi West Oso,80.1,167.83,90.72,181.44,439.98,Single-ply,SBD,M
Varsity,82.1,6,Jj Elias,Somerset,78.02,170.1,83.91,183.7,437.72,Single-ply,SBD,M
Varsity,82.1,7,Ignacio Villareal,Freer,82.01,129.27,95.25,190.51,415.04,Single-ply,SBD,M
Varsity,82.1,8,Philip Barrientos,Bishop,81.74,131.54,92.99,163.29,387.82,Single-ply,SBD,M
Varsity,82.1,9,Faustino Alaniz,Banquete,77.84,129.27,68.04,140.61,337.93,Single-ply,SBD,M
Varsity,89.81,1,John Baldwin,Corpus Christi West Oso,85.64,244.94,138.35,233.6,616.89,Single-ply,SBD,M
Varsity,89.81,2,Allan Grove,Ingleside,89.36,238.14,142.88,226.8,607.81,Single-ply,SBD,M
Varsity,89.81,3,Brandon Fuentes,Pleasanton,87.72,199.58,129.27,192.78,521.63,Single-ply,SBD,M
Varsity,89.81,4,Steven Chavez,Aransas Pass,89.81,226.8,120.2,174.63,521.63,Single-ply,SBD,M
Varsity,89.81,5,Casey Benavides,Somerset,87.45,183.7,108.86,226.8,519.36,Single-ply,SBD,M
Varsity,89.81,6,Jerome Hopkins,Karnes City,83.55,206.38,106.59,185.97,498.95,Single-ply,SBD,M
Varsity,89.81,7,Abel Gonzalez,Dilley,88.9,199.58,97.52,188.24,485.34,Single-ply,SBD,M
Varsity,89.81,8,Nick Pacheco,Bishop,87.45,208.65,83.91,190.51,483.08,Single-ply,SBD,M
Varsity,89.81,9,Jonathan Ramos,San Antonio Southside,86.36,179.17,122.47,179.17,480.81,Single-ply,SBD,M
Varsity,89.81,10,Omar Espinosa,Dilley,86.73,165.56,122.47,172.37,460.4,Single-ply,SBD,M
Varsity,89.81,11,Luis Guerra,Bishop,83.82,167.83,88.45,172.37,428.64,Single-ply,SBD,M
Varsity,89.81,12,Adan Serda,Odem,84.82,147.42,115.67,147.42,410.5,Single-ply,SBD,M
Varsity,89.81,13,Justin Quesada,Somerset,84.01,142.88,92.99,158.76,394.63,Single-ply,SBD,M
Varsity,89.81,14,Rick Gutierrez,Bishop,88.63,149.69,83.91,149.69,383.29,Single-ply,SBD,M
Varsity,89.81,15,Adrian Arredondo,Riviera Kaufer,88.54,127.01,108.86,136.08,371.95,Single-ply,SBD,M
Varsity,99.79,1,Oscar Ortiz,Orange Grove,99.61,274.42,136.08,249.48,659.98,Single-ply,SBD,M
Varsity,99.79,2,Eddie Hernandez,Ingleside,99.7,235.87,151.95,244.94,632.76,Single-ply,SBD,M
Varsity,99.79,3,Charles Armstrong,Somerset,97.52,238.14,147.42,231.33,616.89,Single-ply,SBD,M
Varsity,99.79,4,Salvador Marines,Somerset,97.52,226.8,102.06,249.48,578.33,Single-ply,SBD,M
Varsity,99.79,5,Salo Galindo,Dilley,96.43,201.85,142.88,192.78,537.51,Single-ply,SBD,M
Varsity,99.79,6,Taylor Hearn,Pleasanton,98.88,204.12,127.01,204.12,535.24,Single-ply,SBD,M
Varsity,99.79,7,Ruben Ramirez,Aransas Pass,95.98,188.24,120.2,192.78,501.22,Single-ply,SBD,M
Varsity,99.79,8,Nathan Gruetzmacher,Goliad,93.44,165.56,120.2,149.69,435.45,Single-ply,SBD,M
Varsity,99.79,9,Luis Monsevais,Orange Grove,97.61,158.76,92.99,181.44,433.18,Single-ply,SBD,M
Varsity,99.79,10,Raul Hernandez,Dilley,97.16,158.76,88.45,158.76,405.97,Single-ply,SBD,M
Varsity,109.77,1,Cecilio Zarate,Corpus Christi West Oso,107.68,258.55,138.35,219.99,616.89,Single-ply,SBD,M
Varsity,109.77,2,Brandon Brashear,Jourdanton,107.68,226.8,156.49,213.19,596.47,Single-ply,SBD,M
Varsity,109.77,3,John Herrera,Banquete,106.05,215.46,140.61,222.26,578.33,Single-ply,SBD,M
Varsity,109.77,4,Ramiro Montalvo,Orange Grove,106.87,226.8,129.27,195.04,551.11,Single-ply,SBD,M
Varsity,109.77,5,Frank Trevino,San Diego,107.41,226.8,113.4,210.92,551.11,Single-ply,SBD,M
Varsity,109.77,6,Robert Huitron,San Antonio Southside,104.51,226.8,120.2,199.58,546.58,Single-ply,SBD,M
Varsity,109.77,7,Tanner Bierstedt,Freer,109.32,185.97,142.88,179.17,508.02,Single-ply,SBD,M
Varsity,109.77,8,Joseph Avitia,Ingleside,100.24,204.12,124.74,176.9,505.76,Single-ply,SBD,M
Varsity,109.77,9,Dj Cowger,Bishop,101.24,190.51,115.67,192.78,498.95,Single-ply,SBD,M
Varsity,109.77,10,Clark Pustka,Goliad,109.77,183.7,129.27,176.9,489.88,Single-ply,SBD,M
Varsity,109.77,11,Justin Ibarra,Corpus Christi West Oso,108.59,204.12,99.79,179.17,483.08,Single-ply,SBD,M
Varsity,109.77,12,Larry Vidales,Somerset,108.41,181.44,90.72,190.51,462.66,Single-ply,SBD,M
Varsity,109.77,13,Daniel Casarez,Somerset,108.77,158.76,113.4,183.7,455.86,Single-ply,SBD,M
Varsity,124.74,1,Brandon Rodriguez,Somerset,120.38,319.78,124.74,231.33,675.85,Single-ply,SBD,M
Varsity,124.74,2,Albert Mata,San Antonio Southside,114.67,249.48,156.49,229.06,635.03,Single-ply,SBD,M
Varsity,124.74,3,Alfred Godines,Somerset,112.85,226.8,165.56,204.12,596.47,Single-ply,SBD,M
Varsity,124.74,4,Jose Alvarado #4,Somerset,113.76,226.8,113.4,192.78,532.97,Single-ply,SBD,M
Varsity,124.74,5,John Mendoza,Karnes City,120.11,206.38,124.74,201.85,532.97,Single-ply,SBD,M
Varsity,124.74,6,Tyler Verette,Jourdanton,121.56,195.04,133.81,190.51,519.36,Single-ply,SBD,M
Varsity,124.74,7,Manuel Tijerina,Jourdanton,123.65,176.9,111.13,204.12,492.15,Single-ply,SBD,M
Varsity,124.74,8,Aaron Kuecker,Goliad,122.92,165.56,120.2,170.1,455.86,Single-ply,SBD,M
Varsity,124.74,9,Garrett Fredrichs,Goliad,123.1,183.7,83.91,183.7,451.32,Single-ply,SBD,M
Varsity,124.74,10,Bruno Castilla,Somerset,115.48,124.74,86.18,136.08,347,Single-ply,SBD,M
Varsity,124.74+,1,Matt Jones #8,Ingleside,126.82,276.69,170.1,226.8,673.58,Single-ply,SBD,M
Varsity,124.74+,2,Steven Flanigan,Ingleside,134.99,281.23,151.95,201.85,635.03,Single-ply,SBD,M
Varsity,124.74+,3,Oscar O Ortiz,Orange Grove,133.08,233.6,147.42,213.19,594.21,Single-ply,SBD,M
Varsity,124.74+,4,Kaleb Tichkausky,Three Rivers,125.33,215.46,154.22,215.46,585.13,Single-ply,SBD,M
Varsity,124.74+,5,Joseph Barkley,Karnes City,127.01,192.78,115.67,226.8,535.24,Single-ply,SBD,M
Varsity,124.74+,6,Joey Ybanez,Freer,138.89,176.9,131.54,206.38,514.83,Single-ply,SBD,M
