Division,WeightClassKg,Place,Name,Team,BodyweightKg,Best3SquatKg,Best3BenchKg,Best3DeadliftKg,TotalKg,Equipment,Event,Sex
Boys,55.79,1,Pablo Gutierrez,Mount Pleasant,51.98,113.4,72.57,133.81,319.78,Single-ply,SBD,M
Boys,55.79,2,Bryce Evans,Paris North Lamar,55.34,108.86,68.04,129.27,306.17,Single-ply,SBD,M
Boys,59.87,1,Josh Bolton,Paris North Lamar,59.15,167.83,97.52,172.37,437.72,Single-ply,SBD,M
Boys,59.87,2,Gilbert Garcia,Longview Spring Hill,57.88,149.69,86.18,156.49,392.36,Single-ply,SBD,M
Boys,59.87,3,Toby Chambers,Simms Bowie,59.51,113.4,47.63,131.54,292.57,Single-ply,SBD,M
Boys,67.13,1,Josh Johnson,Paris North Lamar,66.59,158.76,106.59,176.9,442.25,Single-ply,SBD,M
Boys,67.13,2,Conner Darnell,Paris North Lamar,61.05,151.95,129.27,158.76,439.98,Single-ply,SBD,M
Boys,67.13,3,Elijah Robinson,Pattonville Prairiland,63.23,151.95,88.45,158.76,399.16,Single-ply,SBD,M
Boys,67.13,4,Dakota Vanderburg,Paris Chisum,64.86,145.15,95.25,151.95,392.36,Single-ply,SBD,M
Boys,67.13,5,Jesse Theissen,Paris Chisum,66.68,145.15,74.84,161.03,381.02,Single-ply,SBD,M
Boys,67.13,6,Daniel Landaverde,Mount Pleasant,60.51,136.08,79.38,161.03,376.48,Single-ply,SBD,M
Boys,67.13,7,Lee Armstrong,Paris Chisum,65.86,131.54,77.11,158.76,367.41,Single-ply,SBD,M
Boys,67.13,8,Sam Collins,Paris Chisum,60.96,124.74,79.38,142.88,347,Single-ply,SBD,M
Boys,67.13,9,Trace Smith,Pattonville Prairiland,67.04,113.4,74.84,136.08,324.32,Single-ply,SBD,M
Boys,74.84,1,Brandon Gillen,Paris Chisum,74.21,238.14,131.54,249.48,619.15,Single-ply,SBD,M
Boys,74.84,2,Joshua Martinez,Mount Pleasant,73.57,204.12,151.95,217.72,573.79,Single-ply,SBD,M
Boys,74.84,3,Dakota Grant,Simms Bowie,74.48,124.74,77.11,170.1,371.95,Single-ply,SBD,M
Boys,74.84,4,Jacob James,Simms Bowie,67.22,136.08,77.11,136.08,349.27,Single-ply,SBD,M
Boys,74.84,5,Hunter Jones #1,Paris North Lamar,70.31,113.4,70.31,149.69,333.39,Single-ply,SBD,M
Boys,74.84,6,Jonathan Woods,Mount Pleasant,69.22,138.35,72.57,120.2,331.12,Single-ply,SBD,M
Boys,74.84,7,Bryan Fritz,Longview Spring Hill,69.58,131.54,58.97,113.4,303.91,Single-ply,SBD,M
Boys,74.84,DQ,Jeremiah Guenther,Paris North Lamar,72.12,163.29,,,,Single-ply,SBD,M
Boys,82.1,1,Eric Pheng,Paris North Lamar,76.48,190.51,111.13,197.31,498.95,Single-ply,SBD,M
Boys,82.1,2,Jaxon Heveron,Paris North Lamar,81.1,190.51,122.47,181.44,494.42,Single-ply,SBD,M
Boys,82.1,3,Mason Chrisman,Paris North Lamar,78.29,176.9,104.33,195.04,476.27,Single-ply,SBD,M
Boys,82.1,4,Roby Pridemore,Paris Chisum,78.65,165.56,113.4,161.03,439.98,Single-ply,SBD,M
Boys,89.81,1,Morgan Landreth,Pattonville Prairiland,84.01,158.76,106.59,170.1,435.45,Single-ply,SBD,M
Boys,89.81,2,Jett Jordan,Longview Spring Hill,86.45,158.76,113.4,156.49,428.64,Single-ply,SBD,M
Boys,89.81,3,Caleb Wiley,Paris North Lamar,86.73,149.69,79.38,147.42,376.48,Single-ply,SBD,M
Boys,89.81,4,Carlos Martinez,Mount Pleasant,82.74,136.08,83.91,142.88,362.87,Single-ply,SBD,M
Boys,99.79,1,Andrew Turner,Mount Pleasant,97.7,238.14,154.22,244.94,637.3,Single-ply,SBD,M
Boys,99.79,2,Ethan Wickersham,Paris North Lamar,96.07,174.63,86.18,163.29,424.11,Single-ply,SBD,M
Boys,99.79,3,Tyler Woods,Paris Chisum,91.26,147.42,86.18,156.49,390.09,Single-ply,SBD,M
Boys,99.79,4,Ian Stewart,Simms Bowie,96.16,149.69,70.31,142.88,362.87,Single-ply,SBD,M
Boys,109.77,1,Brandon Halliday,Paris North Lamar,104.87,229.06,154.22,229.06,612.35,Single-ply,SBD,M
Boys,109.77,2,Ty Watts,Simms Bowie,103.24,201.85,106.59,192.78,501.22,Single-ply,SBD,M
Boys,109.77,3,Tanner Cornell,Longview Spring Hill,108.86,199.58,122.47,179.17,501.22,Single-ply,SBD,M
Boys,109.77,4,Joey Haley,Paris North Lamar,107.41,170.1,90.72,199.58,460.4,Single-ply,SBD,M
Boys,109.77,5,Brayden Yantes,Longview Spring Hill,104.69,165.56,113.4,151.95,430.91,Single-ply,SBD,M
Boys,109.77,6,Cade Blount,Longview Spring Hill,108.05,174.63,77.11,170.1,421.84,Single-ply,SBD,M
Boys,109.77,7,Antonio Zuniga,Longview Spring Hill,104.33,158.76,113.4,147.42,419.57,Single-ply,SBD,M
Boys,124.74,1,Brandon Meadows,Simms Bowie,120.11,183.7,115.67,197.31,496.68,Single-ply,SBD,M
Boys,124.74,2,Colton Chamberlin,Paris North Lamar,116.57,192.78,117.93,181.44,492.15,Single-ply,SBD,M
Boys,124.74,3,Lucas Stevenson,Simms Bowie,122.2,181.44,104.33,199.58,485.34,Single-ply,SBD,M
Boys,124.74,4,Riley Milner,Paris North Lamar,117.03,113.4,77.11,113.4,303.91,Single-ply,SBD,M
Boys,124.74,DQ,Denim McIntire,Paris Chisum,112.49,,,,,Single-ply,SBD,M
Boys,124.74+,1,Caleb Johnson,Mount Pleasant,141.97,219.99,138.35,219.99,578.33,Single-ply,SBD,M
Boys,124.74+,2,Colton Chandler,Longview Spring Hill,126.1,199.58,127.01,206.38,532.97,Single-ply,SBD,M
