Division,WeightClassKg,Place,Name,Team,BodyweightKg,Best3SquatKg,Best3BenchKg,Best3DeadliftKg,TotalKg,Equipment,Event,Sex
Boys,51.71,1,Albert de la Rosa,San Benito,51.62,156.49,102.06,167.83,426.38,Single-ply,SBD,M
Boys,51.71,2,Julian Ortega,Rio Hondo,51.62,154.22,88.45,165.56,408.23,Single-ply,SBD,M
Boys,51.71,3,Ramiro Mendez,Raymondville,51.53,124.74,70.31,149.69,344.73,Single-ply,SBD,M
Boys,59.87,1,Raul Mota,San Benito,55.97,172.37,111.13,199.58,483.08,Single-ply,SBD,M
Boys,55.79,2,Juan Rivera,Los Fresnos,55.34,142.88,122.47,190.51,455.86,Single-ply,SBD,M
Boys,59.87,3,Ralph Zapata,Rio Hondo,55.97,170.1,92.99,163.29,426.38,Single-ply,SBD,M
Boys,55.79,4,Rafael Mendoza,Santa Rosa,54.61,136.08,95.25,158.76,390.09,Single-ply,SBD,M
Boys,59.87,5,AJ Ramirez,Raymondville,55.97,124.74,83.91,142.88,351.53,Single-ply,SBD,M
Boys,55.79,6,Eli Saldana,Santa Rosa,54.79,117.93,86.18,136.08,340.19,Single-ply,SBD,M
Boys,55.79,7,Hugo Abarca,Lyford,55.34,127.01,68.04,145.15,340.19,Single-ply,SBD,M
Boys,55.79,8,Nathan Bently,Santa Rosa,55.34,117.93,61.23,127.01,306.17,Single-ply,SBD,M
Boys,55.79,DQ,Jesus Trevino,Zapata,55.16,,,,,Single-ply,SBD,M
Boys,59.87,1,Louis Vasquez,Los Fresnos,58.33,179.17,106.59,199.58,485.34,Single-ply,SBD,M
Boys,59.87,2,Adrian Torres,La Feria,58.97,165.56,86.18,170.1,421.84,Single-ply,SBD,M
Boys,59.87,3,Artemio Garcia,Zapata,59.78,145.15,95.25,156.49,396.89,Single-ply,SBD,M
Boys,59.87,4,Marty Capetillo,Lyford,59.51,156.49,86.18,145.15,387.82,Single-ply,SBD,M
Boys,59.87,5,David Nieto,Raymondville,59.6,133.81,90.72,151.95,376.48,Single-ply,SBD,M
Boys,59.87,6,Andres Martinez,Port Isabel,56.79,136.08,83.91,142.88,362.87,Single-ply,SBD,M
Boys,59.87,7,John Montes,Lyford,59.78,129.27,70.31,140.61,340.19,Single-ply,SBD,M
Boys,59.87,DQ,Joseph Esparaza,Lyford,57.97,131.54,,,,Single-ply,SBD,M
Boys,74.84,1,Julio Rodriguez,Raymondville,67.22,204.12,127.01,224.53,555.65,Single-ply,SBD,M
Boys,67.13,2,James Zaragoza,Raymondville,66.13,206.38,127.01,210.92,544.31,Single-ply,SBD,M
Boys,67.13,3,Toby Torres,San Benito,65.05,192.78,120.2,219.99,532.97,Single-ply,SBD,M
Boys,67.13,4,Alan Alfaro,Rio Hondo,66.68,197.31,117.93,215.46,530.7,Single-ply,SBD,M
Boys,67.13,5,Carlos Grimaldo,Brownsville Hanna,66.04,190.51,127.01,210.92,528.44,Single-ply,SBD,M
Boys,67.13,6,Heliseo Guerrero,Rio Hondo,63.96,170.1,113.4,199.58,483.08,Single-ply,SBD,M
Boys,74.84,7,Travis Ramos,Lyford,67.22,190.51,108.86,183.7,483.08,Single-ply,SBD,M
Boys,67.13,8,Julian Flores,Rio Hondo,64.5,179.17,117.93,183.7,480.81,Single-ply,SBD,M
Boys,67.13,9,Maclovio Gomez,Zapata,60.24,163.29,90.72,190.51,444.52,Single-ply,SBD,M
Boys,67.13,10,Albert Vasquez,La Feria,66.59,161.03,92.99,172.37,426.38,Single-ply,SBD,M
Boys,67.13,11,Mike Adameit,Lyford,66.95,145.15,81.65,149.69,376.48,Single-ply,SBD,M
Boys,67.13,12,Jose Saenz,Lyford,64.41,115.67,79.38,127.01,322.05,Single-ply,SBD,M
Boys,67.13,DQ,Jaime Gonzalez,Port Isabel,63.23,183.7,113.4,,,Single-ply,SBD,M
Boys,74.84,1,Jesse Leyva,Raymondville,73.66,247.21,131.54,226.8,605.55,Single-ply,SBD,M
Boys,74.84,2,Eliseo Garzoria,Los Fresnos,74.57,199.58,102.06,226.8,528.44,Single-ply,SBD,M
Boys,74.84,3,Joey Guzman,Rio Hondo,74.48,165.56,127.01,208.65,501.22,Single-ply,SBD,M
Boys,74.84,4,John Ray Martinez,Port Isabel,72.57,192.78,115.67,183.7,492.15,Single-ply,SBD,M
Boys,74.84,5,Roel Benitez,Rio Hondo,70.31,165.56,122.47,188.24,476.27,Single-ply,SBD,M
Boys,74.84,6,José Castillo #6,Santa Rosa,72.39,154.22,97.52,165.56,417.3,Single-ply,SBD,M
Boys,74.84,7,Christopher Olivarez,La Feria,69.49,147.42,88.45,158.76,394.63,Single-ply,SBD,M
Boys,74.84,8,Dylan Thomas,Raymondville,69.22,124.74,70.31,163.29,358.34,Single-ply,SBD,M
Boys,74.84,9,Daniel Caldora,La Villa,71.49,142.88,70.31,142.88,356.07,Single-ply,SBD,M
Boys,82.1,10,Brandon Lara,San Benito,75.02,86.18,68.04,115.67,269.89,Single-ply,SBD,M
Boys,74.84,DQ,Wally Olivarez,Santa Rosa,74.84,,,,,Single-ply,SBD,M
Boys,82.1,1,Adan Cantu,Rio Grande City Grulla,79.38,249.48,136.08,206.38,591.94,Single-ply,SBD,M
Boys,82.1,2,Abram Ramirez,Rio Hondo,80.47,219.99,142.88,219.99,582.87,Single-ply,SBD,M
Boys,82.1,3,Freddy de la Garza,Brownsville Hanna,77.29,204.12,142.88,204.12,551.11,Single-ply,SBD,M
Boys,82.1,4,Trey Saldana,San Benito,81.01,188.24,138.35,224.53,551.11,Single-ply,SBD,M
Boys,82.1,5,Miguel Galvan,Alto,79.83,176.9,113.4,163.29,453.59,Single-ply,SBD,M
Boys,82.1,6,Frank Saucedo,Santa Rosa,81.19,154.22,104.33,154.22,412.77,Single-ply,SBD,M
Boys,82.1,7,Ramiro Cantu,La Villa,79.29,163.29,102.06,138.35,403.7,Single-ply,SBD,M
Boys,82.1,DQ,Bobby Medina,Brownsville Hanna,81.37,154.22,,,,Single-ply,SBD,M
Boys,82.1,DQ,Christian Badillo,Santa Rosa,81.65,108.86,86.18,,,Single-ply,SBD,M
Boys,89.81,1,Ramon Sauceda,La Feria,87.82,290.3,190.51,263.08,743.89,Single-ply,SBD,M
Boys,89.81,2,Aaron Zapata,Los Fresnos,88.81,258.55,138.35,249.48,646.37,Single-ply,SBD,M
Boys,89.81,3,JJ Barrientes,Brownsville Hanna,87.09,254.01,158.76,222.26,635.03,Single-ply,SBD,M
Boys,89.81,4,Jonah Cepeda,Los Fresnos,89.27,254.01,131.54,231.33,616.89,Single-ply,SBD,M
Boys,89.81,5,Stephen Dorado,Rio Hondo,86.82,226.8,158.76,188.24,573.79,Single-ply,SBD,M
Boys,89.81,6,Isaiah Heredia,Rio Hondo,87,217.72,142.88,213.19,573.79,Single-ply,SBD,M
Boys,99.79,7,Marco Zuñiga,San Benito,89.99,233.6,111.13,229.06,573.79,Single-ply,SBD,M
Boys,89.81,8,Joel Elizondo,Zapata,82.55,208.65,147.42,181.44,537.51,Single-ply,SBD,M
Boys,89.81,9,Ricardo Guajardo,Raymondville,86.64,206.38,124.74,197.31,528.44,Single-ply,SBD,M
Boys,89.81,10,Omar Reyes,Alto,85.37,204.12,111.13,197.31,512.56,Single-ply,SBD,M
Boys,89.81,11,Brandon Carrialez,San Benito,86.09,192.78,117.93,199.58,510.29,Single-ply,SBD,M
Boys,89.81,12,Elijah Aguilar,San Benito,86.91,149.69,113.4,161.03,424.11,Single-ply,SBD,M
Boys,89.81,13,JJ Castillo,Santa Rosa,85.82,117.93,86.18,136.08,340.19,Single-ply,SBD,M
Boys,99.79,1,Lalo Buenrostro,San Benito,97.34,229.06,131.54,235.87,596.47,Single-ply,SBD,M
Boys,99.79,2,Israel Torres,La Feria,97.7,219.99,138.35,210.92,569.26,Single-ply,SBD,M
Boys,99.79,3,Ricky Rodriguez,San Benito,99.25,213.19,136.08,215.46,564.72,Single-ply,SBD,M
Boys,99.79,4,Marcos Puga,Zapata,93.35,181.44,102.06,204.12,487.61,Single-ply,SBD,M
Boys,99.79,5,Matthew Felix,La Villa,92.44,167.83,124.74,147.42,439.98,Single-ply,SBD,M
Boys,99.79,6,Victor Garza,Santa Rosa,94.98,167.83,86.18,156.49,410.5,Single-ply,SBD,M
Boys,99.79,7,Austin Rodriguez,Lyford,92.17,151.95,97.52,131.54,381.02,Single-ply,SBD,M
Boys,99.79,DQ,Jose de la Cruz #2,Rio Grande City Grulla,99.79,244.94,149.69,,,Single-ply,SBD,M
Boys,109.77,1,Steven Rodriguez,San Benito,101.6,231.33,154.22,254.01,639.57,Single-ply,SBD,M
Boys,109.77,2,Caleb Robertson,Rio Hondo,107.14,272.16,136.08,222.26,630.49,Single-ply,SBD,M
Boys,109.77,3,Marco Gutierrez,La Feria,103.06,247.21,151.95,217.72,616.89,Single-ply,SBD,M
Boys,124.74,4,Jaylon Grimaldo,Raymondville,109.95,247.21,115.67,208.65,571.53,Single-ply,SBD,M
Boys,109.77,5,Mattias Bazan,Rio Grande City Grulla,100.52,181.44,127.01,192.78,501.22,Single-ply,SBD,M
Boys,109.77,6,Peyton Ruiz,Los Fresnos,107.86,136.08,74.84,124.74,335.66,Single-ply,SBD,M
Boys,109.77,DQ,Silvestre Bustemante,Zapata,108.86,,,,,Single-ply,SBD,M
Boys,124.74,1,Bobby Gonzalez,Raymondville,116.94,365.14,226.8,274.42,866.36,Single-ply,SBD,M
Boys,124.74,2,Robert Cervantes,Raymondville,114.49,281.23,154.22,226.8,662.24,Single-ply,SBD,M
Boys,124.74,3,Gonzalo Alegria,La Feria,119.93,283.5,127.01,226.8,637.3,Single-ply,SBD,M
Boys,124.74,4,Nazario Garza,Rio Grande City Grulla,120.47,242.67,149.69,219.99,612.35,Single-ply,SBD,M
Boys,124.74,5,Hugo Martinez,Zapata,120.56,251.74,111.13,226.8,589.67,Single-ply,SBD,M
Boys,124.74,6,Justin Vela,Lyford,118.84,195.04,104.33,183.7,483.08,Single-ply,SBD,M
Boys,124.74,7,Robert De Leon,Lyford,111.67,197.31,106.59,165.56,469.47,Single-ply,SBD,M
Boys,124.74,8,Francisco Hernandez,Port Isabel,118.12,181.44,108.86,149.69,439.98,Single-ply,SBD,M
Boys,124.74,DQ,Alexis Rangel #1,Brownsville Hanna,110.13,222.26,,,,Single-ply,SBD,M
Boys,124.74+,1,John Reyes,Rio Hondo,143.61,317.51,183.7,249.48,750.7,Single-ply,SBD,M
Boys,124.74+,2,Eduardo Sanchez,Zapata,143.15,281.23,192.78,256.28,730.28,Single-ply,SBD,M
Boys,124.74+,3,Francisco Moreno #1,Zapata,133.54,322.05,140.61,242.67,705.34,Single-ply,SBD,M
Boys,124.74+,4,Mario DeLeon,La Feria,136.08,272.16,163.29,224.53,659.98,Single-ply,SBD,M
Boys,124.74+,5,Mando Ruvio,Rio Hondo,127.46,226.8,133.81,204.12,564.72,Single-ply,SBD,M
Boys,124.74+,6,Brandon Lee Sanchez,Los Fresnos,151.5,183.7,113.4,174.63,471.74,Single-ply,SBD,M
Boys,124.74+,7,Brandon Sanchez,Los Fresnos,125.46,165.56,83.91,183.7,433.18,Single-ply,SBD,M
Boys,124.74+,DQ,Joe Rodriguez,Alto,127.46,219.99,,,,Single-ply,SBD,M
Boys,124.74+,DQ,Manuel Navarro,Zapata,125.46,,,,,Single-ply,SBD,M
