Division,WeightClassKg,Place,Name,Team,BodyweightKg,Best3SquatKg,Best3BenchKg,Best3DeadliftKg,TotalKg,Equipment,Event,Sex
Boys,51.71,1,Brazos Gibson,Axtell,50.44,106.59,43.09,104.33,254.01,Single-ply,SBD,M
Boys,55.79,1,Diego Rivera,Mexia,53.61,183.7,108.86,170.1,462.66,Single-ply,SBD,M
Boys,55.79,2,Eduardo Perez,Venus,54.25,158.76,81.65,163.29,403.7,Single-ply,SBD,M
Boys,55.79,3,Alex Schaefer,Venus,54.98,147.42,74.84,163.29,385.55,Single-ply,SBD,M
Boys,55.79,DQ,Zach Callaway,Whitney,55.79,115.67,,,,Single-ply,SBD,M
Boys,59.87,1,Fausto Rodriguez,West,58.69,188.24,104.33,181.44,474,Single-ply,SBD,M
Boys,59.87,2,Sean Busby,Teague,59.06,165.56,79.38,161.03,405.97,Single-ply,SBD,M
Boys,59.87,3,Reece Walker,Dawson,59.6,131.54,79.38,145.15,356.07,Single-ply,SBD,M
Boys,59.87,4,Ricardo Garcia,Mexia,59.33,129.27,68.04,151.95,349.27,Single-ply,SBD,M
Boys,59.87,5,Scott Fox,Robinson,59.69,111.13,68.04,131.54,310.71,Single-ply,SBD,M
Boys,59.87,DQ,Adam Elkins,Dawson,57.52,,,,,Single-ply,SBD,M
Boys,67.13,1,Dillon Daniel,Crawford,66.86,208.65,111.13,197.31,517.1,Single-ply,SBD,M
Boys,67.13,2,Will Ferlet,Dawson,66.95,170.1,113.4,179.17,462.66,Single-ply,SBD,M
Boys,67.13,3,Alex Reynoso,West,63.14,163.29,99.79,188.24,451.32,Single-ply,SBD,M
Boys,67.13,4,Chase Kirby,Dawson,60.96,172.37,97.52,174.63,444.52,Single-ply,SBD,M
Boys,67.13,5,Israel Castillo,Venus,67.13,181.44,81.65,179.17,442.25,Single-ply,SBD,M
Boys,67.13,6,Kameron Sisson,Whitney,65.77,161.03,83.91,165.56,410.5,Single-ply,SBD,M
Boys,67.13,7,Michah Thompson,Teague,63.05,147.42,77.11,147.42,371.95,Single-ply,SBD,M
Boys,67.13,8,Ricardo Alvarez,Alvarado,62.51,136.08,72.57,127.01,335.66,Single-ply,SBD,M
Boys,67.13,9,Cameron Buck,Venus,62.78,124.74,65.77,136.08,326.59,Single-ply,SBD,M
Boys,67.13,10,Colton Sutton,Venus,65.86,122.47,56.7,136.08,315.25,Single-ply,SBD,M
Boys,67.13,11,David Lopez,West,65.41,108.86,58.97,117.93,285.76,Single-ply,SBD,M
Boys,74.84,1,Nathan Gerik,West,73.75,208.65,122.47,206.38,537.51,Single-ply,SBD,M
Boys,74.84,2,Emanuel Silva,Venus,73.03,213.19,104.33,199.58,517.1,Single-ply,SBD,M
Boys,74.84,3,Austin Sauceda,Axtell,68.86,176.9,113.4,185.97,476.27,Single-ply,SBD,M
Boys,74.84,4,Mariano Perez,West,73.84,188.24,104.33,176.9,469.47,Single-ply,SBD,M
Boys,74.84,5,Azaya Patrick,Teague,74.57,181.44,92.99,179.17,453.59,Single-ply,SBD,M
Boys,74.84,6,Logan Sauer,Robinson,72.94,158.76,83.91,142.88,385.55,Single-ply,SBD,M
Boys,74.84,7,Robert Kammerer,Dawson,68.22,124.74,83.91,158.76,367.41,Single-ply,SBD,M
Boys,74.84,8,Omero Arrioga,Teague,74.84,136.08,70.31,142.88,349.27,Single-ply,SBD,M
Boys,74.84,9,Danny Rowe,Alvarado,73.3,129.27,95.25,117.93,342.46,Single-ply,SBD,M
Boys,74.84,10,Trevor Farris,Teague,72.39,133.81,68.04,117.93,319.78,Single-ply,SBD,M
Boys,74.84,11,Austin Thompson,Alvarado,73.48,113.4,74.84,122.47,310.71,Single-ply,SBD,M
Boys,82.1,1,Michael Rodriguez #7,Axtell,79.47,249.48,122.47,267.62,639.57,Single-ply,SBD,M
Boys,82.1,2,Nathan Vick,Teague,81.1,199.58,154.22,204.12,557.92,Single-ply,SBD,M
Boys,82.1,3,Ben Roberson,Robinson,81.01,195.04,117.93,204.12,517.1,Single-ply,SBD,M
Boys,82.1,4,Ryan Hilty,Whitney,80.65,188.24,104.33,204.12,496.68,Single-ply,SBD,M
Boys,82.1,5,Kalon Heim,Venus,80.56,181.44,97.52,210.92,489.88,Single-ply,SBD,M
Boys,82.1,6,Dalton Baker,West,77.93,183.7,113.4,188.24,485.34,Single-ply,SBD,M
Boys,82.1,7,Dylan Martin,Wortham,82.1,165.56,79.38,199.58,444.52,Single-ply,SBD,M
Boys,82.1,8,Logan Pendley,Venus,82.1,165.56,97.52,165.56,428.64,Single-ply,SBD,M
Boys,82.1,9,Cooper Wagenschein,Robinson,78.02,163.29,86.18,170.1,419.57,Single-ply,SBD,M
Boys,82.1,10,Dylan Roudebush,Alvarado,78.65,151.95,104.33,158.76,415.04,Single-ply,SBD,M
Boys,82.1,11,Nolan Underwood,Venus,77.75,149.69,86.18,158.76,394.63,Single-ply,SBD,M
Boys,82.1,12,Cordell Grant,Crawford,79.47,147.42,86.18,145.15,378.75,Single-ply,SBD,M
Boys,82.1,13,Dalton Wagenschein,Robinson,79.29,149.69,70.31,149.69,369.68,Single-ply,SBD,M
Boys,82.1,DQ,Griffen Fallwell,Whitney,76.2,131.54,,,,Single-ply,SBD,M
Boys,82.1,DQ,Cameron Woodard,Whitney,77.47,,,,,Single-ply,SBD,M
Boys,89.81,1,Jose Alcantar,Venus,85.28,213.19,108.86,210.92,532.97,Single-ply,SBD,M
Boys,89.81,2,Tanner Mitchell,Crawford,89.36,204.12,106.59,204.12,514.83,Single-ply,SBD,M
Boys,89.81,3,Koby Smith,Crawford,86.55,190.51,124.74,185.97,501.22,Single-ply,SBD,M
Boys,89.81,4,Lance Bracco,Crawford,88,188.24,117.93,188.24,494.42,Single-ply,SBD,M
Boys,89.81,5,Dayton Kunkel,Alvarado,84.19,174.63,131.54,174.63,480.81,Single-ply,SBD,M
Boys,89.81,6,Isiah Bell,Teague,89.63,192.78,104.33,183.7,480.81,Single-ply,SBD,M
Boys,89.81,7,Landry Bruce,Crawford,87.63,181.44,83.91,158.76,424.11,Single-ply,SBD,M
Boys,89.81,8,Tyson Boen,Robinson,88.09,158.76,79.38,154.22,392.36,Single-ply,SBD,M
Boys,89.81,9,Michael Gabrielsen,Robinson,89.09,151.95,81.65,147.42,381.02,Single-ply,SBD,M
Boys,89.81,10,Brayan Luna,Mexia,86.36,147.42,58.97,158.76,365.14,Single-ply,SBD,M
Boys,89.81,11,Xavier Webb,Alvarado,89.81,138.35,83.91,142.88,365.14,Single-ply,SBD,M
Boys,89.81,12,Jorge Diaz,Teague,85.82,136.08,79.38,140.61,356.07,Single-ply,SBD,M
Boys,89.81,13,Jared Maler,West,84.55,129.27,72.57,120.2,322.05,Single-ply,SBD,M
Boys,89.81,DQ,Aaron Harralson,West,88.36,206.38,,,,Single-ply,SBD,M
Boys,89.81,DQ,Rainey Guthrie,Whitney,89.81,129.27,,,,Single-ply,SBD,M
Boys,89.81,DQ,Justin Bowers,Normangee,87.18,90.72,,,,Single-ply,SBD,M
Boys,99.79,1,Erick Marton,Axtell,99.79,258.55,151.95,267.62,678.12,Single-ply,SBD,M
Boys,99.79,2,Guadalupe Silva,Venus,97.89,222.26,142.88,226.8,591.94,Single-ply,SBD,M
Boys,99.79,3,Grant Cook,Alvarado,97.79,213.19,138.35,226.8,578.33,Single-ply,SBD,M
Boys,99.79,4,Daniel Fraire,West,97.7,244.94,149.69,167.83,562.45,Single-ply,SBD,M
Boys,99.79,5,EJ Salazar,Wortham,97.43,183.7,92.99,179.17,455.86,Single-ply,SBD,M
Boys,99.79,6,Zane Gurrera,Dawson,93.17,176.9,86.18,165.56,428.64,Single-ply,SBD,M
Boys,99.79,7,Chaas Firth,Whitney,93.89,161.03,79.38,181.44,421.84,Single-ply,SBD,M
Boys,99.79,8,Colton Mccoloskey,Mexia,99.43,142.88,92.99,131.54,367.41,Single-ply,SBD,M
Boys,109.77,1,Will Worrell,Crawford,103.51,226.8,111.13,199.58,537.51,Single-ply,SBD,M
Boys,109.77,2,Jordan Rios,Mexia,105.6,226.8,115.67,185.97,528.44,Single-ply,SBD,M
Boys,109.77,3,Anthony Banda,Normangee,108.05,195.04,108.86,204.12,508.02,Single-ply,SBD,M
Boys,109.77,4,Logan Salisbury,Wortham,106.59,174.63,133.81,192.78,501.22,Single-ply,SBD,M
Boys,109.77,5,Shemar Richardson,Dawson,102.15,161.03,102.06,127.01,390.09,Single-ply,SBD,M
Boys,109.77,6,Jayden Arthur,Alvarado,105.87,142.88,81.65,158.76,383.29,Single-ply,SBD,M
Boys,109.77,7,Austin Breest,Normangee,103.51,131.54,74.84,142.88,349.27,Single-ply,SBD,M
Boys,124.74,1,Seth Kohlscheen,Crawford,121.29,260.82,133.81,226.8,621.42,Single-ply,SBD,M
Boys,124.74,2,Jeran Gallimore,Robinson,119.48,226.8,131.54,215.46,573.79,Single-ply,SBD,M
Boys,124.74,3,Joe Fallwell,Whitney,111.13,188.24,136.08,226.8,551.11,Single-ply,SBD,M
Boys,124.74,4,Daniel Wilde-Berry,Robinson,110.77,217.72,113.4,192.78,523.9,Single-ply,SBD,M
Boys,124.74,5,Dakota Greer,Dawson,111.86,215.46,117.93,165.56,498.95,Single-ply,SBD,M
Boys,124.74,6,Trey Guzman,Alvarado,115.12,151.95,122.47,147.42,421.84,Single-ply,SBD,M
Boys,124.74+,1,David Garcia,Alvarado,145.69,288.03,226.8,256.28,771.11,Single-ply,SBD,M
Boys,124.74+,2,Trederek Anglin,Mexia,138.35,226.8,172.37,231.33,630.49,Single-ply,SBD,M
Boys,,NS,Matthew Freeman,Venus,,,,,,Single-ply,SBD,M
Boys,,NS,Kolbee Lee,Normangee,,,,,,Single-ply,SBD,M
Boys,,NS,Andrew Lambert,Normangee,,,,,,Single-ply,SBD,M
Boys,,NS,Dalton Sandlin,Wortham,,,,,,Single-ply,SBD,M
Boys,,NS,Clayton Munster,Wortham,,,,,,Single-ply,SBD,M
Boys,,NS,Hunter Payne,Normangee,,,,,,Single-ply,SBD,M
Boys,,NS,Landry Heller,Mexia,,,,,,Single-ply,SBD,M
Boys,,NS,Corey Horn,Mexia,,,,,,Single-ply,SBD,M
Boys,,NS,Peyton Alvey,Alvarado,,,,,,Single-ply,SBD,M
