Place,Sex,Name,CyrillicName,BodyweightKg,Squat1Kg,Squat2Kg,Squat3Kg,Best3SquatKg,Squat4Kg,Bench1Kg,Bench2Kg,Bench3Kg,Best3BenchKg,Bench4Kg,Deadlift1Kg,Deadlift2Kg,Deadlift3Kg,Best3DeadliftKg,Deadlift4Kg,TotalKg,WeightClassKg,Event,Equipment,Tested,Division,Age,BirthDate
1,F,Lyudmila Mesecha,Людмила Месеча,46.85,57.5,-62.5,-62.5,57.5,,35,40,45,45,,75,82.5,-90,82.5,,185,48,SBD,Raw,Yes,Amateur Open,25,1994-05-20
1,F,Kristina Vorobyova,Кристина Воробьёва,51,55,-60,-60,55,,40,-45,45,45,,75,85,-100,85,,185,52,SBD,Raw,Yes,Amateur Teen 14-16,16,2003-01-13
1,F,Galina Elchina,Галина Ельчина,52,80,-90,90,90,,45,50,52.5,52.5,,110,-120,-120,110,,252.5,52,SBD,Raw,Yes,Amateur Open,51,1968-06-08
1,F,Anna Pakhorukova,Анна Пахорукова,58.8,-85,-90,90,90,,-60,-65,65,65,,120,-127.5,,120,,275,60,SBD,Raw,Yes,Amateur Masters 40-49,40,1979-06-26
1,M,Roman Sidorov,Роман Сидоров,39.35,40,50,-55,50,,25,30,35,35,,50,60,67.5,67.5,,152.5,52,SBD,Raw,Yes,Youth,13,2006-07-14
1,M,Sergey Poboykin,Сергей Побойкин,67,170,-175,175,175,,140,145,-150,145,,190,200,210,210,,530,67.5,SBD,Raw,Yes,Amateur Open,30,1989-03-10
2,M,Nikolay Emelyanov,Николай Емельянов,67.1,100,120,-130,120,,80,90,-92.5,90,,140,-160,160,160,,370,67.5,SBD,Raw,Yes,Amateur Open,55,1963-12-30
1,M,Nikolay Emelyanov,Николай Емельянов,67.1,100,120,-130,120,,80,90,-92.5,90,,140,-160,160,160,,370,67.5,SBD,Raw,Yes,Amateur Masters 50-59,55,1963-12-30
1,M,Danil Balakhnin,Данил Балахнин,74.3,-130,140,-150,140,,80,-85,-85,80,,150,165,170,170,,390,75,SBD,Raw,Yes,Amateur Sub-Juniors 17-19,17,2002-09-13
DQ,M,Takhir Salimov,Тахир Салимов,73.3,-115,-120,-135,,,,,,,,,,,,,,75,SBD,Raw,Yes,Amateur Juniors 20-23,23,1996-04-23
1,M,Pavel Knyazev,Павел Князев,80.5,130,140,150,150,-157.5,100,107.5,112.5,112.5,,140,150,155,155,162.5,417.5,82.5,SBD,Raw,Yes,Amateur Teen 14-16,15,2004-01-14
1,M,Egor Utochkin,Егор Уточкин,77.9,-120,120,135,135,,-80,80,-82.5,80,,190,200,-205,200,,415,82.5,SBD,Raw,Yes,Amateur Sub-Juniors 17-19,17,2001-12-22
1,M,Artem Dadyko,Артем Дадыко,81.5,140,145,-155,145,,95,-100,100,100,,150,160,-170,160,,405,82.5,SBD,Raw,Yes,Amateur Juniors 20-23,20,1998-12-22
1,M,Kirill Shelpakov,Кирилл Шелпаков,80.8,150,160,-170,160,,145,150,-152.5,150,,160,180,-190,180,,490,82.5,SBD,Raw,Yes,Amateur Open,27,1992-11-05
1,M,Kirill Fomenko,Кирилл Фоменко,82.8,135,145,-150,145,,100,105,-110,105,,160,170,175,175,,425,90,SBD,Raw,Yes,Amateur Sub-Juniors 17-19,18,2001-09-10
1,M,Vladislav Bliznyuk,Владислав Близнюк,85.3,200,212.5,225,225,,130,140,145,145,,240,250,-257.5,250,,620,90,SBD,Raw,Yes,Amateur Juniors 20-23,21,1998-03-03
2,M,Aleksandr Borovkov,Александр Боровков,87.4,140,150,-160,150,,100,105,112.5,112.5,,155,170,-175,170,,432.5,90,SBD,Raw,Yes,Amateur Juniors 20-23,23,1995-12-26
1,M,Andrey Zinov,Андрей Зинов,87.9,160,170,180,180,,110,120,-127.5,120,,220,230,-235,230,,530,90,SBD,Raw,Yes,Amateur Open,24,1995-07-03
1,M,Danil Belkin,Данил Белкин,96.7,-150,160,-170,160,,90,95,102.5,102.5,,-200,210,-220,210,,472.5,100,SBD,Raw,Yes,Amateur Sub-Juniors 17-19,18,2001-08-23
1,M,Yuriy Bobrov,Юрий Бобров,100,150,160,170,170,,120,130,-135,130,,170,185,-200,185,,485,100,SBD,Raw,Yes,Amateur Open,28,1991-09-07
1,M,Andrey Cheremnov,Андрей Черемнов,109.4,250,-260,-260,250,,160,170,-175,170,,-265,265,-280,265,,685,110,SBD,Raw,Yes,Amateur Open,31,1987-12-14
1,M,Nikolay Efanov,Николай Ефанов,89,185,-202.5,205,205,,130,140,145,145,,210,230,240,240,,590,90,SBD,Raw,No,Pro Masters 60-69,61,1958-07-10
1,M,Arseniy Aliev,Арсений Алиев,107.4,240,250,-260,250,,160,-170,170,170,,250,270,-280,270,,690,110,SBD,Raw,No,Pro Open,26,1993-06-05
1,M,Dmitriy Kolomov,Дмитрий Коломов,89.2,-260,260,-270,260,,145,152.5,157.5,157.5,,-285,-285,285,285,,702.5,90,SBD,Wraps,Yes,Amateur Open,23,1996-07-02
1,M,Roman Shimolin,Роман Шимолин,102.5,220,240,-265,240,,140,150,-160,150,,280,-290,-290,280,,670,110,SBD,Wraps,Yes,Amateur Open,29,1990-07-26
1,M,Sergey Irkitov,Сергей Иркитов,72.7,190,205,210,210,,120,127.5,132.5,132.5,,180,-190,-190,180,,522.5,75,SBD,Wraps,No,Pro Open,24,1995-05-29
1,M,Andrey Khomenko,Андрей Хоменко,116.7,230,245,260,260,,140,155,165,165,,250,270,-280,270,,695,125,SBD,Wraps,No,Pro Juniors 20-23,23,1996-09-14
1,F,Lyubov Mamedova,Любовь Мамедова,49.2,,,,,,57.5,-60,60,60,,,,,,,60,52,B,Raw,Yes,Amateur Sub-Juniors 17-19,18,2001-08-07
1,F,Mariya Yudina,Мария Юдина,50,,,,,,62.5,67.5,70,70,,,,,,,70,52,B,Raw,Yes,Amateur Open,32,1987-06-12
2,F,Lyubov Mamedova,Любовь Мамедова,49.2,,,,,,57.5,-60,60,60,,,,,,,60,52,B,Raw,Yes,Amateur Open,18,2001-08-07
1,F,Svetlana Chernova,Светлана Чернова,58.8,,,,,,65,70,72.5,72.5,,,,,,,72.5,60,B,Raw,Yes,Amateur Teen 14-16,16,2003-06-05
1,M,Ivan Zhukovskiy,Иван Жуковский,64,,,,,,-120,126,-130,126,,,,,,,126,67.5,B,Raw,Yes,Amateur Sub-Juniors 17-19,19,1999-12-03
1,M,Sergey Poboykin,Сергей Побойкин,67,,,,,,140,145,-150,145,,,,,,,145,67.5,B,Raw,Yes,Amateur Open,30,1989-03-10
1,M,Danila Nemirskiy,Данила Немирский,72,,,,,,-120,120,-130,120,,,,,,,120,75,B,Raw,Yes,Amateur Juniors 20-23,21,1998-11-26
1,M,Pavel Knyazev,Павел Князев,80.5,,,,,,100,107.5,112.5,112.5,,,,,,,112.5,82.5,B,Raw,Yes,Amateur Teen 14-16,15,2004-01-14
1,M,Maksim Ovcharenko,Максим Овчаренко,80.1,,,,,,140,145,150,150,,,,,,,150,82.5,B,Raw,Yes,Amateur Open,37,1982-05-12
2,M,Kirill Shelpakov,Кирилл Шелпаков,80.8,,,,,,145,150,-152.5,150,,,,,,,150,82.5,B,Raw,Yes,Amateur Open,27,1992-11-05
3,M,Andrey Anitssov,Андрей Аницсов,78.5,,,,,,95,105,107.5,107.5,,,,,,,107.5,82.5,B,Raw,Yes,Amateur Open,29,1990-09-21
1,M,Leonid Aleksandrov,Леонид Александров,81.5,,,,,,150,155,160,160,,,,,,,160,82.5,B,Raw,Yes,Amateur Masters 40-49,48,1971-07-15
1,M,Sergey Dubtsov,Сергей Дубцов,83.4,,,,,,140,-145,-145,140,,,,,,,140,90,B,Raw,Yes,Amateur Juniors 20-23,21,1998-01-09
1,M,Aleksandr Leonenko,Александр Леоненко,89,,,,,,170,-175,175,175,,,,,,,175,90,B,Raw,Yes,Amateur Open,27,1992-02-25
2,M,Vyacheslav Nikolaev,Вячеслав Николаев,89.6,,,,,,145,-150,-150,145,,,,,,,145,90,B,Raw,Yes,Amateur Open,63,1956-07-10
1,M,Aleksandr Ponomarev,Александр Пономарев,89,,,,,,152.5,-157.5,-157.5,152.5,,,,,,,152.5,90,B,Raw,Yes,Amateur Masters 40-49,43,1976-11-14
1,M,Vyacheslav Nikolaev,Вячеслав Николаев,89.6,,,,,,145,-150,-150,145,,,,,,,145,90,B,Raw,Yes,Amateur Masters 60-69,63,1956-07-10
1,M,Vyacheslav Starikov,Вячеслав Стариков,107.8,,,,,,162.5,-167.5,167.5,167.5,,,,,,,167.5,110,B,Raw,Yes,Amateur Open,29,1990-08-04
1,M,Aleksey Bokarev,Алексей Бокарев,116.4,,,,,,170,175,-180,175,,,,,,,175,125,B,Raw,Yes,Amateur Open,28,1991-09-10
1,F,Anna Vishnyak,Анна Вишняк,51.9,,,,,,100,-107.5,107.5,107.5,-113,,,,,,107.5,52,B,Raw,No,Pro Open,34,1984-12-12
1,M,Denis Romanov,Денис Романов,99,,,,,,205,-210,-210,205,,,,,,,205,100,B,Raw,No,Pro Open,25,1994-04-24
2,M,Aleksandr Chernikov,Александр Черников,99,,,,,,170,-177.5,180,180,,,,,,,180,100,B,Raw,No,Pro Open,32,1987-08-17
1,M,Andrey Fokeev,Андрей Фокеев,93.1,,,,,,135,140,-145,140,,,,,,,140,100,B,Raw,No,Pro Masters 50-59,57,1962-10-20
1,M,Roman Kuryanov,Роман Курьянов,109.4,,,,,,190,-195,-195,190,,,,,,,190,110,B,Raw,No,Pro Open,26,1993-07-20
2,M,Aleksandr Berlo,Александр Берло,101.4,,,,,,175,180,-190,180,,,,,,,180,110,B,Raw,No,Pro Open,43,1976-01-06
1,M,Aleksandr Berlo,Александр Берло,101.4,,,,,,175,180,-190,180,,,,,,,180,110,B,Raw,No,Pro Masters 40-49,43,1976-01-06
1,M,Aleksandr Shestunov,Александр Шестунов,119,,,,,,200,210,215,215,,,,,,,215,125,B,Raw,No,Pro Open,38,1981-04-03
1,M,Artem Bykhovets,Артём Быховец,88.9,,,,,,230,240,-247.5,240,,,,,,,240,90,B,Single-ply,No,Pro Open,36,1983-07-19
2,M,Andrey Cherepanov,Андрей Черепанов,89.5,,,,,,215,-225,-225,215,,,,,,,215,90,B,Single-ply,No,Pro Open,39,1980-04-16
1,M,Evgeniy Aralov,Евгений Аралов,73.2,,,,,,170,180,190,190,,,,,,,190,75,B,Single-ply,Yes,Amateur Open,37,1982-03-04
1,M,Aleksandr Ponomarev,Александр Пономарев,89.4,,,,,,207.5,217.5,-222.5,217.5,,,,,,,217.5,90,B,Single-ply,Yes,Amateur Open,43,1976-11-14
1,M,Aleksandr Ponomarev,Александр Пономарев,89.4,,,,,,207.5,217.5,-222.5,217.5,,,,,,,217.5,90,B,Single-ply,Yes,Amateur Masters 40-49,43,1976-11-14
1,F,Anna Vishnyak,Анна Вишняк,51.9,,,,,,140,150,-160,150,,,,,,,150,52,B,Single-ply,No,Pro Open,34,1984-12-12
1,M,Evgeniy Aralov,Евгений Аралов,73.2,,,,,,170,180,190,190,,,,,,,190,75,B,Single-ply,No,Pro Open,37,1982-03-04
1,F,Lyudmila Mesecha,Людмила Месеча,46.85,,,,,,,,,,,75,82.5,-90,82.5,,82.5,48,D,Raw,Yes,Amateur Open,25,1994-05-20
1,F,Galina Elchina,Галина Ельчина,52,,,,,,,,,,,110,-120,-120,110,,110,52,D,Raw,Yes,Amateur Open,51,1968-06-08
1,F,Mariya Kalyak,Мария Кальяк,65.6,,,,,,,,,,,110,-122.5,122.5,122.5,,122.5,67.5,D,Raw,Yes,Amateur Open,34,1985-04-25
1,M,Takhir Salimov,Тахир Салимов,73.3,,,,,,,,,,,-180,185,-200,185,,185,75,D,Raw,Yes,Amateur Juniors 20-23,23,1996-04-23
DQ,M,Aleksandr Ivanov,Александр Иванов,74.9,,,,,,,,,,,-202.5,-202.5,-207.5,,,,75,D,Raw,Yes,Amateur Open,29,1990-05-05
1,M,Pavel Knyazev,Павел Князев,80.5,,,,,,,,,,,140,150,155,155,162.5,155,82.5,D,Raw,Yes,Amateur Teen 14-16,15,2004-01-14
1,M,Artem Dadyko,Артем Дадыко,81.5,,,,,,,,,,,150,160,-170,160,,160,82.5,D,Raw,Yes,Amateur Juniors 20-23,20,1998-12-22
1,M,Kirill Fomenko,Кирилл Фоменко,82.8,,,,,,,,,,,160,170,175,175,,175,90,D,Raw,Yes,Amateur Sub-Juniors 17-19,18,2001-09-10
1,M,Dmitriy Kolomov,Дмитрий Коломов,89.2,,,,,,,,,,,-285,-285,285,285,,285,90,D,Raw,Yes,Amateur Open,23,1996-07-02
2,M,Sergey Polosin,Сергей Полосин,87,,,,,,,,,,,260,270,-277.5,270,,270,90,D,Raw,Yes,Amateur Open,36,1983-09-27
1,M,Artur Kobets,Артур Кобец,106.9,,,,,,,,,,,190,210,,210,,210,110,D,Raw,Yes,Amateur Masters 50-59,52,1967-06-10
1,M,Pavel Storozhenko,Павел Стороженко,74.9,,,,,,,,,,,272.5,280,-285,280,,280,75,D,Raw,No,Pro Open,30,1989-01-28
1,M,Mikhail Chernyaev,Михаил Черняев,81,,,,,,,,,,,240,-260,-260,240,,240,82.5,D,Raw,No,Pro Masters 40-49,44,1975-05-09
1,M,Eduard Vorobev,Эдуард Воробьев,86.7,,,,,,,,,,,200,215,-222.5,215,,215,90,D,Raw,No,Pro Sub-Juniors 17-19,18,2001-04-20
1,M,Oleg Lagunov,Олег Лагунов,96.1,,,,,,,,,,,255,272.5,282.5,282.5,,282.5,100,D,Raw,No,Pro Open,52,1967-03-05
1,M,Oleg Lagunov,Олег Лагунов,96.1,,,,,,,,,,,255,272.5,282.5,282.5,,282.5,100,D,Raw,No,Pro Masters 50-59,52,1967-03-05
