Division,WeightClassKg,Place,Name,Team,BodyweightKg,Best3SquatKg,Best3BenchKg,Best3DeadliftKg,TotalKg,Equipment,Event,Sex
Boys,51.71,1,Cole Johnson,Colmesneil,51.71,127.01,58.97,145.15,331.12,Single-ply,SBD,M
Boys,51.71,2,Tristan Stanley,Kountze,48.72,95.25,56.7,117.93,269.89,Single-ply,SBD,M
Boys,51.71,3,Jay Dubois,Kountze,47.26,38.56,36.29,70.31,145.15,Single-ply,SBD,M
Boys,59.87,1,Mason Carmello,Colmesneil,59.69,136.08,92.99,158.76,387.82,Single-ply,SBD,M
Boys,59.87,2,Colten Smith,Kountze,56.61,145.15,65.77,165.56,376.48,Single-ply,SBD,M
Boys,74.84,1,Ryan Laqua,Warren,67.31,151.95,108.86,176.9,437.72,Single-ply,SBD,M
Boys,67.13,2,Brandon Calhoun,Hardin,61.69,151.95,90.72,142.88,385.55,Single-ply,SBD,M
Boys,67.13,DQ,Hayden Cambell,Kountze,60.33,129.27,,,,Single-ply,SBD,M
Boys,67.13,DQ,Charlie Kappelman,Kountze,67.04,,,,,Single-ply,SBD,M
Boys,74.84,1,Isiah Owens,Kountze,72.57,199.58,102.06,185.97,487.61,Single-ply,SBD,M
Boys,74.84,2,Hunter Johnson,Hardin,69.85,138.35,79.38,138.35,356.07,Single-ply,SBD,M
Boys,74.84,3,Coby West,Hardin,73.94,124.74,72.57,149.69,347,Single-ply,SBD,M
Boys,74.84,4,Richard Barnes,Colmesneil,73.75,99.79,81.65,129.27,310.71,Single-ply,SBD,M
Boys,74.84,5,Hunter LeBlanc,Colmesneil,74.48,99.79,56.7,99.79,256.28,Single-ply,SBD,M
Boys,74.84,NS,Parker Lambright,Warren,,,,,,Single-ply,SBD,M
Boys,74.84,DQ,Dalton Davis #2,Colmesneil,69.22,147.42,92.99,,,Single-ply,SBD,M
Boys,82.1,1,Cody Walsh,Colmesneil,81.28,190.51,129.27,208.65,528.44,Single-ply,SBD,M
Boys,82.1,2,Ashton Whittle,Kountze,78.02,172.37,113.4,195.04,480.81,Single-ply,SBD,M
Boys,82.1,3,Shaquille Warren,Kountze,79.56,151.95,102.06,199.58,453.59,Single-ply,SBD,M
Boys,82.1,4,Hollis Read,Warren,76.84,129.27,97.52,163.29,390.09,Single-ply,SBD,M
Boys,82.1,5,Robert Bumstead,Kountze,80.74,133.81,79.38,165.56,378.75,Single-ply,SBD,M
Boys,82.1,6,Jeremy Kojack,Warren,80.83,122.47,83.91,136.08,342.46,Single-ply,SBD,M
Boys,82.1,DQ,Zane Drake,Hardin,81.19,161.03,68.04,,,Single-ply,SBD,M
Boys,82.1,DQ,Zach Bryan,Colmesneil,78.83,,77.11,,,Single-ply,SBD,M
Boys,89.81,1,Caleb Crittenden,Warren,85.46,199.58,136.08,210.92,546.58,Single-ply,SBD,M
Boys,89.81,2,Tyler Cutrer,Colmesneil,87.82,213.19,115.67,181.44,510.29,Single-ply,SBD,M
Boys,89.81,3,Michael Joines,Kountze,87.63,201.85,97.52,179.17,478.54,Single-ply,SBD,M
Boys,89.81,4,Keilan Jones,Kountze,83.37,145.15,102.06,176.9,424.11,Single-ply,SBD,M
Boys,89.81,5,Chris Thedford,Colmesneil,88.54,145.15,95.25,183.7,424.11,Single-ply,SBD,M
Boys,89.81,6,Chance McGallion,Warren,88.45,133.81,97.52,163.29,394.63,Single-ply,SBD,M
Boys,89.81,NS,Rodney Fawcett,Colmesneil,,131.54,72.57,,,Single-ply,SBD,M
Boys,99.79,1,Ernest Hafford,Kountze,95.8,226.8,133.81,254.01,614.62,Single-ply,SBD,M
Boys,99.79,2,Brody Taylor,Hardin,97.52,192.78,122.47,172.37,487.61,Single-ply,SBD,M
Boys,99.79,3,James Bottley,Kountze,90.17,129.27,104.33,183.7,417.3,Single-ply,SBD,M
Boys,99.79,4,Hunter McGallion,Warren,91.81,136.08,102.06,165.56,403.7,Single-ply,SBD,M
Boys,99.79,5,Carson Farmer,Hardin,95.71,129.27,102.06,149.69,381.02,Single-ply,SBD,M
Boys,99.79,6,Chase Johnson,Kountze,99.79,106.59,65.77,129.27,301.64,Single-ply,SBD,M
Boys,99.79,NS,Carl Parker,Colmesneil,,165.56,120.2,,,Single-ply,SBD,M
Boys,99.79,NS,Doug Sanchez,Colmesneil,,,,,,Single-ply,SBD,M
Boys,99.79,DQ,Dustin McKee,Colmesneil,93.71,,72.57,,,Single-ply,SBD,M
Boys,124.74,1,Josh Chevalier,Kountze,109.95,170.1,115.67,167.83,453.59,Single-ply,SBD,M
Boys,109.77,2,Hayden Langston,Colmesneil,103.69,154.22,111.13,149.69,415.04,Single-ply,SBD,M
Boys,109.77,3,David Brohawn,Hardin,108.41,145.15,72.57,172.37,390.09,Single-ply,SBD,M
Boys,109.77,4,Jermaine Poncho,Warren,106.5,142.88,83.91,161.03,387.82,Single-ply,SBD,M
Boys,124.74,1,Gayland Steubing,Warren,122.2,204.12,120.2,199.58,523.9,Single-ply,SBD,M
Boys,124.74,2,Josh Leader,Hardin,116.12,190.51,108.86,154.22,453.59,Single-ply,SBD,M
Boys,124.74,3,Glenn Brown,Colmesneil,112.4,127.01,72.57,136.08,335.66,Single-ply,SBD,M
Boys,124.74+,1,Lj Randolph,Hardin,125.19,242.67,104.33,197.31,544.31,Single-ply,SBD,M
Boys,124.74+,2,Michael Evans,Warren,131.27,181.44,129.27,192.78,503.49,Single-ply,SBD,M
Boys,124.74+,3,Caleb Darby,Kountze,130.73,181.44,97.52,181.44,460.4,Single-ply,SBD,M
Boys,,NS,Austin Nowlin,Colmesneil,,,,,,Single-ply,SBD,M
Boys,,NS,Cameron Burns,Colmesneil,,,,,,Single-ply,SBD,M
Boys,,NS,Harrison Brown,Colmesneil,,,,,,Single-ply,SBD,M
Boys,,NS,Kaleb Lindsay,Colmesneil,,,,,,Single-ply,SBD,M
Boys,,NS,Matt Bailey,Colmesneil,,,,,,Single-ply,SBD,M
Boys,,NS,Waylon Whitley,Colmesneil,,,,,,Single-ply,SBD,M
Boys,,NS,Logan Hoy,Kountze,,,,,,Single-ply,SBD,M
