Division,WeightClassKg,Place,Name,Team,BodyweightKg,Best3SquatKg,Best3BenchKg,Best3DeadliftKg,TotalKg,Equipment,Event,Sex
Boys,51.71,1,Istvan Castilleja,Buda Hays,49.8,129.27,74.84,129.27,333.39,Single-ply,SBD,M
Boys,51.71,2,Nate Garza,Georgetown,50.26,124.74,65.77,131.54,322.05,Single-ply,SBD,M
Boys,51.71,3,Rudy Pina,Del Valle,49.08,102.06,68.04,120.2,290.3,Single-ply,SBD,M
Boys,51.71,4,Isaiah Martinez,Kyle Lehman,50.26,97.52,61.23,102.06,260.82,Single-ply,SBD,M
Boys,55.79,1,Jacob Vasquez,Kyle Lehman,55.52,154.22,65.77,158.76,378.75,Single-ply,SBD,M
Boys,55.79,2,Robert Norega,Manor,51.89,124.74,65.77,136.08,326.59,Single-ply,SBD,M
Boys,55.79,3,Isaac Trejo,San Marcos,55.79,111.13,74.84,129.27,315.25,Single-ply,SBD,M
Boys,55.79,4,Colton Caswell,Buda Hays,53.8,95.25,54.43,108.86,258.55,Single-ply,SBD,M
Boys,59.87,1,Therrance Soto,San Marcos,59.06,158.76,86.18,190.51,435.45,Single-ply,SBD,M
Boys,59.87,2,Luke Merchant,San Marcos,59.15,149.69,90.72,163.29,403.7,Single-ply,SBD,M
Boys,59.87,3,Marc Anthony Govea,Del Valle,58.79,129.27,79.38,170.1,378.75,Single-ply,SBD,M
Boys,59.87,4,Angel Longoria,Kyle Lehman,59.15,142.88,65.77,133.81,342.46,Single-ply,SBD,M
Boys,59.87,5,Chris Guerrero,Del Valle,56.79,120.2,68.04,142.88,331.12,Single-ply,SBD,M
Boys,59.87,6,Isaac Edwards,Manor,57.15,102.06,61.23,149.69,312.98,Single-ply,SBD,M
Boys,67.13,1,Jason Leal,Buda Hays,65.59,165.56,102.06,176.9,444.52,Single-ply,SBD,M
Boys,67.13,2,Daniel Santana,San Marcos,63.05,151.95,86.18,165.56,403.7,Single-ply,SBD,M
Boys,67.13,3,Caleb Thomas,Buda Hays,66.86,138.35,90.72,136.08,365.14,Single-ply,SBD,M
Boys,67.13,4,Bar Htoo,Manor,64.5,129.27,65.77,142.88,337.93,Single-ply,SBD,M
Boys,67.13,DQ,Declan Trevathan,Buda Hays,65.95,138.35,,,,Single-ply,SBD,M
Boys,74.84,1,Christian Caballero,San Marcos,73.75,170.1,106.59,188.24,464.93,Single-ply,SBD,M
Boys,74.84,2,Brodrick Phillips,Buda Hays,73.57,174.63,97.52,183.7,455.86,Single-ply,SBD,M
Boys,74.84,3,Christian Alvarez,San Marcos,72.03,156.49,99.79,183.7,439.98,Single-ply,SBD,M
Boys,74.84,4,Charles Easy,Manor,71.4,158.76,92.99,183.7,435.45,Single-ply,SBD,M
Boys,74.84,5,Marcua Oliva,Lockhart,67.77,136.08,111.13,170.1,417.3,Single-ply,SBD,M
Boys,74.84,6,Travion Walker,Manor,74.48,158.76,83.91,174.63,417.3,Single-ply,SBD,M
Boys,74.84,7,Evan O'Berg,Universal City Randolph,71.3,158.76,83.91,167.83,410.5,Single-ply,SBD,M
Boys,74.84,8,Levonte Benford,Manor,68.76,136.08,77.11,154.22,367.41,Single-ply,SBD,M
Boys,74.84,9,Jesau Batres,Lockhart,68.49,142.88,77.11,136.08,356.07,Single-ply,SBD,M
Boys,74.84,10,Jabrion White,Manor,69.49,124.74,63.5,149.69,337.93,Single-ply,SBD,M
Boys,74.84,11,Dylan Basham,San Marcos,71.4,124.74,79.38,129.27,333.39,Single-ply,SBD,M
Boys,74.84,12,Jose Palomino,Del Valle,67.86,115.67,79.38,136.08,331.12,Single-ply,SBD,M
Boys,74.84,13,Charles Walker,Geronimo Navarro,74.66,92.99,74.84,120.2,288.03,Single-ply,SBD,M
Boys,74.84,14,Landon Felton,Del Valle,71.94,104.33,65.77,108.86,278.96,Single-ply,SBD,M
Boys,74.84,DQ,Gerald Hill,Del Valle,74.84,,,,,Single-ply,SBD,M
Boys,74.84,DQ,Danny Villanueva,Kyle Lehman,67.31,154.22,,,,Single-ply,SBD,M
Boys,82.1,1,Chris Aguirre,Buda Hays,81.83,215.46,113.4,210.92,539.77,Single-ply,SBD,M
Boys,82.1,2,Devin Norman,Lockhart,79.47,197.31,127.01,210.92,535.24,Single-ply,SBD,M
Boys,82.1,3,Victor Torres,Kyle Lehman,81.19,192.78,129.27,181.44,503.49,Single-ply,SBD,M
Boys,82.1,4,Isreal Romero,San Marcos,81.37,170.1,120.2,195.04,485.34,Single-ply,SBD,M
Boys,82.1,5,Trvian Trapp,Universal City Randolph,82.1,154.22,108.86,204.12,467.2,Single-ply,SBD,M
Boys,82.1,6,Dennis Belema,Del Valle,81.37,158.76,106.59,199.58,464.93,Single-ply,SBD,M
Boys,82.1,7,Ethan Thomas,Geronimo Navarro,80.29,165.56,102.06,183.7,451.32,Single-ply,SBD,M
Boys,82.1,8,Abron Ortiz,Geronimo Navarro,81.19,172.37,102.06,149.69,424.11,Single-ply,SBD,M
Boys,82.1,9,Bryce Hood,Buda Hays,80.2,156.49,104.33,151.95,412.77,Single-ply,SBD,M
Boys,82.1,10,Aaren Casillas,Lockhart,79.83,149.69,79.38,170.1,399.16,Single-ply,SBD,M
Boys,82.1,11,Coreyon Chester,Manor,82.1,142.88,102.06,154.22,399.16,Single-ply,SBD,M
Boys,82.1,12,Daniel Kiyuna,Kyle Lehman,76.84,142.88,77.11,176.9,396.89,Single-ply,SBD,M
Boys,82.1,13,Caleb Sosa,Kyle Lehman,80.83,145.15,90.72,158.76,394.63,Single-ply,SBD,M
Boys,82.1,14,Tristan Birch,Lockhart,77.38,129.27,102.06,158.76,390.09,Single-ply,SBD,M
Boys,82.1,15,Ezekiel Campos,Geronimo Navarro,74.93,124.74,79.38,129.27,333.39,Single-ply,SBD,M
Boys,82.1,DQ,Brian Holmes,Geronimo Navarro,79.47,115.67,,,,Single-ply,SBD,M
Boys,82.1,DQ,Michael Salazar,San Marcos,77.75,142.88,117.93,,,Single-ply,SBD,M
Boys,89.81,1,Jacob Trujillo,Universal City Randolph,89.54,213.19,127.01,195.04,535.24,Single-ply,SBD,M
Boys,89.81,2,Gabriel Rodriguez,Kyle Lehman,83.91,190.51,129.27,206.38,526.17,Single-ply,SBD,M
Boys,89.81,3,Courtney Lee #1,Manor,84.1,197.31,102.06,208.65,508.02,Single-ply,SBD,M
Boys,89.81,4,Jason Iwabuchi,Buda Hays,86.91,163.29,90.72,167.83,421.84,Single-ply,SBD,M
Boys,89.81,5,Cole Booker,Geronimo Navarro,88,124.74,79.38,151.95,356.07,Single-ply,SBD,M
Boys,89.81,6,Matt Hill,Manor,84.37,124.74,68.04,154.22,347,Single-ply,SBD,M
Boys,89.81,DQ,Daniel Figueroa,Buda Hays,85.91,163.29,,,,Single-ply,SBD,M
Boys,99.79,1,Ryan Leal,Buda Hays,97.89,272.16,163.29,231.33,666.78,Single-ply,SBD,M
Boys,99.79,2,David Mata,Georgetown,94.08,238.14,136.08,204.12,578.33,Single-ply,SBD,M
Boys,99.79,3,Seth Sanchez,Kyle Lehman,94.26,199.58,131.54,233.6,564.72,Single-ply,SBD,M
Boys,99.79,4,Nick Williams,Buda Hays,94.8,229.06,113.4,183.7,526.17,Single-ply,SBD,M
Boys,99.79,5,Landen Brown,Lockhart,89.99,190.51,117.93,192.78,501.22,Single-ply,SBD,M
Boys,99.79,6,Tajha Brooks,Manor,95.8,190.51,102.06,208.65,501.22,Single-ply,SBD,M
Boys,99.79,7,Adam Palomares,Buda Hays,97.61,201.85,111.13,183.7,496.68,Single-ply,SBD,M
Boys,99.79,8,Jaden Maturey,Universal City Randolph,97.25,170.1,97.52,199.58,467.2,Single-ply,SBD,M
Boys,99.79,9,Michael Cespedes,Universal City Randolph,91.9,161.03,83.91,140.61,385.55,Single-ply,SBD,M
Boys,99.79,10,John Gilbert,Geronimo Navarro,98.52,133.81,79.38,158.76,371.95,Single-ply,SBD,M
Boys,99.79,11,Jacob Dahlke,Geronimo Navarro,94.26,102.06,81.65,113.4,297.1,Single-ply,SBD,M
Boys,109.77,1,Olisa Uzuegbunam,Manor,105.14,249.48,149.69,226.8,625.96,Single-ply,SBD,M
Boys,109.77,2,Ochaun Mathis,Manor,101.33,204.12,133.81,249.48,587.4,Single-ply,SBD,M
Boys,109.77,3,David Sillero,Lockhart,107.95,192.78,145.15,183.7,521.63,Single-ply,SBD,M
Boys,109.77,4,Cameron Wilkins,Del Valle,104.14,181.44,124.74,192.78,498.95,Single-ply,SBD,M
Boys,109.77,5,Brandon Rangel,San Marcos,104.42,176.9,106.59,185.97,469.47,Single-ply,SBD,M
Boys,109.77,6,John Sanchez #5,San Marcos,107.95,165.56,102.06,172.37,439.98,Single-ply,SBD,M
Boys,109.77,7,Deshaw Borders,Universal City Randolph,102.42,170.1,90.72,158.76,419.57,Single-ply,SBD,M
Boys,109.77,8,Jonathan Luna,Universal City Randolph,107.23,149.69,97.52,154.22,401.43,Single-ply,SBD,M
Boys,109.77,9,Justin Burnett,Buda Hays,101.15,129.27,68.04,158.76,356.07,Single-ply,SBD,M
Boys,109.77,10,Ty Thornton,Manor,104.33,113.4,90.72,142.88,347,Single-ply,SBD,M
Boys,124.74,1,Zion Petty,Lockhart,121.83,226.8,170.1,222.26,619.15,Single-ply,SBD,M
Boys,124.74,2,Joshua Torres,Del Valle,111.77,185.97,104.33,176.9,467.2,Single-ply,SBD,M
Boys,124.74,3,Joshua Jett,Georgetown,109.95,147.42,106.59,163.29,417.3,Single-ply,SBD,M
Boys,124.74,4,Bryan Vasquez,Del Valle,113.49,120.2,104.33,183.7,408.23,Single-ply,SBD,M
Boys,124.74,5,Daniel Reyes,Kyle Lehman,110.68,136.08,88.45,145.15,369.68,Single-ply,SBD,M
Boys,124.74+,1,Jeremy Wills,Lockhart,186.34,244.94,156.49,215.46,616.89,Single-ply,SBD,M
Boys,124.74+,2,Scale Igiehon,Del Valle,154.67,215.46,140.61,226.8,582.87,Single-ply,SBD,M
Boys,124.74+,3,Sergio Hernandez,Geronimo Navarro,145.42,195.04,122.47,165.56,483.08,Single-ply,SBD,M
Boys,124.74+,4,Carter Holtkamp,Geronimo Navarro,128.09,129.27,102.06,147.42,378.75,Single-ply,SBD,M
