Division,WeightClassKg,Place,Name,Team,BodyweightKg,Best3SquatKg,Best3BenchKg,Best3DeadliftKg,TotalKg,Equipment,Event,Sex
Boys,51.71,1,JaQuanye Lyons,Midland Lee,51.26,79.38,61.23,113.4,254.01,Single-ply,SBD,M
Boys,51.71,2,Austin Perkins,Abilene Cooper,47.26,70.31,52.16,90.72,213.19,Single-ply,SBD,M
Boys,55.79,3,Dylan Logan,Abilene Cooper,51.94,83.91,43.09,83.91,210.92,Single-ply,SBD,M
Boys,51.71,4,Fox Talamantes,Abilene,40.91,72.57,38.56,70.31,181.44,Single-ply,SBD,M
Boys,55.79,1,Jonathan Michaels,Tuscola Jim Ned,55.79,124.74,90.72,131.54,347,Single-ply,SBD,M
Boys,55.79,2,Andrew Flores,Abilene,55.34,108.86,72.57,117.93,299.37,Single-ply,SBD,M
Boys,55.79,3,Ben Lantrip,Tuscola Jim Ned,55.79,111.13,54.43,129.27,294.84,Single-ply,SBD,M
Boys,55.79,4,Devan Glover,Midland Lee,55.34,88.45,52.16,120.2,260.82,Single-ply,SBD,M
Boys,55.79,5,Austyn Deal,Clyde,54.43,88.45,56.7,83.91,229.06,Single-ply,SBD,M
Boys,55.79,DQ,Gilbert Borrego,Merkel,53.52,,,,,Single-ply,SBD,M
Boys,59.87,1,Jonathon Rodriguez,Abilene Cooper,57.15,129.27,79.38,147.42,356.07,Single-ply,SBD,M
Boys,59.87,2,Christian Alexander,Tuscola Jim Ned,59.42,136.08,83.91,136.08,356.07,Single-ply,SBD,M
Boys,59.87,3,Drew Votaw,Merkel,57.61,124.74,74.84,127.01,326.59,Single-ply,SBD,M
Boys,67.13,1,Elijah Revilla,Abilene Cooper,65.86,156.49,104.33,174.63,435.45,Single-ply,SBD,M
Boys,74.84,2,Matthew Fisher,Tuscola Jim Ned,67.36,154.22,97.52,163.29,415.04,Single-ply,SBD,M
Boys,67.13,3,Peyton Polston,Tuscola Jim Ned,63.5,142.88,102.06,163.29,408.23,Single-ply,SBD,M
Boys,67.13,4,Julio Calderon,Abilene Cooper,66.95,129.27,83.91,158.76,371.95,Single-ply,SBD,M
Boys,67.13,5,Gavin Hill,Anson,64.41,133.81,79.38,142.88,356.07,Single-ply,SBD,M
Boys,67.13,6,Chase Hicks,Clyde,64.86,133.81,79.38,138.35,351.53,Single-ply,SBD,M
Boys,67.13,7,Tristan Wegener,Anson,66.68,115.67,79.38,138.35,333.39,Single-ply,SBD,M
Boys,67.13,8,Dawson Wendt,Clyde,63.5,104.33,68.04,117.93,290.3,Single-ply,SBD,M
Boys,67.13,9,Tristan Crabb,Clyde,66.68,83.91,56.7,102.06,242.67,Single-ply,SBD,M
Boys,74.84,1,Kneeland Donnelly,Hawley,72.35,249.48,142.88,226.8,619.15,Single-ply,SBD,M
Boys,74.84,2,Dante Gomez,Clyde,74.84,208.65,117.93,188.24,514.83,Single-ply,SBD,M
Boys,74.84,3,Mark Robles,Abilene Cooper,70.81,183.7,104.33,190.51,478.54,Single-ply,SBD,M
Boys,82.1,4,Alex De La Rosa,Abilene Cooper,75.07,158.76,122.47,170.1,451.32,Single-ply,SBD,M
Boys,74.84,5,Christian Farrell,Hawley,72.12,188.24,83.91,158.76,430.91,Single-ply,SBD,M
Boys,74.84,6,Cody Lewis,Abilene,71.67,136.08,111.13,154.22,401.43,Single-ply,SBD,M
Boys,74.84,7,Joseph Rees,Tuscola Jim Ned,73.48,142.88,74.84,167.83,385.55,Single-ply,SBD,M
Boys,74.84,8,Tatum Viney,Clyde,73.94,136.08,88.45,142.88,367.41,Single-ply,SBD,M
Boys,74.84,9,Dustin Moore,Anson,69.4,129.27,92.99,120.2,342.46,Single-ply,SBD,M
Boys,74.84,10,Chandler Smith,Tuscola Jim Ned,73.03,127.01,83.91,129.27,340.19,Single-ply,SBD,M
Boys,74.84,11,Ashton Akbar,Midland Lee,74.84,129.27,72.57,133.81,335.66,Single-ply,SBD,M
Boys,74.84,12,Malcolm Thompson,Merkel,71.67,129.27,74.84,124.74,328.85,Single-ply,SBD,M
Boys,74.84,13,Nathan Garver,Midland Lee,69.85,83.91,104.33,136.08,324.32,Single-ply,SBD,M
Boys,74.84,DQ,Matt Holmes,Merkel,73.94,,,,,Single-ply,SBD,M
Boys,82.1,1,Austin Rain,Clyde,78.93,204.12,104.33,204.12,512.56,Single-ply,SBD,M
Boys,82.1,2,Juan Burns,Hawley,81.65,204.12,113.4,183.7,501.22,Single-ply,SBD,M
Boys,82.1,3,DruMarcus Austin,Midland Lee,80.29,172.37,117.93,204.12,494.42,Single-ply,SBD,M
Boys,82.1,4,Landon Leschper,Anson,77.11,181.44,127.01,183.7,492.15,Single-ply,SBD,M
Boys,82.1,5,Tyler Gil,Abilene Cooper,81.74,167.83,127.01,190.51,485.34,Single-ply,SBD,M
Boys,82.1,6,Morgan Smith #9,Tuscola Jim Ned,77.56,174.63,104.33,174.63,453.59,Single-ply,SBD,M
Boys,82.1,7,Daniel Salazar,Abilene,81.19,185.97,122.47,142.88,451.32,Single-ply,SBD,M
Boys,82.1,8,Steven Ramirez,Midland Lee,76.2,154.22,106.59,161.03,421.84,Single-ply,SBD,M
Boys,82.1,9,Slade Little,Clyde,81.65,147.42,81.65,142.88,371.95,Single-ply,SBD,M
Boys,82.1,10,Actavius Lowry,Abilene Cooper,76.11,113.4,86.18,142.88,342.46,Single-ply,SBD,M
Boys,82.1,11,Austin Rogers,Clyde,76.66,122.47,72.57,140.61,335.66,Single-ply,SBD,M
Boys,82.1,12,Kenny Bonnett,Merkel,78.02,127.01,70.31,133.81,331.12,Single-ply,SBD,M
Boys,82.1,13,Dayton Mora,Abilene Cooper,78.2,113.4,74.84,142.88,331.12,Single-ply,SBD,M
Boys,82.1,14,Flavio Padilla,Clyde,78.93,120.2,83.91,124.74,328.85,Single-ply,SBD,M
Boys,89.81,15,Anthony Sifuentes,Abilene Cooper,82.28,120.2,90.72,113.4,324.32,Single-ply,SBD,M
Boys,82.1,DQ,Aric Ramzanali,Hawley,81.65,206.38,,,,Single-ply,SBD,M
Boys,89.81,1,Levi Irby,Hawley,86.18,288.03,158.76,242.67,689.46,Single-ply,SBD,M
Boys,89.81,2,Jon Matthews,Tuscola Jim Ned,89.81,161.03,95.25,190.51,446.79,Single-ply,SBD,M
Boys,89.81,3,Ryan Dean,Midland Lee,89.36,174.63,99.79,170.1,444.52,Single-ply,SBD,M
Boys,89.81,4,Paul Lowe,Abilene Cooper,86.27,176.9,113.4,142.88,433.18,Single-ply,SBD,M
Boys,89.81,5,Chris Carlin,Abilene,89.18,165.56,90.72,174.63,430.91,Single-ply,SBD,M
Boys,99.79,6,Caden Nall,Abilene Cooper,90.04,154.22,106.59,149.69,410.5,Single-ply,SBD,M
Boys,89.81,7,Andrew Purdun,Anson,89.36,133.81,86.18,133.81,353.8,Single-ply,SBD,M
Boys,89.81,8,Austin Borcik,Abilene,85.28,122.47,70.31,136.08,328.85,Single-ply,SBD,M
Boys,89.81,9,Adrian Guerrero,Abilene Cooper,88.81,106.59,86.18,131.54,324.32,Single-ply,SBD,M
Boys,89.81,10,Michael Martinez,Abilene,84.01,117.93,72.57,129.27,319.78,Single-ply,SBD,M
Boys,89.81,11,Pablo Garza,Anson,87.54,111.13,61.23,138.35,310.71,Single-ply,SBD,M
Boys,99.79,1,Lane Pickett,Hawley,93.44,242.67,124.74,215.46,582.87,Single-ply,SBD,M
Boys,99.79,2,Michael Woods,Merkel,98.43,229.06,120.2,210.92,560.19,Single-ply,SBD,M
Boys,99.79,3,Kyler Shy,Abilene Cooper,98.43,188.24,133.81,210.92,532.97,Single-ply,SBD,M
Boys,99.79,4,Damian Guevara,Abilene,95.71,204.12,124.74,188.24,517.1,Single-ply,SBD,M
Boys,99.79,5,Relundus Swann,Midland Lee,93.44,219.99,92.99,195.04,508.02,Single-ply,SBD,M
Boys,99.79,6,Drew Cumpton,Anson,93.89,188.24,102.06,195.04,485.34,Single-ply,SBD,M
Boys,99.79,7,Dj Davis,Hawley,93.44,192.78,113.4,158.76,464.93,Single-ply,SBD,M
Boys,99.79,8,Jacob Vines,Abilene Cooper,99.06,176.9,108.86,172.37,458.13,Single-ply,SBD,M
Boys,99.79,9,Brent Alexander,Abilene Cooper,98.43,158.76,104.33,170.1,433.18,Single-ply,SBD,M
Boys,99.79,10,Jonathon Arrieta,Anson,97.07,156.49,86.18,172.37,415.04,Single-ply,SBD,M
Boys,99.79,11,Slaten Hansen,Anson,91.17,142.88,95.25,167.83,405.97,Single-ply,SBD,M
Boys,99.79,12,Chris Norwood,Merkel,97.98,147.42,102.06,147.42,396.89,Single-ply,SBD,M
Boys,99.79,13,Will Peables,Abilene,93.71,156.49,88.45,149.69,394.63,Single-ply,SBD,M
Boys,99.79,14,Blake Parker,Abilene Cooper,95.53,147.42,111.13,111.13,369.68,Single-ply,SBD,M
Boys,109.77,1,Jordon Stokes,Clyde,102.06,235.87,158.76,249.48,644.1,Single-ply,SBD,M
Boys,109.77,2,Miguel Espinoza,Abilene,104.14,226.8,156.49,226.8,610.08,Single-ply,SBD,M
Boys,109.77,3,Oscar Valdez,Clyde,108.86,235.87,138.35,231.33,605.55,Single-ply,SBD,M
Boys,109.77,4,Haddan Stokes,Clyde,105.69,238.14,142.88,210.92,591.94,Single-ply,SBD,M
Boys,109.77,5,David Brown,Abilene,107.05,204.12,151.95,204.12,560.19,Single-ply,SBD,M
Boys,109.77,6,Dawson Worgull,Abilene,105.46,190.51,111.13,199.58,501.22,Single-ply,SBD,M
Boys,109.77,7,Brycen Homer,Abilene,109.77,185.97,115.67,183.7,485.34,Single-ply,SBD,M
Boys,109.77,8,Michael Taylor,Merkel,107.95,142.88,117.93,156.49,417.3,Single-ply,SBD,M
Boys,109.77,9,Robert Bellman,Abilene Cooper,101.06,156.49,102.06,154.22,412.77,Single-ply,SBD,M
Boys,109.77,10,John Adkins,Clyde,102.97,158.76,90.72,158.76,408.23,Single-ply,SBD,M
Boys,109.77,11,Noah Perez,Abilene,106.37,124.74,97.52,124.74,347,Single-ply,SBD,M
Boys,109.77,12,Jayton Voss,Abilene,105.69,124.74,65.77,113.4,303.91,Single-ply,SBD,M
Boys,124.74,1,Brock Thetford,Abilene,117.93,226.8,140.61,204.12,571.53,Single-ply,SBD,M
Boys,124.74,2,Tony Silva,Abilene,115.67,204.12,113.4,163.29,480.81,Single-ply,SBD,M
Boys,124.74,3,Slayde Anderson,Abilene,112.49,156.49,102.06,176.9,435.45,Single-ply,SBD,M
Boys,124.74,4,Walker Akers,Abilene Cooper,111.58,172.37,97.52,163.29,433.18,Single-ply,SBD,M
Boys,124.74,5,Ruben Leija,Abilene,120.66,158.76,90.72,163.29,412.77,Single-ply,SBD,M
Boys,124.74+,1,Conner Willis,Tuscola Jim Ned,133.81,233.6,136.08,204.12,573.79,Single-ply,SBD,M
Boys,124.74+,2,Ryan Burns,Hawley,144.24,195.04,142.88,215.46,553.38,Single-ply,SBD,M
Boys,124.74+,3,Jesus Verastegui,Abilene,138.62,206.38,127.01,195.04,528.44,Single-ply,SBD,M
Boys,124.74+,4,Patrick Hernandez,Midland Lee,143.34,170.1,95.25,154.22,419.57,Single-ply,SBD,M
Boys,124.74+,5,Arnaldo Gjocaj,Abilene Cooper,125.92,163.29,83.91,158.76,405.97,Single-ply,SBD,M
Boys,124.74+,6,Cody Harris,Anson,134.72,102.06,83.91,120.2,306.17,Single-ply,SBD,M
