Division,WeightClassKg,Place,Name,Team,BodyweightKg,Best3SquatKg,Best3BenchKg,Best3DeadliftKg,TotalKg,Equipment,Event,Sex
Boys,51.71,1,Davious Murrelle,Greenville,49.44,176.9,61.23,151.95,390.09,Single-ply,SBD,M
Boys,51.71,2,Deuntre Adamson,Paris,51.71,133.81,74.84,149.69,358.34,Single-ply,SBD,M
Boys,51.71,3,Carson Johnson,Paris,48.31,90.72,54.43,95.25,240.4,Single-ply,SBD,M
Boys,55.79,1,Keiotti Bray,Paris,55.43,176.9,120.2,181.44,478.54,Single-ply,SBD,M
Boys,55.79,2,Bryan Rodriguez,Greenville,53.52,131.54,70.31,140.61,342.46,Single-ply,SBD,M
Boys,55.79,3,Jaden Brown #1,Paris North Lamar,54.2,124.74,70.31,147.42,342.46,Single-ply,SBD,M
Boys,55.79,4,Jacob Vasquez,Leonard,54.66,106.59,56.7,117.93,281.23,Single-ply,SBD,M
Boys,55.79,5,Corbin Strain,Pattonville Prairiland,53.3,102.06,68.04,106.59,276.69,Single-ply,SBD,M
Boys,55.79,DQ,Bryson Lutz,Paris North Lamar,55.79,,,,,Single-ply,SBD,M
Boys,55.79,DQ,Kyle Stewart,Greenville,54.88,117.93,61.23,,,Single-ply,SBD,M
Boys,59.87,1,Cristian Contreras,Greenville,57.38,199.58,104.33,181.44,485.34,Single-ply,SBD,M
Boys,59.87,2,Wesley Gage,Paris,59.87,170.1,95.25,181.44,446.79,Single-ply,SBD,M
Boys,59.87,3,Blayce Lassiter,Paris North Lamar,56.47,156.49,74.84,151.95,383.29,Single-ply,SBD,M
Boys,59.87,4,Caleb Ashley,Paris Chisum,59.19,133.81,92.99,145.15,371.95,Single-ply,SBD,M
Boys,59.87,5,Abel Moreno,Pattonville Prairiland,58.97,136.08,65.77,138.35,340.19,Single-ply,SBD,M
Boys,59.87,6,Trey Shocklee,Leonard,58.06,115.67,72.57,136.08,324.32,Single-ply,SBD,M
Boys,59.87,7,Joel Ibarra,Paris Chisum,58.29,115.67,77.11,129.27,322.05,Single-ply,SBD,M
Boys,59.87,8,Kole Barrentine,Pattonville Prairiland,57.15,102.06,70.31,142.88,315.25,Single-ply,SBD,M
Boys,59.87,DQ,Josh Hathorn,Melissa,56.02,142.88,,,,Single-ply,SBD,M
Boys,59.87,DQ,Perry Simpson,Melissa,58.97,142.88,72.57,,,Single-ply,SBD,M
Boys,59.87,DQ,Daniel Landaverde,Mount Pleasant,58.74,,,,,Single-ply,SBD,M
Boys,59.87,DQ,David Nava,Mount Pleasant,59.87,,,,,Single-ply,SBD,M
Boys,67.13,1,Gage Dollins,Paris Chisum,65.77,199.58,124.74,204.12,528.44,Single-ply,SBD,M
Boys,67.13,2,Omar Villegas,Melissa,65.77,174.63,104.33,181.44,460.4,Single-ply,SBD,M
Boys,67.13,3,Carlos Netro,Mount Pleasant Chapel Hill,67.13,158.76,102.06,183.7,444.52,Single-ply,SBD,M
Boys,67.13,4,Bryce Evans,Paris North Lamar,67.13,163.29,92.99,163.29,419.57,Single-ply,SBD,M
Boys,67.13,5,Hayden Justice,Paris North Lamar,64.64,149.69,88.45,151.95,390.09,Single-ply,SBD,M
Boys,67.13,6,Zeb Garrett,Paris North Lamar,66.68,131.54,88.45,167.83,387.82,Single-ply,SBD,M
Boys,67.13,7,Montrel McCarty,Paris,66.59,133.81,90.72,151.95,376.48,Single-ply,SBD,M
Boys,67.13,8,TJ Nickerson,Paris,66.45,147.42,77.11,127.01,351.53,Single-ply,SBD,M
Boys,67.13,9,Alex Vaseleck,Mount Pleasant,63.96,131.54,54.43,142.88,328.85,Single-ply,SBD,M
Boys,67.13,10,Zane Phillips,Mount Pleasant,60.1,115.67,61.23,136.08,312.98,Single-ply,SBD,M
Boys,67.13,11,Kanon Tongson,Paris Chisum,61.23,115.67,65.77,122.47,303.91,Single-ply,SBD,M
Boys,67.13,DQ,Colton Danna,Pattonville Prairiland,67.13,,,,,Single-ply,SBD,M
Boys,67.13,DQ,Corbin Martin,Paris,63.05,131.54,,,,Single-ply,SBD,M
Boys,74.84,1,Andrew Magedson,Greenville,73.48,256.28,122.47,238.14,616.89,Single-ply,SBD,M
Boys,74.84,2,Wilson Kirkbride,Denison,69.17,226.8,115.67,231.33,573.79,Single-ply,SBD,M
Boys,74.84,3,Ty McFail,Denison,74.39,201.85,122.47,195.04,519.36,Single-ply,SBD,M
Boys,74.84,4,Billy Long,Ore City,74.84,199.58,120.2,195.04,514.83,Single-ply,SBD,M
Boys,74.84,5,Roberto Netro,Mount Pleasant Chapel Hill,73.71,183.7,115.67,204.12,503.49,Single-ply,SBD,M
Boys,74.84,6,Jason Baker,Melissa,71.44,188.24,88.45,167.83,444.52,Single-ply,SBD,M
Boys,74.84,7,Quay Porter,Paris,70.31,124.74,70.31,158.76,353.8,Single-ply,SBD,M
Boys,74.84,8,Karson Davis,Mount Pleasant Chapel Hill,73.94,124.74,56.7,156.49,337.93,Single-ply,SBD,M
Boys,74.84,DQ,Dustin Newman,Mount Pleasant Chapel Hill,71.89,115.67,83.91,,,Single-ply,SBD,M
Boys,82.1,1,Jaxon Hevron,Paris North Lamar,81.65,238.14,127.01,217.72,582.87,Single-ply,SBD,M
Boys,82.1,2,Aidan Straub,Bonham,80.74,226.8,108.86,210.92,546.58,Single-ply,SBD,M
Boys,82.1,3,Samual Martinez,Greenville,81.19,226.8,124.74,192.78,544.31,Single-ply,SBD,M
Boys,82.1,4,Trace Smith,Pattonville Prairiland,77.34,174.63,127.01,222.26,523.9,Single-ply,SBD,M
Boys,82.1,5,Javier Collins,Melissa,78.47,158.76,92.99,167.83,419.57,Single-ply,SBD,M
Boys,82.1,6,Trentyn Ortega,Paris Chisum,82.1,147.42,90.72,172.37,410.5,Single-ply,SBD,M
Boys,82.1,7,Braylon Brown,Melissa,76.88,167.83,86.18,147.42,401.43,Single-ply,SBD,M
Boys,82.1,8,Nathan Steck,Ore City,82.1,133.81,88.45,158.76,381.02,Single-ply,SBD,M
Boys,82.1,9,Jacob Isbell,Mount Pleasant Chapel Hill,75.52,124.74,70.31,158.76,353.8,Single-ply,SBD,M
Boys,82.1,DQ,Trevor Gilliam,Paris Chisum,80.06,115.67,,,,Single-ply,SBD,M
Boys,89.81,1,Morgan Landreth,Pattonville Prairiland,88.68,278.96,161.03,233.6,673.58,Single-ply,SBD,M
Boys,89.81,2,Tucker Moman,Greenville,87.77,235.87,120.2,249.48,605.55,Single-ply,SBD,M
Boys,89.81,3,Luke Porter,Bonham,88.22,215.46,127.01,199.58,542.04,Single-ply,SBD,M
Boys,89.81,4,Victor Enriquez,Greenville,89.36,235.87,113.4,190.51,539.77,Single-ply,SBD,M
Boys,89.81,5,Jonathan Woods,Mount Pleasant,83.91,181.44,106.59,172.37,460.4,Single-ply,SBD,M
Boys,89.81,6,José Cortés,Pattonville Prairiland,88.9,174.63,113.4,147.42,435.45,Single-ply,SBD,M
Boys,99.79,1,Hunter Moore,Paris North Lamar,92.99,249.48,145.15,233.6,628.23,Single-ply,SBD,M
Boys,99.79,2,Ja'Bray Young,Melissa,93.44,260.82,136.08,204.12,601.01,Single-ply,SBD,M
Boys,99.79,3,Ethan Ellis,Denison,90.49,181.44,104.33,199.58,485.34,Single-ply,SBD,M
Boys,99.79,4,Caleb Kroese,Melissa,93.44,197.31,92.99,192.78,483.08,Single-ply,SBD,M
Boys,99.79,5,Mason Doyle,Denison,98.43,151.95,92.99,181.44,426.38,Single-ply,SBD,M
Boys,99.79,6,Blake Mays,Mount Pleasant,98.2,149.69,95.25,158.76,403.7,Single-ply,SBD,M
Boys,99.79,7,Wesley Estes,Paris Chisum,90.72,120.2,88.45,122.47,331.12,Single-ply,SBD,M
Boys,99.79,8,Hunter Renfro,Paris North Lamar,94.57,167.83,83.91,,251.74,Single-ply,SB,M
Boys,109.77,1,Tony Cortez,Greenville,104.1,254.01,149.69,226.8,630.49,Single-ply,SBD,M
Boys,109.77,2,Drew Williams,Denison,109.32,238.14,149.69,204.12,591.94,Single-ply,SBD,M
Boys,109.77,3,Rico Simon,Greenville,103.87,260.82,124.74,204.12,589.67,Single-ply,SBD,M
Boys,109.77,4,George Lias,Mount Pleasant,103.87,244.94,117.93,215.46,578.33,Single-ply,SBD,M
Boys,109.77,5,Quin Dangerfield,Paris,107.73,204.12,140.61,199.58,544.31,Single-ply,SBD,M
Boys,109.77,6,Jashon Pogue,Mount Pleasant,109.09,181.44,120.2,226.8,528.44,Single-ply,SBD,M
Boys,109.77,7,Ian Lail,Mount Pleasant Chapel Hill,101.15,204.12,108.86,204.12,517.1,Single-ply,SBD,M
Boys,109.77,8,David Hart,Ore City,108.86,219.99,129.27,151.95,501.22,Single-ply,SBD,M
Boys,109.77,9,Ryan Riddle,Denison,105.69,174.63,136.08,188.24,498.95,Single-ply,SBD,M
Boys,109.77,10,Fernando Gutierrez,Ore City,100.7,215.46,111.13,156.49,483.08,Single-ply,SBD,M
Boys,109.77,11,Logan Hawkins,Paris Chisum,108.64,124.74,79.38,149.69,353.8,Single-ply,SBD,M
Boys,124.74,1,Joey Haley,Paris North Lamar,122.92,244.94,145.15,263.08,653.17,Single-ply,SBD,M
Boys,124.74,2,Kyle Brooks,Denison,123.6,238.14,145.15,222.26,605.55,Single-ply,SBD,M
Boys,124.74,3,Jose Conejo,Denison,113.4,195.04,136.08,190.51,521.63,Single-ply,SBD,M
Boys,124.74,4,Ivan Elizando,Mount Pleasant,112.49,192.78,102.06,195.04,489.88,Single-ply,SBD,M
Boys,124.74,5,Jonathan Reyes,Leonard,117.48,192.78,99.79,181.44,474,Single-ply,SBD,M
Boys,124.74,6,Garrett Bowen,Melissa,118.84,195.04,102.06,170.1,467.2,Single-ply,SBD,M
Boys,124.74,7,Devin Burton,Paris North Lamar,118.39,142.88,92.99,170.1,405.97,Single-ply,SBD,M
Boys,124.74,8,Luke Hohenberger,Paris North Lamar,114.08,147.42,77.11,136.08,360.61,Single-ply,SBD,M
Boys,124.74,DQ,Wes Brooks,Denison,117.03,183.7,,,,Single-ply,SBD,M
Boys,124.74,DQ,Dylan Smith #8,Mount Pleasant Chapel Hill,122.7,,,,,Single-ply,SBD,M
Boys,124.74+,1,Logan DeGarso,Greenville,145.6,294.84,154.22,226.8,675.85,Single-ply,SBD,M
Boys,124.74+,2,Brian Blackwell,Melissa,134.04,238.14,131.54,188.24,557.92,Single-ply,SBD,M
Boys,124.74+,3,Jaden Forbes,Denison,158.08,204.12,136.08,195.04,535.24,Single-ply,SBD,M
Boys,124.74+,4,Chris Wilson,Bonham,158.08,181.44,142.88,201.85,526.17,Single-ply,SBD,M
Boys,124.74+,5,Blake Denson,Mount Pleasant,130.86,208.65,117.93,195.04,521.63,Single-ply,SBD,M
Boys,124.74+,6,Kamron Rogers,Leonard,126.33,204.12,104.33,190.51,498.95,Single-ply,SBD,M
Boys,124.74+,7,Tyler Welborn,Mount Pleasant,146.06,185.97,104.33,190.51,480.81,Single-ply,SBD,M
Boys,124.74+,8,Colby McAdams,Leonard,140.16,190.51,113.4,167.83,471.74,Single-ply,SBD,M
Boys,124.74+,9,Riley Miner,Paris North Lamar,131.77,179.17,102.06,188.24,469.47,Single-ply,SBD,M
Boys,124.74+,10,Jesse Bullard,Ore City,131.77,156.49,117.93,156.49,430.91,Single-ply,SBD,M
Boys,124.74+,11,Bodee Robinson,Paris North Lamar,134.04,113.4,97.52,192.78,403.7,Single-ply,SBD,M
Boys,124.74+,12,Garrick Felsberg,Paris North Lamar,128.37,136.08,83.91,129.27,349.27,Single-ply,SBD,M
Boys,124.74+,DQ,Thomas Harris,Paris,146.51,,,,,Single-ply,SBD,M
