Division,WeightClassKg,Place,Name,Team,BodyweightKg,Best3SquatKg,Best3BenchKg,Best3DeadliftKg,TotalKg,Equipment,Event,Sex
Girls,44.23,1,Alex Villegas,Wylie East,42.27,102.06,49.9,108.86,260.82,Single-ply,SBD,F
Girls,44.23,2,Joseline Vega,Ferris,42.55,81.65,38.56,97.52,217.72,Single-ply,SBD,F
Girls,44.23,3,Ta'Niya Ferguson,Tyler Lee,39.64,29.48,20.41,52.16,102.06,Single-ply,SBD,F
Girls,47.85,1,Valerie Nguyen,Mabank,47.72,99.79,45.36,95.25,240.4,Single-ply,SBD,F
Girls,47.85,2,Madison Baugh,Canton,46.72,102.06,38.56,86.18,226.8,Single-ply,SBD,F
Girls,47.85,3,Aillissa West,Forney,45.63,92.99,34.02,97.52,224.53,Single-ply,SBD,F
Girls,47.85,4,Skyler Blodgett,Wylie East,46.81,79.38,36.29,99.79,215.46,Single-ply,SBD,F
Girls,47.85,5,Calley Treadway,Kaufman,46.27,88.45,34.02,88.45,210.92,Single-ply,SBD,F
Girls,47.85,6,Jocelyn Chavez,Ferris,44.72,79.38,29.48,88.45,197.31,Single-ply,SBD,F
Girls,51.94,1,Carmen Villarreal,Kemp,50.98,117.93,63.5,106.59,288.03,Single-ply,SBD,F
Girls,51.94,2,Carla Perez,Canton,50.35,111.13,47.63,115.67,274.42,Single-ply,SBD,F
Girls,51.94,3,Kristyn Hoffard,Wylie East,51.07,106.59,47.63,102.06,256.28,Single-ply,SBD,F
Girls,51.94,4,Calissa Birch,Mabank,51.89,102.06,49.9,99.79,251.74,Single-ply,SBD,F
Girls,51.94,5,Ananeisa Brantley,Kemp,49.8,102.06,45.36,99.79,247.21,Single-ply,SBD,F
Girls,51.94,6,Alexandria Canales,Royse City,51.71,97.52,38.56,104.33,240.4,Single-ply,SBD,F
Girls,51.94,7,Araceli Solis,Royse City,51.07,83.91,29.48,95.25,208.65,Single-ply,SBD,F
Girls,51.94,8,Beatriz Garcia,Waxahachie,49.53,86.18,34.02,79.38,199.58,Single-ply,SBD,F
Girls,51.94,DQ,Natalie Quezada,Kemp,50.98,,,,,Single-ply,SBD,F
Girls,56.02,1,Alicia Dennis,Kemp,55.61,147.42,74.84,136.08,358.34,Single-ply,SBD,F
Girls,56.02,2,Cambria Richmond,Mabank,55.61,117.93,54.43,111.13,283.5,Single-ply,SBD,F
Girls,56.02,3,Ashley Riffe,Canton,54.98,106.59,49.9,120.2,276.69,Single-ply,SBD,F
Girls,56.02,4,Jaylin Contreras,Kemp,55.07,115.67,54.43,104.33,274.42,Single-ply,SBD,F
Girls,56.02,5,Kaylee Boren,Mabank,55.52,97.52,52.16,124.74,274.42,Single-ply,SBD,F
Girls,56.02,6,Jordyn Watson,Forney,53.34,104.33,47.63,99.79,251.74,Single-ply,SBD,F
Girls,56.02,7,Alana Saunders,Waxahachie,54.88,86.18,43.09,92.99,222.26,Single-ply,SBD,F
Girls,56.02,8,Alesia Pinto,Royse City,55.07,77.11,34.02,102.06,213.19,Single-ply,SBD,F
Girls,56.02,9,Marlene Romero-Ramirez,Terrell,53.43,81.65,29.48,95.25,206.38,Single-ply,SBD,F
Girls,56.02,10,Karissa Breckle,Mabank,53.34,81.65,40.82,81.65,204.12,Single-ply,SBD,F
Girls,56.02,11,Zoie Starrett,Royse City,55.43,72.57,,,72.57,Single-ply,S,F
Girls,56.02,12,Marissa Ramirez,Terrell,55.43,56.7,,,56.7,Single-ply,S,F
Girls,60.1,1,Katy Williams,Forney,59.65,129.27,72.57,131.54,333.39,Single-ply,SBD,F
Girls,60.1,2,Nycki Deleon,Tyler,59.6,117.93,49.9,131.54,299.37,Single-ply,SBD,F
Girls,60.1,3,Stacy Rodriguez,Kemp,56.7,115.67,61.23,104.33,281.23,Single-ply,SBD,F
Girls,60.1,4,Ariel Garcia #1,Royse City,59.96,102.06,61.23,113.4,276.69,Single-ply,SBD,F
Girls,60.1,5,Kay Williams,Royse City,58.88,111.13,36.29,113.4,260.82,Single-ply,SBD,F
Girls,60.1,6,Kendralynne Shook,Canton,57.33,90.72,54.43,97.52,242.67,Single-ply,SBD,F
Girls,60.1,7,Madison Geller,Wylie East,59.78,95.25,43.09,99.79,238.14,Single-ply,SBD,F
Girls,60.1,8,Alani Diaz,Waxahachie,59.78,97.52,38.56,99.79,235.87,Single-ply,SBD,F
Girls,60.1,9,Aaryawna Mitchell,Terrell,59.6,88.45,40.82,88.45,217.72,Single-ply,SBD,F
Girls,60.1,10,Brynna Mackling,Canton,59.33,79.38,38.56,90.72,208.65,Single-ply,SBD,F
Girls,60.1,11,Pilar Rodriguez,Terrell,56.25,81.65,34.02,86.18,201.85,Single-ply,SBD,F
Girls,60.1,12,Annabelle Nobado,Red Oak,59.96,70.31,34.02,83.91,188.24,Single-ply,SBD,F
Girls,60.1,13,Anahy Gomez,Ferris,56.79,68.04,24.95,88.45,181.44,Single-ply,SBD,F
Girls,60.1,14,Shelby Wycough,Canton,59.42,68.04,29.48,72.57,170.1,Single-ply,SBD,F
Girls,60.1,15,Jordan Sawyer,North Forney,59.33,74.84,34.02,,108.86,Single-ply,SB,F
Girls,60.1,16,Vianey Salazar,Crandall,58.69,72.57,29.48,,102.06,Single-ply,SB,F
Girls,67.36,1,Natalie McBride,Waxahachie,63.87,142.88,70.31,136.08,349.27,Single-ply,SBD,F
Girls,67.36,2,Bethany Alexander,Kemp,66.59,133.81,72.57,131.54,337.93,Single-ply,SBD,F
Girls,67.36,3,Amairani Lobato,Wylie East,65.32,122.47,65.77,120.2,308.44,Single-ply,SBD,F
Girls,67.36,4,Kendall Riley,Mabank,66.68,111.13,65.77,117.93,294.84,Single-ply,SBD,F
Girls,67.36,5,Karley Lewis,Forney,67.04,122.47,56.7,113.4,292.57,Single-ply,SBD,F
Girls,67.36,6,Courtney Parker,Kemp,64.41,111.13,49.9,117.93,278.96,Single-ply,SBD,F
Girls,67.36,7,Abbey Stinson,Royse City,65.77,117.93,49.9,111.13,278.96,Single-ply,SBD,F
Girls,67.36,8,Kylee Crist,Canton,66.41,102.06,43.09,129.27,274.42,Single-ply,SBD,F
Girls,67.36,9,Madison Smalley,Wylie East,61.05,111.13,47.63,104.33,263.08,Single-ply,SBD,F
Girls,67.36,10,Evie Davis,Canton,61.6,104.33,45.36,102.06,251.74,Single-ply,SBD,F
Girls,67.36,11,Sydney Ellis,Canton,66.77,97.52,47.63,95.25,240.4,Single-ply,SBD,F
Girls,67.36,12,Laura Espino,Red Oak,66.5,97.52,43.09,95.25,235.87,Single-ply,SBD,F
Girls,67.36,13,Kelly Egan,Canton,62.32,90.72,43.09,90.72,224.53,Single-ply,SBD,F
Girls,67.36,14,Maria Valedelamar,Terrell,60.78,86.18,36.29,90.72,213.19,Single-ply,SBD,F
Girls,67.36,15,Kambree Fullington,Kemp,67.22,99.79,58.97,,158.76,Single-ply,SB,F
Girls,75.07,1,Julia Duke,Canton,73.66,138.35,63.5,142.88,344.73,Single-ply,SBD,F
Girls,75.07,2,MaKayla McDade,Red Oak,69.4,120.2,63.5,147.42,331.12,Single-ply,SBD,F
Girls,75.07,3,Emily Cook,Frankston,74.39,138.35,54.43,127.01,319.78,Single-ply,SBD,F
Girls,75.07,4,Megan Gerlach,Canton,74.03,127.01,47.63,129.27,303.91,Single-ply,SBD,F
Girls,75.07,5,Eniyah Watson,Tyler,67.77,111.13,58.97,117.93,288.03,Single-ply,SBD,F
Girls,75.07,6,Destiny Whitney,Wylie East,70.13,115.67,56.7,115.67,288.03,Single-ply,SBD,F
Girls,75.07,7,Katiann Kinnett,Tyler Lee,73.48,102.06,47.63,122.47,272.16,Single-ply,SBD,F
Girls,75.07,8,Ashley Walker,Tyler Lee,67.49,102.06,43.09,124.74,269.89,Single-ply,SBD,F
Girls,75.07,9,Sara Mefford,Canton,74.84,113.4,43.09,113.4,269.89,Single-ply,SBD,F
Girls,75.07,10,Peria Herrera,Royse City,70.76,117.93,52.16,92.99,263.08,Single-ply,SBD,F
Girls,75.07,11,Marina Mendez,Waxahachie,68.22,102.06,34.02,106.59,242.67,Single-ply,SBD,F
Girls,75.07,12,Sheyna Zammaron,Crandall,72.21,83.91,27.22,97.52,208.65,Single-ply,SBD,F
Girls,75.07,DQ,Sophie Creech,Royse City,74.66,,,,,Single-ply,SBD,F
Girls,75.07,DQ,Madison Burke,Wylie East,69.04,,,,,Single-ply,SBD,F
Girls,82.33,1,Destinee Griggs,Royse City,80.01,181.44,83.91,161.03,426.38,Single-ply,SBD,F
Girls,82.33,2,Ashlee Emo,Wylie East,76.93,129.27,56.7,124.74,310.71,Single-ply,SBD,F
Girls,82.33,3,Sara Hall,Wylie East,76.84,115.67,61.23,111.13,288.03,Single-ply,SBD,F
Girls,82.33,4,Kayla Davis,Frankston,79.29,117.93,56.7,108.86,283.5,Single-ply,SBD,F
Girls,82.33,5,Cateline Jones,Frankston,80.92,113.4,56.7,113.4,283.5,Single-ply,SBD,F
Girls,82.33,6,Tatyana Williams,Tyler,79.02,104.33,47.63,120.2,272.16,Single-ply,SBD,F
Girls,82.33,7,Braleigh Paup,Brownsboro,80.83,111.13,38.56,111.13,260.82,Single-ply,SBD,F
Girls,82.33,8,Emily Greeson,Canton,82.19,104.33,38.56,108.86,251.74,Single-ply,SBD,F
Girls,82.33,9,Maylon Paup,Brownsboro,76.11,95.25,38.56,,133.81,Single-ply,SB,F
Girls,82.33,10,Madison Lingerfelt,North Forney,78.29,77.11,,,77.11,Single-ply,S,F
Girls,82.33,DQ,Anna Gafford,Forney,76.66,,,,,Single-ply,SBD,F
Girls,90.04,1,Sage Simmons,Waxahachie,86.82,185.97,81.65,163.29,430.91,Single-ply,SBD,F
Girls,90.04,2,Peyton Holm,Royse City,88.9,147.42,72.57,142.88,362.87,Single-ply,SBD,F
Girls,90.04,3,Takaira Scott,Ferris,89.09,138.35,65.77,154.22,358.34,Single-ply,SBD,F
Girls,90.04,4,Ruby Randall,Brownsboro,83.55,124.74,65.77,131.54,322.05,Single-ply,SBD,F
Girls,90.04,5,Danyelle Jackson,Royse City,84.19,92.99,56.7,115.67,265.35,Single-ply,SBD,F
Girls,90.04,6,Maira Anguiano,Terrell,83.37,88.45,52.16,108.86,249.48,Single-ply,SBD,F
Girls,90.04,7,Jeanette Dycus,Waxahachie,87.09,95.25,43.09,102.06,240.4,Single-ply,SBD,F
Girls,90.04,8,Anna Wess,Waxahachie,88.54,92.99,34.02,113.4,240.4,Single-ply,SBD,F
Girls,90.04,9,Robyn Liles,Tyler Lee,88.45,95.25,36.29,106.59,238.14,Single-ply,SBD,F
Girls,90.04,10,Lissandra Ortega,Terrell,87.09,83.91,,,83.91,Single-ply,S,F
Girls,100.02,1,Sadie Hewitt,Forney,97.98,195.04,65.77,174.63,435.45,Single-ply,SBD,F
Girls,100.02,2,Mah'Layzga Johnson,Tyler Lee,92.26,154.22,77.11,163.29,394.63,Single-ply,SBD,F
Girls,100.02,3,Arivell Guzman,Tyler Lee,95.62,151.95,61.23,147.42,360.61,Single-ply,SBD,F
Girls,100.02,4,Maricela Compean,Royse City,94.26,142.88,63.5,149.69,356.07,Single-ply,SBD,F
Girls,100.02,5,Devan Andrews,Waxahachie,90.45,149.69,56.7,120.2,326.59,Single-ply,SBD,F
Girls,100.02,6,Abrianna Larry,Crandall,95.44,122.47,45.36,127.01,294.84,Single-ply,SBD,F
Girls,100.02,7,Faith Besherse,Canton,91.17,108.86,45.36,113.4,267.62,Single-ply,SBD,F
Girls,100.02,8,Jennifer Alonso,Royse City,92.17,90.72,52.16,113.4,256.28,Single-ply,SBD,F
Girls,117.71,1,Kelsy Medlin,Wylie East,105.23,181.44,102.06,149.69,433.18,Single-ply,SBD,F
Girls,117.71,2,Mariah Carter,Waxahachie,109.41,172.37,79.38,142.88,394.63,Single-ply,SBD,F
Girls,117.71,3,Delanie Spakes,Kemp,102.87,131.54,77.11,117.93,326.59,Single-ply,SBD,F
Girls,117.71,4,Dakota Benedict,Crandall,105.05,145.15,56.7,117.93,319.78,Single-ply,SBD,F
Girls,117.71,5,Destiny Toye,Frankston,104.87,136.08,58.97,122.47,317.51,Single-ply,SBD,F
Girls,117.71,6,LaChyna Kimble,Tyler,104.24,120.2,56.7,122.47,299.37,Single-ply,SBD,F
Girls,117.71,7,Olivia Massey,Terrell,101.88,79.38,54.43,117.93,251.74,Single-ply,SBD,F
Girls,117.71+,1,Ga'Brella Billington,Tyler Lee,140.7,167.83,92.99,158.76,419.57,Single-ply,SBD,F
Girls,117.71+,2,Kristen Phillips,Brownsboro,143.15,185.97,81.65,127.01,394.63,Single-ply,SBD,F
Girls,117.71+,3,Jackie Quinonez,Royse City,118.48,172.37,81.65,138.35,392.36,Single-ply,SBD,F
Girls,117.71+,4,Chloe Durham,Tyler,155.58,158.76,83.91,136.08,378.75,Single-ply,SBD,F
Girls,117.71+,5,Madyson Mills,Wylie East,120.66,124.74,81.65,122.47,328.85,Single-ply,SBD,F
Girls,117.71+,6,Shayla Mosley,Tyler Lee,134.72,124.74,70.31,131.54,326.59,Single-ply,SBD,F
