Division,WeightClassKg,Place,Name,Team,BodyweightKg,Best3SquatKg,Best3BenchKg,Best3DeadliftKg,TotalKg,Equipment,Event,Sex,BirthDate
Boys,51.71,1,Jason Ramirez,Levelland,48.44,147.42,86.18,154.22,387.82,Single-ply,SBD,M,
Boys,51.71,2,Damion Gonzales,Lockney,46.81,131.54,65.77,117.93,315.25,Single-ply,SBD,M,
Boys,51.71,3,Payton Rhodes,Hart,51.26,108.86,70.31,117.93,297.1,Single-ply,SBD,M,
Boys,51.71,4,Jose Borunda,Whiteface,50.08,102.06,61.23,102.06,265.35,Single-ply,SBD,M,
Boys,51.71,5,Nathan Rendon,Levelland,49.4,86.18,63.5,104.33,254.01,Single-ply,SBD,M,
Boys,51.71,6,Hunter Penrod,Sudan,50.08,97.52,49.9,99.79,247.21,Single-ply,SBD,M,
Boys,51.71,7,Ethan Martinez,Wolfforth Frenship,51.53,90.72,54.43,102.06,247.21,Single-ply,SBD,M,
Boys,51.71,8,Azy Gonzales,Dimmitt,46.36,70.31,38.56,88.45,197.31,Single-ply,SBD,M,
Boys,51.71,9,Marcos Gonzales,Plains,47.45,47.63,31.75,68.04,147.42,Single-ply,SBD,M,
Boys,51.71,DQ,Daniel Gonzales,Dimmitt,45.09,70.31,,,,Single-ply,SBD,M,
Boys,55.79,1,Santos Figueroa,Plainview,51.8,147.42,74.84,154.22,376.48,Single-ply,SBD,M,
Boys,55.79,2,Sebastian Rios,Ralls,55.25,127.01,72.57,165.56,365.14,Single-ply,SBD,M,
Boys,55.79,3,Ezaiah Martinez,Dimmitt,55.7,113.4,72.57,136.08,322.05,Single-ply,SBD,M,
Boys,55.79,4,Alejandro Diaz,Hart,55.16,104.33,54.43,151.95,310.71,Single-ply,SBD,M,
Boys,55.79,5,Britto Willey,Lubbock,55.52,83.91,36.29,68.04,188.24,Single-ply,SBD,M,
Boys,59.87,1,Brennan Riker,Post,57.15,190.51,95.25,172.37,458.13,Single-ply,SBD,M,
Boys,59.87,2,Alexis Delgado #2,Plainview,59.87,158.76,77.11,158.76,394.63,Single-ply,SBD,M,
Boys,59.87,3,Izik Godino,Plainview,59.06,140.61,90.72,147.42,378.75,Single-ply,SBD,M,
Boys,59.87,4,Josiah Rodriguez,Meadow,59.15,136.08,77.11,165.56,378.75,Single-ply,SBD,M,
Boys,59.87,5,Takoah Urquidez,Lubbock Monterey,56.97,131.54,81.65,147.42,360.61,Single-ply,SBD,M,
Boys,59.87,6,Jaylon Luna,Ropesville Ropes,58.79,127.01,79.38,142.88,349.27,Single-ply,SBD,M,
Boys,59.87,7,Bo Hernandez,Dimmitt,58.6,115.67,63.5,124.74,303.91,Single-ply,SBD,M,
Boys,59.87,8,Elijah Perez,Ralls,58.06,104.33,58.97,117.93,281.23,Single-ply,SBD,M,
Boys,59.87,DQ,Aj Reyna,Olton,57.15,108.86,,,,Single-ply,SBD,M,
Boys,67.13,1,Brandon Sigala,Levelland,66.86,213.19,133.81,217.72,564.72,Single-ply,SBD,M,
Boys,67.13,2,Xavier Garcia,Ralls,66.86,197.31,90.72,197.31,485.34,Single-ply,SBD,M,
Boys,67.13,3,Bryson Jones,Ralls,66.22,183.7,92.99,190.51,467.2,Single-ply,SBD,M,
Boys,67.13,4,Steven Salazar,Ralls,66.68,163.29,104.33,185.97,453.59,Single-ply,SBD,M,
Boys,67.13,5,Juan Palomo,Lubbock,65.14,158.76,92.99,176.9,428.64,Single-ply,SBD,M,
Boys,67.13,6,Nolan Carabajal,Lubbock Monterey,65.86,154.22,108.86,165.56,428.64,Single-ply,SBD,M,
Boys,67.13,7,Mauro Moreno,Ralls,64.23,158.76,81.65,181.44,421.84,Single-ply,SBD,M,
Boys,67.13,8,Blake Johnson,Hale Center,67.13,163.29,88.45,170.1,421.84,Single-ply,SBD,M,
Boys,67.13,9,Josh Marquez,Olton,67.04,158.76,86.18,170.1,415.04,Single-ply,SBD,M,
Boys,67.13,10,Tanner Eade,Lubbock,64.05,142.88,97.52,149.69,390.09,Single-ply,SBD,M,
Boys,67.13,11,Tristan Ramirez,Levelland,63.82,136.08,77.11,163.29,376.48,Single-ply,SBD,M,
Boys,67.13,12,Moses Valencia,Hale Center,65.77,133.81,77.11,161.03,371.95,Single-ply,SBD,M,
Boys,67.13,13,Cam Ron Perez,Lubbock,63.14,151.95,72.57,145.15,369.68,Single-ply,SBD,M,
Boys,67.13,14,Kaden Jackson,Hale Center,66.41,147.42,79.38,131.54,358.34,Single-ply,SBD,M,
Boys,67.13,15,Osiris Flores,Seagraves,65.23,122.47,65.77,154.22,342.46,Single-ply,SBD,M,
Boys,67.13,16,Jose Zavala,Ralls,62.41,115.67,77.11,142.88,335.66,Single-ply,SBD,M,
Boys,67.13,17,Jermaine Stotts,Wolfforth Frenship,60.6,111.13,72.57,142.88,326.59,Single-ply,SBD,M,
Boys,67.13,18,Inda Acosta,Ropesville Ropes,64.86,131.54,74.84,117.93,324.32,Single-ply,SBD,M,
Boys,67.13,19,Eli Avery,Lubbock,60.78,145.15,68.04,108.86,322.05,Single-ply,SBD,M,
Boys,67.13,20,Damian Marquez,Olton,61.96,102.06,79.38,140.61,322.05,Single-ply,SBD,M,
Boys,67.13,21,Cason Laminack,Ralls,62.96,115.67,65.77,129.27,310.71,Single-ply,SBD,M,
Boys,67.13,22,Keagan Campbell,Shallowater,64.5,111.13,81.65,117.93,310.71,Single-ply,SBD,M,
Boys,67.13,23,Adrian Alvarado,Meadow,66.68,86.18,61.23,115.67,263.08,Single-ply,SBD,M,
Boys,67.13,DQ,Matthew Landin,Wolfforth Frenship,65.32,,,,,Single-ply,SBD,M,
Boys,74.84,1,Logan Pipkin,Lubbock Cooper,73.3,199.58,120.2,213.19,532.97,Single-ply,SBD,M,
Boys,74.84,2,Ernest Godino,Plainview,71.67,195.04,113.4,190.51,498.95,Single-ply,SBD,M,
Boys,74.84,3,Stephano Espejo,Plainview,73.57,192.78,111.13,195.04,498.95,Single-ply,SBD,M,
Boys,74.84,4,Josh Easley,Shallowater,70.58,167.83,88.45,190.51,446.79,Single-ply,SBD,M,
Boys,74.84,5,Benny Soto,Lubbock,69.4,174.63,102.06,158.76,435.45,Single-ply,SBD,M,
Boys,74.84,6,Shawn Chavez,Ralls,73.39,149.69,90.72,179.17,419.57,Single-ply,SBD,M,
Boys,74.84,7,Luke Ovalle,Ralls,73.84,163.29,77.11,170.1,410.5,Single-ply,SBD,M,
Boys,74.84,8,Nick Quintana,Post,74.84,158.76,90.72,161.03,410.5,Single-ply,SBD,M,
Boys,74.84,9,Cainyn Hair,Ralls,68.04,142.88,83.91,181.44,408.23,Single-ply,SBD,M,
Boys,74.84,10,Landon Pevey,Post,72.48,158.76,90.72,154.22,403.7,Single-ply,SBD,M,
Boys,74.84,11,Callen Cannon,Sudan,69.04,142.88,92.99,149.69,385.55,Single-ply,SBD,M,
Boys,74.84,12,Santiago Gomez,Plainview,72.57,136.08,92.99,156.49,385.55,Single-ply,SBD,M,
Boys,74.84,13,Marcos Ogeda,Lamesa,74.84,136.08,72.57,163.29,371.95,Single-ply,SBD,M,
Boys,74.84,14,Johnathan Valentine,Meadow,74.39,102.06,90.72,165.56,358.34,Single-ply,SBD,M,
Boys,74.84,15,Shawn Looney,Post,72.03,136.08,79.38,140.61,356.07,Single-ply,SBD,M,
Boys,74.84,16,Isaiah Vasquez,Hale Center,68.4,117.93,81.65,145.15,344.73,Single-ply,SBD,M,
Boys,74.84,17,Grady Roberts,Olton,70.58,124.74,83.91,136.08,344.73,Single-ply,SBD,M,
Boys,74.84,18,Luke Pompa,Levelland,71.58,120.2,74.84,145.15,340.19,Single-ply,SBD,M,
Boys,74.84,19,Raylon Allison,Lamesa,67.22,133.81,58.97,142.88,335.66,Single-ply,SBD,M,
Boys,74.84,20,Sebastian Brown,Plains,67.86,113.4,72.57,138.35,324.32,Single-ply,SBD,M,
Boys,74.84,21,Angel Catalan,Dimmitt,69.04,108.86,77.11,124.74,310.71,Single-ply,SBD,M,
Boys,74.84,DQ,Christian Smith,Wolfforth Frenship,72.3,122.47,81.65,,,Single-ply,SBD,M,
Boys,74.84,DQ,Jihad Allen,Hale Center,71.12,124.74,,,,Single-ply,SBD,M,
Boys,82.1,1,Kingsley Rodriguez,Seagraves,80.01,229.06,136.08,267.62,632.76,Single-ply,SBD,M,
Boys,82.1,2,Skyler Davis,Levelland,78.56,195.04,124.74,247.21,566.99,Single-ply,SBD,M,
Boys,82.1,3,Silas Urrurtia,Lockney,81.47,210.92,131.54,185.97,528.44,Single-ply,SBD,M,
Boys,82.1,4,Andrew Suarez,Floydada,80.01,183.7,102.06,190.51,476.27,Single-ply,SBD,M,
Boys,82.1,5,Aiden Heredia,Plainview,81.65,183.7,104.33,181.44,469.47,Single-ply,SBD,M,
Boys,82.1,6,Rey Carta,Hale Center,78.93,161.03,79.38,181.44,421.84,Single-ply,SBD,M,
Boys,82.1,7,Brayden Vasquez,Ropesville Ropes,78.38,138.35,90.72,167.83,396.89,Single-ply,SBD,M,
Boys,82.1,8,Cade Reynolds,Plains,78.47,115.67,79.38,154.22,349.27,Single-ply,SBD,M,
Boys,82.1,9,Stephen De La Rosa,Plains,77.84,127.01,63.5,138.35,328.85,Single-ply,SBD,M,
Boys,89.81,1,Isaac Garza,Levelland,86.18,226.8,145.15,238.14,610.08,Single-ply,SBD,M,
Boys,89.81,2,Logan Duncan,Lubbock Cooper,89.27,226.8,145.15,231.33,603.28,Single-ply,SBD,M,
Boys,89.81,3,Kaleb Salazar,Ralls,82.28,231.33,127.01,231.33,589.67,Single-ply,SBD,M,
Boys,89.81,4,Misael Castaneda,Whiteface,88.9,215.46,136.08,226.8,578.33,Single-ply,SBD,M,
Boys,89.81,5,Tyler Hairston,Lubbock Cooper,88.45,231.33,133.81,208.65,573.79,Single-ply,SBD,M,
Boys,89.81,6,Trenton White,Lubbock Monterey,89.45,206.38,113.4,210.92,530.7,Single-ply,SBD,M,
Boys,89.81,7,Jerimiah Washington,Wolfforth Frenship,82.64,195.04,92.99,215.46,503.49,Single-ply,SBD,M,
Boys,89.81,8,Sergio Guerrero,Olton,82.19,192.78,111.13,183.7,487.61,Single-ply,SBD,M,
Boys,89.81,9,Lucas Barrington,Shallowater,88.72,174.63,113.4,181.44,469.47,Single-ply,SBD,M,
Boys,89.81,10,Alex Reyna,Hale Center,82.28,181.44,86.18,183.7,451.32,Single-ply,SBD,M,
Boys,89.81,11,Caleb Pritchard,Lockney,84.46,190.51,95.25,156.49,442.25,Single-ply,SBD,M,
Boys,89.81,12,Jesus Lopez,Dimmitt,88.45,172.37,88.45,181.44,442.25,Single-ply,SBD,M,
Boys,89.81,13,Clemente Olvera,Lamesa,86.64,156.49,97.52,179.17,433.18,Single-ply,SBD,M,
Boys,89.81,14,Cruz Esparza,Lubbock,83.37,165.56,92.99,161.03,419.57,Single-ply,SBD,M,
Boys,89.81,15,Robert Navarijo,Dimmitt,88.45,158.76,102.06,154.22,415.04,Single-ply,SBD,M,
Boys,89.81,16,Malcolm Mendez,Meadow,89.72,147.42,90.72,172.37,410.5,Single-ply,SBD,M,
Boys,89.81,17,Pedro Pedroza,Olton,87.82,142.88,90.72,147.42,381.02,Single-ply,SBD,M,
Boys,89.81,18,Nathan King,Sudan,84.01,149.69,72.57,145.15,367.41,Single-ply,SBD,M,
Boys,89.81,19,Nate Payen,Crosbyton,89.09,133.81,68.04,142.88,344.73,Single-ply,SBD,M,
Boys,89.81,DQ,Andru Garcia,Olton,89.18,,,,,Single-ply,SBD,M,
Boys,89.81,DQ,Ryan Halford,Meadow,82.55,,,,,Single-ply,SBD,M,
Boys,89.81,DQ,Keanu Villarreal,Lockney,89.45,210.92,147.42,,,Single-ply,SBD,M,
Boys,99.79,1,Dylen Wolfe,Levelland,99.2,272.16,142.88,219.99,635.03,Single-ply,SBD,M,
Boys,99.79,2,Elias Martinez,Ralls,97.61,226.8,142.88,247.21,616.89,Single-ply,SBD,M,
Boys,99.79,3,Jacob Dennis,Lubbock Cooper,94.53,249.48,133.81,226.8,610.08,Single-ply,SBD,M,
Boys,99.79,4,Cole Boren,Post,98.25,229.06,154.22,195.04,578.33,Single-ply,SBD,M,
Boys,99.79,5,Elijah Olivo,Shallowater,95.25,199.58,102.06,204.12,505.76,Single-ply,SBD,M,
Boys,99.79,6,Jacob Landeros,Plainview,98.7,210.92,106.59,185.97,503.49,Single-ply,SBD,M,
Boys,99.79,7,Sergio Arazate,Shallowater,94.26,158.76,117.93,204.12,480.81,Single-ply,SBD,M,
Boys,99.79,8,Gru Gonzalez,Dimmitt,96.8,176.9,92.99,208.65,478.54,Single-ply,SBD,M,
Boys,99.79,9,Trevor Haro,Lubbock Monterey,97.34,195.04,99.79,183.7,478.54,Single-ply,SBD,M,
Boys,99.79,10,Zach Collins,Plainview,90.45,188.24,115.67,167.83,471.74,Single-ply,SBD,M,
Boys,99.79,11,Gabriel Cisneros,Sudan,97.7,197.31,102.06,170.1,469.47,Single-ply,SBD,M,
Boys,99.79,12,Elizar Alvarez,Lockney,90.54,165.56,113.4,156.49,435.45,Single-ply,SBD,M,
Boys,99.79,13,Tyler Ivins,Olton,93.08,154.22,86.18,161.03,401.43,Single-ply,SBD,M,
Boys,99.79,14,Marcus Collins #3,Floydada,99.79,147.42,97.52,147.42,392.36,Single-ply,SBD,M,
Boys,99.79,15,David Shaver,Wolfforth Frenship,90.99,158.76,74.84,156.49,390.09,Single-ply,SBD,M,
Boys,99.79,16,Carter Gilson,Shallowater,92.53,140.61,74.84,170.1,385.55,Single-ply,SBD,M,
Boys,99.79,17,Abraham Loeza,Dimmitt,96.52,122.47,92.99,142.88,358.34,Single-ply,SBD,M,
Boys,99.79,18,Xavier Ramos,Dimmitt,97.52,117.93,83.91,142.88,344.73,Single-ply,SBD,M,
Boys,99.79,19,Aiden Herrera,Wolfforth Frenship,90.26,122.47,83.91,136.08,342.46,Single-ply,SBD,M,
Boys,99.79,20,Mason Lazos,Plains,99.16,122.47,72.57,145.15,340.19,Single-ply,SBD,M,
Boys,99.79,DQ,Isiaias Puente,Lubbock,97.16,151.95,113.4,,,Single-ply,SBD,M,
Boys,109.77,1,Gabriel Chavez,Olton,107.23,294.84,156.49,249.48,700.8,Single-ply,SBD,M,
Boys,109.77,2,Alan Mendoza,Seagraves,108.95,240.4,142.88,229.06,612.35,Single-ply,SBD,M,
Boys,109.77,3,Cameron Bednarz,Lubbock Cooper,99.97,233.6,142.88,233.6,610.08,Single-ply,SBD,M,
Boys,109.77,4,Andrew Sanchez,Lockney,109.77,201.85,145.15,204.12,551.11,Single-ply,SBD,M,
Boys,109.77,5,Donte Garland,Wolfforth Frenship,100.97,188.24,111.13,185.97,485.34,Single-ply,SBD,M,
Boys,109.77,6,Knoah Escobedo,Post,105.05,158.76,97.52,154.22,410.5,Single-ply,SBD,M,
Boys,109.77,7,Xavier Contreras,Shallowater,104.78,140.61,92.99,147.42,381.02,Single-ply,SBD,M,
Boys,109.77,8,Zane Mendez,Ralls,108.95,154.22,77.11,147.42,378.75,Single-ply,SBD,M,
Boys,109.77,9,Luis Díaz,Dimmitt,107.05,113.4,72.57,129.27,315.25,Single-ply,SBD,M,
Boys,109.77,DQ,Laterrien McCullough,Lubbock Monterey,108.05,206.38,,,,Single-ply,SBD,M,
Boys,124.74,1,Miguel Lara,Lockney,116.66,274.42,156.49,213.19,644.1,Single-ply,SBD,M,
Boys,124.74,2,Jacob Vasquez,Lubbock Cooper,114.4,269.89,136.08,226.8,632.76,Single-ply,SBD,M,
Boys,124.74,3,Taye Perez,Post,124.01,226.8,138.35,244.94,610.08,Single-ply,SBD,M,
Boys,124.74,4,Iyceton White,Plainview,115.21,233.6,167.83,197.31,598.74,Single-ply,SBD,M,
Boys,124.74,5,Chris Jackson #5,Post,117.93,229.06,133.81,226.8,589.67,Single-ply,SBD,M,
Boys,124.74,6,Jesus Guerra,Sudan,119.84,226.8,113.4,204.12,544.31,Single-ply,SBD,M,
Boys,124.74,7,Damon Monroe,Floydada,121.74,195.04,117.93,204.12,517.1,Single-ply,SBD,M,
Boys,124.74,8,Elijah Vega,Crosbyton,111.58,192.78,113.4,195.04,501.22,Single-ply,SBD,M,
Boys,124.74,9,Niko Castaneda,Meadow,119.29,185.97,131.54,174.63,492.15,Single-ply,SBD,M,
Boys,124.74,10,Blaze Whitaker,Wolfforth Frenship,119.93,142.88,106.59,181.44,430.91,Single-ply,SBD,M,
Boys,124.74,11,Richard Badillo,Plains,121.38,163.29,77.11,174.63,415.04,Single-ply,SBD,M,
Boys,124.74,12,Justice Valdez,Plains,113.13,170.1,77.11,161.03,408.23,Single-ply,SBD,M,
Boys,124.74,13,Kyler Nelson,Ropesville Ropes,124.56,140.61,99.79,142.88,383.29,Single-ply,SBD,M,
Boys,124.74,DQ,Jacob Johnston,Floydada,110.4,226.8,127.01,,,Single-ply,SBD,M,
Boys,124.74+,1,Hunter Bolton,Ropesville Ropes,134.9,288.03,165.56,222.26,675.85,Single-ply,SBD,M,
Boys,124.74+,2,Chase Rodriquez,Lubbock Cooper,153.22,260.82,147.42,219.99,628.23,Single-ply,SBD,M,
Boys,124.74+,3,Chris Torres,Crosbyton,168.28,272.16,145.15,183.7,601.01,Single-ply,SBD,M,
Boys,124.74+,4,Javen Diaz,Post,135.9,226.8,127.01,217.72,571.53,Single-ply,SBD,M,
Boys,124.74+,5,Christian Garza,Plainview,137.89,226.8,138.35,206.38,571.53,Single-ply,SBD,M,
Boys,124.74+,6,Kevon Jackson,Lubbock Monterey,143.7,215.46,113.4,197.31,526.17,Single-ply,SBD,M,
Boys,124.74+,7,Brayan Olvera,Lubbock Monterey,136.89,226.8,104.33,190.51,521.63,Single-ply,SBD,M,
Boys,124.74+,8,John Peralez,Lubbock Cooper,128,163.29,113.4,156.49,433.18,Single-ply,SBD,M,
Boys,124.74+,9,Edgar Ramirez,Hale Center,140.16,154.22,83.91,138.35,376.48,Single-ply,SBD,M,
Boys,124.74+,10,Jordan Porter,Dimmitt,135.17,147.42,81.65,127.01,356.07,Single-ply,SBD,M,
Boys,124.74+,DQ,Raul Villalpando,Meadow,136.08,,,,,Single-ply,SBD,M,
Boys,124.74+,DQ,Aiden Visage,Lubbock Cooper,127.01,,,,,Single-ply,SBD,M,
