Division,WeightClassKg,Place,Name,Team,BodyweightKg,Best3SquatKg,Best3BenchKg,Best3DeadliftKg,TotalKg,Equipment,Event,Sex
Girls,44.23,1,Shelby Jenkins,Hebbronville,41.37,92.99,45.36,106.59,244.94,Single-ply,SBD,F
Girls,44.23,2,Destiny Martinez,Mathis,43.64,77.11,45.36,92.99,215.46,Single-ply,SBD,F
Girls,44.23,3,Alexis Naverette,Mathis,42.37,77.11,38.56,92.99,208.65,Single-ply,SBD,F
Girls,44.23,4,Andrea Waggoner,George West,43.27,81.65,38.56,88.45,208.65,Single-ply,SBD,F
Girls,44.23,5,McKenzy Canchola,Orange Grove,40.82,83.91,31.75,90.72,206.38,Single-ply,SBD,F
Girls,44.23,6,Serina Moss,Hebbronville,42.91,81.65,27.22,90.72,199.58,Single-ply,SBD,F
Girls,44.23,NS,Gabby Rivas,Corpus Christi West Oso,,,,,,Single-ply,SBD,F
Girls,44.23,NS,Paula Garza,Mathis,,,,,,Single-ply,SBD,F
Girls,44.23,DQ,Briana Gonzalez,Bruni,43.73,,,,,Single-ply,SBD,F
Girls,44.23,DQ,Summer Garza,George West,43.73,,,,,Single-ply,SBD,F
Girls,47.85,1,Jackie Garcia,Zapata,47.26,113.4,58.97,129.27,301.64,Single-ply,SBD,F
Girls,47.85,2,Victoria Hinojosa,Odem,47.26,95.25,40.82,129.27,265.35,Single-ply,SBD,F
Girls,47.85,3,Alysia Alvarado,Orange Grove,47.26,102.06,40.82,99.79,242.67,Single-ply,SBD,F
Girls,47.85,4,Kat Cantu,Hebbronville,47.54,108.86,40.82,92.99,242.67,Single-ply,SBD,F
Girls,47.85,5,Daniela Vela,Zapata,47.72,88.45,43.09,106.59,238.14,Single-ply,SBD,F
Girls,47.85,6,Karla Carpentier,Hebbronville,47.81,104.33,36.29,97.52,238.14,Single-ply,SBD,F
Girls,47.85,7,Megan Aguliar,Orange Grove,47.63,92.99,38.56,104.33,235.87,Single-ply,SBD,F
Girls,47.85,NS,Veronica DeLuna,Odem,,,,,,Single-ply,SBD,F
Girls,47.85,NS,Bianca Cruz,Mathis,,,,,,Single-ply,SBD,F
Girls,47.85,NS,Alexis Soto,Bruni,,,,,,Single-ply,SBD,F
Girls,51.94,1,Brianna Gonzalez,Zapata,51.89,140.61,63.5,136.08,340.19,Single-ply,SBD,F
Girls,51.94,2,Alexandra García,Zapata,51.89,122.47,65.77,138.35,326.59,Single-ply,SBD,F
Girls,51.94,3,Heather DeLeon,Mathis,50.71,122.47,56.7,120.2,299.37,Single-ply,SBD,F
Girls,51.94,4,Lizbeth Camarillo,Laredo United South,51.07,108.86,54.43,117.93,281.23,Single-ply,SBD,F
Girls,51.94,5,Tiffany Landeros,Laredo United South,51.53,113.4,43.09,124.74,281.23,Single-ply,SBD,F
Girls,51.94,6,Gabby Gonzalez,Hebbronville,51.62,90.72,38.56,147.42,276.69,Single-ply,SBD,F
Girls,51.94,7,Kristin Pruitt,Hebbronville,51.71,102.06,49.9,124.74,276.69,Single-ply,SBD,F
Girls,51.94,8,Gina Rodriguez,Zapata,51.17,99.79,49.9,124.74,274.42,Single-ply,SBD,F
Girls,51.94,9,Amanda Perez,Laredo Nixon,51.62,86.18,56.7,115.67,258.55,Single-ply,SBD,F
Girls,51.94,10,Gabby Garcia,Freer,51.89,106.59,43.09,104.33,254.01,Single-ply,SBD,F
Girls,51.94,11,Emily Benavides,Laredo United South,51.53,104.33,40.82,104.33,249.48,Single-ply,SBD,F
Girls,51.94,12,Casey Castillo #2,Bruni,48.72,90.72,49.9,92.99,233.6,Single-ply,SBD,F
Girls,51.94,13,Saida Tijerina,Falfurrias,48.26,86.18,43.09,99.79,229.06,Single-ply,SBD,F
Girls,51.94,14,Victoria Chapa,Orange Grove,50.8,77.11,31.75,88.45,197.31,Single-ply,SBD,F
Girls,51.94,NS,Sirena Gonzalez,Robstown,,,,,,Single-ply,SBD,F
Girls,51.94,NS,Karla Rodriguez,Laredo Cigarroa,,,,,,Single-ply,SBD,F
Girls,51.94,DQ,Nati Castaneda,Zapata,51.07,,,,,Single-ply,SBD,F
Girls,51.94,DQ,Melissa Wise,Falfurrias,50.8,,,,,Single-ply,SBD,F
Girls,51.94,DQ,Tina Morales,Bruni,50.08,,,,,Single-ply,SBD,F
Girls,51.94,DQ,Emily Godina,Laredo Martin,51.89,,,,,Single-ply,SBD,F
Girls,56.02,1,Alana Montes,Zapata,55.25,149.69,70.31,140.61,360.61,Single-ply,SBD,F
Girls,56.02,2,Elizabeth Cantu,Hebbronville,55.79,149.69,72.57,106.59,328.85,Single-ply,SBD,F
Girls,56.02,3,Crystal Navarro,Zapata,53.98,120.2,56.7,129.27,306.17,Single-ply,SBD,F
Girls,56.02,4,Ashley Gutierrez,Laredo United South,55.43,127.01,52.16,127.01,306.17,Single-ply,SBD,F
Girls,56.02,5,Lily Cantu,Zapata,54.7,115.67,52.16,136.08,303.91,Single-ply,SBD,F
Girls,56.02,6,Chantel Cerna,Hebbronville,55.52,124.74,54.43,124.74,303.91,Single-ply,SBD,F
Girls,56.02,7,Bailey Hunter,Bruni,55.97,108.86,56.7,136.08,301.64,Single-ply,SBD,F
Girls,56.02,8,Selina Velasquez,Orange Grove,53.25,122.47,43.09,129.27,294.84,Single-ply,SBD,F
Girls,56.02,9,Agusta Avila,Hebbronville,55.97,124.74,54.43,115.67,294.84,Single-ply,SBD,F
Girls,56.02,10,Katherine Esponiza,Hebbronville,55.52,120.2,40.82,113.4,274.42,Single-ply,SBD,F
Girls,56.02,11,Dalyda Landa,Hebbronville,55.79,97.52,49.9,115.67,263.08,Single-ply,SBD,F
Girls,56.02,12,Abby Saenz,Bruni,52.8,97.52,56.7,106.59,260.82,Single-ply,SBD,F
Girls,56.02,13,Adelicia Ontiveros,Orange Grove,53.61,102.06,43.09,111.13,256.28,Single-ply,SBD,F
Girls,56.02,14,Bailey Herring,George West,55.43,86.18,52.16,95.25,233.6,Single-ply,SBD,F
Girls,56.02,15,Liana Gomez,Hebbronville,55.61,79.38,31.75,106.59,217.72,Single-ply,SBD,F
Girls,56.02,DQ,Jazlynn Silguero,Hebbronville,55.07,,,,,Single-ply,SBD,F
Girls,56.02,NS,Rosa Mata,Laredo Cigarroa,,,,,,Single-ply,SBD,F
Girls,56.02,NS,Katie Garcia,Odem,,,,,,Single-ply,SBD,F
Girls,56.02,NS,Tiffany Gonzalez,Mathis,,,,,,Single-ply,SBD,F
Girls,56.02,DQ,Alexis Trevino,Laredo Nixon,54.79,86.18,36.29,,,Single-ply,SBD,F
Girls,56.02,DQ,Whitney Spitzer,Orange Grove,52.8,,,,,Single-ply,SBD,F
Girls,56.02,DQ,Clari Villarreal,Zapata,55.97,,,,,Single-ply,SBD,F
Girls,60.1,1,Brianna Maldonado,Hebbronville,59.69,154.22,63.5,142.88,360.61,Single-ply,SBD,F
Girls,60.1,2,Elizabeth Alfado,Mathis,57.24,113.4,58.97,136.08,308.44,Single-ply,SBD,F
Girls,60.1,3,Mia Casas,Freer,59.78,117.93,58.97,127.01,303.91,Single-ply,SBD,F
Girls,60.1,4,Pam Carter,Corpus Christi West Oso,58.79,124.74,58.97,113.4,297.1,Single-ply,SBD,F
Girls,60.1,5,Kaycee Alarcon,Hebbronville,59.78,122.47,43.09,124.74,290.3,Single-ply,SBD,F
Girls,60.1,6,Veronica Rodriguez,Laredo Nixon,57.15,111.13,49.9,127.01,288.03,Single-ply,SBD,F
Girls,60.1,7,Olivia Garcia,Hebbronville,57.24,124.74,43.09,120.2,288.03,Single-ply,SBD,F
Girls,60.1,8,Larissa Ramos,Bruni,56.88,115.67,54.43,113.4,283.5,Single-ply,SBD,F
Girls,60.1,9,Vanessa Guerra,Zapata,60.06,113.4,52.16,113.4,278.96,Single-ply,SBD,F
Girls,60.1,10,Terry Pedraza,Laredo Martin,58.6,106.59,40.82,120.2,267.62,Single-ply,SBD,F
Girls,60.1,11,Monica Ostos,Orange Grove,56.25,102.06,47.63,113.4,263.08,Single-ply,SBD,F
Girls,60.1,12,Ashley Frietag,Orange Grove,56.97,88.45,45.36,117.93,251.74,Single-ply,SBD,F
Girls,60.1,13,Makayla Cantu,Freer,58.79,99.79,43.09,102.06,244.94,Single-ply,SBD,F
Girls,60.1,14,Victoria Cadena,Hebbronville,60.06,102.06,38.56,97.52,238.14,Single-ply,SBD,F
Girls,60.1,15,Selena Pena,Corpus Christi West Oso,59.24,74.84,40.82,74.84,190.51,Single-ply,SBD,F
Girls,60.1,16,Emily Ellison,George West,58.51,70.31,29.48,81.65,181.44,Single-ply,SBD,F
Girls,60.1,17,Jessica Sanchez,Falfurrias,59.33,52.16,31.75,90.72,174.63,Single-ply,SBD,F
Girls,60.1,NS,Sierra Sanchez,Corpus Christi West Oso,,,,,,Single-ply,SBD,F
Girls,60.1,NS,Sasha Lopez,Riviera Kaufer,,,,,,Single-ply,SBD,F
Girls,60.1,NS,Cindy Castillo,Laredo Nixon,,,,,,Single-ply,SBD,F
Girls,60.1,DQ,Dala Quackenbush,Riviera Kaufer,59.96,102.06,,,,Single-ply,SBD,F
Girls,67.36,1,Delaney Cooper,Zapata,63.23,161.03,72.57,156.49,390.09,Single-ply,SBD,F
Girls,67.36,2,Amber Almeida,Laredo Nixon,62.51,113.4,56.7,154.22,324.32,Single-ply,SBD,F
Girls,67.36,3,Analyssa Gonzales,Mathis,67.04,127.01,54.43,122.47,303.91,Single-ply,SBD,F
Girls,67.36,4,Alexis Salazar,George West,61.14,113.4,56.7,127.01,297.1,Single-ply,SBD,F
Girls,67.36,5,Alexis Echebarria,Robstown,67.13,124.74,47.63,124.74,297.1,Single-ply,SBD,F
Girls,67.36,6,Katherine Benavidez,Robstown,67.13,108.86,56.7,122.47,288.03,Single-ply,SBD,F
Girls,67.36,7,Claire Arciba,George West,61.96,111.13,58.97,115.67,285.76,Single-ply,SBD,F
Girls,67.36,8,Desiree Morgan,Bruni,67.13,115.67,45.36,120.2,281.23,Single-ply,SBD,F
Girls,67.36,9,April Navarro,Laredo Martin,63.59,113.4,49.9,113.4,276.69,Single-ply,SBD,F
Girls,67.36,10,Melissa Salinas,Mathis,67.31,111.13,45.36,113.4,269.89,Single-ply,SBD,F
Girls,67.36,11,Aleasha Aguillon,Freer,62.87,111.13,43.09,108.86,263.08,Single-ply,SBD,F
Girls,67.36,12,Kelsie Leal,Robstown,65.95,72.57,47.63,108.86,229.06,Single-ply,SBD,F
Girls,67.36,13,Marlyssa Flores,Falfurrias,62.41,70.31,38.56,97.52,206.38,Single-ply,SBD,F
Girls,67.36,DQ,Gina Recio,Corpus Christi West Oso,66.41,81.65,,,,Single-ply,SBD,F
Girls,67.36,DQ,Crystal Carillo,Laredo Cigarroa,65.14,,,,,Single-ply,SBD,F
Girls,67.36,DQ,Miranda Moss,Hebbronville,62.69,,,,,Single-ply,SBD,F
Girls,67.36,DQ,Aubrey Adams,Orange Grove,66.13,145.15,,,,Single-ply,SBD,F
Girls,67.36,DQ,Christa Iglesias,Laredo United South,64.77,,,,,Single-ply,SBD,F
Girls,75.07,1,Del Garza,Hebbronville,74.12,174.63,83.91,174.63,433.18,Single-ply,SBD,F
Girls,75.07,2,Aileen Campos,Zapata,71.12,145.15,74.84,133.81,353.8,Single-ply,SBD,F
Girls,75.07,3,Amanda Guerra,Bruni,74.39,138.35,61.23,140.61,340.19,Single-ply,SBD,F
Girls,75.07,4,Sarai Badillo,Orange Grove,69.85,142.88,45.36,133.81,322.05,Single-ply,SBD,F
Girls,75.07,5,Trisha Garcia,Zapata,71.94,120.2,68.04,129.27,317.51,Single-ply,SBD,F
Girls,75.07,6,Cher Garcia,Orange Grove,73.12,106.59,47.63,131.54,285.76,Single-ply,SBD,F
Girls,75.07,7,Karina Garza,Laredo United South,70.85,102.06,54.43,117.93,274.42,Single-ply,SBD,F
Girls,75.07,8,Denise Alvarez,Laredo Nixon,70.03,81.65,47.63,127.01,256.28,Single-ply,SBD,F
Girls,75.07,9,Christina Trevino,Riviera Kaufer,70.67,95.25,54.43,102.06,251.74,Single-ply,SBD,F
Girls,75.07,10,Rianna Guerrero,Hebbronville,72.03,79.38,29.48,108.86,217.72,Single-ply,SBD,F
Girls,75.07,11,Lucero Escutia,Corpus Christi West Oso,71.58,65.77,34.02,90.72,190.51,Single-ply,SBD,F
Girls,75.07,NS,Emory Flores,Freer,,,,,,Single-ply,SBD,F
Girls,75.07,NS,Brianna Martinez,Robstown,,,,,,Single-ply,SBD,F
Girls,75.07,DQ,Leslie Suarez,Laredo Nixon,67.59,,,,,Single-ply,SBD,F
Girls,82.33,1,Amanda Esquivel,Zapata,79.38,149.69,90.72,161.03,401.43,Single-ply,SBD,F
Girls,82.33,2,Elise Munoz,Zapata,79.74,161.03,81.65,145.15,387.82,Single-ply,SBD,F
Girls,82.33,3,Caryna Flores,Bruni,81.1,154.22,83.91,124.74,362.87,Single-ply,SBD,F
Girls,82.33,4,Seleste Pena,Hebbronville,76.75,147.42,70.31,133.81,351.53,Single-ply,SBD,F
Girls,82.33,5,Samantha Lira,Bruni,80.74,124.74,61.23,129.27,315.25,Single-ply,SBD,F
Girls,82.33,6,Sara Garcia,Odem,80.83,122.47,54.43,127.01,303.91,Single-ply,SBD,F
Girls,82.33,7,Stephanie Cortez,Hebbronville,81.19,131.54,49.9,111.13,292.57,Single-ply,SBD,F
Girls,82.33,8,Anna Vela,Hebbronville,80.74,108.86,54.43,117.93,281.23,Single-ply,SBD,F
Girls,82.33,9,Jessica Arvizu,George West,80.65,108.86,56.7,99.79,265.35,Single-ply,SBD,F
Girls,82.33,10,Erika Moya,Laredo Cigarroa,77.29,83.91,36.29,90.72,210.92,Single-ply,SBD,F
Girls,82.33,NS,Janice Yanez,Laredo Cigarroa,,,,,,Single-ply,SBD,F
Girls,82.33,NS,Brittany Cabrera,Corpus Christi West Oso,,,,,,Single-ply,SBD,F
Girls,90.04,1,Miranda Henderson,Orange Grove,89.45,174.63,81.65,158.76,415.04,Single-ply,SBD,F
Girls,90.04,2,Abigail Chapa,Bruni,86.91,140.61,61.23,145.15,347,Single-ply,SBD,F
Girls,90.04,3,Harley Lozano,Mathis,86.36,117.93,74.84,113.4,306.17,Single-ply,SBD,F
Girls,90.04,4,Aimee Toscano,George West,84.91,124.74,52.16,122.47,299.37,Single-ply,SBD,F
Girls,90.04,5,Elizabeth Ledesma,Riviera Kaufer,87.91,111.13,45.36,108.86,265.35,Single-ply,SBD,F
Girls,90.04,6,Lauren Boedeker,George West,85.37,97.52,52.16,95.25,244.94,Single-ply,SBD,F
Girls,90.04,7,Ida DeLeon,Laredo Nixon,86.45,90.72,43.09,111.13,244.94,Single-ply,SBD,F
Girls,90.04,DQ,Tristien Ferrell,Orange Grove,89.99,,,,,Single-ply,SBD,F
Girls,100.02,1,Sam Rossi,Hebbronville,94.26,197.31,83.91,174.63,455.86,Single-ply,SBD,F
Girls,100.02,2,Gaby Reyes,Zapata,98.97,149.69,77.11,145.15,371.95,Single-ply,SBD,F
Girls,100.02,3,Valerie Moncivais,Laredo Cigarroa,93.44,163.29,58.97,142.88,365.14,Single-ply,SBD,F
Girls,100.02,4,Victoria Pena,Freer,99.16,149.69,79.38,133.81,362.87,Single-ply,SBD,F
Girls,100.02,5,Monica Vera,Hebbronville,97.52,156.49,70.31,129.27,356.07,Single-ply,SBD,F
Girls,100.02,6,Nayeli Gutierrez,George West,94.53,104.33,43.09,113.4,260.82,Single-ply,SBD,F
Girls,100.02,7,Alejandra Herrera,Laredo Nixon,91.72,90.72,45.36,106.59,242.67,Single-ply,SBD,F
Girls,100.02,NS,Deborah Lugo,Laredo United South,,,,,,Single-ply,SBD,F
Girls,100.02,DQ,Alyssa Echebarria,Robstown,95.07,102.06,,,,Single-ply,SBD,F
Girls,100.02,DQ,Bernadet Davila,Laredo Martin,96.25,,,,,Single-ply,SBD,F
Girls,100.02+,1,Claudia Avila,Hebbronville,131.09,226.8,83.91,151.95,462.66,Single-ply,SBD,F
Girls,100.02+,2,Karina Davalos,Laredo Nixon,107.05,163.29,77.11,163.29,403.7,Single-ply,SBD,F
Girls,100.02+,3,Idalis Ramirez,Laredo Johnson,108.05,142.88,63.5,149.69,356.07,Single-ply,SBD,F
Girls,100.02+,4,Chelsea Cantu,Freer,109.59,133.81,61.23,145.15,340.19,Single-ply,SBD,F
Girls,100.02+,5,Lizzy Galvan,Robstown,102.42,136.08,49.9,136.08,322.05,Single-ply,SBD,F
Girls,100.02+,6,Mazzie Villarreal,George West,109.41,142.88,56.7,117.93,317.51,Single-ply,SBD,F
Girls,100.02+,7,Lacey Ferrand,Agua Dulce,145.15,113.4,61.23,136.08,310.71,Single-ply,SBD,F
Girls,100.02+,NS,Clarissa Hinojosa,Odem,,,,,,Single-ply,SBD,F
Girls,100.02+,DQ,Avery Rios,Riviera Kaufer,101.38,,,,,Single-ply,SBD,F
